<?xml version="1.0" encoding="UTF-8" standalone="no"?>
<!-- Created with Inkscape (http://www.inkscape.org/) -->

<svg
   xmlns:dc="http://purl.org/dc/elements/1.1/"
   xmlns:cc="http://creativecommons.org/ns#"
   xmlns:rdf="http://www.w3.org/1999/02/22-rdf-syntax-ns#"
   xmlns:svg="http://www.w3.org/2000/svg"
   xmlns="http://www.w3.org/2000/svg"
   xmlns:xlink="http://www.w3.org/1999/xlink"
   xmlns:sodipodi="http://sodipodi.sourceforge.net/DTD/sodipodi-0.dtd"
   xmlns:inkscape="http://www.inkscape.org/namespaces/inkscape"
   version="1.1"
   id="svg2"
   width="32"
   height="32"
   viewBox="0 0 32.000001 32.000001"
   sodipodi:docname="folder-text.svg"
   inkscape:version="0.92.1 r15371">
  <metadata
     id="metadata8">
    <rdf:RDF>
      <cc:Work
         rdf:about="">
        <dc:format>image/svg+xml</dc:format>
        <dc:type
           rdf:resource="http://purl.org/dc/dcmitype/StillImage" />
        <dc:title></dc:title>
      </cc:Work>
    </rdf:RDF>
  </metadata>
  <defs
     id="defs6" />
  <sodipodi:namedview
     pagecolor="#ffffff"
     bordercolor="#666666"
     borderopacity="1"
     objecttolerance="10"
     gridtolerance="10"
     guidetolerance="10"
     inkscape:pageopacity="0"
     inkscape:pageshadow="2"
     inkscape:window-width="640"
     inkscape:window-height="480"
     id="namedview4"
     showgrid="false"
     inkscape:current-layer="svg2" />
  <image
     width="32"
     height="32"
     preserveAspectRatio="none"
     xlink:href="data:image/png;base64,iVBORw0KGgoAAAANSUhEUgAAAIAAAACACAYAAADDPmHLAAAAAXNSR0IArs4c6QAAAAZiS0dEAP8A /wD/oL2nkwAAAAlwSFlzAAAN1wAADdcBQiibeAAAAAd0SU1FB+EDHgwbAqiIaykAACAASURBVHja 7X1dj6xJctYTke9bVX26+3zP7Mx42V0wBtkYsch8SFjIl8ANXHKHhISQ+AlccMc1d/4D/AOExAUy QoBkQFphBEYI24jF1toez65n5pyZ091VlRFcZERmZFZVd/XHOXts9oxq+qM+uurNyIgnnngikvCw /+iI+/WIx/3/+E/D9bnPYx50we77WvSW/+YfRyN4iN+/cwOor/P8Z//WI55WJ8gb/dFv/fsvdf3q J7v/Hl7g5c//nedQpe3l6y+/+N//9uohF/8hDCA+n1bPvkWXn/82ffTdv/tzr37w33/ryXd+4V8Q +BdURfUdX0m6w3aht7XN7vze6bPf+94///Pnn3x3Xr386T+bNxe//Yf/8199Pryte4UFeoD3SX47 /fBn56ff+Sv/mNL8T4ioviuFguQne//W7kDVbhmSt/96e/XqH/7w1//lD+pl7Y3gTv+m++76eFuc vzhJ0/yM0wwwgZSgUEAVSPf4M/T+x5DexekDvaZARSBCgOpEwLzn48dLom/bAA4tPgNg5rTkaT5L 0xLIawAZIAYRgchXkQAiEAhEsO/Ly5HdB8Tf2XP8t2SG4M+rj+9Nwx+rR7m6way0eK2dx6htu261 i4EryL4qAAGUoCptVew5qlJfpzweAAQq5is1vqZCGWAibIUusL0ilK2k5eLuWNytQ8F0TyOtiw8g pWnxaErzizTNyJpVFcR10driAuVDYVxEX2xFNZL63Gpy5X67Nyxd+79S+z3VS1KMRKsFxSs2XDcC SMmDV/srpM24zBCIAFWqf5cAQBlKAFMqxqJq71sBYnu14L2Vwhs1Q2OApP5uS4knntKZrZkvfr6v 25nusfs5fE0AZmZ+zCl9xClBt0SqNCwkl+sQvQGaIRQPEHZ83Pn2c3nJBj/8KfXlbNs3W7OF0+hZ 7F1r/VPo3AXUFrMZY9ma/r61/R4K4rKb3cTKn9TBr1STBJFAlftQTmqGJGaVDCUBFf+gE/NLmRYf APg/9kJbe7IMi38rL3BXDEDD4k8AJk7plBO/KAvJILIr7Itvq8Tmwjm6/LCQiCHDjaZbcGqOAkOI AGxB4qVggPdcmfg3VQFuu53cQ9hiqy+2ewb2RW4GpvX+4DtIQeYFtBpGApFCpXksf10QmSEUbwFV sKqC8JI5PUPBAQgL/04wAB1w/SkYwKyqpwR+Uj11XUiqu5OIQMx9jAeF3Y4OCyA4BTIfqxE3VJuh tlk7/NDvCwpGo7arCVqfXz1BfWCJywTbodXLKJQJrBbD3Q5AUAiYuIQIJSip3enGpfW9CgisWh5T XZOHBjHDIyLmJ0R4YgaggwHoXb3AdI/djxD/JwAzFI9AfOYxuu5ku/EQrcvFtN1pi9sBxgEDEJvn cByB4OYdV/gu5B4b6JhUkBuLhSjV3koq7iMwWdQmhNhPNY4r2JyAmqGyh/vyuurGSYBo26oEsEOA EGocGhKxGWNmKJ1B9dQMINvGE7vRXb3AfUJAXHzzAHlFRMsaB4kHkFd2v6p2vyuLa/dbeAAVN1x3 nBkDD+7eV7OCKkqda9fg6h02KjWv0Vw9QfyVHbGH5zk67+K6P8DBYP2vGI1qdV0W5gnKClEpC9/h EweLAJsXKcYpIGICNInkFYCFGYDfOBjBW08D96H/CgIBWlWE68BOGcRm/Y7emewi+Tbg6viap7Bd bF6Cadi+FRj677l6kQi7OOAvYupzpujqVcF1Pdu1JA8BFMIAK1QKDkAND+5L7PHmvsv3xeiUymPY jU7UNkO5nyuOKO9BNAOUkADKW4GILmzNPPTysPtx2zAw3SH+j/cFEDg/byDb3L4j9wrE+vRvHxBU /37wEjU9q89voaQsTP+x3ehqOBg8fGcsDk4ruG9exX9WCowm22L7Y0lDXg8QpfJaYvjAQpP5hxIZ uPAFpFKxgjuEssMSoIpctwc9CR53NIA78WPHGIAeIIA4vIHEabHgafVBT8RwSNsiqePuvl9oDwXu rH33U8UBxYU299/SR+reIXXgjzzHrj49fCSNub22/0fXHMKIcjQ6rbvbX54NKxSPAAt5RgDRCNi5 ZZiqFXNQdf9GCTBTZoam9JTnk5VsLq6G63+nFPAuPADtAYMJAPO8WvC8/KBGZ+YKAIl6UFiRfkF/ gSsIC9oRSO5TtAAj7HIBGLOBivRDqkhxi8NXrLdzDVex7nxz477TMRhbyCYU5bGgYUsSm3tvGYCB DgCe81MIXA0KEimYCAR+PC/PTq42F68HA+BACr11HmCfF2CeFotpXn3DFlvJWZ1xpxOFBaa2sMw7 u3p8/j5OoBpc8OsUUDUF0qaxdXZxx9BSswUFWYD3xW98hlHB1SgKV+Ag0bOBSv1WHiBykWYEjAYU pXimnpnUiu+IeJum+em0PD29+uqzNCx+XJO3mgUc8gKcpuWC0+LDsljOow38PrWd34eDsKstFqM+ r+3gyAxSRxHTsNs6dGiFKe1TyggHteWUjdxpuWOJ9RoIwEAYkT1eNLCEFEhmavWBjnouIJGsBgDm kveDOg8i5g2IkKd5+cG0Oj0dFh5vGwPcVArmgnmmmaf5eeT9yXPZyt5RKw7VRUVHB1ej4EAQaaCJ QSEs9GBw2NTQjvql4Ol7V9ulBAEotqSiBuoWwQNEIH991f71Kugr18GJp/K7BKjU5xUjY9vwuRkf UXkcEVKan6dpeTLs/nsVR6d7Ln4lhJjTxJwexx3Xu/yWhnXArzMOMu5Am1HEimFXI6Cw2APfT7qD DeLjKvlTAV/0BpFB1C6jUK1lvPq+vTJYU72aEbS9Dvs9CFCRkhmp1BhQH6kKsEKV6+uRGSoTk6b0 hNO0fMiK+ENUAy1kp4konbdf9Duf/WfiUN+n4PbDgiM+t4E5Zm4pH/VpobtRCoCOQopHoY4T6/dM Vj10ttY5/mrAZjD+POMAYsEH8flONpnj7126QJ0IA1fix/0CEVkkYcBSxIp4KDEonRLxNHAw9C5D AB2kg4kIzMtI55Ln+fC8edzxzhaGnwfm0Hcfh9SOw2s1GJAKiNK+7NzVF4JvJ9YOLnFbj/a/mgFG etiIICe7atVPQ0gosVwr0VNSO1EOC63B0LSqf7xQpgYbyCtG5YKySWvowFrQbcmgh8gCPGhPBnCD AUTw1owCkd0jHip8bjT+fAdB3Lt8d/uBI4g4AWOJOF4f7or3O26/Ur8V3Ue/os3jKBqqJ6eQC9FT /o5hAlEoOCR3jk5y8W4SbY5s0bk8Xyx9ZGYrKqYbFv1W0qTpnu6/GsO8Oj9vNQAKN95l9aJn8JTQ QB93nMEA+hwfeGoIanV76qr9xgdobywamcayaFCt5eOK+VXBXL76fU7stCtrr18FIVoxf7zulTyS JiiplWdwwXykIXWUHpzatykloxPmsxt2/lvhAWjPH0HY/TydPHnZUj/ujACx4BOrhMP3TIMSaCd9 3A0NXWmoKy1bDFcKbr/QrcX7246khto9hlNQ/kSjrnIwDZ6guvCgC1AZtqWX/YItKqDEpRQckxFw xQ9hJZU5ERGB59VT4pRU8oMYwV1qAft4AJqXZx/4hWLqS8GNCOIB8aMLDZ0CiNpz2gLuz/2JenkP hephMz70opFK73r6xrVYU4kiDcRPUwsYKJWA8D1nL8YjkrBfuDvcNKaazbMQaQkDHcGZQMRI0/IZ T8s5r9/QLULB2xWFMk9pXp19wkQgLrwlxZgfFxnof8+7u7wzBgregHbFoj0nMJaIBzGIp3LcCB7U EnFz36pkYFKDsSlk0PZVKzFJV63ycaACPB20dL4rrlQQqW4+EHIBCgXqWcxD0nparD5I88loAHRX NvA+eoAQAojTYvUxEYOYiQOzVzUBTAHIhZyf2i6uYJBphxyq7ABRnyJ2BBANdQJ0mYXGwpEGooh6 7R/VjKCVZ2uF0zyNVAqYAhUsUHUtABm1q5BA5pSfCzCsMjGvFYg22lm5ZBvmnYwuz/Pi0SdpWszX hOR3JgoNHABTmpYfEAHJ3HwBddyne4Or56E6yES1nwAxd3eMwFZWpl763UnDmHZ4wFE97EodHUrE ne6z8gbUBJsu+vB0LRaAKttXKn9RR0qe2yczJlEIm+ClQQMIG+upCmHtjRQEZtZpsfgwGADvit5+ DCHAmMBnvsjgWO41DWBw/woKuXwPFjm4/AYGo+cYdn+lA7iLp15f6FnALp0PhVlbmNQkXzWHUrTy jAIMLbvfdfvu5gNhVJXgkNITwwoVB3cCTslqBw39q2iBf1Y15MIcdFkFc2JK8zNK03SABKK3bQDY S0IQMXE6N064pmjd4ofdztSKQTwUh3ot4Uga9XGedsrIA8zr0Dx1hA51tX4aOisUQGwOoVb1A5As VlMgcTx9LEUj9vVtGj/W5gk8Q4G0ngFubGIrXzBUpPoYYmYiPmumen9K+KF4AFbwie9wZq6LGDOC vgg0ZApxsavxUCcF78DijpqYMGDAQCk72qcq1R7dAe0R1TrP0CjCxhD6SzQMYM7aYr3vY1f3Nl5C LVuQGutxqHXWa8b+fmjiUjEiGjwA39UL3BcEcjHUxEQ0qVntvsXfSQuZhpSwDxulpsQ9wKMhgwjG 1LeGUQVcY6VQq1yt5QE71C+13h0KbF/b5S2jKEsjgTPg0AnkmQA3USlJAXpW/vUE0r/qgXirADgl lhJ20jXl+XdWC6hChMWjZ6cV9TP3BFAUgEQpGHqmsIWDwWDqrncmEDutZkQNAzB1wvP+SqppFCNT NwreNLSDKULVzwUfWgmhmhEqd6yg1ucOeb9JxsVDR2X8GGOTm5ivAAFkarJpmovtzKvTQQjyVkPA da6FAdDq/BsvtCHVXRaw0wFyQfPBU/TsYJCIuwcITR4dvxAbQ2tFEX3X4KAEU1DwAL1390bNruJY d+7QOlA9gFaBR59SNITv3kcCT1CV8RIvNJsPUJODE0SqNEA5TUREmFbnL3ZqMfvTwnvXAqJy4iAQ XJy9+ISIwcwGAhFq++UTs+kEGAMj2O3wsjg7mkAEFjD0G/Q1gj5L6OResdWrrxKF1q+C8FVTYwKh tUBTijpBsOWW425AvYlDKqbQ8LfcWAAFV8m4gqhg/V4xVMKUaCdlpFTK6jovzz60nJNu2KQPXg3c V4ak5cmTbzIRUkqmBQxq3sjbh8JQ28WNAGKmvmG0k4gFLmHI/2PrOUUVT6cT1J4ZaqtT6gNhL8di UhVseIsXXL7d7lc0TQGU+8WPK+GPCZ1IGlrba2+AZIglgmNZjwiXi0fnHxNPrHmD+6qC7qsKRqkE PvopKru/QK9QDq7unQfOn/piDnNqnT+2q9k6d9R+H/kAoqbHq8SSCUtJB12glvyaRpVQl/vZoglV Yag53rIjVWuJWETqgooCLMUoSut/AXp17Soj1KI7OEEl1wY3ghS2UEqwV06gnEOXqzRlUErbxfL0 W0TMuhsC6G1lATTE/U4PmOblR4UNSrt8PxESc2XygFjkse+7sEFduZe4KYFaaTikjTVljHKu3v3H rhAapYEx+6eYDHhoCKIOi+kpsa2VFtqXXTns+oRkJJHUrKFWem1REzNEQq3BFEjiCiJOUM0hIS3X MKWEebH6hIjSgbj/1qqBh7hn5jS/YC4L3fP4NHT3BE+APkOg4CVi+Ojp4749HEFlzACUW6evE0G0 hyirgt9Ycw2YQJtOJHT8aufHE2sxgs79U63iCQW5t7l54aYsdjZUpMwKINLS9CKlFiGqYOHemwDg NDOl6QUR8wEO4K3zANhVA6XHBetxv0gcQgHv5vrEXFO4tvgmCqnUMA9EEXZ7DbxxFEPFkHnP9qBK tdYegKDLa8V56pQ+XtWLi80sVczp/Tz+YsyAqKl6VDu5iCuASRRMDCGpNQCXgzHIMCcXYGlGmThN IF42f/VuZeG0/0arJtoc+f0+3YuLz4EFZOzTEPR4gYkOLr6LP4i1Ub+xmNR1f7vBoE7qKGxe6VRi y/s1cgFRv1f1mtwmg5CCxVU+WrMU7/Nt1X5vJ9e6jUjKIitZoy8VF9KpGi0ccZpYBRO1qhe9KxB4 0CCUaAUAiaducerujwbATTHk5E8tAQ8uv6eRvRLY0kaPi25nxWez9W7GEDA0DLSu7lBGbhKx6iHM 9/Z4jqqLhjWLqu3gOnamLrNWQliIC8gbqJ/C9qqVf30iWLfu1lZevqZpkaRMDzvUGfROmUDitJiL JBfgxABT3/HTuWzqqOKOKAoL7lxC9CLcoX/sys2qETVtYa+PaPJx78TliNDN9VZhiKJ28SbYyDZP 3zR4CQefvteJwGIOWrweoWA1XUDD/d7uGkSnoRM6qJSVyaKAYpoWJKKYT56c5M0FX6PWfiuawB1J +OmLb71wBJ9SCmldI2U8ppMViXin/BuYPx68xUDuRLBInT4QnTK4Lw4xBplwnTKCSPOSF/Bac4mH AlIjZszd1zKxlP1cRB7sNWPLXYu0y8E+M9dxcJ7lc2X/pHowlw5VLTK1kXfTNIMALM5evrx89fu/ e2DRj54YMt1CC7jXIE6efPwxE4NNs+YXcieWcxj8MKJ7z/G5l4qzj1Tz5yuAxF1VkLrOYepbzamv BTSZV39t3HhqRc8EIM73l3tL34GKAT4SkHEGDhS9X6Ckd9J0gp04VEBSev7Z9AI+/0hCCqsiRhV3 +EV5SgTm7fL02ccAfv2Gnf9WZOE9C3j+4ttEhGlOYVATh8odt90dDSIYAkcRSagEUqgLsHsH5xOo p4yZTIjpz6M+7evmw9WooLUPvJZmvIbvTZ/150IGIRVkwCbzVhJv7a+pZWJCtm3fqBw0ZMAAiwUB e11xN2+aRQYVQyKuCiOwEkjBhDfL02ffweFm3aPp4NvyADu3xersEyJCSlMv4sSoBkafAtKwsOSy cFv80Rg6UMl9/8HQPt5NIQkUcajkBL0WhQpgoxEd9Xe6Ecd6ai1iRMXtx6ECWsp3zKmKOcgAoTQ4 adckA0yFByiUos3+MkNm8wTeo6BFKDpNc16enH17b4POLXHAXWXhgQU8+YgISGnqKd6xMYR5qPeb R2B0+T6PWQAPRFFnQMG4eF/DKPoWMg2gsZvw2Vq82JXDFFJBsVTOixKiVrmDCTcNvZMYeKMK3tia Skr3DzU6mDz+o6V+QX/ofY/sw6vUZevANE2YFqtv7ln8TkryEAYQq4H7So7EafqgIPc0SLl9HmDk ANAh+DHNw55FrjUBalPCeoAYvELwQBwWvsZ+oq70qqSxFFBFHUzU1fs1EZKW6V4F6xXlT+0IFy6k kDoHwN08MVEuCiBr+1KyeO9aZ58PZL6CWIE6W8goaFbrFQTSNE+c5g9uaNg5aoz8/YkgTo/VW5eC 6+cQi3txZ/EKPABBGmRho65gZ9d3XwdRSP17QSmsvLMnaGdAdCsKETWAVlG8pXRF1d1au4VCuidt mJwjfWKAhSEQqCt/qY6LgjCBtej/yHsSmQrItGvIZiRKAKdFAvjsGg7gwUPAIdqRAT4BFJxS754H /R5jjwvnsX+Qq2foHoNGJxe1uWcJw1whavl/N3vYikqtVZuCYof6MS8WbxWpjHGrhE6c5dfKxwq1 3U8QFZva56P7QpI39C4WsCqh9Vx7RhP9+yxUdPmrKS2mXNqP7hX/H4QIArBUKSxgLcYT9vQCNLKG KYSCUdsX6wc7reY+cLqfOcTdsOl++kgUh3RjaAPwqxyCLYQ4s2/GV1q5jQzSNtHDw760thVoXX/v BS7G4F5AIchW+XPRRykCufuXRiCFyWKVHlBgWsxJRNOPkwquRqCKSQ2YdCVaHkbF8tDiFauDkSsI qaNrBOPMQWLuMw0eNYYRDwxdQh0lTN0k7zCmv3buen0/WawX4aoAFrW0zQadFZBnkz0M3aMCewpD yNjukjYP0Qo+bUIpgzR3c4pqHYGAOS1YxIOL0n00AXf1AFykYC/PnAZOaYpzDPaodrkBuEr5UvAK qXUH+31DCbmOnqvsYj9vKOoGXElUUX4Yt1LdfxAHePwXI2dK4b+lg6U1qzSFCriEhaDld6q/zvmP AiQfRyfWWOKDpOtA1GJQLgFnWGFIXUUcppyoYrFakari5Nk3X1x8/juvb9AFvhUqGABoefr8rFSB h06doZkzdgHVGQ0U5wW1cbIu7hjB3wgKuwyCCQzuBktR2OUcd/zgEbTm/kbiaCGUJKiE1IwIKmW3 amP7DJKE4dBlwqd0DR0FSVZU7xVL0dopVUJE6TqqNQEyYVgNEbFuoNt59fjxxT27g6YjW8D2EkKL kydPTQiqxKEvh1oxtA2ERCcFjyphCiNkQRSqfO4duCeOKq+AMI+gbzAdZwxVjiBgqzgwgsNpIgqb IeB139rm09o9YO1eEmTfBEsTqRg9hOrwaKFA/TrfwI782+kkHusZhGzl4drHUg+oSGDm7Xxy9vRI 138wHbxXGnjy5MNvMRNP00wYx7c21FX63dGoYEZPE7M2KpgD4geNwyZ4YBZ5t7Dku2mcMhKPFaHG 5lXpX2wH1zajj9zVA00B5PiebYaPNXy6iIO6MbDSlEbhFBC1odFOB9fmU+splGqwFMBqA67zlNYn 5y/+FIBfvWsKeCwRdCjPpMXq7GMC0zQtgrKqp3kJUR2EPUjfFw9dYSh0GPbFI24hYKwKduEDvLP4 8aSRsWKoUKjEzsDQ+qVlNkCiQs6Iy7xIwNkXsXH2RKUWUNvbqlzMSCbRSk4R289M0Iw6uoa0KYXj YRZevpjnpS5PHn/nmlT97cvCp/nkQxBomtJAq1AnuAyn5YSsYFcFhGhAPGYGg7iEaacNrdUJtP68 UyKO4yNrzd52VmpVQIXWSW1qaF4t2DMLRAo5I1zGvIigtqhV5o/KIBrRXD1TGRhFbaxMeD9M1nlM TYKOeDhF0IbPiyVvFic/hcPK4KOygemWu7/jAShNL6CgaZoqA8dRtzdqAQfFL7o2gH0C0H7SWASA THuURxxYSO4FJIEe6sq/ym3go5Ox4rUBNh4fUg56cGbOgBzEuD5PHWO9X0vcR3ccTdscLQVsuAPG /lHoPKphxUOB6RgLHZxeHlEOvnc1UA/SwJTOQQS2FNAacCsxM072BA2HSQTlnGcGfb3A5V2oqaG7 fsSxs3uKSK3NLLRjx3FwiuaegbrrVUzU7XUAUZvXW9xzKQNQpWx9GIYGiXexjcbdE/khEYXiFWmS Y4oqpSr+0ApWJZJWfl0V4LRkETp9230BdF0WIKAT1UID98Ohh1o8WhGnaQJKGTgubl9Aimwhd3Iy jgwg97RzzRg4ZgHcScnjG9Oh108tDNQpD+bi1cga8XjOrf8P4voFQbauX5Ly2ZwC9pPBtBp36zKq EnYNHgZh7K22qee+G9M0T1lkicMDI+mhMMDB0TAKWqgIzWluR8QB4dAmR/aRmRtz8SoiC8fGoE8V edAAElsm4cLEYjiJ9lQJ0ZeiY8zVUMfX2vVL5bjWKhuOvtR2N9Uyjw119HOIfPeH9q94JBzbdHBq B1XR0Lq+c6CVaidqcfHJPC15m/P0LjuDdm4EmkSBNE1mpc7Yocu/K+vWFYlCoYj7YVBjLaCkVLwz eDqSQzzOHgiP5VGcinhWn194qVMAlK1XX0pOLt4aRkX7RyxgsWf4QCeSQCrZ7vfUrhZ5mu7fD8EM bFRoSqG+pYz6VJUAnZdLylnuXQvgu9YCptX5iggTEQoGoMZXm1Cus2YKwxw7P9UG+A1oPWIDGJfQ 8EAcJulun0N10YEiW7dSIayo3aybmexnYtMkhvtrtsGNeOL4N119bB6KgX4WAvprgGHKuYem8QRV DBlTf2BtecY8LwAolmcfnONwqzjdxQDomCrg2cs/+RGI52maWlMmBaQa1EHaHeQ8TAZBSNViRa96 +1EBTF19gYbGU464Iixy/ZkYRGkwBEIKz2uZBneEFYKu0RcdRDvGXTMP7inobnXiTOvIktcPruHC E/rSVTHoRHR5+vyb37xGtqc3EUR8B9cPAHRy/sHHxDxN06KP5S4Fx3iWd1tIpfjReqIjkHXDTrcL xdjDC2CHJyipYFjkZIuc7MYETmwLT06v1ud1NLSDUCCUpWlv6tqPu2EntXthqqJrQ6cBMrdTy9CN ywP1hjDP83p1/sG3rsEA9FAYYMcYFo/OP0rE0zTPnWisH8MWpndRP6ptnOZHGtI7YEfvHwrNtrto VyvgaJ+pTxuJwvkFAwhlH9VeSrXCWuK7t+SxdfELwrlDjZqlMIaI7ShYleF4mCo0pQCWfaRcf1JZ PJamNqJ01ez2mHm54OWj829j/wli91YF0zVNoZzm05fglKZp3n0KjYejxe+Dz8NABGF3LJzPXaIw N6BDCWN6yYEoirMJuk6jru/K6vtq6ZwJQiScQ2GvI2FiWDscog2JpjCupo6AreVhraGutpIRwmki 7ayD8nJSO4sRjEPC5PN5Ppm2y0ef3JUFPLYauLcWkObFM2JK07zoaNYqcQrcf02hIjkVNXs+pDEa TigQ+VNs/ETnHSgeAENtBmGHCdA4hzETQDj7R2BNmQQwK5CtL6Ml9MXLeLdvAKTeIBLEY+VvCWqP IdA6i+Pw6XGOcGxKdbKhcAhNvQwAabGaeFo8v09vAN8BANohUYtzThOnwQPUXab7j7PW7q9Q65Ad /iRzPA94PP1j5AVQC0rhAZYmcocbEiekZPOMqOCABhAHgMltV/vLMulwwHWL6QG7daebqobpZmH+ YU3/hitfMZF6qkrdYYaOA0r8TWMWcKtGUb6tCAQA/fRf+3v/YPHoyS8xz6S6O6ko7o5IpIAw4Nn+ vKaGpLUVaKLnH6EzwtTtcPRsSEJ6GplTAIUcFr+FiEQRzFBnUNUUwoJ3J8x1p5vtAuPxPCPnCBr7 p2FhhtkGdZyZhoLQaqJp9ad/5q///X96YPffOD/o2Cwgvhgp8RKUiDhhmhYVptaLU5lU7aZ3doc6 xN68MW2tZElQGelIIMYeatqdJYwh3xpqCREgmotoWoEOwFIrckRGBklJPwAAFS1JREFUbji2rvs9 7enLpFGT6M9vI6eVKEAKHY4+ip/Jzo5JSzb2cnFXdfBtmUAPAScqQqrA+ctv4vzsDFebTdEFsos0 Uq8ANoCWaCBfkOouTYnx+OwcsMcxA6vlCilNlrqVJtTk31d3bikeo94SFDyVXtI0lfeRGOW5U4Ec W1FIBrYCyBbY5lLWzQJILl+zs4GiyFmwzYLN5hLrq8tSKFKb6EWFDRXJyCqQLBDJWG9yeYwqJJfz AF9ffI20zdhqBmeB5NI+7uaSVTEBUHueZkUWgcgW201G3qyxSoINA/J7iqxYYM8Az2Mygtv2BZQi kMgq5y2SZL26uiLmhGm+76yJn/y7zb83VxvdrEGSFZLzErtnCT+IHmDfjS9f/+g30+L8zWa7ffT9 3/g1rE4fY3lygpTmpvwJMXmc8UPuBaIs29QyJycn3R9fLJeY02QxOxUQx9wfHxOBoXHHhD3VwsAv qCq2OVtjB3fjYL0nsJSDxcrEqNPA6+hOC3M2sQNZtJ4XoAqIZlytN6W4lItnUFFcXF1BJJff5QwR 7zp15pJrw4pAoVkgIsh5i+1mjavLC1x+/YquLr7GRMjry69+54YM4NYY4LqGUN7m/OT1689XP9mH 74En+Pp1yjk/sUSabygPX+sB6EgvwKL0je3VBf/tv/U3t4+fPg0nKusoyyY7SXzo2OlGvxfqg3zG aHm8e4qchcQ0tTuDJrGrLRxnFAHoRCJKDZdExYuX//0bPxnEd3ljC9shj62MrG2ugN+MEUmJNL4O oPYLo6C0nj9Iqm3yaLmrAEERbROJRfxz6XazwS//8j+bEuQJ+tNE+RpdQIcDbiMK5YYBtqS6xR98 9tn05vKqMm5Vo8e7AyDaFHHe2w9Y5VxhiJQPlNpR+zjQ9GpeKB7VHgTs9hUwt9fy6iBQLrColAtt 32vV/tvAxyocLayhu/ryHCnP70KGQlQI/nh/nVx6gvxU0TpMUvufIVKAoxtFvA/l76w3G2OQMvbE /qMqvdMNi449L8oQJUzAD3/0Q3z95sIWK7W2Ll+4uuipI1y6BfTZQmFhvdWcveZvRZouhw+VvsTJ Mrny2MRtwZPl/mrHsiAla+Swnn6QxfByf865GkND88UocpayCGL3Z8sC7PmSpRlSfa6YwYTvzWiy 5GZEqmVGsC22ZIGq318yAjeaMlyy4AciwsRpPgAA97n+o7IAulYNZFM7fvjZZ1iuvq7zfeqi+4Il mx3ki5GcmUt1qiinhEQJnIqhpOR1eUvxiJHYASDV53LyBWaklOrfa48tFcCJxR6bkJLRS2LvBU0P mO2iiwiy3TQLtpIhWQqAszSwALKygCLtZxGBSrb0cmveIVsKZ8/XbKDOvE4u92s1sGyPNWNwQzEv o/Z+VAXb7RbTxIBinh89O928+fyrI9D/0SGADmkBio6D8MWXX2J+c2k5/WRMG1tp1fP1ZLsygVMK +XtqbjnZ4+0+TraonDCl/vEp/DxZZsApY+KElBPyxEgikJSQlKGp9PNMHqNT4Qt8EITH8Wy7M0su i1vSq/CzINvPIoLtNtfFy5bz55zD91IRfs5uBBkiGdtsC1wXtz3PjUllWw0i5xw8ihvdFpKz1T50 sTh58mTz5vM/uKEmcG8iqKv1MfWnerXGDwyFl90TRLBXJr47TUQDwdzVydEaOv1nISldRkAXV8uI FwmNIGLj/xtVLe5aLRSgxmb0B0TGEi7tJktxMlk/Kr/VMJkImWKxbBx4BWTySSElnJW+Ax2GZNQi U+I0rwYAeFQaeNtp4Z1lOfWr2DeqWhul2bTX9QweBzbtVA3tLnRF5D6GQX2Qo7ZJHg7GBBBSJG2x XqmAuFLe9Rld2Tp4TPvfZQEl13dP0OKyx33tjErCZ8ghn+9Cg3mEbt5Q97n6yKyxgqYauAYcPFhK wynmN9Rw7tUadsCtaBdQ6nINvD0Nb5iDCrdtsT71aruYIEJ2hErzChqIElKxCVpaiRn/OZtEW2IB KfQXItQt1IZBOZjLAYl3RmH9AlVJDGkgTwq49A4j/xzRwHXIPXU4cVyjx0E0Ft29pnWwwd06hO8i Cx/2ufmc7kPGFdd2PErnTu3hrOGgRUW7HFoHJSznMrIFYafWOf4xTRJFtoMYyVI4IjV1j5RhL5ot 9GhtUdeY1lkqV9I6R+7mBaAVpVdPo40lLL5YMXHG1dqOhTEtQOMH2uev3ICOS+2nkI97PRqd9r0/ h3f/vQxA94cBaUqKunph7k4lSQRKKVQFG2lSlfl23HodjtvtDALpBs+XF3i1eYK1ciBmUHNjUZva pUV373N4G83MSOxdSVxLzhoukZMt1ROIpXuqBsr25O5dPl9+XvAWj+cv8ftXJ1DMgdhplLdfm2AK 1ooejUH764EBi3TiQiKblHk0+r9LCNhvHcMpG8Z1tXq+zdlTapM2yswdxwAthrX52k0fT7rBSl/h 5NmH+N0vYdO040KkmtPncIq3iNqkLzauvZzoqRx1CW1Em7vdkmKFnZ5bWBEzDBEPCxLODSKkBHzj yRL6+hVIJigtwlKNpE6I353zDEwkgg20q1KHSdaTTEReffXpb/72NTT+vfsC9r4o+U6Q8AmiS1R0 AKVSphVAtXgnDrY6VgygzStMWOMXf/4ZThYUqFetZVoRQ/o1BjfixnNwT8O2eYu83VaAtg0pW956 uqYN0GnuXrMnc7Qxf6o4WRB+8eefYcIatHnVikWWVbQtIoFObt4D0vBPxEZWWaoZSMCIJiqhxXzy +NEBzHbteh5bDdxjNxTm6mmdfRewaY3pJc2SMn4lxDAKiJ+iQYSLw+vPkHTG88cTri63ZWKmGZXA T9pgiErd+TFb9fEuhQ1s6ZZQHtJJO7czVPh8p2swCM8IIl3s7/nqMuP54wlJ1+D119Dpo7DIqF9F tN/pGpG8dgA5IKIe+Qc3zMTT4uTp+ebi1ad4y0OidryBh31Rb4vWNvdOI9ptH4OGXe6u3I/iiLuD tq8BPAMA/Oj1BstFQhIBb500UjBrifGsRibBKOUywTu2lPfj43o+wRepOBSpNG2ldq3kKwMDmPMG OQterXPLjravu88hdaNoHQccC02CljGonVAqGt+XYyUNWMKfIxOnxfIuofx+Kg4djkatCluttfMu 9w1YIAInP5QpYoOSy0v3GX7pL7zAPKc6YJr3nEXI4yDpSMYESVZUbemYtYSvfUjaf/O0cbPJ3bUW EdhZ89VbiIM9A9ItRXTSKnjAQFVHfkTt+XUMldaxVofKv/pQBkBjYkLmOpMzZH64cohvTA3aUWe5 bbHNjdj4dbJc3sKHZFxeXOJv/OWXWKyWdv7vkbnLTgbd8XZ7jngcPyzduI/ImMT15RX+4LPPIZLD 57MhT/459xhQn/lYaCE0VnK8Vmqy+ZFXuAOQv6cHKIvP8aBkm6apdkhyanXwhtxRjkvjZF00TO1A ZVGIHbHihpK3Ga9evUKaElarFaZ5QuKEzXbT7ZTb/HPad5qmTrx6q91AhClNEBVsN1tcXl7i1atX yNu8k/u7t5MaEgrfgJBNCKReK3LQ6YDRHS61tGHPZ39nx8Z1qN6BDAmgKWIDY+XAxbUlVG4ejCFM aD2IiZ2CLSco4PLqEp9++ikA4OTRCRaLBVJKWK/XwUWOunrduyt8EETOGdvtFsvlsvv9oYXe9zcA YJ5niAjW6zUu3lzg008/xeXVZc1sfLSYqClNY+iI9X4LF05tRx7AM4QYKjS22u7MXHhHBtDereXS du5Ndf8U8n0qhA2DkFWRCoFfj2JN5B/cDl9KDEjG/Og5vnz1Kf7Dr34P3/1zfwZPnj3FcrnC6mSJ i4s3hWvfQaV7XCL19+fNFlvJxQBUsdPPtk9DM1xjZsbJ6gRXV2tcXV3iy8+/wH/9H7+B5ZwwP/oG dJMbNnKaWVvtH1F11BPi3cYaFUoVT8UBFHecEDDd1fX7YKOY7zcWUOp4NTXrJ02Fjk02iNkmYoto nbVf+glCEYYyeHGGLBu8+eoz/Jdf/y0QERYTYzETMmZsN9vaPwhC1+TRAcA6hKJkBfM0YbVgvLnY IMehkBbPVeL8YOlSRW/jSlPCxIr1eov1trjqyzUwnz5HWpxBrnLhSsADdRyYTLS470qgkhXlrpbg TKFT0q0SOpyO8m49gM9IFCvwcMvrq3H4Ts9QSnYQQmrVOj9owYCTj10Va8+dlo+RRXGx+UO8uVyD AMxTKQZluWrjYKkfDMmdDnFUEBOINnbgA3VxGhUYhmxAxsxA6k704RWbrSHytMCTxVNMy8fQLy2m U67PUReHOKCTVmmEys5Or6lfyAzKffkAUw99JwZAfsF853hoD2keDAcU989gH8kjNimbCzBojJnU Axr81A7RMpp1ozMuLrfYbrfmsYdzBUjDuFndc6Rc35m0lx7XrrWzq0p26WGXIraDJVJKWK4mO1u4 1DeIqDKJRdYlDel3haVWeVRpr6uVJW26QkD2lIj1x+ABIB0vT0p1wrXW07jK2PWSC0uZo2vMnZ+k wKyFCLLQUIYpSiVMgOKyt/Pc9H2qVQpGoUG0H8vCOwtPYUQcMUOy9NXJroiErmRdd2VA+DlvKx7g lDDPU62TRlfeaf+q4QT6GyG2G8NZRaBd1bMJT0UjsXZc2vfABuBcQIj5sdBj7qwodWwwsq1AF/P8 jB0u6Rnb6HWxghAzYbVaGnKnuiPKGQUUDoY6cHDELqyvquBMue120r6ZNVbwgP6rsXfuXZLJ01ar ZRmZo4osdlrYsMvbDpdWVHIvgZAaVkHK4C00lt/rffouPID79a6e7eyfWEm2XaAyTYvY8nvWyoKR lhm5ytqeW4UbhTwCKS43wKN5wun5U6gqrq7WVXGzmBfdaeLdkSv7BkXvM4CUe7oo9O5Hlx8ZuYrQ RbHhLYiAKSXMiwXOHz9FmmdcrtXCoprQU6vIs6mQpcV+7YthCNSxM38REzSDAqC63ly+fv0OQ0C/ E+LRiDUzELVDkaWeyAUVqJDN3BUfsl2IJC3TuVkznBGFAl9fMhYpYTo5w5luMS82yLKFiGCe5rLb qJ1KWv4m1SPeaMjbawpn2kXJupc8HGcItkptq2xKFmy3myJ6TQmLxQLzyWMIFF9dNmAnEqRlttub zKyFBgTPgLFnQCJnEFNDAKo5by6u3hUI1KoH0XZUKttRahA76dpBnAiYyolZrFyNAHCPYLN2q6cw dpELgXK5UXzxJmGaFKePHmNeqRV7BJst1aNqgDD6leJQtX06JpQjWURAaWqTzbT16ms8rxWDEdjX bd6CIYWVlGJUFxvB6y1wtRUjf4K7D2BOgjEghofq0qVqEToAGDIFgwro3+DDYYCh0jPcRy1FIpYq Yapx32I5qKR4KU3lAwhBWeqY1ZICFm8hIqUnQHJJKRPw5opxtc44OyEQyslkiwlQTdgKYbNtAx7A fh4P1ZO5vR2MtM3xLw2eqSAP4XBmIDVZGrUhTvUs4brj3PXOIBIkATa5lHkvN4rXbwQZaHRuAH5+ 2ogrkATNSypyY0UtWxBf9FCprDWDtiyqVZTxsB5A9xnE9vLL/8aL0790eXXxspRkJzBPoMQAtnVA xMnJCSZMNa8uTSJF+UPKELGSLgmUpY5oEx8FLwzojMyEN+uE9VaQ2I6pd3PnOF8PSMNhkhoPrEQw Dkq1EhnlY6LDOUKBkpXKznEgjsqrZltUyYp1brrCvN10GoLGAUgoOQfAJ0GLaA0hF5cXXva1TuMt JG+hpbPoUjaX36/lxX6tbgwJt5kWXg3gqx98798tXn/yg7NP/uI/QpqfQBIrJ6att3uWx1/I9ozT vNKuvBknAgYKtpOXNxHJR598B4vlCleXqTsYqpvhwwfGzIex9HFMfJzVX/FBPCc4aBe6wksAf77o XZHLUzdb7M36Er//g++DOB2QdetwRYZJSaVeIrJ+84cAkfo/yaoiWfJ2c/XVp7+y/vJ3/qNKztd4 7IO6QLqmETSZgSwArACcADgrN3oM6Hn7GSf2mAWA2Z7LT775Cz938vxP/EwpClY5mNKBAubQxkqA bqeT598hpily8Tv8lx5IT2+gSeL+p+vTnv3D+OlQ3dXVxpK3F19835oRdtU84am6B60wEbbrrz7/ 0f/6lX9jO3wLYA3gCsAFgK8BfAXgdbh9BeANgEt73KY0RED2GcgxBjADWAJ4BODUbud2O7OfowFM dmOAEnYbFm4lQn367b/63bQ8fXJEYUrHV9prABo5vjjXcj+hvtdU6bjSW16/efXF9//Tr92kWLgG f7kE1FuAt7agl3b72m5x8b8OBrAeDEDGv38bEOhvwt+Iv5k12nCC+DhG1eAeNb9urzF+8X//8/du ULreeVL2A/27jo/VA19vMoRD134Trvk6fL8Na3Not9/q1LAx7u+zwrU9Py6+35/QT6zgGyTLdM3i 0oHH/rgXHkcu9nVGcNP3Eq5rvPZXwcVHY9gOu/1GIHisB5A9u/4qLHBc/CkYwLFjzK9b5JtGnbxP HmAfAtcjjeG63b9v841GsBk8gRyTFk633P0be846LDCCgUzXGADfgDtwzeIfMgR9TwyArln461yx XuNB5IABbMOuv9xjBNED3GgE054PMn64Mfav0c9/dsOYewBYQ8ChsSXXeYGbbu97CLjpdhMekAMb MIedfhWM4CpgATeCo/7uMSFAwg6nQVwVU5N5wATHnG9PR+z+60IIvYeLvy983uQFrov/+3BA9ALj Le9B/UeHgFENp+GP0x4DyDe4/oTjx5bFmUTYEzb4AC54nzyA7lnAfd/flDGMtzxsxIgH4s2N45D7 P6o5VIfY7hc9D4/JAy44tPM5LOx16Rvv8QyjF8B7GgYOUbByTU1FjgwjMoTiiAeiR9juAYG4DQa4 DtzIHlyQ7A+lId7zkYt3CAccgwXwnhrATRjgGE7gOiOSARPIkP+PGcCNqeB0xOLjgCUHwmdnTi0O LPx1wyhxixTwfUkFj13Em+I/XZMR7PMEozFIAH6yZ9M+WDFoBIc3HVx8zI6lG/iAY4zofcYCN+1+ vaNHkQMe4hhvc/TOOTY/xzVp3rFu+zZs4PtMBB3yBDiSBKIjjEcPgMqbAOadLt5N+foxlO6++3QP CNQjnve+EEDHEEKHFoP2uOh9YYCO8B56JL18ZwPAkYuKG+L8bV//fdztD+EVjlqYI6jiY7AIHtoA buPGH8rjjDvkjwIGuO6svvss/rEGhrdtAG9zZ/5R2eUP6R1+bK/1ti/2H/fF/KNoNN2//wfnycCi 0j6atAAAAABJRU5ErkJggg== "
     id="image10"
     x="0"
     y="0" />
  <image
     width="12"
     height="12"
     preserveAspectRatio="none"
     xlink:href="data:image/png;base64,iVBORw0KGgoAAAANSUhEUgAAAIAAAACACAYAAADDPmHLAAAABGdBTUEAALGPC/xhBQAAAAFzUkdC AK7OHOkAAAAgY0hSTQAAeiYAAICEAAD6AAAAgOgAAHUwAADqYAAAOpgAABdwnLpRPAAAAAZiS0dE AAAAAAAA+UO7fwAAAAlwSFlzAAAASAAAAEgARslrPgAAPgZJREFUeNrtvWmsZdl13/fb+8x3ekO9 V/M8dFV1N7s5D5ZIDbSmJFZi2UrgaAigGIkdSU6CxIYEAabiDxFg5IMNOAZiQQGcCKIogyJFU7ao iCKlJluchya7ye7qZnXNwxvufOazdz7sc84d6r2q6qr3qpt2b+DWrXeHc8/Z67/X+q9pH3hzvDne HG+ON8eb483x5nhzvDneHP9xDfF6/vjX//U/957//J8uFkV+wvW8lWF34xWdq+6BE2fzlaMno7/2 K/94/HpP0H/o45ED4Lu//2vtay9f+4ErL198MhyN35pG6dPReHxAC+EpVYxcxx85fqOvNVfD0fA7 QbPd7Syvdl3Pu7px++YF1/VGR0+fy46cORe97e/+w/D1nsDv9/HIAfAnv/4Df18j/mmeqWYcpyKN c7IkJ0kVaZKTxDkqU6hCkxcKpaVGiAJNVBTF0PWDses3ulpzNRoNLwTN9ubC8krX9ryrG7dvXXBt b3T49GPZ0cfOR+/+e//oTYDcYzxyAPzxv/jfPoS2f7NIupCuQzqCPEboFFQKWqMKRZ6kpGlOGmek SUGeFiRJQRjmpGmBKjRaaUBoKaxCax0Vqhh6XmPs+kFXw9VwaADSXtrTdT3van/99gXb8UYHTp3N Dp95LHr/r/76f/QAeeQA2OzHH8qz4jfTOCKJQqLhmNHGBsnwFlnUJRmOyYa3Ib0F2QhRZJCPECqB IqPIcwqlKXJFEmekcU6WKrJUkcQ5UZiT54q8BojUIAutidBq6PmBAYjWV8ej4QW/0d5sLy13Xc+/ 2lu7fcH1/NHhx86nhx87F33gV/5h9HoLaLfHIwdAGMUfslznN5ESNGhAK1BKk+cFaZgRhxFJPCIN Y5Juj3HvGnG4STqKiHu3yaPrkA0ReQp5iCRBqBRUjlKaoqDUHnmpPRRpqkiTgjjOyUsTUxSgSxOj NZFSxdD3GyPXDza0UpfHw+FL7cXlQWfPnk3bca/cfPXiSwsrq/Hh02ezE48/Gb3v7/+P3/cAeeQA GIfRhyzX/U0h5b3PSmu0Aq0hyxVpZMCRRmPiMGS4PmS0eZUsvE0yHJMMNlDhDcgH6CxB5xFSRVgi R+gCURQoDXlR8Y2COFakaUGaKOKoIE0KilyjFBSF0SBCylxrHapCDb1GY+z5waZW6vJ4MHipvbRn 0Fpa3rQd58qtS6++tLhnJT50+rHsxOOPRx/4B//rGx4gb0wA3OOMBQYUWlOueE0aZ8TjiDgcEYch o40Ro41rxKObJMMhSb+HCm+g0x46TxB5hChCpCgQFOgiRxUKBORZQZYWxJEiSYpSeyjiWJEkygCk MCARwtIImWt0qEuAOK6/qbS6PBoMXuosLQ2W9qxsWo575drFiy8trawk+0+eyo4+djb6T37tN153 DvLoTUAYfUg+DADucTU1OABdgSMpDDjGQ+JwzGhjzHDjJnH/KslwSNgfko6uQ7KBLFIoYijGCJVi WRqKHK0KBBqlyuPFBhh5qsnSEhyxJk0VWa7IC1AKpLS0JWWutA5VUQz9RnPseH5fC66OBsMLfhB0 F1ZWB06jcWsw6F8Yb3TXj509E7/1be/q/eSHPqR3Wx7/YQHgXhdbXq3WoLSmyCFPC+IwJhoNiccj Rt2Iwfptwu4l4kGXeBCTja6j4jXIY6TOkEVIkcVIWWBLhcozdKGQQqEKoyXSxPCOJNYkqSJJNEmk STNNXmjyAgoFQkgtpVQCkqIoRsK2x9Lzr6wPRx/rpcm/x7Nf+uz127sGBPtRCiAOb3tK6jMIgQaz TLcR0m4MPfV7UgikA45jEzRbLO9t1Z/R2tj/PCtIwpRoNCQaDRj1IobrG4w3LxH114n6McnoJipe QyUhUudQhCBjvCCnZSlQObrIERiAZFlBFCriRJFlmjRBxLGyokg1NgeqMQwzwuHoRA4/YDn2L+45 fPgXuX7727s1J48UAEpYDSk4Xv2oFqWqnohoSkiVPp/9cyfHNP6mwYEAyxZYto0X2CysNIB9tddi wFGS0tGQcDhg3A8ZrG8y2rjMaPOmAUf/Fipao8hCpC6wiBEywXUymqLAljlFkVFkOeu9lIvPj8mC BiuHDiKEsDZvXn86F+IDwH8YABBYQiAsKcxKn9YC1fxPQFGCofYIqs+I+YNu9eod43506HafqcAh yvOxLIFlWXi+RWfZB1brzymlyTNDSpPRkLDXZdCPGG0MGXWvMN64RtgLSYZdovgWOh3jtSyyZI3F Ezln3v/DLO7fjxSCL//5/ycvfPtbi7spk0cKALBdkEvVX6L+p3oSE0FoXb+nQWsxkcGM1tBzf9+H mtDbvHBfGmbuyxXhrL4rhcB1Ba7n0V7w4NBKrclMrEOTxTnxOGQ87BMNx/iew2hwmy994+toy0ZI iW3ZOAttNrqb3q5KZDcPPj+UElJK3Ht9zgBD3PkaTGmC8nnOjGhttAjTn9nij3sK+zXQLrHN9+dB KYTAcQSO49LsuOw5sEh1qePxQb598SLj0aheBlJAp908/of/5Lfcn/nlX04fWgBbjEcKAK0RIO7r N/V2r1VcQM9OvN7iszUw5rUEbEtCy5/Ydf9IT6FYl7EHrRRCCIQwNlIphe+7J770lS81ge9/AKhC IRyE2Ibq6+1fE/MCv/MDzPxnO3DMaAuxBTD0NuDYBRJan6iAJInRWlPNjcAAQaCOXLt6NQC6u/Hz jxQAlq2OIAjmX7+L4I3Rv9sX7kMq03i7AxhTJHRLkzL14S0Vxg4AQwBRFFEURQ0ABFhSkCZj+9LF i7umjx6tFyD0CaAJdxf6lqv9NQr9vs5n6ljbAaP6b6Ut6r+n3tR3+YH7PdUkjlHTvqjWSEuQZrHb anrLwLWduerZ8YjDcfaKEMLb0l5rs9qFniV89UNMPXZ5CIzWqB5SgCXArp4BB/M8/boUs99DTwJL Wz6YgCdJElRRzMwJgOs6S/sP7HvXrklk96dzZmqbTDhcfaXbrvaHELbWs6p//u+7fveelzF5EnNf nNESYur/2/xQ9Zk0SQwJtKzJsYXAtoSTpcm+B5+Ju49H7AUIt5KC2EoNVOMhV3klbK01V64oFhcF nc6dyu61Btjv9XkxpfLF9Hf01sepAaI0aZqCEOjSDGit0UoBil5vw3m4Gdl+PFIToJWWQgi2pOU7 pOInK13zta9lfPj3Q8JQ15HHOwJJc6dxt4e4x2OrMW9OKpNSmRVLAKogiaKZs5qAOGd97Za1WzJ5 ZAAYR5dcIdWpO5jUTtr1ctKKQvOFL2Z8+MMRlqXpLAjUPKnjtQl3N6lHURSMx2PAaIDqAQIhNJ2F hSf/9T/9Pxq78duPDABaNZsIcaJ+YYdntcobKKV59tmU3/9wyMZmzqlTFkFgLvNuwn49R1EURFFU q/+pSUMIjec5Z59//put3fjtR8YBVOG4ti33iB3M904TSQQUSvP5z6d89KMRg0GO52mOHrWQosq9 zyYYX/sP7eCYmgalFFmWzf2kRmuFFJoiT9rXr17dFR7wyACQF9qybRE87HG2TOSUK/9zn0v52B9G jIY5ULDQkRw5bJuPCBiPYX0DGgEEATgOuC5Iyaw/r2cOvTtjytPJ0hStlXm50gJKo4oM2xIkyVi+ evF7u3IajwwARaEEiAcyOdsGjUqbn6Waz3w24ZlnYvYfEIzHpo/g0GGbzoKs4+5ZDutrEIZGsI4L tm3A0G5Dswm+Z4DhOIaobRno2UGNIATEcUyh1OxPaE2epwgJWmX+vn2rB/nepR0PBj0yANh2cQCh g9diAu7mKdbCzzR/+qcxn/98wk/8pM+lVxNeeCFHCMWJEw6+LykXF502PPUWA4QkNhohiiGO4fp1 SBOwLAMK24FWywCjEYDrgeuY9xCTZM7DYqEOA+d5vfqFECit0EUBaBzH7nQW2k8CX95xuez0Ae/y U08IROden7qf8ICeEv6nPhXzhS8k/O2fDThzxuYv/mKAUgWNAE4cd2qbr0sG6Lrm0WzA8jIoDarA 9BJkEEUQjiFOjKZYX4c8NxrBtsHzDDBaLfD9yfGqEsc7eNx9BKCqPMDkO8YLUCpHAFJqezweNHdF Krtx0K2GEHJFCLFtLcB2gp+fOz2l9j/1pxFf+ELC3/ybDd75Do+XLiTcupmiioLFJZuDh5xaIHEM L10wx2t3jLoPSgE6Lri2WeWtFrBK2RdQAiM1YAhDSBLodo3GgBIYFvjTZsSfmJH5sMdW1x0nMXme I6Wsk0GqKMjTGCkEWmo5HPTauyGXR6cBNA0p7x2Nu1sUWGtjl8NI8cefjPn6NxJ+5mcavOPtBlff eyVhOMwoioJjx3zaLauOuUsLFhfNCp8WoO0YtR/4EwF6XgmMUoi+D51Sd1WgKAoDqjA0x0wSuHXL vCatCTAOHID9++8yLRrSNJ3y/c1QSpFnqTE3Kmdz/fauxAEeHQlU2pm2/69F8NX7lfA//rGI559P +Vt/q8Hb3+YCgiTRvPxyRJLmSKk4edLDcQUVt3JdOHp0dmUnieEBcWz+f/t2KUBZ8gDbAKLVgkbD AKPyHMCQx6WlqorYPPK8NCMlMCohb2cGiqIgjuL6b1UWhWilQBXldzWdhYVz/+p/+LXgv/uN39jR bqNHAoDr6zcCITg3U/PH1vZ9S+HXK1/z8Y9HvPhiys//fJPz5916cvuDnJdfCSmKnEZDcPKkX6t/ pYx9d0qhlvkWgsBohXkBVis7Lgni1avGDFSgcJwJDwiCCQ/wPPNoNie/q+/BEvMsYzAYlNep63nR WqFUbjKMUuC4ztGXX3yhAXz/AcCz7KZlyVPT8fh7CX3aF5cCwlDxsY+HPPdcwn/9d1qcP+/Uq0oI uHIlYX09Ic9z9uzx2LfPrSd/PIYXXzIHq0hcszkRXkXwKpLXbMKePRNtoRRk2SwPGI2MxigK833L Ni7kNA+ojn03EpgXBePxaAYAYDRDniVIy9RSZ3myfPF7r9yznvINCYA8065jiaU6E3gfgq/+KwX0 +4o//NiYv/qrCM/VfOYzI779vGRlRbK6arNvn8MLL4wZjVKKPOf0qQVarUn+xPPgyOE5EnfD/IBT cgDPN27iVhygOkarZc5JlaDI8wlBrHjAxobRGGCOdf68+e72oNfkpQsoymygyWUpdJGVKWNNEo/8 Qf/yjsvrkQAgiXMR+PcoBt3CfZLSCP/Dvz9ibS3n536uRRgqbt5MefXVhK99LSVJMrRWDAYpWZYj pOLEyQDbFhSFWX2eNyFi0yRungOsrcGVK+Y71aoOgonG8KaCRLZlCKQfQGeh7Ako272K3LiRaWII od7mMgWQZTlFUczUA5rrVwgKECClwJK6efzk8eOfv3T9yvcdADyPIwjR2DIItBUbFLPCX1/P+YVf aHP8uFMKURPHmjhW9HoZzz034vd+7xpZlrO4KDl9ulFzgzQ1jN/3Z+21685xALUFByhX9c0bkKTm nCpzUZHDIADPnUQVrbJcKAgmQN6OBwgJo+GYPC/Kz+qJJlCqBEEJSNdquo51Anjm+w4Alm2/RUqx cE/BY4QvBHS7BR/5gzHr6zk///Ntjh1zakYvhCAIBI2GZGWPzZXLIXGckWUZBw+22bvXm0TqtFnl N25AXphonmWb51YLmq1ZLuC6hvEvL4NWW7D7yEQR4xi6myaqaNtGIzjOFDAaJoJo21PFL/P9ChqG wz5ZltYAqErCtdYIXUz1FGh3NOrt3WnZPBIAKGWtSCntuwm+rvkXcPNWzu/93og4Vvw3v9jm8BGn XknzZV650rzwnSGjUUJRFJw926TVmvyU68JjZ40Aswyi0AgxTaA/ML67Ukad29YUSWwZUlcBY57d VwQxyyZuXzIVPSwUnD4Fe/dOCX6+MUVAlmd1NXCtAbQui0fMswmfFKzduv7QybTXBQBFoTy5nTEs E/JSmNKoCxdyPvKRId1uzi//8uK2wq/GcJjzwgt9sizHdeHMmRZSGgFU36nsdlASPdPDd2ekL4oN MDa7cO16mTAqSaLvQ6siiVX00J0ApgJGMRVWducTuHPnb4JA2Yz9rzwBVRR1TADAthSWJQ9opaWQ QrFDY9cBsNG74BWpPlPb/ynBa4zQb95SrK8XvPJKxjPPhFy/nvGed3scPmTXEyW2mDzLgmvXIi5d GpHnOaurLmcea5vqH21U+KXLRl232ib+P83upwM6CwuTeEDF8JN0kheYJokVF7CkMRfNVnnsMmHk eQYwdwOuAYwmHEUzgq+uTSkDgKpoVkpBq90691v/86+2gf73DQDypNmxbedJOVVKO60ICgWXL6c8 /3zG1Ss5aapoNTUXX4343Ocd3ve+Fr4/G0Kuauu01nz5y5tsbkZkWcaRIwssLbp19g+MIKIIbt8y QhTSBITqVd2CRrWqnQnJq7jA0uJcoKgwHCAMJ8C4ccNoEcsqj21DuwWHD09AttUo8pzBoDd1XVVR qEHvdDuUlKCKYt/FVy7431cASBIcx5UdIcWWFsC24N3v9nnr0y5pBmGoWVvLuH07o9/P2djIOHRo EtTJMs3VaxFo+OZzXT760cslAcxxXYFtixIcZtL27YPV1SnhlXY6ic0Kv33bCFKK2bxAtapnXD8b PKYyiXNcII5LkpgYcqjuoajzImccDmfUv/m/IEsilFJlAalASBiPh82Xv/vCjhaI7joAsiz1BK26 HPwOQiwEAvB8ywRjOrB/v40QAUrpGTdKo4mTgue+2efixSEvvtgnTXM8D5Kk4PPP3uBPPrXKD31g P62Wg2VJpJzE9mvhLc0KbytgrN2GK3PA8L2JxqgKR2wHPHsLLqCodsLbcgigyIvaBZweGk2RZ2VJ mECXGk+pNFhaXlyBK9e/bwDQbDnvkpbZE2C6xGq7cqtp901P9Vbp0k1otyQ//dMHiOO9JImi10u4 cmXMpUsDLl0a8rlnrvPC8xv87H95ir2rC9y6ZWx8lcypYvlbAWNpiXLPwm2AUfKA+OqEXEo5RRDn NEbVHbRd6DNN8zoKKKWc0QBapUhh4gBSGL7he257ec+ec8Bz3zcAQDvHLGkFzM2DwGzU1I8iowFs G8eysKuUsZh1mmeLQQRBYBsbveRy8mQbwX6yvCAMzQ5erbZDnhsyd7O0/5WNlnNq3nXNSq4Eaklj xx09GyyqtEaem+NFZcIoTU2p2dWoCtoY+79vHzN7FUwPISAcj01DCGUVUGkzhBDkaYwus4FKggXY Nn4Sjw/spHh2nwTmuiGtrUsBk7zg67duMUpTPMsisG0atkPLdel4Lk3XxbVsXMvCkmZlTBdYTGsL ACktWi2LdunqaRfOnCltdD61mhMjtO2IYbNM/1bh30pgllWCyJkAgzKKqKZCwFE4iQRuqeXK58Gw S5alk5bwcm8AIQSqMO6hFNPNJYVYv319RwtDdhUAF69d9KTkMbnNlnDjLKWXpIzSlLxQ5FrVxZEC sKWk7Ti0XZcF32epfDRdF882wNiqxqAi0giz2qVlVmWjMcnfq6nQb5IYT6FazWtr5u8DB+D48XtX Blul1nBskxuogDG1y83MqF5LykKQaQBUoygy4wlIYcyVACEUaRov7aSMdhUArnA6juM8KbYpBm44 Dk/t3Us3junFEZtRzDBNCbOMMMtIi4JcKfJiAgpLCDquy6LvsRwErDYarDaa7GkEBI5D4DjYljSq d65ws/LJp1ezOw+MMqGT55Oq4K0ieduO+Wjf/Kj7ASFLJvYfpt1AyLOUQmskwpyHEDiOZmGxc+5f /OP/vvUr/+R/H+2EjHYVAHFUuL4nF6XcIgmqIXAcTi8vobUmU4qsUIyzjF4Usx6FrIcha6F5HiYJ 4zQjyjKuDwcUyoRNLSFxpKDhOKwEAautFvvbbfa1muxvtel4Hr5j41kSKSf7E043bU53C9XAqKJ4 WxQwPEgl8EzLuzCVP1FodoqdFrwxAUz4AKZwlcKYA8vi0PdefikA3vgAEJZ1UEjZ2LIUTEx65AUC R0ocKWk6DnsbDR5jiVxp0qIgznM2o4jb45CboxE3RyNujUZsRpEBTJKyFoZc7PVQSmMBrmUTODbL QcC+Vov9rSb7220OdjqsNps0HAfftnEtOakaZs6M7GDf2PR1A2RZSre3MbP6q6GUosgTLDHhwlII BJo8DRcuvfzijnUJ7SoAPM9+p21btc2aJ28zGwWU7G7CmgWWhEBMBHlmeRmFJskVcZEzSBJujUbc GAy5MRpxYzjk1nDEMI4Js4xhEnNjMOTbN2+htca1JL5l03Jd9jabHOi0OdDucGihw8FOh8UgIHBs fMfGKrVFvWfQvCAfYgggVwVxEtXuX/1e6TtqVSCkCQFXLqslBVka+oGjFoAdiQXsrhegxYpl2db0 xOkZl26i9qqZKcokiG3bZWq0mnhtVKEA15K4tsuC53Gk00EcgqxQJHlOmGWsjUOuDwbcGA65MRhy bTBgfTxmnKQM4pj18ZjvbWwa+wv4loVvWywHAQc6bQ52Fji8uMihxQUOdDq0fI/AcfBsiWbOjPBg LWRFrrYMAlW1AFkSlQtFlxtGlbEA326v7N17Dp7/zhsaAGvrX7eyVB+Wcyq2XvXbzNhgOKDX6+F7 Po7rEvg+juMgLQvLkkxvvGOOayRhCcMDmo7DaqPJE3tX0VqTFAVRltOPY64PBlwfDLnW73Ot3+d6 f0AvjAiThEEUcaPX51vXrqOVwpEWgW3RdB32t9scXlrk+PIejiwvcXh5mT2tJoHrGm0hXiMoBKRJ VjeDVFqgJoRao4q03EtA1GlyDViWCMJwfHin5LRrAIji1SXPdd452fZsMjO1ed0iTdZutbEtm7wo SNOUbq9HURTYto0UZv/eIAgMKKTEtiymvQzD2TQo8yOOZeFYFgu+z9HFBRNkUYooy4myjNvDEVd7 Pa72elzr9rjS7XKj32cUxQzjmPXBgIu315AIPMui47l0Ap/Vdpujy8scXV7m4PISBxYXWe20abge nmNjCbktAgQw7HfJpzqCZ+dCo3KzY4iRv5iKjBZyc+PWPTusXncApInyGoG9IoW8g0lX/XBKKWzH wZ5a3bZt0263zSRoQ4iUUqRpSpqm5HnOaDQiTVMDANtGConneXi+X4NCSjlnu8u9h0vXquk4tFyH 1WaDJ/bvBQFJVhBlGf0o4mq3x9Vulysbm1ze2OR6t8sojsnynM3xmGEYcW1jg6/ZDm3fY6HRYLHR YG+nw/vPneWpo0fuyhfG4QilijrwM+0OgqYoUrN7SEUEhShDwgVpMl5+wwPA8zgupWzVW8LMrQal FL1ej7zICfygbIjUeK6L7/tIy8K2LSzLPBzHodlsopXpm9dak2YZWZqRpilRFNHrmyyp4zgIIfA8 jyAIkFKWx5EzJ1KbkPJV17JwbYvFIOD4nuWSrCnCNCNKU9aGI653u9zo9bnd77M2HDIIDZDTLGdz NCLJctI8v+dGBFmel23rog4DV61hShWmIlhQ8x4DYbPV7MLCwtn/+7d+tfVLv/6hh3YFdw0AluW+ x7at5Xp2q0kvgzGNRgPf900MIDNCLJQiimP6gwFSSGzHRkqJ53oGFKUgpTQZ0cCyCfzAEMQyLlAf q8jJ84yN9TFFUeB6HkKYXb4bjYbRHFJi29bkBKe4hVITgtpwXZqey2q7zeMHD4DQpJkizjLGScL6 cMjmaER3HJLkGYeWl7ctBhXlXgZJnEzNyWxFMFqhdV5/vnqWEoQNMuPwKy9+Z0diAbsGAFWwaFl3 Hr4q5FBKzaj9IJgVZJqmZJkp9IziyHTPCIHnuWilccvVXQnVHMsAxPd9mDpWURT1sbIso9vtUhQF juNgzlFjWTa+72Hbdq11jGqeALcyI4aRS1qeR9v32b/QgVKDZXmBbVkzALijjjHLGQ0HSClnyr4m c1egVWFcQMw+PtWmUkoKsmS88PJ3X9iRWMCuAOD27VfaWst3WtskgdI0ZWNzEyEEruvSbDQQQtRq HyRBEBAEgWHEpSDzIidNM/LcPDY3Q/K8wHUdYLK6KwFWx7IsC7cszanANw2yPDdp2V7PdOnatl1r hiAIcF231hYV4RRT7qmecnOcqWuevkXN9GtmU6ghUsqZ7WEnm0QX5nUwAbMqG4TAskAVoS+8nYkF 7AoAoshtNZvOme02g7Btm06nQ5aayd/Y2EApheO6dQyg2WjOqWmJtCxc1zPTXgJDld5ClmVkeU63 2yXP89pLqEBR8YJqhQNYll1m7aqduaiBURHOKArp9XsIBLZjYhO+5+P7/pz2qa71zmuen4aiKIiT uLb99Q7hGMafpwlaF6UXIEwUUABl0snznfa+/QfOwbcfOhawKwAQItsrpdW5IwtYRvqkZdFsNqE5 WZFgVGMYhuVqNATRtuw6BmDcv8lqtCwjYGeb1W24QMFoZPLupojDFCe5U7zCPETNwmvtM80t8qwG RZomjMfj2owIWWqfwACtDmJtM7Iso1BV6beYaQtDmBgAqElJeNkgWvFp15FBlsQ7EgvYFQA4jv9e y7b2zMm+ToKMhkNkyext265tpuVZeJ5nBFkKc3o1DocjsiyrvQJg29Vt2zaNRqPWFMZrSMlLHhDH EcPhsF7FlcB8f7K6Kw0EGG7hzXELpUiTpARFSrfbxXEdVvasbAsAISAajw3T18y4gWZ7eEGRxSb2 Ic371SZWVXjctgq5uXFzR2IBuwIApawDttHbE+HXE2Ds3Hg8Jk1SnDLtJqU0ar8K8NgWUtpzgjSa YpogjsdjkiQxd+NwXQTUdlsIOSPEwArQXoAUk80YC6VKXpGTFzlJkjAcDgFwPRe0AVPQaGDNuJMl t3AcqpiFnqrouVstYBSFtaaaWSRlnFwVKaIKAWPMgm0JbAm2JbCsgiQe7EgsYMcBcO36qy1LyndU K3EmGFMivtNp02q2TKg2TUiSFAGMwzFJnCAtieMYtV6t8GmXbSsVbTRFBYqQXq9f3qLFJggatNtt 4kzzqRcUlhSsNOHIsqTlSZq+TdsWE16hNUWhSNKJxuh2uxR5bgBQapogCGZ4itjimiuhTy+GKI4M 0y89lGquKk2QpQlSaKP25SRFLcv0oGVDZ2Hx3If/2f/S+jv/0z96KFdwxwGQpXbHazmPCyHviIsL AXmeG8Jn20hp7OYdqnqLFV6pfa01zWazVvcVQfT9AN+fs9uZAYXjmM2iwlTz7CW41hO4lqbtaRoO HFuG5Ybm6DIcWBAsBIKGK2k2HSypTZdRWZiSpil5lpPlGYN+n7wosKSseUir1Srd0FmhV0DQ2uwJ RLULCHNxAA1ZFgPa5AGoCKJAa1F6TpIkE4dfefGFh44F7DgALEudkJa1KOSkDHx6BYyGI/qDPq7r 4ToOrVar7AbewgXcIi5QqegkSWo/XlqSRtC4w2uwrAoU5iRuDIxaXWoICi2IC02Yw63LJuJmSbCF ZrUNexpwdEmz0oSDi4LlpiRwJK2mXbJ3XZulNMtqUKgtmgGmr98Ugpg0cOVyFkUxSQgBaWoAIIQh p1VhgiGqAtuWFNm4c/HCw8cCdgEA7vts216eF36VBu50OgRBQJImZFnGZneTLMtxHBvbslFa02g0 ZnzvaVBUk67UrB/f7/dLr8EqvYY5Vo6gFxkhtz3IFShtNpE2t5I1+SMQ9BPN7RF864Y595UWNAPN /kU4vAQnljWLHjhC0PYsAt9GBNQCvBsBKPKc4bBfxwBs2ybP8xocQijSJDTCtozAhRR1baO0BI4t QIW+FPkiDxkL2FEAhL1/K7uhOG7ZdnW9pfTL0qaS+Hiei+d7M2o/zzOSJK3Vfq/XQ0pZM/wgaGA7 dk3EzEqoegenVuMUKHr9Pq7jsLxnmbSAQaJZakuzx48HwwjGZSOIUiUAhEkt5x6khYnAndoPh1dN 6XimoKvhO2uajZHm3Crsa2qWPPAEBFLg1Kx9VviUO4KNxiOEELX9r3IARWECQFkSUiUT64KQMh5g ysIEfuB0VvYfPAdfe+ENA4Du+Ok9rmv/4EwEcGoikiSh3+8jpMT3fTzPq+24bft4c27WhNil9Pu9 ei8923ZwHIcgCMrv27U/Pw2K6h48QggKDY4nOHMIfBc6vmn8KAq4tA5rPcrbwRsgZDkE2nQArSyB cASJhgUfDrXBtQWBB1fGmvW0TCZJzQ/uxQBg3gvUpvx8OOiTpVkdBJq+QYRSCoFCZVHZDjYJLhl3 UNSAcF0ZpEl86GFltqMAyDK14vvOvi1vCiHAdV1a7TZxHBGGIf1+v14Blbs3Hcat1P50TL9a4Wma srlpqnqqMK/nmeCOqN3ICRAzrTiwbGz/KINhCp4FS03THdTwTFm4EBClBgC5Nk2eGWZTqMUAAsuY j2EMowR6oaCrTUn4wSZ4cnLJM6NMg/d6XYo8wypBW7eDK1V2SxeoIjFCp6xilqX6L4NBCIElC7Fx +8oCDzl2FAC243/AduzVGgBVIqVUf1UEsGL9WiuSJCVJDB8YjUY145dSYpUh4WqVO46D6zp12FYp NQOKiiBqrXEcF9uxWVxcxLYs+nHKIJdI6ZKLcjuXslRhTwPaLnRHkOQwCCFKoBBgSyP0Rd/0ALZd 6McQZ+BLU0be8WFfG5Yd8/ntKIDWRguapNck/VtvDAEURY5Wab03kJQmBiBLDWCVHEBaOXka7tVa CyGEvi8B7TYABDxm27Y1fWeG2hWcyrhOYt+SRmM20GM2TUhKUORmxRQFruuVwR6HwA9qrTEJBc+m hLMsK1WqoFCK77zyXS5s9Dly7CR5ltBqdPAW9tYFl03PrLJRbATdCyEuQFjgO+XqN4lDFhywW0ZD hEnZGAIsuiZjN13/MjU3ZFlGr7uJELJW/5ULWHkPWZqgiwSrBIeUxv2rNtGo+hp8T7K0vHz+o//y n7WBwesOgGtXL+1xHOcDVVBjRvhsXx9nCGBeq34Ay2oQBBNQFEVBmpWrPE4YDUfl9i8utm1WeRXP N98vU8JlbXecprx08VVeXb/FzRuvkqchR44e4h3v/HEyfLORZAFpDgXg+rDiQphBpo0JGGfQdmAt NFxhwTeaAEwjSS/UPLFAfaVbXW+eZ/R6m7ULWGmBKi2sNWRJiCryWtgm/Ctqr8Aqcxa+D1HMgcuv vBS8IQAQpWKvFziH6173+xA+GDW+tr6ObZkoX03upIU1VRHkTq1yNRUXmAmp3rH/kLGZg/GIzX4P lSoymWJbsLF+kxs3X+Dw0bcSFxIlQNogtcm/t21YkZAUUGiz2rWAQy3jCWhgf9OA4lZo7h3Yce9e Nq61qQSuGP90NtAAyXgAShVY1kTooiwJNyFm81nbkSTJoHXhO197qP0CdgwAvuf8kFPa/3nhType 7+y0kFKyZ3m5DuPGccxoZIJbVSygquCxLAtpSay5eoE7fO+5Hccu37rM9c2L2DIgyxR+4OO4DV79 3gV8b4GVlUPYvtEEyiTkkMKQRMc2K3yQw6Aw2kBoaNng29DxDIfICnC3EUW1WUWv2yVNk1rwlmXV 2q92ZfMIKMrsnyi9x2kPwDwMqYyD9kJjlYeIBewIAIZrn5KDTL7Ftp2ZBFAl6qIoasZulURw2n1z Xa/O88+6gGaV9/p98iyry8M918UPJjzgDq9jCmNKw9Vr1+n11vCaHvl4jO07JGKRQmi++pUvsLq6 jyfPPsXy8gpgQtiOMOYgLquLXaskeOXvjAoY5sbmuxbsDcpbwG01Sg+g3++SpSme788UgtQ7hWvI 8wgpygLRkgg6lqhTxxUAtNYEgdtZWt77BPDN1xUAm+Pzq0HT/WGr6gGYlYHJ9DWbtftWFYDYZT4g CIKZmMAdkb+SJ2QV209TRiPDAxzbqUPBJjQsSy5hNFGWZXz3wkXCzRQhPIQMSKOU3voQxE3avsW1 qzcZ9gb8wDvfzaEDh4kzE7kqMEIXpQRnysPK6KHAhI/d0l5vtymkprw3UPV3lf6dSxsn0QiTBzBq 36ojgrIOBlX9g44r/PFo8FD7BewIAKQlz9u2fVCUpdizmzlMAFBduFLGFiZJTJpmhKGpurGtsgi0 quad0RLuDA/QalIAmuc5g+GAPC9qrdBqtWg2G4zCMTfX1lCZIu5GSMeYEVVoeowolq7R9BdJuz5f ee4rjCIYJAGNoIVjS1otScM1QHAdidJipplUAA1pOEB1zfOjSoINBv2ZANC8B6C1IomGtf03tQqi 9AiqmEDlGkpcW7G59upD3UdgRwAgpPODtuMsbnXhRaEYDgdTK9ysetedI3ZlGDdJEtI0ZTgamqZR 152p5LUsC6vcxqNi+3UBSVGYFG519w3g1uaY9aiD1zwMJOg8oSgyVK5BKIRdkOUbeL7LizfWuNT7 Hpbts9Q5xlLrLL7bwbI8fAfOHApYbDuoqWYXowEmN2Dc/r4AGb1e945ewMmNIkEVOUUWYVWrvXYF tAmB22WHszZAsGyFZauDWmtLCFHwAOOhAXD96ittacsfsOfj/zMgKFhfXyfPczzPx3XdOurnOLNh 3EYjqFu/qxWeZWXqNc+xbaf2CqqSrplQcFmgQfnv9c2Q1F7F9VYRukDoHHSC1hFaxxSRIi4gCRW2 L1AqQVgJYfRV1rrP0Qr2s7LwLiyxQH8w5IljyxzZG5SbQJeMXNzNzS3nIM9I4njK5ZsKU5c3h1Iq p8ijeqXbdlkBZEvjDZR5gMojcBxBu7P0+B/99v/ZBnqvCwCizD21EHhv324XECkly8vLLCwskpYZ wCQxYVylVF3s4bhu3cRRCXR6hWs1FQrODQ8Yjoy9dB235gHWVFm3UpqXbw4opIftSKRQWBKkMCtK IhA6R4gcpWJElpMOU6RbIG2HaDhmwCuE0QDL8rBsm/XhEY6vPM7bT66wuhRQaHC5u6srhNkTOCn3 A5oHQHWb2DSJETrFsmQd/TOcZmIGqtI6KcH1JKOw2H/5e9/xecDx0ADwXPuHHNdZ3aoGTutJ4aOp oGkQBMwEeJLE7PFbETs0ZTxf1BU3FTeosoPT8YAsyww5zHP6gwFZltFqtVhaWiJMMq73QuxGeVsv gfH3pUBURaVCYNsWniVBKZTOkaJAkaBESJYOGHdjpDcCK2MUrrExfpWbo0O879RpTqwcxfKC7XV/ CYBut0uapnieN7ktzFQhiJSCKBwjdIJllURPipr4GV5QAca877kWWdwNrlz4ygPL8aEAcOPahQaW /cO27Wx59Yb4DNBa0yjLvCu3bTrAM98QkpdMv9ftobQyRR9S0AgaeJ5nYgGWhcWcligTRlVcPUoy lFZ4jkNWFCAljm1hW+ZZSnM3DksKZPm6KIEmSgZuS42gQOsEIWKUTMnFiNv9G3ziG1c5sXqEn3nr j9Lygq2DQGUjTDge16t+fnPoOgZQJOY2MY4heVVncHXPW1mdU0kSsQVCZM2lvQeOA1cfOQDS3D3e 9N13b9cAIoRZsXGclK5fgef5Rl03mjhTwZ3pkmyCgNZUBjCOY9IsZRyGpm1MipJIGi4xzwPA2N6l VsA/+Bvv4nZvzKu3elxeG3B7ELHWD40XUZYBSSHJC1MrSFGUBZkSW9rYwsJxXHy3TdO1ERICz8a1 FYWO8FywpLVl/L+UP3mWsr6+Vgt9ugKo8gCUUgidIVCTPoCphJBJBEmTd7BMuai0IGi6HcdvPA58 7pEDQFjejzuuu3+7EmjLsmi3O7RaVelUmd9P0zItWpjq3ar/L/CxytKwykeu1L6e8xYqcri5uWmO 47m1u2mVLeOWZbHSabC60OCJY6vkhSJMMrrDiKvrA66sD7nVG7M2iNBaEKcFUghyBVIobCkQUiMU SKVQRYEnbSwFHbeBY7XZv9zCs51a2NOjIoB5Zsxb5fJV3Ge6fCwvCrRKsKQu+wzMSnfsUvWX6WEp TRVT5RbatrDDQX+lmnLuzEXdNVP4wAC4duVC23Ksn3QcZ8vln2UZRaFmsnaBFZhmzioWMJXKjZOY wWBQmwUhRC1Mq2zJqpo3Km9BbeEtDIcj0jTBsuwtvYV24NFueBzbt4jWmijNGYQJa/2Qq+sD1gcR 1zaGpLkiy017luea3gXbkqS5KUez7YyGq2tGvt00CwHj0bBOc08LfeZWsYUiT0bY5Qqv08BSGs1U dQozZQIESJlx4+bLHSDAeKMFpqZFTz1vC4gHBoDCfcJ3vHdseTNIDXGc0O12AeoYQLPVwqrUtWWZ duy54M50br9u83JN8WcjCLAdp+YP09k/z5vlAZWWqHILQgo817ujnNt3HXzPYd9SiyePr5JmilGc MgwTrm+O6I1ioiSnFyaM8rwO9PTDhMMrHVzbuusaEwI2NtaJ4xi3bH2r57DUBiZ/okmTEY4Fjm28 ACGqsnAj9KkWwXq4jsbznfOPP3bu4AsvfXcM5CUIqoeaA8QMKB4YAEL6/7nreivz6r+aoGazSRAE Ru0nKVEcsbZ2G3PrNg9Rqus6yVNuglNXAZVaYhLtyxiVW6tWwqsqgOQ2ZqPZbJTegiKrkk1JzHg8 Nuni0iZPB5ls22KpHbDUCji2d5FCaZIsJ0wyeqOYtX5IP0wYhAlaKQLX3mJdVZNkJiQMwzsIoAGH mPABpUwdgC2Zrv6tAkLm2iY/YkyBxnIEjus/ZoveceBWCYBs7nn+UYHjwQBw+fKrhxzX/c9sZ/br 07Hy2vWzAgLfp91uzyR54mSiIVzHNaVdnmuKPSqWXz7mWX6SpPWmEMPhCClFXTBSBZgqb8O0WEvs wMYPfJqqVbeLF0VBEps6xaIo8Eo+MskrGFD5rkPgOuzpNDh5YIksV6R5Tl5MAWCrGkBMgcfa2u07 BD7tCYAJFEmScjs4pppCTeRPWqYl3ZqqE7QsQeDb6DxZGg0HhzEcIAPSqUcCxECIuelkPg3XBwKA Zbk/5Xne2Wn1P98CPb8UhDQX5gcBfhDQrsq7i0kIOIoihoMhlH15vufh14WfFQ8oSaFulBxATVLJ SVw3lTplxLDZbNb1d5XZmMQTKDuUTG6i0ja9fq+sRA6QQuK4zlQsQuDYFo496QLS0wmQqSGFqQKu ehCr2IfruqRpOtMRFMchqATLrlZ/WQBSPqQQZYiYuthGYuoCinzoZen4YHkWeSn0BBhjikWycsWn 5fu1HXrNAHj11Qsdy3Z/1nXvuCPOtrdH2ao4RCBM0Ye0ZtR1oVSdD0iShOFohBQCt+QRldtnWVXP nyQIbILAp61bKGUyhzN1hmmKXXYWNZpNbMs2xJJKtU5yE41GozY9SimUVkRRZPL20qqbRn3fx5rb ym6rMR4N6v2MpncDnx95FmOLtK77k1LUGUG7NAv1bXa0iWbqcvs418VfXeqcubI+rgQdYu4qMiof fWBYAuHhSKCWjR90XO99dekXW2fA5oXPlPC3spe61BJ2SRJr+126fZVQNzY2KAqF73sIMSkWMSpf ln10Fm7ZZTxPCnu9Hlop/CDAsR0c10GKSjvImSCVLi+u4iN5bvYkStKEJE1ZWlq6ayOolLC+vk4Y hriuO9cAMqkFMNvRiCzNRexJ4Vme7ZQxqXL1Ty0aqwKAAYRlCSzHsR27WAKaGDUfA7eBy+VzWALj jlN9TQC4/OpLvuO6P+f7fr1l+azd3x4Edwh/6sWty8fEjNtnPAWzwitVnSQJvV6v3FzCCLLRaNSe QiXQSuU3Gg3jbuV5vSHleDQmzdJ6tzHHdXBLb8GyZLk71+Q8fN+f2T9oBtjTQ5h+wuq+wJWwKwBM 3y5ea8U4TJ//6J9dfvbAHn/P8YPtA3sWxPLBlca+hZZuBh6e6wjLkrpMCJnSY5No02jhCtvOwKzy 68D3gCtAF6P2t715zWsCgLCC97me/1PTq/9uwt9WMdxT+HMfL/1fszqrok8PrdvlysxJ0pQ0mRC6 qkEzaDRM0YiUdbFI3blcegBV0anZEcTEI2zLlKEjoNFozlQfbbX59VbzkaYJt2/fql+f7xusOoOK otDD0fjltc3w22uboffchU3bsa1goeV1Ftp25+yxpYP799h7Du31Di517MWGVwSOLR3bMiFD27OV 74Q3MJVBlzHeQIix93cd9w2A73zrz1u24/6q7/tLE/V1l0nYSrD6Pj6zpfC3AlmVHjW9gK7noVut uso4K1X+eDTlOlqSwA9wPRdLlhpCSmN2ppJMumr4zHPi2BDLirxVnka1icR2QwhI44RwHN4BgErw cRxXwaGs1+utlUJLAJHlRX+9F95e7yFfuTL4NuB0Wn6707Sbxw+295083N7ve5bdcG2vyPNboyj6 eAmAIWbV31evwH0D4MIr3/PfvnhimGfNG6CWbdvxKhdlejOk6aDY3VT/wwn/TjxN77nnui6u49Jo TLmOaUqWpoRRyHA0LJtUG/V2fpUyl9LkWoPS7LRarVrLVK5jFEV1o8rdALCxcZsojuoIYJX9q5pC q7I4pVS6ubmxxoStz1MnATAYxWuDEVy9Nfrm575+IwVCR8qu58hrcZavYWz/a7qp5H0D4Kf/i7/b /dm//Td+fXl57+++5z1vf+/RY2cfP3L08LmVlQNHPN/rOLbrCLlNTdz91og/gPCne+/n37gjn9Cc uI5SWne34eU7lZYx0UavPKfKdm9//kJDr9cnTdM67j+dBp6uCdRaJZubm5vcGamb/n/BxMWrWP5m plQ/S9RrFnw1XgsHKP7oE5+6kaZp9//6V7/znJQsP/WWxw+ceezcgZ/48R998vjJ86ePHTtybnl5 3yHP99u249jb3THpXnh4LcLf0rzMHXjyVmW/t85ebnmu2+V42R4AQpj7AazdXiv/njD+6T2BqvdG o3G31+sn1D3EKCYCL5gEdyKMiq/cuvuy83cbr4kEpmmqy5OIXNfb+MY3X7jyjW++0Pg3/+YPn7Us 2X7r00/uP//4+UMf/OCPPHn8+NlTp0+feXphcc9B23YcaUmhp6RyL+FXE3nH+1t9/z6Ef4emuMvY SrDbFXtu9TkhIA5jer2N8rVJncLkc5Odwcaj0eZg0FelPKbj+BlGrUeYoM4QE9gJuQe7v9/xwLmA OE5yTJBhDHSLQrlf/dpzV776tee+9bu/+5G/dBy785/+1E8e+6kf+7Gn9h85cqSzuLT/+LHj5zqL e/Z6ftC0LNuantTp5o4HWvlzEr4LJrYd80K+Fxi3G0LAxvot4iiqV/+8BzBtDsJw3A/DCEx1Wcok hl+t+EH5PMKYgJlw7sOMnagK1uUJZ1MnbGVZbn/8E5+89PFPfPLLQMP37YWnn37rgafecv7Ij/zo jz118NDRYydOnDzfai8te77ftCxbVlEuIe4Ewf0Qy61ehnsLfwaIDyj06e9oBZsbXZI0wSrJXiXw qh+w6ghSSulurz8EphllJfw+xpff0VU/c747ebD5Y7/rbe8SJ46dsD/2yY/JLM8czE06A6DZarqL Tz/9tgOPP3H28Af/+k8+ffDg4WPHjp8822wuLPlB0JTSEncIRkzJ+j6E/yCCfxChz488Tfjsn32K K9dfxXXcGc+hEnyapriuSxSF8cc/9rHf/fJXvvotjNAHwAawVj4PgMhxnDzLsh1Z9dNjN28Zo7/8 9S/rX/yvfiH7g4//gWaSnLAAezROr3/+2S++8vlnv9j47d/+fz69tNhYfvyJpw88/dQTR3/4R37s LYcOHzpx9NipM41Ge8Hz/UCUgKiErzFM+0GEv1uCr343Go8ZDLtlDQ8zrH+aB0gpybIsuX79xiZm 1Q8xgr8JrJd/J4DKpm4usZNjNzXA/fx2tRm2g7F/HtAAWntXF/ecP//kgXe886nj7/trP/zEkSNH Th4+cupk0Gh2PM/3hZB31xDbjPnv7ITgp49nSXj5xef5q2f/kqzcBawqTAmCgDiOcRyHJEloNBpc vnz5yu/8zu/8y16vdwETxr0BbHKX+P1OC+GNMipAWEwA4VMC4uCB1dVz5x7f/973vv3UO971/vNH jhw+efjwyRN+0Gi5nu8hhLiXcKfdS3h44W9ZA6IVX/3S53nuua/XoeMoiupIYpIkpeqPdL/fv/3M M8/88bPPPvsJ4GXMyt8ya7ebk/56jMrfvduotMM0IAJMxqt1+PCBvefOndv//ve/57G3PPXeM0eO Hj518NCJo0HQaLuu5yLEHQKv/v8ggr9faSRxyJ9/6t9y89ZNXNetq5qr4pI0TVFKZc8999y3nnnm mU9evXr1GeBFjMpP2GGSdz+CeD1H3Ud6H5+rNISNAURNKIH28WMH95157Pz+D/7o+8+dPf/2U8dP HD21b//Rw34QtBzHc+7WuXu3oe/zteokuxu3+bNPfZLRaFingKMoMv0PWuvLly+vfeMb3/j0l770 pT8Jw/BrmHr+EQ8Z0HlYAbyeoxLudqX1d/uOxQQQPgYQLSFonz51fP9jZx878MEf/ZHzpx57y4kT J46f3rNyaH/QaLQcx7Hv1cp9t7/FFm9qTP7/xRee44t/9Uy9AUSWZaRZRpFl8YsvvvjcZz772U9c unTpLzAqv0rXPhJ1v91EvlGGEEIIbWjya52QaUJpY7SDh9EOTUuKhbNnT+8/eerU/p/48R9/4sTp cydOHD95emnP/tUgCBq2Ywr7yj0a6rFtnmGbobXmq1/+HN/65teqFU8cx/rKlcvXvvqVr/zJV776 1X8XRfE3Mbb+geP3Ozrpr/cJzA8phVBKv1aNsNV1bUUom0DTtuTiuXNnDzx29vSBD37wxx4/eers iRMnT53uLK7u8f0gsB3Hmo5M3pcdEJDEEZ/59B/zzW98fZwkSdbpdMQrL7/09c989rN/eOXKtc8B r2JI3uui7rebqDfqeBDTcLdjzfOHChCtwLeXzp49f+D8+bOH3v+Bv/74iZOnj506feZ0e2Fp0feD wLJsqedVw3T8QRv1v3b7On/67z+hP/KRj3z3i1/84rcWFxe/091c/1ycZC9ggjqvq7rfbmLe6ON+ ieJrOd5dCWW7GSyfOXvuwFvecv7wB37og48fP3Hy+LHjZ060WgsLfhD481FKACGU/uyf/bvwL//i s8OPfvSjf3Tx1Vf/HPgGxrcPeQOo+7tN7vfDuB/X8UGPWxFKi9n4QxNo71nurJw6fXb/O97+1LH3 vO+Hzp08eeL44SOnjjVbnbbnB55lSzHub4S/+st/71Of/vSnnxmPx3+VpOnLmE0b3jDqfruLf3PM jq0IZR2QAtqrK0urp8+c3fe+977j5Nve8QNnH3vs5NHr12689Eu/9N/+v93u5rcwlbgJbzB1v93F vjnuPqYJ5TwgmkLQPHn8gGu7rVsvvnjhGibf8YZU99td3JvjtY15QEgmfXgPtFHTm+PN8eZ4c7w5 3hxvjjfHox7/P3Ou6V1D6y07AAAAAElFTkSuQmCC "
     id="image10-3"
     x="10.052117"
     y="4.2149835" />
</svg>
