<?xml version="1.0" encoding="UTF-8" standalone="no"?>
<svg
   xmlns:dc="http://purl.org/dc/elements/1.1/"
   xmlns:cc="http://creativecommons.org/ns#"
   xmlns:rdf="http://www.w3.org/1999/02/22-rdf-syntax-ns#"
   xmlns:svg="http://www.w3.org/2000/svg"
   xmlns="http://www.w3.org/2000/svg"
   xmlns:xlink="http://www.w3.org/1999/xlink"
   version="1.1"
   id="svg2"
   width="32"
   height="32"
   viewBox="0 0 32.000001 32.000001">
  <metadata
     id="metadata8">
    <rdf:RDF>
      <cc:Work
         rdf:about="">
        <dc:format>image/svg+xml</dc:format>
        <dc:type
           rdf:resource="http://purl.org/dc/dcmitype/StillImage" />
        <dc:title></dc:title>
      </cc:Work>
    </rdf:RDF>
  </metadata>
  <defs
     id="defs6" />
  <image
     width="32"
     height="32"
     preserveAspectRatio="none"
     xlink:href="data:image/png;base64,iVBORw0KGgoAAAANSUhEUgAAAIAAAACACAYAAADDPmHLAAAAAXNSR0IArs4c6QAAAAZiS0dEAP8A /wD/oL2nkwAAAAlwSFlzAAAN1wAADdcBQiibeAAAAAd0SU1FB+EDHgwbAqiIaykAACAASURBVHja 7X1dj6xJctYTke9bVX26+3zP7Mx42V0wBtkYsch8SFjIl8ANXHKHhISQ+AlccMc1d/4D/AOExAUy QoBkQFphBEYI24jF1toez65n5pyZ091VlRFcZERmZFZVd/XHOXts9oxq+qM+uurNyIgnnngikvCw /+iI+/WIx/3/+E/D9bnPYx50we77WvSW/+YfRyN4iN+/cwOor/P8Z//WI55WJ8gb/dFv/fsvdf3q J7v/Hl7g5c//nedQpe3l6y+/+N//9uohF/8hDCA+n1bPvkWXn/82ffTdv/tzr37w33/ryXd+4V8Q +BdURfUdX0m6w3aht7XN7vze6bPf+94///Pnn3x3Xr386T+bNxe//Yf/8199Pryte4UFeoD3SX47 /fBn56ff+Sv/mNL8T4ioviuFguQne//W7kDVbhmSt/96e/XqH/7w1//lD+pl7Y3gTv+m++76eFuc vzhJ0/yM0wwwgZSgUEAVSPf4M/T+x5DexekDvaZARSBCgOpEwLzn48dLom/bAA4tPgNg5rTkaT5L 0xLIawAZIAYRgchXkQAiEAhEsO/Ly5HdB8Tf2XP8t2SG4M+rj+9Nwx+rR7m6way0eK2dx6htu261 i4EryL4qAAGUoCptVew5qlJfpzweAAQq5is1vqZCGWAibIUusL0ilK2k5eLuWNytQ8F0TyOtiw8g pWnxaErzizTNyJpVFcR10driAuVDYVxEX2xFNZL63Gpy5X67Nyxd+79S+z3VS1KMRKsFxSs2XDcC SMmDV/srpM24zBCIAFWqf5cAQBlKAFMqxqJq71sBYnu14L2Vwhs1Q2OApP5uS4knntKZrZkvfr6v 25nusfs5fE0AZmZ+zCl9xClBt0SqNCwkl+sQvQGaIRQPEHZ83Pn2c3nJBj/8KfXlbNs3W7OF0+hZ 7F1r/VPo3AXUFrMZY9ma/r61/R4K4rKb3cTKn9TBr1STBJFAlftQTmqGJGaVDCUBFf+gE/NLmRYf APg/9kJbe7IMi38rL3BXDEDD4k8AJk7plBO/KAvJILIr7Itvq8Tmwjm6/LCQiCHDjaZbcGqOAkOI AGxB4qVggPdcmfg3VQFuu53cQ9hiqy+2ewb2RW4GpvX+4DtIQeYFtBpGApFCpXksf10QmSEUbwFV sKqC8JI5PUPBAQgL/04wAB1w/SkYwKyqpwR+Uj11XUiqu5OIQMx9jAeF3Y4OCyA4BTIfqxE3VJuh tlk7/NDvCwpGo7arCVqfXz1BfWCJywTbodXLKJQJrBbD3Q5AUAiYuIQIJSip3enGpfW9CgisWh5T XZOHBjHDIyLmJ0R4YgaggwHoXb3AdI/djxD/JwAzFI9AfOYxuu5ku/EQrcvFtN1pi9sBxgEDEJvn cByB4OYdV/gu5B4b6JhUkBuLhSjV3koq7iMwWdQmhNhPNY4r2JyAmqGyh/vyuurGSYBo26oEsEOA EGocGhKxGWNmKJ1B9dQMINvGE7vRXb3AfUJAXHzzAHlFRMsaB4kHkFd2v6p2vyuLa/dbeAAVN1x3 nBkDD+7eV7OCKkqda9fg6h02KjWv0Vw9QfyVHbGH5zk67+K6P8DBYP2vGI1qdV0W5gnKClEpC9/h EweLAJsXKcYpIGICNInkFYCFGYDfOBjBW08D96H/CgIBWlWE68BOGcRm/Y7emewi+Tbg6viap7Bd bF6Cadi+FRj677l6kQi7OOAvYupzpujqVcF1Pdu1JA8BFMIAK1QKDkAND+5L7PHmvsv3xeiUymPY jU7UNkO5nyuOKO9BNAOUkADKW4GILmzNPPTysPtx2zAw3SH+j/cFEDg/byDb3L4j9wrE+vRvHxBU /37wEjU9q89voaQsTP+x3ehqOBg8fGcsDk4ruG9exX9WCowm22L7Y0lDXg8QpfJaYvjAQpP5hxIZ uPAFpFKxgjuEssMSoIpctwc9CR53NIA78WPHGIAeIIA4vIHEabHgafVBT8RwSNsiqePuvl9oDwXu rH33U8UBxYU299/SR+reIXXgjzzHrj49fCSNub22/0fXHMKIcjQ6rbvbX54NKxSPAAt5RgDRCNi5 ZZiqFXNQdf9GCTBTZoam9JTnk5VsLq6G63+nFPAuPADtAYMJAPO8WvC8/KBGZ+YKAIl6UFiRfkF/ gSsIC9oRSO5TtAAj7HIBGLOBivRDqkhxi8NXrLdzDVex7nxz477TMRhbyCYU5bGgYUsSm3tvGYCB DgCe81MIXA0KEimYCAR+PC/PTq42F68HA+BACr11HmCfF2CeFotpXn3DFlvJWZ1xpxOFBaa2sMw7 u3p8/j5OoBpc8OsUUDUF0qaxdXZxx9BSswUFWYD3xW98hlHB1SgKV+Ag0bOBSv1WHiBykWYEjAYU pXimnpnUiu+IeJum+em0PD29+uqzNCx+XJO3mgUc8gKcpuWC0+LDsljOow38PrWd34eDsKstFqM+ r+3gyAxSRxHTsNs6dGiFKe1TyggHteWUjdxpuWOJ9RoIwEAYkT1eNLCEFEhmavWBjnouIJGsBgDm kveDOg8i5g2IkKd5+cG0Oj0dFh5vGwPcVArmgnmmmaf5eeT9yXPZyt5RKw7VRUVHB1ej4EAQaaCJ QSEs9GBw2NTQjvql4Ol7V9ulBAEotqSiBuoWwQNEIH991f71Kugr18GJp/K7BKjU5xUjY9vwuRkf UXkcEVKan6dpeTLs/nsVR6d7Ln4lhJjTxJwexx3Xu/yWhnXArzMOMu5Am1HEimFXI6Cw2APfT7qD DeLjKvlTAV/0BpFB1C6jUK1lvPq+vTJYU72aEbS9Dvs9CFCRkhmp1BhQH6kKsEKV6+uRGSoTk6b0 hNO0fMiK+ENUAy1kp4konbdf9Duf/WfiUN+n4PbDgiM+t4E5Zm4pH/VpobtRCoCOQopHoY4T6/dM Vj10ttY5/mrAZjD+POMAYsEH8flONpnj7126QJ0IA1fix/0CEVkkYcBSxIp4KDEonRLxNHAw9C5D AB2kg4kIzMtI55Ln+fC8edzxzhaGnwfm0Hcfh9SOw2s1GJAKiNK+7NzVF4JvJ9YOLnFbj/a/mgFG etiIICe7atVPQ0gosVwr0VNSO1EOC63B0LSqf7xQpgYbyCtG5YKySWvowFrQbcmgh8gCPGhPBnCD AUTw1owCkd0jHip8bjT+fAdB3Lt8d/uBI4g4AWOJOF4f7or3O26/Ur8V3Ue/os3jKBqqJ6eQC9FT /o5hAlEoOCR3jk5y8W4SbY5s0bk8Xyx9ZGYrKqYbFv1W0qTpnu6/GsO8Oj9vNQAKN95l9aJn8JTQ QB93nMEA+hwfeGoIanV76qr9xgdobywamcayaFCt5eOK+VXBXL76fU7stCtrr18FIVoxf7zulTyS JiiplWdwwXykIXWUHpzatykloxPmsxt2/lvhAWjPH0HY/TydPHnZUj/ujACx4BOrhMP3TIMSaCd9 3A0NXWmoKy1bDFcKbr/QrcX7246khto9hlNQ/kSjrnIwDZ6guvCgC1AZtqWX/YItKqDEpRQckxFw xQ9hJZU5ERGB59VT4pRU8oMYwV1qAft4AJqXZx/4hWLqS8GNCOIB8aMLDZ0CiNpz2gLuz/2JenkP hephMz70opFK73r6xrVYU4kiDcRPUwsYKJWA8D1nL8YjkrBfuDvcNKaazbMQaQkDHcGZQMRI0/IZ T8s5r9/QLULB2xWFMk9pXp19wkQgLrwlxZgfFxnof8+7u7wzBgregHbFoj0nMJaIBzGIp3LcCB7U EnFz36pkYFKDsSlk0PZVKzFJV63ycaACPB20dL4rrlQQqW4+EHIBCgXqWcxD0nparD5I88loAHRX NvA+eoAQAojTYvUxEYOYiQOzVzUBTAHIhZyf2i6uYJBphxyq7ABRnyJ2BBANdQJ0mYXGwpEGooh6 7R/VjKCVZ2uF0zyNVAqYAhUsUHUtABm1q5BA5pSfCzCsMjGvFYg22lm5ZBvmnYwuz/Pi0SdpWszX hOR3JgoNHABTmpYfEAHJ3HwBddyne4Or56E6yES1nwAxd3eMwFZWpl763UnDmHZ4wFE97EodHUrE ne6z8gbUBJsu+vB0LRaAKttXKn9RR0qe2yczJlEIm+ClQQMIG+upCmHtjRQEZtZpsfgwGADvit5+ DCHAmMBnvsjgWO41DWBw/woKuXwPFjm4/AYGo+cYdn+lA7iLp15f6FnALp0PhVlbmNQkXzWHUrTy jAIMLbvfdfvu5gNhVJXgkNITwwoVB3cCTslqBw39q2iBf1Y15MIcdFkFc2JK8zNK03SABKK3bQDY S0IQMXE6N064pmjd4ofdztSKQTwUh3ot4Uga9XGedsrIA8zr0Dx1hA51tX4aOisUQGwOoVb1A5As VlMgcTx9LEUj9vVtGj/W5gk8Q4G0ngFubGIrXzBUpPoYYmYiPmumen9K+KF4AFbwie9wZq6LGDOC vgg0ZApxsavxUCcF78DijpqYMGDAQCk72qcq1R7dAe0R1TrP0CjCxhD6SzQMYM7aYr3vY1f3Nl5C LVuQGutxqHXWa8b+fmjiUjEiGjwA39UL3BcEcjHUxEQ0qVntvsXfSQuZhpSwDxulpsQ9wKMhgwjG 1LeGUQVcY6VQq1yt5QE71C+13h0KbF/b5S2jKEsjgTPg0AnkmQA3USlJAXpW/vUE0r/qgXirADgl lhJ20jXl+XdWC6hChMWjZ6cV9TP3BFAUgEQpGHqmsIWDwWDqrncmEDutZkQNAzB1wvP+SqppFCNT NwreNLSDKULVzwUfWgmhmhEqd6yg1ucOeb9JxsVDR2X8GGOTm5ivAAFkarJpmovtzKvTQQjyVkPA da6FAdDq/BsvtCHVXRaw0wFyQfPBU/TsYJCIuwcITR4dvxAbQ2tFEX3X4KAEU1DwAL1390bNruJY d+7QOlA9gFaBR59SNITv3kcCT1CV8RIvNJsPUJODE0SqNEA5TUREmFbnL3ZqMfvTwnvXAqJy4iAQ XJy9+ISIwcwGAhFq++UTs+kEGAMj2O3wsjg7mkAEFjD0G/Q1gj5L6OResdWrrxKF1q+C8FVTYwKh tUBTijpBsOWW425AvYlDKqbQ8LfcWAAFV8m4gqhg/V4xVMKUaCdlpFTK6jovzz60nJNu2KQPXg3c V4ak5cmTbzIRUkqmBQxq3sjbh8JQ28WNAGKmvmG0k4gFLmHI/2PrOUUVT6cT1J4ZaqtT6gNhL8di UhVseIsXXL7d7lc0TQGU+8WPK+GPCZ1IGlrba2+AZIglgmNZjwiXi0fnHxNPrHmD+6qC7qsKRqkE PvopKru/QK9QDq7unQfOn/piDnNqnT+2q9k6d9R+H/kAoqbHq8SSCUtJB12glvyaRpVQl/vZoglV Yag53rIjVWuJWETqgooCLMUoSut/AXp17Soj1KI7OEEl1wY3ghS2UEqwV06gnEOXqzRlUErbxfL0 W0TMuhsC6G1lATTE/U4PmOblR4UNSrt8PxESc2XygFjkse+7sEFduZe4KYFaaTikjTVljHKu3v3H rhAapYEx+6eYDHhoCKIOi+kpsa2VFtqXXTns+oRkJJHUrKFWem1REzNEQq3BFEjiCiJOUM0hIS3X MKWEebH6hIjSgbj/1qqBh7hn5jS/YC4L3fP4NHT3BE+APkOg4CVi+Ojp4749HEFlzACUW6evE0G0 hyirgt9Ycw2YQJtOJHT8aufHE2sxgs79U63iCQW5t7l54aYsdjZUpMwKINLS9CKlFiGqYOHemwDg NDOl6QUR8wEO4K3zANhVA6XHBetxv0gcQgHv5vrEXFO4tvgmCqnUMA9EEXZ7DbxxFEPFkHnP9qBK tdYegKDLa8V56pQ+XtWLi80sVczp/Tz+YsyAqKl6VDu5iCuASRRMDCGpNQCXgzHIMCcXYGlGmThN IF42f/VuZeG0/0arJtoc+f0+3YuLz4EFZOzTEPR4gYkOLr6LP4i1Ub+xmNR1f7vBoE7qKGxe6VRi y/s1cgFRv1f1mtwmg5CCxVU+WrMU7/Nt1X5vJ9e6jUjKIitZoy8VF9KpGi0ccZpYBRO1qhe9KxB4 0CCUaAUAiaducerujwbATTHk5E8tAQ8uv6eRvRLY0kaPi25nxWez9W7GEDA0DLSu7lBGbhKx6iHM 9/Z4jqqLhjWLqu3gOnamLrNWQliIC8gbqJ/C9qqVf30iWLfu1lZevqZpkaRMDzvUGfROmUDitJiL JBfgxABT3/HTuWzqqOKOKAoL7lxC9CLcoX/sys2qETVtYa+PaPJx78TliNDN9VZhiKJ28SbYyDZP 3zR4CQefvteJwGIOWrweoWA1XUDD/d7uGkSnoRM6qJSVyaKAYpoWJKKYT56c5M0FX6PWfiuawB1J +OmLb71wBJ9SCmldI2U8ppMViXin/BuYPx68xUDuRLBInT4QnTK4Lw4xBplwnTKCSPOSF/Bac4mH AlIjZszd1zKxlP1cRB7sNWPLXYu0y8E+M9dxcJ7lc2X/pHowlw5VLTK1kXfTNIMALM5evrx89fu/ e2DRj54YMt1CC7jXIE6efPwxE4NNs+YXcieWcxj8MKJ7z/G5l4qzj1Tz5yuAxF1VkLrOYepbzamv BTSZV39t3HhqRc8EIM73l3tL34GKAT4SkHEGDhS9X6Ckd9J0gp04VEBSev7Z9AI+/0hCCqsiRhV3 +EV5SgTm7fL02ccAfv2Gnf9WZOE9C3j+4ttEhGlOYVATh8odt90dDSIYAkcRSagEUqgLsHsH5xOo p4yZTIjpz6M+7evmw9WooLUPvJZmvIbvTZ/150IGIRVkwCbzVhJv7a+pZWJCtm3fqBw0ZMAAiwUB e11xN2+aRQYVQyKuCiOwEkjBhDfL02ffweFm3aPp4NvyADu3xersEyJCSlMv4sSoBkafAtKwsOSy cFv80Rg6UMl9/8HQPt5NIQkUcajkBL0WhQpgoxEd9Xe6Ecd6ai1iRMXtx6ECWsp3zKmKOcgAoTQ4 adckA0yFByiUos3+MkNm8wTeo6BFKDpNc16enH17b4POLXHAXWXhgQU8+YgISGnqKd6xMYR5qPeb R2B0+T6PWQAPRFFnQMG4eF/DKPoWMg2gsZvw2Vq82JXDFFJBsVTOixKiVrmDCTcNvZMYeKMK3tia Skr3DzU6mDz+o6V+QX/ofY/sw6vUZevANE2YFqtv7ln8TkryEAYQq4H7So7EafqgIPc0SLl9HmDk ANAh+DHNw55FrjUBalPCeoAYvELwQBwWvsZ+oq70qqSxFFBFHUzU1fs1EZKW6V4F6xXlT+0IFy6k kDoHwN08MVEuCiBr+1KyeO9aZ58PZL6CWIE6W8goaFbrFQTSNE+c5g9uaNg5aoz8/YkgTo/VW5eC 6+cQi3txZ/EKPABBGmRho65gZ9d3XwdRSP17QSmsvLMnaGdAdCsKETWAVlG8pXRF1d1au4VCuidt mJwjfWKAhSEQqCt/qY6LgjCBtej/yHsSmQrItGvIZiRKAKdFAvjsGg7gwUPAIdqRAT4BFJxS754H /R5jjwvnsX+Qq2foHoNGJxe1uWcJw1whavl/N3vYikqtVZuCYof6MS8WbxWpjHGrhE6c5dfKxwq1 3U8QFZva56P7QpI39C4WsCqh9Vx7RhP9+yxUdPmrKS2mXNqP7hX/H4QIArBUKSxgLcYT9vQCNLKG KYSCUdsX6wc7reY+cLqfOcTdsOl++kgUh3RjaAPwqxyCLYQ4s2/GV1q5jQzSNtHDw760thVoXX/v BS7G4F5AIchW+XPRRykCufuXRiCFyWKVHlBgWsxJRNOPkwquRqCKSQ2YdCVaHkbF8tDiFauDkSsI qaNrBOPMQWLuMw0eNYYRDwxdQh0lTN0k7zCmv3buen0/WawX4aoAFrW0zQadFZBnkz0M3aMCewpD yNjukjYP0Qo+bUIpgzR3c4pqHYGAOS1YxIOL0n00AXf1AFykYC/PnAZOaYpzDPaodrkBuEr5UvAK qXUH+31DCbmOnqvsYj9vKOoGXElUUX4Yt1LdfxAHePwXI2dK4b+lg6U1qzSFCriEhaDld6q/zvmP AiQfRyfWWOKDpOtA1GJQLgFnWGFIXUUcppyoYrFakari5Nk3X1x8/juvb9AFvhUqGABoefr8rFSB h06doZkzdgHVGQ0U5wW1cbIu7hjB3wgKuwyCCQzuBktR2OUcd/zgEbTm/kbiaCGUJKiE1IwIKmW3 amP7DJKE4dBlwqd0DR0FSVZU7xVL0dopVUJE6TqqNQEyYVgNEbFuoNt59fjxxT27g6YjW8D2EkKL kydPTQiqxKEvh1oxtA2ERCcFjyphCiNkQRSqfO4duCeOKq+AMI+gbzAdZwxVjiBgqzgwgsNpIgqb IeB139rm09o9YO1eEmTfBEsTqRg9hOrwaKFA/TrfwI782+kkHusZhGzl4drHUg+oSGDm7Xxy9vRI 138wHbxXGnjy5MNvMRNP00wYx7c21FX63dGoYEZPE7M2KpgD4geNwyZ4YBZ5t7Dku2mcMhKPFaHG 5lXpX2wH1zajj9zVA00B5PiebYaPNXy6iIO6MbDSlEbhFBC1odFOB9fmU+splGqwFMBqA67zlNYn 5y/+FIBfvWsKeCwRdCjPpMXq7GMC0zQtgrKqp3kJUR2EPUjfFw9dYSh0GPbFI24hYKwKduEDvLP4 8aSRsWKoUKjEzsDQ+qVlNkCiQs6Iy7xIwNkXsXH2RKUWUNvbqlzMSCbRSk4R289M0Iw6uoa0KYXj YRZevpjnpS5PHn/nmlT97cvCp/nkQxBomtJAq1AnuAyn5YSsYFcFhGhAPGYGg7iEaacNrdUJtP68 UyKO4yNrzd52VmpVQIXWSW1qaF4t2DMLRAo5I1zGvIigtqhV5o/KIBrRXD1TGRhFbaxMeD9M1nlM TYKOeDhF0IbPiyVvFic/hcPK4KOygemWu7/jAShNL6CgaZoqA8dRtzdqAQfFL7o2gH0C0H7SWASA THuURxxYSO4FJIEe6sq/ym3go5Ox4rUBNh4fUg56cGbOgBzEuD5PHWO9X0vcR3ccTdscLQVsuAPG /lHoPKphxUOB6RgLHZxeHlEOvnc1UA/SwJTOQQS2FNAacCsxM072BA2HSQTlnGcGfb3A5V2oqaG7 fsSxs3uKSK3NLLRjx3FwiuaegbrrVUzU7XUAUZvXW9xzKQNQpWx9GIYGiXexjcbdE/khEYXiFWmS Y4oqpSr+0ApWJZJWfl0V4LRkETp9230BdF0WIKAT1UID98Ohh1o8WhGnaQJKGTgubl9Aimwhd3Iy jgwg97RzzRg4ZgHcScnjG9Oh108tDNQpD+bi1cga8XjOrf8P4voFQbauX5Ly2ZwC9pPBtBp36zKq EnYNHgZh7K22qee+G9M0T1lkicMDI+mhMMDB0TAKWqgIzWluR8QB4dAmR/aRmRtz8SoiC8fGoE8V edAAElsm4cLEYjiJ9lQJ0ZeiY8zVUMfX2vVL5bjWKhuOvtR2N9Uyjw119HOIfPeH9q94JBzbdHBq B1XR0Lq+c6CVaidqcfHJPC15m/P0LjuDdm4EmkSBNE1mpc7Yocu/K+vWFYlCoYj7YVBjLaCkVLwz eDqSQzzOHgiP5VGcinhWn194qVMAlK1XX0pOLt4aRkX7RyxgsWf4QCeSQCrZ7vfUrhZ5mu7fD8EM bFRoSqG+pYz6VJUAnZdLylnuXQvgu9YCptX5iggTEQoGoMZXm1Cus2YKwxw7P9UG+A1oPWIDGJfQ 8EAcJulun0N10YEiW7dSIayo3aybmexnYtMkhvtrtsGNeOL4N119bB6KgX4WAvprgGHKuYem8QRV DBlTf2BtecY8LwAolmcfnONwqzjdxQDomCrg2cs/+RGI52maWlMmBaQa1EHaHeQ8TAZBSNViRa96 +1EBTF19gYbGU464Iixy/ZkYRGkwBEIKz2uZBneEFYKu0RcdRDvGXTMP7inobnXiTOvIktcPruHC E/rSVTHoRHR5+vyb37xGtqc3EUR8B9cPAHRy/sHHxDxN06KP5S4Fx3iWd1tIpfjReqIjkHXDTrcL xdjDC2CHJyipYFjkZIuc7MYETmwLT06v1ud1NLSDUCCUpWlv6tqPu2EntXthqqJrQ6cBMrdTy9CN ywP1hjDP83p1/sG3rsEA9FAYYMcYFo/OP0rE0zTPnWisH8MWpndRP6ptnOZHGtI7YEfvHwrNtrto VyvgaJ+pTxuJwvkFAwhlH9VeSrXCWuK7t+SxdfELwrlDjZqlMIaI7ShYleF4mCo0pQCWfaRcf1JZ PJamNqJ01ez2mHm54OWj829j/wli91YF0zVNoZzm05fglKZp3n0KjYejxe+Dz8NABGF3LJzPXaIw N6BDCWN6yYEoirMJuk6jru/K6vtq6ZwJQiScQ2GvI2FiWDscog2JpjCupo6AreVhraGutpIRwmki 7ayD8nJSO4sRjEPC5PN5Ppm2y0ef3JUFPLYauLcWkObFM2JK07zoaNYqcQrcf02hIjkVNXs+pDEa TigQ+VNs/ETnHSgeAENtBmGHCdA4hzETQDj7R2BNmQQwK5CtL6Ml9MXLeLdvAKTeIBLEY+VvCWqP IdA6i+Pw6XGOcGxKdbKhcAhNvQwAabGaeFo8v09vAN8BANohUYtzThOnwQPUXab7j7PW7q9Q65Ad /iRzPA94PP1j5AVQC0rhAZYmcocbEiekZPOMqOCABhAHgMltV/vLMulwwHWL6QG7daebqobpZmH+ YU3/hitfMZF6qkrdYYaOA0r8TWMWcKtGUb6tCAQA/fRf+3v/YPHoyS8xz6S6O6ko7o5IpIAw4Nn+ vKaGpLUVaKLnH6EzwtTtcPRsSEJ6GplTAIUcFr+FiEQRzFBnUNUUwoJ3J8x1p5vtAuPxPCPnCBr7 p2FhhtkGdZyZhoLQaqJp9ad/5q///X96YPffOD/o2Cwgvhgp8RKUiDhhmhYVptaLU5lU7aZ3doc6 xN68MW2tZElQGelIIMYeatqdJYwh3xpqCREgmotoWoEOwFIrckRGBklJPwAAFS1JREFUbji2rvs9 7enLpFGT6M9vI6eVKEAKHY4+ip/Jzo5JSzb2cnFXdfBtmUAPAScqQqrA+ctv4vzsDFebTdEFsos0 Uq8ANoCWaCBfkOouTYnx+OwcsMcxA6vlCilNlrqVJtTk31d3bikeo94SFDyVXtI0lfeRGOW5U4Ec W1FIBrYCyBbY5lLWzQJILl+zs4GiyFmwzYLN5hLrq8tSKFKb6EWFDRXJyCqQLBDJWG9yeYwqJJfz AF9ffI20zdhqBmeB5NI+7uaSVTEBUHueZkUWgcgW201G3qyxSoINA/J7iqxYYM8Az2Mygtv2BZQi kMgq5y2SZL26uiLmhGm+76yJn/y7zb83VxvdrEGSFZLzErtnCT+IHmDfjS9f/+g30+L8zWa7ffT9 3/g1rE4fY3lygpTmpvwJMXmc8UPuBaIs29QyJycn3R9fLJeY02QxOxUQx9wfHxOBoXHHhD3VwsAv qCq2OVtjB3fjYL0nsJSDxcrEqNPA6+hOC3M2sQNZtJ4XoAqIZlytN6W4lItnUFFcXF1BJJff5QwR 7zp15pJrw4pAoVkgIsh5i+1mjavLC1x+/YquLr7GRMjry69+54YM4NYY4LqGUN7m/OT1689XP9mH 74En+Pp1yjk/sUSabygPX+sB6EgvwKL0je3VBf/tv/U3t4+fPg0nKusoyyY7SXzo2OlGvxfqg3zG aHm8e4qchcQ0tTuDJrGrLRxnFAHoRCJKDZdExYuX//0bPxnEd3ljC9shj62MrG2ugN+MEUmJNL4O oPYLo6C0nj9Iqm3yaLmrAEERbROJRfxz6XazwS//8j+bEuQJ+tNE+RpdQIcDbiMK5YYBtqS6xR98 9tn05vKqMm5Vo8e7AyDaFHHe2w9Y5VxhiJQPlNpR+zjQ9GpeKB7VHgTs9hUwt9fy6iBQLrColAtt 32vV/tvAxyocLayhu/ryHCnP70KGQlQI/nh/nVx6gvxU0TpMUvufIVKAoxtFvA/l76w3G2OQMvbE /qMqvdMNi449L8oQJUzAD3/0Q3z95sIWK7W2Ll+4uuipI1y6BfTZQmFhvdWcveZvRZouhw+VvsTJ Mrny2MRtwZPl/mrHsiAla+Swnn6QxfByf865GkND88UocpayCGL3Z8sC7PmSpRlSfa6YwYTvzWiy 5GZEqmVGsC22ZIGq318yAjeaMlyy4AciwsRpPgAA97n+o7IAulYNZFM7fvjZZ1iuvq7zfeqi+4Il mx3ki5GcmUt1qiinhEQJnIqhpOR1eUvxiJHYASDV53LyBWaklOrfa48tFcCJxR6bkJLRS2LvBU0P mO2iiwiy3TQLtpIhWQqAszSwALKygCLtZxGBSrb0cmveIVsKZ8/XbKDOvE4u92s1sGyPNWNwQzEv o/Z+VAXb7RbTxIBinh89O928+fyrI9D/0SGADmkBio6D8MWXX2J+c2k5/WRMG1tp1fP1ZLsygVMK +XtqbjnZ4+0+TraonDCl/vEp/DxZZsApY+KElBPyxEgikJSQlKGp9PNMHqNT4Qt8EITH8Wy7M0su i1vSq/CzINvPIoLtNtfFy5bz55zD91IRfs5uBBkiGdtsC1wXtz3PjUllWw0i5xw8ihvdFpKz1T50 sTh58mTz5vM/uKEmcG8iqKv1MfWnerXGDwyFl90TRLBXJr47TUQDwdzVydEaOv1nISldRkAXV8uI FwmNIGLj/xtVLe5aLRSgxmb0B0TGEi7tJktxMlk/Kr/VMJkImWKxbBx4BWTySSElnJW+Ax2GZNQi U+I0rwYAeFQaeNtp4Z1lOfWr2DeqWhul2bTX9QweBzbtVA3tLnRF5D6GQX2Qo7ZJHg7GBBBSJG2x XqmAuFLe9Rld2Tp4TPvfZQEl13dP0OKyx33tjErCZ8ghn+9Cg3mEbt5Q97n6yKyxgqYauAYcPFhK wynmN9Rw7tUadsCtaBdQ6nINvD0Nb5iDCrdtsT71aruYIEJ2hErzChqIElKxCVpaiRn/OZtEW2IB KfQXItQt1IZBOZjLAYl3RmH9AlVJDGkgTwq49A4j/xzRwHXIPXU4cVyjx0E0Ft29pnWwwd06hO8i Cx/2ufmc7kPGFdd2PErnTu3hrOGgRUW7HFoHJSznMrIFYafWOf4xTRJFtoMYyVI4IjV1j5RhL5ot 9GhtUdeY1lkqV9I6R+7mBaAVpVdPo40lLL5YMXHG1dqOhTEtQOMH2uev3ICOS+2nkI97PRqd9r0/ h3f/vQxA94cBaUqKunph7k4lSQRKKVQFG2lSlfl23HodjtvtDALpBs+XF3i1eYK1ciBmUHNjUZva pUV373N4G83MSOxdSVxLzhoukZMt1ROIpXuqBsr25O5dPl9+XvAWj+cv8ftXJ1DMgdhplLdfm2AK 1ooejUH764EBi3TiQiKblHk0+r9LCNhvHcMpG8Z1tXq+zdlTapM2yswdxwAthrX52k0fT7rBSl/h 5NmH+N0vYdO040KkmtPncIq3iNqkLzauvZzoqRx1CW1Em7vdkmKFnZ5bWBEzDBEPCxLODSKkBHzj yRL6+hVIJigtwlKNpE6I353zDEwkgg20q1KHSdaTTEReffXpb/72NTT+vfsC9r4o+U6Q8AmiS1R0 AKVSphVAtXgnDrY6VgygzStMWOMXf/4ZThYUqFetZVoRQ/o1BjfixnNwT8O2eYu83VaAtg0pW956 uqYN0GnuXrMnc7Qxf6o4WRB+8eefYcIatHnVikWWVbQtIoFObt4D0vBPxEZWWaoZSMCIJiqhxXzy +NEBzHbteh5bDdxjNxTm6mmdfRewaY3pJc2SMn4lxDAKiJ+iQYSLw+vPkHTG88cTri63ZWKmGZXA T9pgiErd+TFb9fEuhQ1s6ZZQHtJJO7czVPh8p2swCM8IIl3s7/nqMuP54wlJ1+D119Dpo7DIqF9F tN/pGpG8dgA5IKIe+Qc3zMTT4uTp+ebi1ad4y0OidryBh31Rb4vWNvdOI9ptH4OGXe6u3I/iiLuD tq8BPAMA/Oj1BstFQhIBb500UjBrifGsRibBKOUywTu2lPfj43o+wRepOBSpNG2ldq3kKwMDmPMG OQterXPLjravu88hdaNoHQccC02CljGonVAqGt+XYyUNWMKfIxOnxfIuofx+Kg4djkatCluttfMu 9w1YIAInP5QpYoOSy0v3GX7pL7zAPKc6YJr3nEXI4yDpSMYESVZUbemYtYSvfUjaf/O0cbPJ3bUW EdhZ89VbiIM9A9ItRXTSKnjAQFVHfkTt+XUMldaxVofKv/pQBkBjYkLmOpMzZH64cohvTA3aUWe5 bbHNjdj4dbJc3sKHZFxeXOJv/OWXWKyWdv7vkbnLTgbd8XZ7jngcPyzduI/ImMT15RX+4LPPIZLD 57MhT/459xhQn/lYaCE0VnK8Vmqy+ZFXuAOQv6cHKIvP8aBkm6apdkhyanXwhtxRjkvjZF00TO1A ZVGIHbHihpK3Ga9evUKaElarFaZ5QuKEzXbT7ZTb/HPad5qmTrx6q91AhClNEBVsN1tcXl7i1atX yNu8k/u7t5MaEgrfgJBNCKReK3LQ6YDRHS61tGHPZ39nx8Z1qN6BDAmgKWIDY+XAxbUlVG4ejCFM aD2IiZ2CLSco4PLqEp9++ikA4OTRCRaLBVJKWK/XwUWOunrduyt8EETOGdvtFsvlsvv9oYXe9zcA YJ5niAjW6zUu3lzg008/xeXVZc1sfLSYqClNY+iI9X4LF05tRx7AM4QYKjS22u7MXHhHBtDereXS du5Ndf8U8n0qhA2DkFWRCoFfj2JN5B/cDl9KDEjG/Og5vnz1Kf7Dr34P3/1zfwZPnj3FcrnC6mSJ i4s3hWvfQaV7XCL19+fNFlvJxQBUsdPPtk9DM1xjZsbJ6gRXV2tcXV3iy8+/wH/9H7+B5ZwwP/oG dJMbNnKaWVvtH1F11BPi3cYaFUoVT8UBFHecEDDd1fX7YKOY7zcWUOp4NTXrJ02Fjk02iNkmYoto nbVf+glCEYYyeHGGLBu8+eoz/Jdf/y0QERYTYzETMmZsN9vaPwhC1+TRAcA6hKJkBfM0YbVgvLnY IMehkBbPVeL8YOlSRW/jSlPCxIr1eov1trjqyzUwnz5HWpxBrnLhSsADdRyYTLS470qgkhXlrpbg TKFT0q0SOpyO8m49gM9IFCvwcMvrq3H4Ts9QSnYQQmrVOj9owYCTj10Va8+dlo+RRXGx+UO8uVyD AMxTKQZluWrjYKkfDMmdDnFUEBOINnbgA3VxGhUYhmxAxsxA6k704RWbrSHytMCTxVNMy8fQLy2m U67PUReHOKCTVmmEys5Or6lfyAzKffkAUw99JwZAfsF853hoD2keDAcU989gH8kjNimbCzBojJnU Axr81A7RMpp1ozMuLrfYbrfmsYdzBUjDuFndc6Rc35m0lx7XrrWzq0p26WGXIraDJVJKWK4mO1u4 1DeIqDKJRdYlDel3haVWeVRpr6uVJW26QkD2lIj1x+ABIB0vT0p1wrXW07jK2PWSC0uZo2vMnZ+k wKyFCLLQUIYpSiVMgOKyt/Pc9H2qVQpGoUG0H8vCOwtPYUQcMUOy9NXJroiErmRdd2VA+DlvKx7g lDDPU62TRlfeaf+q4QT6GyG2G8NZRaBd1bMJT0UjsXZc2vfABuBcQIj5sdBj7qwodWwwsq1AF/P8 jB0u6Rnb6HWxghAzYbVaGnKnuiPKGQUUDoY6cHDELqyvquBMue120r6ZNVbwgP6rsXfuXZLJ01ar ZRmZo4osdlrYsMvbDpdWVHIvgZAaVkHK4C00lt/rffouPID79a6e7eyfWEm2XaAyTYvY8nvWyoKR lhm5ytqeW4UbhTwCKS43wKN5wun5U6gqrq7WVXGzmBfdaeLdkSv7BkXvM4CUe7oo9O5Hlx8ZuYrQ RbHhLYiAKSXMiwXOHz9FmmdcrtXCoprQU6vIs6mQpcV+7YthCNSxM38REzSDAqC63ly+fv0OQ0C/ E+LRiDUzELVDkaWeyAUVqJDN3BUfsl2IJC3TuVkznBGFAl9fMhYpYTo5w5luMS82yLKFiGCe5rLb qJ1KWv4m1SPeaMjbawpn2kXJupc8HGcItkptq2xKFmy3myJ6TQmLxQLzyWMIFF9dNmAnEqRlttub zKyFBgTPgLFnQCJnEFNDAKo5by6u3hUI1KoH0XZUKttRahA76dpBnAiYyolZrFyNAHCPYLN2q6cw dpELgXK5UXzxJmGaFKePHmNeqRV7BJst1aNqgDD6leJQtX06JpQjWURAaWqTzbT16ms8rxWDEdjX bd6CIYWVlGJUFxvB6y1wtRUjf4K7D2BOgjEghofq0qVqEToAGDIFgwro3+DDYYCh0jPcRy1FIpYq Yapx32I5qKR4KU3lAwhBWeqY1ZICFm8hIqUnQHJJKRPw5opxtc44OyEQyslkiwlQTdgKYbNtAx7A fh4P1ZO5vR2MtM3xLw2eqSAP4XBmIDVZGrUhTvUs4brj3PXOIBIkATa5lHkvN4rXbwQZaHRuAH5+ 2ogrkATNSypyY0UtWxBf9FCprDWDtiyqVZTxsB5A9xnE9vLL/8aL0790eXXxspRkJzBPoMQAtnVA xMnJCSZMNa8uTSJF+UPKELGSLgmUpY5oEx8FLwzojMyEN+uE9VaQ2I6pd3PnOF8PSMNhkhoPrEQw Dkq1EhnlY6LDOUKBkpXKznEgjsqrZltUyYp1brrCvN10GoLGAUgoOQfAJ0GLaA0hF5cXXva1TuMt JG+hpbPoUjaX36/lxX6tbgwJt5kWXg3gqx98798tXn/yg7NP/uI/QpqfQBIrJ6att3uWx1/I9ozT vNKuvBknAgYKtpOXNxHJR598B4vlCleXqTsYqpvhwwfGzIex9HFMfJzVX/FBPCc4aBe6wksAf77o XZHLUzdb7M36Er//g++DOB2QdetwRYZJSaVeIrJ+84cAkfo/yaoiWfJ2c/XVp7+y/vJ3/qNKztd4 7IO6QLqmETSZgSwArACcADgrN3oM6Hn7GSf2mAWA2Z7LT775Cz938vxP/EwpClY5mNKBAubQxkqA bqeT598hpily8Tv8lx5IT2+gSeL+p+vTnv3D+OlQ3dXVxpK3F19835oRdtU84am6B60wEbbrrz7/ 0f/6lX9jO3wLYA3gCsAFgK8BfAXgdbh9BeANgEt73KY0RED2GcgxBjADWAJ4BODUbud2O7OfowFM dmOAEnYbFm4lQn367b/63bQ8fXJEYUrHV9prABo5vjjXcj+hvtdU6bjSW16/efXF9//Tr92kWLgG f7kE1FuAt7agl3b72m5x8b8OBrAeDEDGv38bEOhvwt+Iv5k12nCC+DhG1eAeNb9urzF+8X//8/du ULreeVL2A/27jo/VA19vMoRD134Trvk6fL8Na3Not9/q1LAx7u+zwrU9Py6+35/QT6zgGyTLdM3i 0oHH/rgXHkcu9nVGcNP3Eq5rvPZXwcVHY9gOu/1GIHisB5A9u/4qLHBc/CkYwLFjzK9b5JtGnbxP HmAfAtcjjeG63b9v841GsBk8gRyTFk633P0be846LDCCgUzXGADfgDtwzeIfMgR9TwyArln461yx XuNB5IABbMOuv9xjBNED3GgE054PMn64Mfav0c9/dsOYewBYQ8ChsSXXeYGbbu97CLjpdhMekAMb MIedfhWM4CpgATeCo/7uMSFAwg6nQVwVU5N5wATHnG9PR+z+60IIvYeLvy983uQFrov/+3BA9ALj Le9B/UeHgFENp+GP0x4DyDe4/oTjx5bFmUTYEzb4AC54nzyA7lnAfd/flDGMtzxsxIgH4s2N45D7 P6o5VIfY7hc9D4/JAy44tPM5LOx16Rvv8QyjF8B7GgYOUbByTU1FjgwjMoTiiAeiR9juAYG4DQa4 DtzIHlyQ7A+lId7zkYt3CAccgwXwnhrATRjgGE7gOiOSARPIkP+PGcCNqeB0xOLjgCUHwmdnTi0O LPx1wyhxixTwfUkFj13Em+I/XZMR7PMEozFIAH6yZ9M+WDFoBIc3HVx8zI6lG/iAY4zofcYCN+1+ vaNHkQMe4hhvc/TOOTY/xzVp3rFu+zZs4PtMBB3yBDiSBKIjjEcPgMqbAOadLt5N+foxlO6++3QP CNQjnve+EEDHEEKHFoP2uOh9YYCO8B56JL18ZwPAkYuKG+L8bV//fdztD+EVjlqYI6jiY7AIHtoA buPGH8rjjDvkjwIGuO6svvss/rEGhrdtAG9zZ/5R2eUP6R1+bK/1ti/2H/fF/KNoNN2//wfnycCi 0j6atAAAAABJRU5ErkJggg== "
     id="image10"
     x="0"
     y="0" />
  <image
     width="12"
     height="12"
     preserveAspectRatio="none"
     xlink:href="data:image/png;base64,iVBORw0KGgoAAAANSUhEUgAAAIAAAACACAYAAADDPmHLAAAgAElEQVR4nOy9ebxlx1Xf+62qvfcZ 79i351HdUrck27JlW0KOJYRtZDsYbGPHYAM2xuCQQJ7JI7yQOMHPDI8YQj4hYB4Ek5c4QOADz++F EGzLEwh5ENasbstSt3qebt++fed7hr131Xp/VNU+p9tSiI1u33bySp+jc/vcc8/Zu9Zav/VbQ1Up /gccIgJgAB1e0sO/LopCLS0tjSilFKBExCml8tHR0aU0Tf9bn6kBNfSyA1BKyfN8C1dtqL/+Ld9c Y0j4qixLNT09vfHs2bMvevLJJ+987LHHbkvTdJcxZtJa22i1WlpEKIpCFhcXyyzLOqdOnTq/uLh4 pNfr/WWWZV++++67D3/wgx/sMBB+fDggCt4BzuvTN9f45rviv2asrq6a+++/f/8DDzzwzlOnTr25 Xq9ff/PNN6cveMEL2LFjByMjI6RpiojgnKv+TimFiNDtdpmdneWZZ57h0KFDnDhxYklEHn7Tm970 0bvuuutTmzdvXmQwb0IQfnjYbzY0+B9GAd71rne1lpaW3qa1/kcjIyM333777frAgQPUajU6nQ5L S0t0Oh2KosBaWwn/yn9rrWk2m4yPjzMxMUGz2WR2dpbHH3+cw4cPdzdt2vSZ7/u+7/vlW2+99aAx JiqAACVg+SZTgmteAQKkVyNaaoTbnTt3NsfGxn5027Zt/2THjh2brr/+epRSXLp0iX6/T6PRYNOm TWzZsoWpqSna7TbGGEQEW5aU1lbf4Zyj3+8zNzfH7OwsFy9eZGVlhSRJmJqaYmJigvn5eU6cOCFZ lj36Az/wA++/7bbbvqy1dgwUoATKbxZ3cM1epYgoBuRt+DoFYGFhQe68887v3rlz57/ZunXr9kaj wfT0NLOzs2zcuJEbb7yRffv2MTU1RVEUdDodsixjfHycRqNOvV73n6QUZVHQ6/VYXFxiYXGBbrdL mqaMjY0hIszOznLy5EnOnTuHMYadO3fSbDY5d+6ctNvtP3/Pe97zD2+44YaTeAUo8Chgr+qEfYPj mlOAYRIXXoqkq4KCr371qxv/1b/6V/9eRO6p1WrqyJEjzMzMcN111/HCF76QXbt2Ua/XqdVqbNu2 jcmJCVrtNqOjozQaDZRWIFQoohSIE1zgBREJFhcXOXv2LDMzMyRJQqfT4eLFixw5coSVlRV27txJ o9HgzJkzvf379//Cj/3Yj/16lmUFAyW45l3BNaUAQ1Y/bPnxgYjI7/3e793z5S9/+aNTU1OTR48e 5Stf+QpTU1Ps3r2bAwcOsGfPHjZv3oxzjiRJ2LZtKxMTk9RrNZI0RWuNcw5rS+/3h0WkFCo8wveR 5zn9fp9+v8/8/DwLCwsVIhw7doxer8fevXtxzjE/P/+FH//xH3/H7t27p/EK4LjGxzWjAEH40fLj IyqDstbyK7/yKz81Ojr6z0dGRszHP/5xVldX2blzJ/v27eOWW26h1Wpx/Phxtm3bxo033shIu+19 vfNonCQpaZLgxFGWJeIcgiACIg4RQZx4z4DCJAlJkqC1pixL+v0+SZIAcOHCBR5//HGOHTvG008/ zf79+9m/fz8PPvjghbvvvvuNr3/96x/6/xXg6xgiEhM3w4I3gMnz3PzGb/zGr770pS/9gdXVVT7x iU8wNTXFxo0bueOOO0iShC984Qtcd911vPzlL6dWq9Hv9yiKHHGCVgpjDNpotNaIsxXUIx76/TWE a6muSaG1Js0yarUatVoNYwxKKTqdDqurq5w+fZqDBw9y9OhR2u023/7t385f/dVfdefm5t72gQ98 4M+u9jx+veOaUIArrL8SPJAWRZF95CMf+cg999zznadPn+ahhx5iy5Yt7Nu3j927d/MXf/EX9Pt9 vuM7voNms8nq6iqdziq2LDzM2xJnC/q9Lv1eh36vS7ezSr/fI+/1ycsCsQ6dGNK0Rqs9QrM9SrM1 QrM1Qr3RJM1qZFmNdrtNu90mSRJWV1d54IEH2LRpE5OTkzz22GOcOHGCoih4wxvewMMPP5z/zu/8 zvd97nOf+9h6zu1fN64VBYgWH4WfAKlzrvYHf/AHv37XXXe99fjx4xw7doydO3eyf/9+8jznj/7o j3jta1/L/v37WVlZYWFhgW6nQ6ezyuLCLBcvTHP+/DkuXpxlaWmZTrdHnhfkeU5RFORFQVEWuNIi gNaKNMtoNZtMjI2zbcc2du3aw3V797Fp0xYmJicZHR2lXq9XXOLTn/40c3NzvPGNb+TMmTM8+eST XLhwgTe/+c089thj+Uc+8pE33XvvvZ9cz/n9b411V4DA+hMG1p8AiYjU/vRP//T9N998809cvHiR 2dlZ9uzZw/bt2zl8+DAPPvggb3vb20jTlNnZWRYWFpifn+fC9DkOP/VVnjl2lJkLF1ntdHHOolAk iSZJEhKjUAoP/85RWktZOgprcdZRWodWhlq9xsjoKNu3beXAgZs4cOONbNu2jfHxcWq1Gq1Wi3a7 zVNPPcWf/Mmf8CM/8iM453jkkUc4efIk3/Vd38X999/f+U//6T+98rOf/exj6zjNzzmuBQUYhv9o /dmXv/zlNxVF8Tsiop1zHDhwgNHRUR555BHOnj3L61//elZWVpiZmWF2dpazZ89y6OBBnnjiCS5e vEi328UkmlajzthIi5FmjWajRr2WYBRoHb/fUVrBOoe10M9L8tJRWEenm9PPPTqMtEfYMDXFnuuu 4wUveAHbtm1jdHSU0dFRNmzYwNLSEr/1W7/FO9/5TtrtNl/84hc5duwYb3zjG/nYxz529t57733x l770pUvrNc/PNa4lBYguID1+/Pjuz3/+8w9MTU21FhcXufPOO9m2bRvT09PMzMxw/fXXMz8/z/nz 5zl//jxPP/00X/7ylzl27BjLy8tkacLkxBibNkwwOd6ilmqMEhCH0QIIqVbV3VsnFNbhLJTOgTIk aQ2lDb3csrjSY2FplX6/IElTpjZs4Ib9+7nxxhurDOOWLVsA+M3f/E3e/OY30263+fSnP82pU6e4 5557+OhHP3rvY4899oYnnnjimkoQmfW+gA9+8IMR+hWgiqIwv/3bv/3/tNvtPQ888ADXXXcdN910 EwsLC1hr2b59O7Ozs5w5c4ZTp07x4IMP8pd/+ZecPHmSoiiY2jDB3t272L1jC2MjDZwrKYscY6Dd SJgYqTHZzhhvp4y1EsZaNdoN/9ysJ6SJwTlHUZaUpaVer7FhYpQNkxOYQP4uzMxw+vQZZmZmqryB tZZ2u80dd9zBH/7hH3L99dczOTnJ448/zhNPPMGLXvSifefOnTt77NixR9Z5yi8b644AACJScYCP fOQjP3zmzJnfePLJJ9m+fTs/+qM/SrfbBeDAgQPMzMxw+vRpTpw4wUMPPcRDDz3EwsICzWaTHdu3 MrVhAqOEzuoySiztRsZYO0OLpdvvFWlaP1dvtJ7evnPX0wuXLixpk3SttS2d1HecO3vqBrHl9Vq5 Dc1mQxUlLHdLSgf1epNGs8VqL+f02RnOnpumtJYtW7Zw2223ceONN7Jr1y6uu+46kiThP/7H/8h3 f/d385nPfIY//uM/ZteuXbRaraUvfelLBx599NHpdZ3woZGs9wWEIQDT09NjJ0+e/D+efvppLly4 wGtf+1oAzpw5w6tf/eoqA3f06FEeeughHn30UVZWVti4cSM7d+5kbLTF8tICvc4KjXrCaKNOZ3Wl zJutB/fuu/HDt77s9s/dcddrZ7Sv4smzFWyeePjztccefnDfzPTZdzxz5Ol311K9o1FLWeqssNLp MDY2xv69O2jUM46dOMOpUydZXl5mdXWVfr+PiLB//36+53u+h49//OPcc889fOpTn+LRRx/l9ttv H73xxhv/9e///u+/4+abb76qE/xc41pBAA3oD33oQ79y7Nixn3jsscfYuXMnP/MzP8ORI0d4zWte Q7fb5ejRoxw5coQHH3yQhx9+mDzP2bJlC7t378Zoxdyli7gyZ2ykRrezardt2/knf+d7v+/9e/bs Pbxlx56vOy//wP2fyr54/33fceiJR3+lnpl9ThmWVwsazRajo6NcnFvi6SPHmJtfYGJigjvuuIOX vvSlHDhwgAMHDnDq1CkOHz6MtZZf/uVfZmxsjJe97GXlyMjISz74wQ9+5VqoGK47AsRS7JkzZ6a0 1j9y7tw5ms0mb3rTmzh+/Di33347IlJZ/iOPPMIjjzxCWZbs2LGDXbt2UZYlMxcvkiqhWU9YXe09 c9vLb/+ht37v939hz74bv+GCzB13vTYH/vPhJx/7xO999CM/efTppz7QGmnXl1aW6Bc542OT3Hjg ep4+fIxLc3M89NBDpGlKkiQ0m0327dvH4uIiS0tL3HHHHTz88MMsLy8n4+PjHwLeHO7drqci6L/+ LWs3QgSQAPq+++77saIoWvV6nde85jUcOHCAvXv3smHDBs6ePcvx48c5dOgQjz/+OP1+n23btrF7 926stVyavYhRgrW5TE5t+v1v+7a7XvyP3v/zn/+bCH947L/5Jf2f+6Xf+Bff9da33za/uHKyWUvp dbtcunSJ0ZE2Bw5cz4YNk8zOznLw4EGeeeYZTp06xdzcHC9+8YtpNpu8613vYu/evfR6PbZu3fq6 Q4cO7SHkPcI8rMtYNwUYDv96vV5j48aNf7fb7fLiF7+Yt7/97YyMjLB3717m5+c5ffo0x44d46mn nmJlZaWCfV+rv4jW0O91ZcPGTT/3/T/w7nf9vff9085aXPPb3/neQ3/37/34ywrRjzVrKf28z6VL lxgfHeX6669ndHSUs2fP8swzz3Dy5EnOnDmDiFTh4vd///ezadMmms1m+pWvfOUnGBS9zHopwboo wJWx/5EjR+5qt9ubm80md999NxMTE0xNTSEinDt3jrNnz3LixAkuXLjA+Pg4e/bswRjDzMwMZVHQ 7XQky2o//8Y3fffP3nbHK9e0AnfPd7zl0gd//pe+banT/0otS+isrjK/MM+GiQn27dsX+wM4c+YM 586d49KlS0xMTJCmKS9/+cu59dZbWVxcZN++fW/P87zJIAQ2V3Y/XY2xXggwXPUz/X7/Ry9cuMC+ ffu4/vrrMcYwMjLiU7sXLnDu3Dmmp6fJsow9e/bQbDarbJ9zjtHRsT/83/7xP/nZN3znm6/KDO67 4cbFfddd97rZSwsXs1rG/MIiq50OW7duZfv27fR6Pc6fP8/s7CwzMzP0+33Gx8dpNpvccsstaK0Z GRnZeObMmZcD6RXzcVXHVf/CK5o+dFEU9cnJyTvn5ubYu3cvIyMj1Go1yrLk4sWLzMzMcOHChQr6 JyYmKmIFsLKycvR1r3vde7/lFWtr+VeOX/m13z67deu2d8zPL1qtNXNzczjn2LVrF2NjYywvLzM3 N8fCwgLLy8ukaUqapmzevJktW7YwMzPD0tLSO/AcqKqEXm0UWE8SqACztLR0oNPpTLZaLbZv306W ZSRJUlX3orAbjQY7duxARFhYWEBEWF5etrfe+tJ3/dAPv3d1PW7gVd925+cmJqd+tyws/X7O0tIS IyMj1XV2Oh263S4rKyuUZUmapsT7nJ6ept1uvzokwWJGtup+ulpjPRTgshucn5//1lOnTjE+Ps7k 5CRpmuKcY2lpqXrkec7GjRsZGxtjcXGRbrdLWZZMTU391zd853d+aR3uAYB3v/d9ctfdd//00vLy ilKK5eVl+v0+W7Zsod1uV+1keZ5XLWq1Wo2pqSk6nQ7OuR29Xm+Sy1cc/Q+vAMNDVlZWvvXIkSPE JVkiQr/fZ3l5mZWVFXq9HlmWsWnTJsqyZGlpCRFhZWXF3nTTTe+/55571rXx8n3v+4czW7du+3f9 oqDf77O0tESr1apIbK/Xo9fr4ZxDKVWtOxARpqenk4WFhevDR/1PEwXI0MMtLi4eOHfuHNbaylpW VlZYXFxkZWUF5xxjY2OMjY1VCmGtpV6vP3z48OGvrsP1f83Yu2/fr3Y7nRJgeXkZay0TExMkSUKv 16Pb7bK8vEye51hrqwLS0aNHmZ+ff1H4mDgnV3WslwIASJ7n6fnz5yfn5+fpdDr0ej36/T4rKytV bl0pxdjYGFmWsbS0RBF6+G+55Zbf/NjHPnZNtF2/+tWvPlmr1Q5aa+n1eiwvL9Nut2k0GpRlyeLi InNzcywvL1eIMDc3x9GjR1lYWHgRfj1BNS9X89qvugKEtKcDpN/vN44dO9aam5vj0qVL1eT4vr4O ZVlSq9UYGxurGjGdc4hImWXZp6/2tT/XeN3rXifbt2//v4uioCxLVldXqdV8D6Fzjk6nUyFav99n dXWVS5cucfr0aWZnZ7fiVxMBV3+l8XpxAAe4TqfTOnPmTNrpdL5GAfr9fuUv2+02q6urw/A//cIX vvD8Ol37s44tW7Z8pt/v45xjdXUVEaHVaqG1ptvtsri4SKfTod/vVwtMFhcXOX/+/EY8AsQFpld1 rIsCBBSwS0tLenFxkbIsWVhYqBRgmDm3222azSZ5nlOWfjHH1NTUkXe/+93XVM99v98/bowpyrKs FLXZbGKMqdxWdHPLy8uVO1haWsq4fJn5VR3rFgUopZifn6fb7WKtrcK9GDqJCFmW0Wq1qNfrWGux YSHn6Ojo8fW67ucak5OTy41GY6UsS/I8B6DRaFCr1QDI87xS7ij8cL9x2du6LChd1zDw4MGDlWCL orjsEePmVqtFs9msrF9E2Lt378n1vO5nG41Go99sNjsiQlmWaK1pNBrU63XCJhQVinW7XYqi8KuW rIV1LAmvdzm46gcoy7J6xFApTdPLVuQ459C+nbe3ntf9bOOnf/qnpVar2bjXQJqmZFlGmqZVz+Dw PQ4vQv2fth9geCEmUG3UEBVDa13l0JMkwTmHMYYsy9bxqp97tFqt6n6SJCHLMozxWV6/INWjXZ7n 1T0O71KyHmPdEQAGy7SjVcRJMcaQJEn1HIfW653AfPaRJEl1T/G641rCKOyIbvEe17stbF1nMu7U ESct/jxcEVNhYWecKK31NasAWuvqOuM1Dy81j0KPShBfX89xTbiAK13BX/f79YbN5xpXXtdz3dew oqy3Ml8TphQhctgarnQPw6+v96Q914iCjUWf4XuIXGAY7Yaf12usOweI0PhsExIV49lev1bHsCJH RY3h3pX3ci3cx7oqQCyRApf5xOHHs03SteoC4vU+m6CHX4+/uxL11mOsO5Y+Fwo82/Zwz/W7a2UM s/th5Y73dqWrey4Fv5pjXRVg2Jc/m3VE2IwKMhweXssjXuewlV/pAq4VN7CuK4OezfdfOXnDcD+c NbwWRxTysKU/W5gbkeJaSARdEwoQrXt4cp5rYq4F2HyucWVCCwYEMI7472eLfNZjrKsLGO4DjM9x 8mJNYDg7eK0Qp+cacd+g4escvvZhRRh2Ces5rgkEiD8PI0Ksqj2b0LXW1yQERAFHAnil4l6pHNcC mq2rAgxXxb7GVzq/CXf8fSykhATL+pvOs4wrLd9fZrD8KwQ/HC2s51hXBYi7cPrhUDjE5mBzlJRo KVFi0QiI+FUT16j/j0PEX6u4ElwJtkC5HKU0ypUgFnGDHtD11uX1dQEiKASjBYNFS4F2oF2OoUCL nzxcSqItSvnJRaz+yu+9O21sHKkrYxRFYQStxFnEinIObG5xZYGUBSPbtyYiNkEUOKuU1oiA7c4l Km1aZWoirkQpjYhFwJ3/wuf6SilQimy0QVLLSEdHRZmUbGRCFKBqIyVO3Oq5C/207vjV+yHRkGjx 9xKu30jhFUByrwyuwPjdj//nU4BHP3xHknftK6Wfv35+7pM7jIJUCTUDyvZRiUNLD+P6JKQo20O5 BIMl1YLWjr210/9MHD/ZXyjrOjFaJ02tVKL8ni8WpESp3CuMK1g6dtyU/a5xRR9X9L1i2BKxpRLn BASchKUZCpQWbbJCaY3SCVIYrBicLdCpxnaWRSU1MdmqxWQuHdnSN2nKaH1lMlFClgiGAmX7aNcn VQWIQrs+lD1S7e8lUUIjyTc98ZE3/LotylOk9t7M6IMveM+nrppWXFUFeOzDd6Td+c695Ur5Kikd teQkWTJFLYVUWyi7iC5IVUlNF2jbRUsf5VJSVZIaMEZhFG2tTFuJQqNQTnlh4zz02j4Ufci7SNHD 5V3Ie1D0UWWOKkvElihxKHEKB+L3jwcUSotSmJpv0Ba0gBLQAtp5ZdGCf9agtEGrlARHlkCmhUQK sF0S+iT4HkHteijXR0tOZoTcCHUt43ZV/oEtBcF9yKXFvwD++dWSyVUNA/v94rul516lrUMjaITU eOuvaYt2PbTtkrgeicrJdIGRPsb1qWlHPfHwaowmSTNMmmGSFG0MSnslUMqBWJRYKjSQEqWcf2hB G8EkCm2U30A61Zg0waSaJDPhZ4PODCZLMGlCkqaYNMVkKSbL0Eni/11dQ0JqFPUUaolgyP21S05G TkqOtj2U7WFcTi2BWqIwWJQ4tLOootBSqp985P989farJZOrhgBf/JevzFTR/ZAGSDUIWKOoGbCJ UDOCdj2MGIzr+EkTjXE9tEtJVEktETCKxBhMrY4yGcokwXIdqgSHQ2ERShQlCotWAsqCETzr0KAE uaysLCg0ojUKjTIGZRL/SFJ0kqGSFJVk6CTFZDX//UmKTlLQCakRMgONBFJylO2SSI+UHJQipY+y XQx9aokjN94AlAZtCIvlbEPDzwB/72rI5aohQFYrvs+Ius5oMKnBpIZLKwXNTJPgSFVJoksSyclM SU2XZKYkVTna9UkoPFdIFLMLq5ishkkTdGJCHV5AObSyaOVQynokGLJ8YxQmUZhUoVONzgw60ejU W7quJSRZgqklmCwhqSUkNW/1OvWWn6QpSeat3gQU0mlGXgrYklQ5MuMw5CTSJ1V96omlZkoSlfv7 oCTTQqqFMu/jRNDBvWlxaOFdD//bu7deDblcFQV4/CN3NmqJ+QWjJEyqIa1pfvPPp2nUEoqiR97v 0l2ao99bwubd6pH3Vun3lsm7qxR5jyzV/O7HH8GqxFui1mgNWjEQNt4FGO1Q2qGMoBOF1t5nm0Rh MkMSID+tGZLMkGQpSRaUIEvQQfBJlpLUM5KsRlKreReQ1dBp5t2ASfjsl55icWUVZwuKfo/eyiK9 ziJlv4Ptr2LzLmW/Q7+7THd1kX6vi8Zx9tIKh86uYFLtrysBbV2jlpj//WrI5qq4gMKWP9yQZDtG gwnn9QBbxhQPHXwGl6/Q6fRIsxojzRqd1VXyvE+W1RgZm8MpwxNPHuXcxQUmXMp8V9McncTlHRAH nsyBdjjrrd4YT+xxglOA8dAv/qxPn4WD4D4gsDmU1ihlUDrAv0lRxsN8dAEqqaFNGlxADaVT9u7Z yof/+D+zdaLGzGyfxpcPsW3zeYq8x+rKKsZoRkbnSbLTHD89zanzl6g12jz+5w/w/T/3PejlxxFR iNOAw2j9g4f+w6t+4YXv/vMzaymbNc+qPP4fvrXdrGVH7XxnEzFJIoAIPdr84n+e5i8ePUk9VWwY G6FeS8J7XNUWbp0wc2mRxU7Bt/ytu/ilf/x2JjkNSiHiwOY420dsHyl7SJnjyl74d+4jgzLH2RLF IAvnSX88QEqDMf5ZGy9slYBO0WkGOkMnNZSpoZI62mQoUwOToXSCE83HPnuYf/mbf0yR99gw1mKk 1UArvxO5UpAYvyPupcUVZhdW2Lh1F7/w0+/lhep+KLu4ovCJInHoLIWR7N/f8LZPvGct5bPmCnDi T1//T6WrflE6naFv8z90bJ2HT9Q4N7vKqh7nqVMLnDl3kdm5BYrc78w9MTnJDTfs52W33szuqQaJ XeDAnjE2jnnWJK5AXAE2R2wPqZTBZxTFFbgiBymryZXS+nA/JHqUj/2DHzEobUCnwfoz/9AZOqn7 15O6VwSTAv591sKJ6YInnzrKpRXH4ZMXOXriDOenZ+j1eiilaLfbXLd3Hzfs280t129Br5xmxwZh Z3sWjc9NDDKFYMbH8nNnFm96xd//7LG1ks+aKsAj/+5Vk5t3bzzmVlbHsOXQyne/HG61qHPobJMj R07Rbre48YU30RoZp59bCuuot0YZm9xOY3Qjh5+4j+mz59i2Yxf7do4xNZECDlyJuBxcgTgveC/8 wmf1bO5/LyFH4LwSICG4R6G09oJXfu8qZVIvaG2CoD0CKOPhXukamJp3EzoDpbHOcPpCj6eeeoaV lSV27NjJhg0bsa6kyPuYJGF0fIqRyW0cPfhZDh98nEa9zoF9m9kxeikogEWkDNlOh6rVsWnt/12Y WXjri9/5yTVJDq0pB9i4d+M/S3RjTOoFEBfBhn2QlCLtGSYnR5icaKGMIu+vgCrp93Ksg7JYQVyf 5YWzIAVTGyfYsGECnYDJMhALorxfF404hTgDLvWogPPPYsEVXgls6Z+l9NejfNgHeOg3KSgDKgk8 oO6FrLOvET6kKJ36GM4KWVayZesmLs2C1kKvt0xRdCnyHkoJZb7A8vwJ8t4iIyN1JibHSFLB1DOM Tj1KOeuTUuIARW1s4rtWe/0XAIfWQkZrhgBHP/nW7RNb9xx2yxebhIwa4g9jEBxKJXS6wsxSm4X5 JXr9Hu2RUUxawzlAGbJ6k1pjlDRrBD/qz/QZaSjGRmvef7s8WHUJUoTvGZpEKYOb6KPEIq5EokLE A+KUDkLXXvBKg8lABYtXaRB6DXTiha4CR1AGpQzWOc5PL1I6zerKIllaQ2so8i5l3kOkwGhBiaXo d+j3Vmm1WiSywo7NCqVjAsvzH3x6EpXWsbXxz85Pn77nwN/+g+cdBdYEAe7/8LfT3rTzQ0Y3mrre ql6P5/GhvMXVE2iVjvbIBrRJaLTGfGKHBFSKSWokWROT1CjLAlsWCI56LcVkJvh1hXN9NAZUw0On rnkhAyIFYvsgOdief73iA6VP/iBesGj/rFJQGUqZyvJRafU8eE9QGH9XtEctVhRjYy2yegNjEh/O lh3E5j48paTMV+iuzOFciaFG0khD3sIrLyUpHqoAACAASURBVEr7SmKIUNLG5KtKZu8E7n++ZbUm CHDscz9y3ebrX3nYrTyT+AmHCv7VYCs8EUOvL6AMJqmTZG3vb1WKUpF8hYmW8Lfi0EpQesjCcShR oP2mm0pn1XeJ6wXf3wPb8bzAhcXFUg5NgRooQbBsjwaJ/7dOvEIoE64vIkbc8RaKosRaX1Mw2mDS Js52ccUK4roegewqtuhii1WcyzFaqKUAXpmF0qNAuCQlQDqKSzc+NLb3vbc937JaEwRYOjO3cWx7 ljQnXoGvtORVaIcUCMZrOkKKn0gfewdfG6xL6RpVripU6gb+MaChuMgpvdXq1PvtdMx/p11BimXE dT1RlDwoThGgVsKnhkKQMuG7TECrKwStwuEmKmzuGSuIaDLjKp6rTQudjiEux+WzSLkUyGoNqeWI jHsFVAkKW80B4O9fh4conGRceOrgmtQHnncFEBEe+rffyaE//b9Ynp0nSVJaI23qI2NkrVFq7XHS ZpPayBRJo03ansRkLZKsiU5bKJ35ZIvOfA1dJ/iJH4CVqv6vKmFVLF7pAVyDh3zbB0ofXkkZ+IIN 7sB6t+EPkX2WO4rr+3TIOwxcmEIjSg0UsPp7hdJ1dDaGOIvoFNev48o+znWwxRI272F7OXlnhrK7 TL66QNHpki8v0llapLuyQreXY5UhqddpNNaGrq0JAmQjW+iunMDZnLLs05M+rrdEsVSjX6v5PHu9 jqnXMLUMU2uS1hvorIHJmphaC500SGqjaFNHp82QfaujdVrF5cp4tPDhmaqstOoaUsq7juAaUA6c BjGA9QQS7XMDgXiJK/3vxCEu90pRkUyLq7p6yiseFrFF1c5malNk7euwRYfOhYfIl05QdpcoeyvY Xgeb97H9Mjzn2NLiCkvRK+j3S3q9gtwqJKtjshR/su7zP553BVBK8cCvvwZnC2y/wIn1Jc8wcT5e z1CqBMrAxku0KhApwPVB+pA2KG0HndTRRQOdZLiQnNFVPB4fnjRGzqBMA520QWnEdhHXB9cPxDAI F/FRQxS8uOr3PkUgoTvIJ2a8X3ZeyDhwzhNM59u/xIZoQzTiSlzZoez6I2zK/myIPoabQkNIWrmy 8DpDbWLD3UJr1Aq3NnkAY3z5NfhrsQ6nCqwStMQafRESNDXEdRHbIym7UKt74mbrmKyJ2AyxNaSs oUyC1hmSpB4BgvArwZcRDeq4YgFQgWvYAPlFIH7lUKgVGklCA6cMvTbo7S9D+trhYj4hvOaFHxJS 4nC2DD2BDrELvqm1v+Thv+x7obuYiFI4G/lMTJMPL4wZmtM1ah1bEwVQMlgVC4QbjgVvGUCuc777 V5yH2csgtcCVXa8sSnBYNClOLFpyMAWYBKh7oeoEVObjfZMHMqfC95WVIngBu6AIceLt0DadURDi 3x+QABcIXgzVRML1B0SRohK+swWuLH1mzzkv+LLv3UT1EMSGz7XOfyzhcmSgILC27eNrgwBD11qF NBrE+UKMxhd8nBN00HjU0I1L6TN64i9PxKLE+OdKiSyIQbkS0V4YHnUywCKBpSulgtADEvhPxFv9 0CGelRLI4DpixOFsuIFyANWu8Mo7nFqWIHSbeyGXeVCGLs7m3n1EvhAe/r4ZKFT13XEi/UPWqH18 7VLBTryWB4vCOtA6pEziwsghawuwKNG6BA+jodwrCP7tZfDRCqTEOYtWjUp4fqtFHfL6Kn6TD6il xIeVgmD970PHroRowF+eCijhM4qilE/MBB9eQfxQgSmmcZ3t41wZKpIFzoYKXxR+BfGDtQKecA4J XaILcKGmTTVnz/dYGwUQQaLyhoZLickfJEBeUBDnqhumqhVAVRAhvOx8rCxOvHW70v9OeyErU0Mk MH1RiEpCo2gIIQV/MWFbXpEyKImH8UpRUQxy8hBz8gNBCy729QshsRQFXISwMygGNhDCoiKAVT3C hr8LUC/DygVB8JrKTa1R1n7NXUBI/gaBeqH7+XSDVuzKKpQXsAzgTsT5TF+AZu8+rG/uiK4h5Pe1 qYHocDS4C/JU4MKK3ehHJSpBQIIoZIVHrgp14rW5YPFSKaZn8CrwgwF3wQXC6SzYYsBtgmJIEVrS o6Bt4EGxtyHOk/IIWM3dGo01UQCpmG2EMn1ZeBPhLhqlOOddBIF4WYeYwl9eNenREhyg/SoiwQs3 VNIkVPeENERNMR8Q9+uJxCpqaLR4/92D8MsNEDfyhKE6vffHQwTwa3IDdvAsNkQEAQmcC0rOYH6C EiiiAYi/r+GT5NZIB9YmCtAq7H0dlSDAcvTrarA9nPfhftEOLvpCLxg/cQViUj/ZWofJL0Nyx/pJ G/LjCsD1kJhaFUFUZNE+ny9IeH8khxqRYihCuDwsk6gQgn+/EOB+sIbRf05k7RHe3ZAyDKWvGdxr /I/L1kj6twwD/1phwNogQLhZT9yCMAPTFYW39rjLhxPESmUZEBUmuAHBEzCTBAE4EI1gQx3fhQgg 8casJHQIKyQsFkEUmHow9jIgQhRIoOGiqbbtD2v7YhYQZUIGcIjAwSC5EwXnbIgMpPLvlcVX/x74 /mGS55yPiiqecJkSxol4/seadAUrPXwI1gD6PcJLFfNG31fdKIKz0cKin/WfExs54jwoEd/yFS0y FJdwJYIKE12ETCP+2TlQsZbvS75VVBAt3/ZDgqoMnwVie+HfsZDkSV/kA54gxtDSeeYP3v/bmDOQ Ku9RxfyVwg+7uYCUMRIarlauwVg7BBAGyYsoUB1LupH9e1ZfZcac9YKJEUKEUHGoSP5Eh1DPF2UU frKUEuLpq8qV8Uu9KwgTqWIRR9d99VEpxPZwtociZvaChfob8ZcfiVkIQ6swLYSpUZhSJbYIRC9e hg0ciIA+RUX+nHMeAS/7zJgWjggqA0R8nsfa5QHUkGYPAU3FfsMNegEnYeKi4GN0QKUEGIdPDMUJ 8bF95S7EoGKcr/WgQhc2bPRuIQEyen3F0qpw+uwMX/3qk8xfukiiS3ZubXDT/s1s2zKKMcEVVXF5 /Nld7vfFhoyf9e6iihaC0oc0s5TxfYOwV0KuJGpKnK9QmK7ex5DyPt9jjcJANZBTJURd3azPscfG fTWAxQr6YxMJVG7EORwlWvleApXUK1+tYkyOoFQa3IEGcSiXVNczM7PI5754gvrobl7z+rdw4ybN juu/lbzImbkwzSMPPcAf/ZvPUqzO8ANvfQl3/60bSNNkkMOIcXvkCM5W3CYqRlz772wZLHxQ/EF8 +tfZy8NKwfv/CPnR+lFShYHfVJlAH4ENaazgW67xZMfg9wYwgg8Zw8RU4aNSnv1rXbkGCYs2EB1I WYHWIVUcyJrSCTGHoGP3DoqyLPnk5x7lz/9qmh/84fdx68teQavdRinFhqnNdDodGs0xGq0JXvyy u/jMpz/Bb/zevXzszw7xM//wVWzZOlEp6wABoiuziChcJHYQyGyI6531fytDu4aEBBlcDvsRaVzM l1QcqvrxeR9rgiuxwDPgrSokfUJzRbhZ56IFxD8cyg7GPHh0AVERYkOni80ckRX6kE+pBEW0WkO/ 3+e3/sNfcOi44R/85M/RGp1iYXGx2rPff61UG1OdOnWKw0eOs/26F1KkO/n77/8vHH767BAfGbgl CUcgS2wwjUQvWH8V6g1bu3VV3O9KO4h+RCol8O5DovepePJajLVxLOE+qhg2qrDEkI/BxABYGQjy sonyewj51u8wic4FmBz4XRXZeIB98N061il+94/+ijLdzUtufxVPHDxUnUfc6XQuU4AinPx5+PBh v3eRtUxs2Mr1N7+S9//yn3P+/DzgCWUUlhe0L+9KGRDADpQy+v0Bt+FyhWBo+1g3eE+U+gAVWLN+ gDVEgKEXhvfEq+4jTFKMgyvfGv1jLAoN/Kp/fyBbVZgUEST26iUh1Mt4/NA5js8k7Nl/K48//kR1 Gvnc3ByLi4uXHd6Q5zkLCwscPXqUJEloNpu0Wi02b93J/he9kl/88Ocpwzk/fquZoHQVZxmksJ2z OBsjCbk8YojK4G/GpzFsTHYzpBxQpacZMpDneaxNHsAYlNZXsFxVWQCE58qt+oSIKwerh6qkSVSc ONHRtwre+oJAxBWB5WuUyugXmo//5Une8r3v4amnnqqOppuenubixYtcunSJlZUVjh49yqFDh1hc XOSZZ56hKAoajQbNZpPR0VFGR0e55SW3I9kWvvjQGWJTqAzH6/HnIZZPJH+VWxhA//BrVfLHhnT4 8BxFKF3DsWZ5AJ/koWLgzjmMHtozXwIqWIcYGcTIsTgSy7oCPs8emjIVvlVbHOgMDyqhGVTwHcFJ nacPT/PyV3w7E5MbueWWWzhy5AhLS0tMT08j4s8c+Nmf/Vk+97nPkec527Zt49Zbb6VWqzEyMsLE xARjY2NMTk7SaDS452+/hT/55O9y1x03IdU5jyFUC30BDFv4cKNHrH5W5M4/u6hAsWI6JO/KIwJV JnUNxhouDQtQGaxcDWe0huL86t9hwny+x+G0RdsSSRIUoV1afPjoCyeCaFfVArTyC5CUqSOqxkJv lNe/4S1ktQZbt25l586dPPzwwzzzzDMcO3aMhx9+mE996lMV+Tt58iRZlvGqV72KqakpJicnmZiY YGRkhHa7zU033cTF80eZW8yZGM1CZlKq6uEAlVwF94Nun0AQy0Hs76qSeOxPjD0LA8kLYS+iNRxr VAzSAxYYqnKR23iITEI3UCBF+FJt1Sw5nCyxJaI1ogwOi5EEcAgJypaQJMEFWLTJEGexZOzc+xLG xicARb1eZ3x8nF27dnHw4EHuu+8+Hnjgga/ZrjVJEvbu3cv4+DhjY2NMTU2xc+dONm/ezMjICK1G wunH/4CJET24PmcrocfY379G5ecHeY4YFTDUoxDj/uhSIr2Rat7WcqyNC4gdLhEODQzwLS7uGHp/ LAeby7QmaEz8t6AwngdoDRS+w0hSqoxcqOatLM9z4YLQ7/tQryxLlFJs3ryZrVu3ctttt1XKMLzz +A/+4A9y4MAB9u3bx65du2i325dtaT8yMsbx05e4ee/WSvCuKv4E4dpB8Ychn++VQFVW7wpbGUXl RqopCu3skfiKrFUQsEYuwIWSMFQkT2I3jx6EOhVLHmqDq5pEKzQI/QFKkCiLmPpF+aXgkvi6QGgk XV7s8vgjz7Blxw2XndsLfkPnJEl4xStewa/+6q/yUz/1U/T7fT7wgQ/wvve9rxJ4jAyGR7/f58jR U3DXlE9UVSFeqOqFEBFxYCVEAmpA9mKiS/Dl6LIMSiMD8hc/Y2j4npm1wYK1cQFmqAFkyKgH2h2C tyB8pYcihKgcMdyCEC5Zv26SBJK4OUTYdt1ZKPuIKL8Dme1x7txZjh8/QZ73KcuSfr9fIUFUgqmp KbZu3cqZM2d44QtfyAMPPMD4+DjNZpM0TS87t1ApxdzcPM5K6PcLynGFG/CP6B4CAWSICFaETyrr 92sYXVU/kfCLaCBhVtdCVGvlAgZFzEGoJ4NnEzpdo9VbgXQonLoiIyjOISYWSAKhwnreoEIA4ARH H4VQTwouXZyujnCNHMAYQ61WQ0S4ePEiDzzwAAsLC6Rpyr59+zh8+DAnTpxgZGSE0dFR2u02WZaR ZRlJknDk8JNs2jCGLXpQodOgvSsSvIEbCMS2yhwHS4+5oqgolwk5zoEKRjNwgWsx1igKcJW1V0gQ fT/eoImZsSrOZwCfEur9gLPWh4+VS5C4JRhaJwEaLSFeBIRWXbG6fIk00YyMjlUnepZlyfLyMqdP n+bJJ59kaWmJdrtNnuds3rwZ5xwnTpxgfn6++l2tVqPRaJBlGZ+/77O88dv2I+V0Rexc8PHVOoCK 7IUOoYh8gc9IfK1qCwtdRM4bQkSHykdWbuWbKBNYrc+TIJfhvoBo9VXmL1p+TBHjlSNa+3BTVCyQ hGyglH2/FYwr/ALQ0ItvyLlhe51zZ46htSbPc5aXl5menubJJ5/k4MGDzMzMsG/fvup491qtxsaN G9m+fTubNm0iyzKWlpa4dOkSs7OznDt/joOPPcgNe8a9b7cOVwQeEBpcqxaxirzG1PcQKS5DNRAu V4TKLRJC2ziXroqm12KsUVv45d2tMOTKQsgD0TIG+YFqAkMV0MNksAQH6Oj3TYUmaIMKfyNlF0Gh dMIbX72XX/roH7J91w10u13m5uaYnp7m/PnzzM3NMT4+zu7du6sziY0xtNttNmzYUB340Ol06HQ6 rK6u8tVDj3HzTTeQdE9SVCd/yBBfGTwGEdAQD6rCu1jhU4NMqcO7s/h5cb7iJlayZsXAteoHCA0Z sTlUCGRNQgeWANpbjQmW7WTwPusQ5cBcXjP35+/pIUzFRwFKEbd7V0qg7LFvV5vJxjKfufdP2b33 RmZmZrh06RILCwtordm+fTsTExNkWYbWuiJ8rVaLPM+JR9V7RVjlgb+8l9/5tZ+mWLoPXwEcNHAO iB+XCzv+7AYPr9iKQROpX7lUFYuILjMqUpzUbyIOUGk9DEigiLdS/4YA/X71jhO/E7eIz5BpEar2 7TDByhmEEhEDJvQJGB1ap8MsK/F8K/QT/OMfupX3/uzHWV7poZOMhYUFRKTKB7TbbT784Q/T7/dp NpsURUGtVqPdbldJImst933mv/D27/07tHsPY4MyDgo6QzxGVOhvCPdb5QCGiR4Vf4gRgB9qgHoV Nxj61VoIirUqBjF0wYEI+opgIPFD2u6chL4+/0dKm4HlhBkWCGGguzxEDopSsfDQI0go0U6MJvz8 j7+cxx/4NKdOHsc6R7vdZuPGjYyOjtJoNNi5cyd33HEHsT6QZVlF/BqNBp/5s48xNTHKW++sY/sr 3nrdQEFjgSqGclUEE1GgEr7ynb9RYZyExg8XWiKlKjB6zyeV5xMZTqU/v2NtSGCA6SEqMCB7wfJF QEofH7mhTJqzMqicSegXtb4HgCorp/ylhxgcEZ9+xq8zGCzrhpuuG+Vf/q/fwsLZQyxcPEer1WJs bIxms0mtVrss0xdzBFmWUeR9/s0vf4A0gX/6Qy8hn3s6fFdg+aHyN9z6HUlrJcjY7GmD0tsY3qrq 9y685qrIKORGgtnHavBajbXpB4h97bGcPQgAIR6vGv1dFHwFpSH2r6TviyWD5db28hU2NnTWhEMg cK5q2gBAaQ5cN8rvfuj1XDexyCNf+CTnTh/D2rJK8gyPudkZ/v1v/Wv+/nu+h7e86W/zE2/ZSH7p 4CAxFXy4hP0J/SXGKiaX5wGiWxD8tSsY9AiGe1ZqcO/ETrFoKJE4yprpwNpkAgN7JcC9TwtLJROU wokL6/oiE46s38fWygnaOpwWVOmQ1PcCioTQMmYCh9d+Vq7DbyCpNH7NPpp2DX7hf7mDcws1fv+/ Psav/eJ/pdEeZ9v2nbTbbZaXlzh39gyNRovv/Z4387v/+ocpLn6BfLH032sFwfmfh4Q4gCmGkCD8 jN8AwucK1IDxu0gEg7IMrzyy4bPVQIfXcjzvCnD6j17N/LywujRk905wutqRL7B6367tnMQIL1iU Q1Upc+9vJfFW5MoCnSR+Vw1n0dpHBU5cWN7hF1PGQ6HEDi0HD9W6LSN9/tE7dqHrL6XjJlm1LZyq 06xrmmoF1TlJsfpXFBfAlW7AYZyE8DT4/KH+fX+PcWnXIDkkpSUuQHISjsAb8vVebzyauCHUrEim ijOoMBpO/uGrVaOeyqY33/u8yet5YxYv3jPKrXtHdath9K5N7dtevm/iixdPnkOKAq18EcZo72O1 1pjEYBIdDo8Ix7Ikxh/QUKuF1+PRLAadJGgTDofQvn6gdKRGQSGMF7xOtF+5Q1wDiJ/x8H4XOohd UQytN4zJJ0IyR1VEFSGqlhfYcH+fBN8eTjm1RYErSr+pZen/bcsSW5TYIpyEWlpcGRtRQzeUczjr sE4orH9dTELSbtMcHydNOf/px87vzlLlLi0W7r6vzMnxC52/sdyeFwTYvampxtuZPnahm4iQiZjs 9hsmiRggMcTzMggtdX7Vix76vUdBFazVoIxDhb9TccIVFQsX6zeNhGD1+M+xeR9tEkR8b54yxgu2 DEfDoZAyLO6MS9GwHn6JEUlM24ZuI+t8siZAO5HYXsFlYngoVqr1fl7YeEsvxdcCnGBjx1AM/+KW c0N2GSsBhRP90DNL7cSoXEGxc6pp51YKt7ha/I0cxd9YAXZsqKtvuWFMlw7jnKSFk1puXeIiKfLE eKAEOsA9ceJk4ArERwTKeeUY7il0ETfxFo61vorobRpE4YoiJIt8DUFc4bOGpa8VxHo8ikqgVS7e iu9ODs0sUZmkLMOBPoPwbZDnUIGUukFCKDJ7glsQcEMhsODDP1spWCR/cR5cZQzVd/owULUbpl5P NMYoMRp5zYs2yP1PzsnFpcvL1l/P+BsrwN0vmFRGKy1grCPpFTZDpBGMiNjtAoJTyhd5nKug2TlP 8pQxOPEwqLSgTFAEJ2iH97nhcGYl/m9V4AEo7++rBUkSK3BB4Nb5ErUtvDBjOBc3YbIOb9eqqkNU SBDz9VFRZOjfVVYv+HQ7HOeDDSggZYwKXEAFfHTjBBs0YxAyD7WKx/vB73PSzEwjS5SrJdoqpZzW yMuvH+MTj1x036j8/kZh4Btv36xadaPSVJs00YlWZJnRjcSoeswGDTQ5PAdfG/MpLkZXV6RCRSJB 8tk4Z2MfHdi88KEfUNoyrMoJnxfKr5W1ln5xqQuVOlcUnogRLDTE6io0rDgnWFsOwssqNg8NHjJQ Ahdes87hyrLKZ7jSf65zg/dZJ9gyoBBD9x1/5nJUdCG4qFJASlRqVDPRqp4YlWWpMlmi9O6NdfWO b932DcvwG0aAd37bdlo1vz2nIMYJKVBD0VDQjJDvCVRcGRZiZy1oJ1V3kASWrMKN+wPAHMq6sF2s 4EoLaQJO0CqESVbQSuFKF1aiRZ/sQqbO7yEgIuH33qf7ON0Ghq+qlC1WfOeShH2AlMLZcEFDkF25 t/iVUWDWu7HhvgAXLTtGAOE5ciKJ6DH8WUOp1CrK8MF1S2tVOCFPoVRglVIu0WGzo29gfMMIUDpR RocjNgRjnaRAXYSmE5qRy0j0bQw0fThbNqgDqcolVFbgfNnUT6xU2TdnBVf4rVVtUQRL9BZry9KT K2ux1hMtZyX8zp9A7iooFlzhGzoifLvYvhUbOZ2EkM0L1RY2oIb/zsjsq/eWtlJo77lcZc0So4h4 zxKRMfCcMA9R8Jehp4hyQss5aQA1gRRvwHq8majX37rxG4roviEEeN2tGxlvJso6tPOb2KZOqDmh 7kSaTqRZvVl5q8eB6FDSd95C44ZtzvkjWWMq2Fl/jp5YweYlZCm6+lsJaBIsQylUKM8qLcGHiy82 Whu4RtC20KeoYgtWrLtbELFIKYR14cRePaVMcCEQw8BB106M+YOgA9RXShS+tooMRAavV+zfXQb/ rnJ/1S3GyEA7kbYT1RWRXmnJU6MKEX844qbx7BtqG/qGEGCsmWil0IJoEZLCSeqc1KyTpnXSdo5W RWjCzfvsn1SkUBxhsvxr1g22SHHRyoOAIzl01oYY2w7gNDRYuMATbIUEg6SM5wv+yDhX2IAKLmzQ XOKKApuHPQGt878PiRprA8t37vLriMpacZT4dx7ibUQNkXCt4f5QIRk0FPZGhJCBcgxzhKALqnQy Yp20Sit1J2TiDc+UpZjReqK+986tXzcKfN0I8LZXbmFqJFXWiXaCcZA6R+aEhnXSslZGrEg7qrCT 0BbgXJWhc078Yl4GGTLP7P3EaMQ3lTnnmz2sQimHswoSgxJBlRISQYILO4gqFxm0C3kD57erEQVF EQpGIHk4jSN8nxriIP6EeedDTDdI/hAEF21GxFZuwUkkqMPkzw2IqYvwPrBwXwTziR+G3EFEgvAl VbiJOGWdjFonq1qpjnbSK0vyNFGF9T3xulUzl/35f8/4uhGgnmgNIYcjJNZK6pzUS2/9rVJkxFra PkpSQxo82PjAe4FBE0ScIBthtIiWNnjYYG3R4r0PttiiRNBhouMGzwpb+JZsF9BCUNjSUpYWKx4p ytJbdwzXbLgWax02t565Bz9vrQR2byuUkZC9i7G/i8rgIsdwFcJFnjEcFURkrCINgpsQd7lC+HhU l1ZGbUAB66RhRWrWk2/jnOh6qtVb79jydaHA14UAN+8coVkzqrCiBYxzpKWVrLTSsNa1rJOR0jJa OmlVTixUwHzIHTZr9G39l4d9zhF3EXEqWIb2VolyYZtf7bf/D9U4FRfOF4Un+GESXUj8kBeA8p/D oA6BDAo5cZWOSIgcHIjSXsBDWbnY3qW0Idbw48c55/MIVeFHBkoeCacMQXq8bxeJ49DPLlp8vN4w nIgqLaOFlmWt3Yp2uqOgBy5XiS6UwooTXc/014UCX5cC7Jyq6cKKcn5VV1KULrVCrXTSKKy0Cisj pXUjpXX+pKjhcAaq/n/wPk/rwLA9oQgw7HxO31qcVijCsSraV9aiIvlIL1YaCSljG4QYFlvH74+v ByHH7VaqVvUyzFloL4+hl7O2WubmF7cMEkWxZBv5QLTcAR8ZoMDX8oAhBfQzM8j5qgEJ1LEQ5cMA VVg3YrQeVYplhayI0CEogdGqBFyaaLdvS1Mdne78dynBf7cCZKlmrJnSzZ0WMAQFcEKtdK5elDRy 65p54VrL3SJFrBitlNPKV/eUT2go5dFAa6q0bdzTSanBtrIC3iyMt05x4YDHuNOYCpNoB4K7zJlG 4SsQ65s8hWj1cvl3xD7DEN+72JMQBe4k9DGEa1MqlIcHvt5vcSNUm13F6l4cMpCx75r2SulLGa6q kVT1AAWI85tkFH06PZvnpWsqRRN0E1wjNaruRGW5JcmMTsTjpNoyXlsDBTCaPZsblKVgnUhhxeWF s4VzNi91WZSS56Xq97TqrfbtpV/7s+P37dmQ7k7FjrZSXa8nkjQyY2oGXVNKZVqRKqVSozBGkWUa YyDJDNpof9p3otFGoYwODbIS6v+CowefkAAAA9BJREFUMsqfSxD2U1YGT9pEAtK4SgG8vg4Ytk6G 9i6Im4pUqRRBm9CwCiF35PmLHtqrRUw47CF8lxMViKgPdzUaUYJT2oe/RhCrsMHnF05j8YhRosgL kcIp6RVOugWuV4hdLYq+M9JdLTtzxy72Dzdr/19tV5PdNg6DPwCkZHuamZd2M8vpVXKK9oS5RXdz h+46F5jkTRPH+iGALiQ5rEorspPBe3gAaZEW9H0CJZqWpNlEburIbRW4r4T6GEgjk1WRLQZyYcKf 1xX+/nq/CtezLhj+ub2hpMZd56xmISWrzFClZDs1vOuT/aHq132y933yD12y67az901n102nvx8a vXrqbLdvdHNorX7qLHa9xba3kJJJMkgyZwYERCxEHIJQCMwhMGIUjlFQCVFdCdVCqCumKgqCAHUd KDAQawHUEIQRwnDAmYAqME1Dxna6CzHg0KTjUL9vhj+LEjEOnY5jlaDvFMkcKbkndfTJ0HbqnTra 3rztDW2XvFdzVfOUzFKy5yV+gDHBgpAGIY2BtY6sVeS0q7nf1tLtam52lTSbWh63NT9sKv5eR76r At+HSHdR+N8gdB+E/hPhhyB4ZKEDM3XC1MfAGiMbC/lfn768bQYAhkhE2LdbOCAKYHwk5jHhJgAt gEcAdwCuRv1t1O2gXmG4jw3uiHAXHx4axm4u7s46/LrIZs5qzmZgNWdV52TOmpyTOak6J3VWdUpm pOqslkjZyRTU904+zKJhP96WTIs0n6OicSU7OdGw6JhA/m5DzgQXNucr9iDkwmQi5GGwFgQuTBaE XYRMmIwZJkLGRKOFMpMRkRHBQMMULg1z1YmABKIeQDcevwbAE4D9eCwfATxk/n7cphkxmJ5Ycbym Xovp2RMH325vphGKMeRWwTAtGTG8rmMz6gj20a9HrfA8jRnG9uO74Y59ckGpYF9SFPwl8ZnvC75l /rzOCn6umtlJEwYwcyK0AA4YgJ5sDnw/tpv6cAD+8fO6sx+4bCp46nwe4BRAi4GhE9C55qBPWgKd Cv5rCJDbtfHlfg7yVF4iwBz4EjmWCDEB2xd0fN3aT+Q57sM54AMXZAAA+HZ7k7fNM8Jc5wBLYds1 wK4BfL5PJftSzKfAz+tKpFjSElFOkWVOEJ3Zuf7U58fPXxZCK8tFBJhkJELez5qzspSeT6XrU+Be CvSaeEtn0BIxTg0TpbpTn59Dql/6ugT4SV5FgFwKZCiVlwBaA+JaUN8srkxOpdZ5/VL5lL9ULta/ BvRc/o8DdZSMFK/93pe2n3/uhbq3lpfG2rPG4qU2bwV2SX4AftaOZElCzr4AAAAASUVORK5CYII= "
     id="image10-3"
     x="10.107493"
     y="2.6547234" />
</svg>
