<?xml version="1.0" encoding="UTF-8" standalone="no"?>
<!-- Created with Inkscape (http://www.inkscape.org/) -->

<svg
   xmlns:dc="http://purl.org/dc/elements/1.1/"
   xmlns:cc="http://creativecommons.org/ns#"
   xmlns:rdf="http://www.w3.org/1999/02/22-rdf-syntax-ns#"
   xmlns:svg="http://www.w3.org/2000/svg"
   xmlns="http://www.w3.org/2000/svg"
   xmlns:xlink="http://www.w3.org/1999/xlink"
   xmlns:sodipodi="http://sodipodi.sourceforge.net/DTD/sodipodi-0.dtd"
   xmlns:inkscape="http://www.inkscape.org/namespaces/inkscape"
   version="1.1"
   id="svg2"
   width="22"
   height="22"
   viewBox="0 0 22 22"
   sodipodi:docname="mic-ready.svg"
   inkscape:version="0.92.1 r15371">
  <metadata
     id="metadata8">
    <rdf:RDF>
      <cc:Work
         rdf:about="">
        <dc:format>image/svg+xml</dc:format>
        <dc:type
           rdf:resource="http://purl.org/dc/dcmitype/StillImage" />
        <dc:title></dc:title>
      </cc:Work>
    </rdf:RDF>
  </metadata>
  <defs
     id="defs6">
    <linearGradient
       inkscape:collect="always"
       xlink:href="#linearGradient12083"
       id="linearGradient15651"
       gradientUnits="userSpaceOnUse"
       gradientTransform="matrix(0.100167,0,0,0.536489,25.54017,3.573861)"
       x1="58.226566"
       y1="17.318592"
       x2="210.27936"
       y2="17.318592" />
    <linearGradient
       id="linearGradient12083">
      <stop
         style="stop-color:#0000bf;stop-opacity:1;"
         offset="0"
         id="stop12085" />
      <stop
         id="stop14722"
         offset="0.60000002"
         style="stop-color:#00bf80;stop-opacity:1;" />
      <stop
         style="stop-color:#00bf80;stop-opacity:1;"
         offset="1"
         id="stop12087" />
    </linearGradient>
    <linearGradient
       inkscape:collect="always"
       xlink:href="#linearGradient12083"
       id="linearGradient15653"
       gradientUnits="userSpaceOnUse"
       gradientTransform="matrix(0.100167,0,0,0.536489,25.5402,-2.798868)"
       x1="58.226566"
       y1="17.318592"
       x2="210.27936"
       y2="17.318592" />
    <linearGradient
       inkscape:collect="always"
       xlink:href="#linearGradient11184"
       id="linearGradient15655"
       gradientUnits="userSpaceOnUse"
       gradientTransform="matrix(0.305601,0,0,0.527548,-12.17435,-62.09439)"
       x1="58.226566"
       y1="17.318592"
       x2="210.27936"
       y2="17.318592" />
    <linearGradient
       id="linearGradient11184">
      <stop
         id="stop11194"
         offset="0"
         style="stop-color:#bf0000;stop-opacity:1;" />
      <stop
         style="stop-color:#bfbf00;stop-opacity:1;"
         offset="0.36270002"
         id="stop12974" />
      <stop
         style="stop-color:#bfbf00;stop-opacity:1;"
         offset="0.465"
         id="stop12097" />
      <stop
         id="stop12972"
         offset="0.75"
         style="stop-color:#00bf00;stop-opacity:1;" />
      <stop
         style="stop-color:#00bf80;stop-opacity:1;"
         offset="1"
         id="stop12095" />
    </linearGradient>
    <linearGradient
       inkscape:collect="always"
       xlink:href="#linearGradient11184"
       id="linearGradient15657"
       gradientUnits="userSpaceOnUse"
       gradientTransform="matrix(0.305601,0,0,0.527548,-12.17436,-55.65524)"
       x1="58.226566"
       y1="17.318592"
       x2="210.27936"
       y2="17.318592" />
  </defs>
  <sodipodi:namedview
     pagecolor="#ffffff"
     bordercolor="#666666"
     borderopacity="1"
     objecttolerance="10"
     gridtolerance="10"
     guidetolerance="10"
     inkscape:pageopacity="0"
     inkscape:pageshadow="2"
     inkscape:window-width="640"
     inkscape:window-height="480"
     id="namedview4"
     showgrid="false"
     inkscape:current-layer="svg2" />
  <image
     width="22"
     height="22"
     preserveAspectRatio="none"
     xlink:href="data:image/png;base64,iVBORw0KGgoAAAANSUhEUgAAAaQAAAGkCAYAAAB+TFE1AAAACXBIWXMAAAsTAAALEwEAmpwYAAAK T2lDQ1BQaG90b3Nob3AgSUNDIHByb2ZpbGUAAHjanVNnVFPpFj333vRCS4iAlEtvUhUIIFJCi4AU kSYqIQkQSoghodkVUcERRUUEG8igiAOOjoCMFVEsDIoK2AfkIaKOg6OIisr74Xuja9a89+bN/rXX Pues852zzwfACAyWSDNRNYAMqUIeEeCDx8TG4eQuQIEKJHAAEAizZCFz/SMBAPh+PDwrIsAHvgAB eNMLCADATZvAMByH/w/qQplcAYCEAcB0kThLCIAUAEB6jkKmAEBGAYCdmCZTAKAEAGDLY2LjAFAt AGAnf+bTAICd+Jl7AQBblCEVAaCRACATZYhEAGg7AKzPVopFAFgwABRmS8Q5ANgtADBJV2ZIALC3 AMDOEAuyAAgMADBRiIUpAAR7AGDIIyN4AISZABRG8lc88SuuEOcqAAB4mbI8uSQ5RYFbCC1xB1dX Lh4ozkkXKxQ2YQJhmkAuwnmZGTKBNA/g88wAAKCRFRHgg/P9eM4Ors7ONo62Dl8t6r8G/yJiYuP+ 5c+rcEAAAOF0ftH+LC+zGoA7BoBt/qIl7gRoXgugdfeLZrIPQLUAoOnaV/Nw+H48PEWhkLnZ2eXk 5NhKxEJbYcpXff5nwl/AV/1s+X48/Pf14L7iJIEyXYFHBPjgwsz0TKUcz5IJhGLc5o9H/LcL//wd 0yLESWK5WCoU41EScY5EmozzMqUiiUKSKcUl0v9k4t8s+wM+3zUAsGo+AXuRLahdYwP2SycQWHTA 4vcAAPK7b8HUKAgDgGiD4c93/+8//UegJQCAZkmScQAAXkQkLlTKsz/HCAAARKCBKrBBG/TBGCzA BhzBBdzBC/xgNoRCJMTCQhBCCmSAHHJgKayCQiiGzbAdKmAv1EAdNMBRaIaTcA4uwlW4Dj1wD/ph CJ7BKLyBCQRByAgTYSHaiAFiilgjjggXmYX4IcFIBBKLJCDJiBRRIkuRNUgxUopUIFVIHfI9cgI5 h1xGupE7yAAygvyGvEcxlIGyUT3UDLVDuag3GoRGogvQZHQxmo8WoJvQcrQaPYw2oefQq2gP2o8+ Q8cwwOgYBzPEbDAuxsNCsTgsCZNjy7EirAyrxhqwVqwDu4n1Y8+xdwQSgUXACTYEd0IgYR5BSFhM WE7YSKggHCQ0EdoJNwkDhFHCJyKTqEu0JroR+cQYYjIxh1hILCPWEo8TLxB7iEPENyQSiUMyJ7mQ AkmxpFTSEtJG0m5SI+ksqZs0SBojk8naZGuyBzmULCAryIXkneTD5DPkG+Qh8lsKnWJAcaT4U+Io UspqShnlEOU05QZlmDJBVaOaUt2ooVQRNY9aQq2htlKvUYeoEzR1mjnNgxZJS6WtopXTGmgXaPdp r+h0uhHdlR5Ol9BX0svpR+iX6AP0dwwNhhWDx4hnKBmbGAcYZxl3GK+YTKYZ04sZx1QwNzHrmOeZ D5lvVVgqtip8FZHKCpVKlSaVGyovVKmqpqreqgtV81XLVI+pXlN9rkZVM1PjqQnUlqtVqp1Q61Mb U2epO6iHqmeob1Q/pH5Z/YkGWcNMw09DpFGgsV/jvMYgC2MZs3gsIWsNq4Z1gTXEJrHN2Xx2KruY /R27iz2qqaE5QzNKM1ezUvOUZj8H45hx+Jx0TgnnKKeX836K3hTvKeIpG6Y0TLkxZVxrqpaXllir SKtRq0frvTau7aedpr1Fu1n7gQ5Bx0onXCdHZ4/OBZ3nU9lT3acKpxZNPTr1ri6qa6UbobtEd79u p+6Ynr5egJ5Mb6feeb3n+hx9L/1U/W36p/VHDFgGswwkBtsMzhg8xTVxbzwdL8fb8VFDXcNAQ6Vh lWGX4YSRudE8o9VGjUYPjGnGXOMk423GbcajJgYmISZLTepN7ppSTbmmKaY7TDtMx83MzaLN1pk1 mz0x1zLnm+eb15vft2BaeFostqi2uGVJsuRaplnutrxuhVo5WaVYVVpds0atna0l1rutu6cRp7lO k06rntZnw7Dxtsm2qbcZsOXYBtuutm22fWFnYhdnt8Wuw+6TvZN9un2N/T0HDYfZDqsdWh1+c7Ry FDpWOt6azpzuP33F9JbpL2dYzxDP2DPjthPLKcRpnVOb00dnF2e5c4PziIuJS4LLLpc+Lpsbxt3I veRKdPVxXeF60vWdm7Obwu2o26/uNu5p7ofcn8w0nymeWTNz0MPIQ+BR5dE/C5+VMGvfrH5PQ0+B Z7XnIy9jL5FXrdewt6V3qvdh7xc+9j5yn+M+4zw33jLeWV/MN8C3yLfLT8Nvnl+F30N/I/9k/3r/ 0QCngCUBZwOJgUGBWwL7+Hp8Ib+OPzrbZfay2e1BjKC5QRVBj4KtguXBrSFoyOyQrSH355jOkc5p DoVQfujW0Adh5mGLw34MJ4WHhVeGP45wiFga0TGXNXfR3ENz30T6RJZE3ptnMU85ry1KNSo+qi5q PNo3ujS6P8YuZlnM1VidWElsSxw5LiquNm5svt/87fOH4p3iC+N7F5gvyF1weaHOwvSFpxapLhIs OpZATIhOOJTwQRAqqBaMJfITdyWOCnnCHcJnIi/RNtGI2ENcKh5O8kgqTXqS7JG8NXkkxTOlLOW5 hCepkLxMDUzdmzqeFpp2IG0yPTq9MYOSkZBxQqohTZO2Z+pn5mZ2y6xlhbL+xW6Lty8elQfJa7OQ rAVZLQq2QqboVFoo1yoHsmdlV2a/zYnKOZarnivN7cyzytuQN5zvn//tEsIS4ZK2pYZLVy0dWOa9 rGo5sjxxedsK4xUFK4ZWBqw8uIq2Km3VT6vtV5eufr0mek1rgV7ByoLBtQFr6wtVCuWFfevc1+1d T1gvWd+1YfqGnRs+FYmKrhTbF5cVf9go3HjlG4dvyr+Z3JS0qavEuWTPZtJm6ebeLZ5bDpaql+aX Dm4N2dq0Dd9WtO319kXbL5fNKNu7g7ZDuaO/PLi8ZafJzs07P1SkVPRU+lQ27tLdtWHX+G7R7ht7 vPY07NXbW7z3/T7JvttVAVVN1WbVZftJ+7P3P66Jqun4lvttXa1ObXHtxwPSA/0HIw6217nU1R3S PVRSj9Yr60cOxx++/p3vdy0NNg1VjZzG4iNwRHnk6fcJ3/ceDTradox7rOEH0x92HWcdL2pCmvKa RptTmvtbYlu6T8w+0dbq3nr8R9sfD5w0PFl5SvNUyWna6YLTk2fyz4ydlZ19fi753GDborZ752PO 32oPb++6EHTh0kX/i+c7vDvOXPK4dPKy2+UTV7hXmq86X23qdOo8/pPTT8e7nLuarrlca7nuer21 e2b36RueN87d9L158Rb/1tWeOT3dvfN6b/fF9/XfFt1+cif9zsu72Xcn7q28T7xf9EDtQdlD3YfV P1v+3Njv3H9qwHeg89HcR/cGhYPP/pH1jw9DBY+Zj8uGDYbrnjg+OTniP3L96fynQ89kzyaeF/6i /suuFxYvfvjV69fO0ZjRoZfyl5O/bXyl/erA6xmv28bCxh6+yXgzMV70VvvtwXfcdx3vo98PT+R8 IH8o/2j5sfVT0Kf7kxmTk/8EA5jz/GMzLdsAAAAgY0hSTQAAeiUAAICDAAD5/wAAgOkAAHUwAADq YAAAOpgAABdvkl/FRgAA1CFJREFUeNrs/VeUbNl5Hgh+/97Hhklzva1b3gCFgit4lIMRYUiRAKWZ IZvqVqu5Wt2U2BKlac2DHnrWmpd5mNVqSqLUkrpH6h6tme6WCFGGFD0cQQAFECiYQnl/vUkXEcfu vf95OPtEnIg8EZm3bN6s/a2VKzIjMjMiTpyzv/395vuJmeHg4ODg4PBWQ7hD4ODg4ODgCMnBwcHB wcERkoODg4ODIyQHBwcHBwdHSA4ODg4OjpAcHBwcHBwcITk4ODg4OEJycHBwcHBwhOTg4ODg4AjJ wcHBwcHBEZKDg4ODgyMkBwcHBwcHR0gODg4ODo6QHBwcHBwcHCE5ODg4ODhCcnBwcHBwcITk4ODg 4OAIycHBwcHBwRGSg4ODg4MjJAcHBwcHB0dIDg4ODg6OkBwcHBwcHBwhOTg4ODg4QnJwcHBwcHCE 5ODg4ODgCMnBwcHBwcERkoODg4ODIyQHBwcHBwdHSA4ODg4OjpAcHBwcHBwcITk4ODg4OEJycHBw cHBwhOTg4ODg4OAIycHBwcHBEZKDg4ODg4MjJAcHBwcHR0gODg4ODg6OkBwcHBwcHCE5ODg4ODg4 QnJwcHBwcITk4ODg4ODgCMnBwcHBwRGSg4ODg4ODIyQHBwcHB0dIDg4ODg4OjpAcHBwcHBwhOTg4 ODg4OEJycHBwcHCE5ODg4ODg4AjJwcHBwcERkoODg4ODgyMkBwcHBwdHSA4ODg4ODo6QHBwcHBwc ITk4ODg4ODhCcnBwcHBwhOTg4ODg4OAIycHBwcHBEZKDg4ODg4MjJAcHBwcHR0gODg4ODg6OkBwc HBwcHCE5ODg4ODg4QnJwcHBwcITk4ODg4ODgCMnBwcHBwQEA4L3ZT0hE2+774he/uOcOzJe+9CV6 NX/3xS9+kd1p5eDg8GbgN3/zNx0h7Qe8CsJp+32+3v/rCMvBwcHhbU5IOxDF6/HYIqLhea/DEZSD g4PD24CQ5pDQbu+7nsd5F7/TSlKOoBwcHBz2KSHtkoR2+p3XGs57NaSyjaAcOTk4ODhCuoHwwv/z X4AAfO/OpeslGdolWV0POXHjb3jmf/ACRdX28xQ5MbMjJweHfYzj/4/HxqsEkQAbDRIE1gwSBHD9 MIP1q9g2O0J64/H97UR0vSRE10lQi8hoXk6JZ0ip+f0ichr/D7LliY6YHBz2J4jEZGVgPSYhooqU IKoHWVUEtR8XghuWkFpCc7TD97P30etMSG0kNI9gmgS1iJy2/W9q1M07cnJw2GcwDBCDeWaXSgQC A2ayQuxDgXRjEtICMtpJ+ez2vuslJp7zc9vtLEHthpycanJw2O9gAFTF5ahxn9EMkgAMwGYctAP2 4WV/wxHSDBntJvRGLcSz6DH4vi88zxNhGAoACMNQEJEAACkltNbVZsYYNsYYpRTneW6UUgyAy7Lk BWTURkQ7kRN2o5ocMTk43NDyCGx4Yh7AgDEVGbFuXNqCAGMA2n8a6YYhpOtQRTsR0dT9vu+LOI5l EAQyjmPheZ4XBIEvpZSe53lSSmnJSAohxlZLxhgDgI0xuuIkZYwxqigKVRSFLopCp2mqsiwzMyQ1 S0CLCKt1DzVPNTlicnC4sTGJyNscETNgqMojcZVHIgAgAbMP3/8NQUi7IKN5pNNKRDUJxXHsxXHs RVEUBkEQ+L4f+74fSCkDIUQAwBNCSAAeVZCo/P9q9WKMMZqZS2NMaYwpjDGFUipXShV5npd5nudK KZVlmUqSROd5rsuyNAvIabbwoU01OWJycNhv4LFQAhPA2owJihtkxYbtrzqF9FaT0bwQ3SIVNP7q dDpeEARyaWnJj+M4jKIoCsOw4/t+x/O8nhCiJ6WMiahDRIEloloheZaQ6p+JKygAuTGmYOaMmVNj TKq1TrXWiVIqVUqlRVHkWZZleZ4XWZap0WhUtpDTIhU1r0pv7qntiMnB4QbjJMVgURUwNMkIxlbZ MSqlBHJl33uEjNpCdLOqSMwoItntdr2lpSW/0+lEcRz3oijq+77f9zxvRUq5IqVcJqIlKeUSEXWP 3n7n4aDXC5aOnViKer2gu3qwEywtddgYaZjFaGO9yDc3ijLPy41XXloHieLyUz85X6TpAMBAaz00 xgyMMSOt9UApNez1esOyLEd5nidZlmVpmuZZlqk0TdUO5MQtCqmNhGgRMTlycnDY4wpJNqrpYOsW aHLlGwAgMSOpHCG92dgtGTW/hO/7otvt+t1u1+v3+3Ecx90oipaDIFj1ff+QlPKQ53mHhRCHbnn/ B+686b733HTstjtWDpy5tZ8LQYlhXNGM3x4qZJcu4fDxY7jVF1iVQAeEgwIIqnMIIRFKZh688uJw 7YVnB5effOLSpR//4KV0Y/2yMWZTa71hjFlXSm1FUbTZ7Xa3iqIY5nmepmmaJUmSJ0mikiQpbb5p kXK6XmJyqsnB4QbgI2YGNa7MRn1DRUZVogAQYj/y0d4lpF3mjbaRUFMVLS0tBf1+P+j3+71Op7Mc huHBIAiOeJ533PO84yfvuufuex98+J5bPvSRo+j0/ZFh5IZxjoH1TONcafDM00/h8j/79dG9VD41 vP+BI5e/+JdOdUOBjgQyA2SN0ykgUPf0zf3eqZv7px/85AmP6L2jSxfTK88+vfnKn337hQvf/fYz WuurWutrWuu1MAw34jhe73a7gyzLRmmaJmmapqPRqEzTVCmlTItqMs3zFy7P5OCwbyiJbDU3zbTK T1+lBCjtquzeIjKiXZCRaN7GcewtLS2FS0tLUa/XW+p0OgfDMDzi+/4pz/Nuuukd9977wC/8J+89 dMc9KwrAyDAuFwYFj705IADc7AtcLnOkhw4XuHaePvCe93Zv6nkYGYYAbbNX0AwkiqEZUAQIMDqH jsYnjxyNj334wWNquHn/xe9998pL3/jKM1ef+slzxpgrSqmrSqm1IAjW4jjeKIpi0Ov1Bmma5sPh sMiyTOV5rhrERNg5pIfrJSZHTg4ObzGMzQ/VuSNmQDNYimobKlriRI6Q3nQyagvfzSMj0e/3vX6/ HywtLfX6/f5KFEVHwjA8GQTBzYduOnPvI7/4Sx8++d4PHAKIzpUGG5qrldvW/AsCPBBi6+JxjAyK MCiEEOLoiZOdgx7BU5jqpB4zQlWhCUMMA0LJgDZAbgANRtBd8k8+8IkTpx765Ink8oUPXvj+dy8/ 9we/86Pk8qWXfN+/rJS6EkXR1SiK1rvd7la32x2ORqM0TdMsyzKdJElNTAa7zzNddz+TIycHh7c0 bgcWAIFgbKPseLFRGpDCkpZTSG8mridEJwCIXq/n93q9YHl5udfr9Q52Op3jYRie8X3/9g//3M8/ /KG/+At3w/PExcJgXZtxTNZwRUoxAR4RfAIkEYiAnlHoeEJJP5CHDh0KDFe/RzQhocYGBwyCYYJB RUwaBA2GNkDJQEGA1ozOkePx0U99/syxT3z2ps2f/GDthd/7D09effyHTyqlLnqedyUIgithGK7F cbyZZdlWkiRpGIZZnueqQUzzck1tCmm3zbYAwNQy2teRlIPDG7zoCbJ5JJouYCCqFptaLe1TmbSn CGmHvNFCMorj2Ov3+8HKykqv3+8f6nQ6p4IguLXT79/9uf/6Vz9z04c+dnRgGOcyDW2X8DqJ6Nui BJ8AHwSPqkIFIiDWCr4qit6ZWzuxJylnhrRNagJVv0ANac+Z+r6amDQTWAAKgGaGIqDUBp4BiCQd edf7Dq7c+76P5edeevdLX/mDF1/+49/7vlLqou/7l4IguBRF0VoURRvdbneYJMloNBplaZqWlpja QnizeabZ73ernHYkKUdYDg6vnziqFjdLRqYOw1D1PVCFXISoVJTLIb2p6ui6yGhpaSlYWlrqdbvd Q51O51QYhnccuunM+3/2b/6dTx08c6Z/vmSsKVMpGquK2KqigAg+EQKqDogUgATAWsM3GmI0zFff +e7lkBiV7wJP4lwzZ9RU7bklKE8wDFehQG3ZwoCgLEmVhuER0D91phf/4i/fe9vP/sW7XvnyH7zy 4h/+zmP55sZLnudd9H3/chRFV6Io2ux0OltJkqSj0SixlXlKKaXnhO3mhe9eCzntGPK7IRYAR6AO ey0kxI1qOuZKIRnrqDqurjOTcnBHSG+4OtrJCmiKjGyPUdCrsNrpdE4EQXD78pGj7/7i3/2/f+bg oSPxs7nGyDCMsfLBllZGAghBCKhSRR4ATwDSPqUuCxRpYoQqcfj0qTisZfPcJXlmVa9nmzChtnjw 7Pll7PMZWwChmFAahgQQ9Zb905//+VuPf+pzZy79yZfPv/A7v/X9bP3ai77vX/B9/3IYhlfjOF63 xJQkSZKNRqPCEpPBzhV584xceeYz4Ou5lvDmFKK+bs/xehKoIzeH1+Ecqk5uXe9oRZUzGnvXWWU0 3kK6PqQ3dbPQQkxNUqrVkd/r9eJ+v78Ux/GxMAxvjnu9e37m7/zdzxw6fCR+KtNILRkZ5rHyjagi I18QZIOMmr5AKAuUWaqIiJYPHQ3KliwMMxaqpek3UcUJJVlysueexwRFjIAICoAyjJgAGccSn/js 6SMPfPLE2qNfv/Tcv//Nx5Irl5+3xHQpCIKrURRt9Hq9rSRJRpaYyizLyizLNOZX5LWF89pu20jq zSKe3Z4bbyXB8W7IzZGVw+5OJpuYFlztVBmNnJH9neZp5vqQ3hJ1NNVf1FRIURR53W436Ha7vTiO D4dheDoIgjs+87f+b587evOt/WcsGWkzISIGEBLgE1k1ZMN01CQja9NRlkhHIwWAOr2+p9BORrtS S9Xptg3180obzpMGVq1ViqlHBApDufTAp08c/chDx9Yf+861Z/7dv/7e1isvPef7/oUgCC6XZXk1 DMP1bre72ev1ktFolCVJUlovPT2jmq6HmOZ9P08RXc+Ijv0SZeHrJStHUA47nDHVjbE7YK7U0VSi wDiF9GbvgNtux2TkeZ7odDpBr9frxnG8Gobh8SAIbvngL/5nnzp53/sOnC8Zw7EyssUG9g2PCxdA Y0KYXUqZAV1kSLe2CmMMdZb6Xmm49uDdkYza7uQ5coPssiatSpdMkKiKLRQTSmYUYITSF7d+8GOH D7z3w39u/QffufbMv//NH2699PzTdY5JKXU1iqK1TqczrBttR6NRnue5bgnn8QIy2omQ8Cruoz1K VHQ9S0XL/XTdy40rr3dYBD3T9DpLRuOzzhU1vBkENHtfm0ISQRD4cRwHnU5nKYqiw0EQnD5x733v e8fn/vwtqWGs2wKG+nqvL3tPWFVCNP6nTZ/C5qq8NRqhSJIS0qMgjESizeKVhtse4zlhnPbVjmrV NB4OyeOQogaQKYNICLr9/o8cOvS+Dz5y7Qffe/dzv/NvfrL+zJNPK6UuBkFwKQzDa51OZz3Lsq1e rzfK8zwZjUZ53WTboprQQlDYQTldLyG9GSG0NyqURzvcv0hFzhLXdM89ETlSchifGpqrXWk13Aag egyFaZxJBChTLRSOkN40cmozTBUAyPM82el0/G632wvDcDUIguO+79/8gb/0y/d3PUlPZ7pqUm3k jACMVZGwLgpEk/acWkEJy1AMIBkModJRER046DMzlH0BzLsP07Utsdz6t7ztQAhUFYAaDGHPVY8A BUZqDAIQ3fne+w8eec/9D2w+8+S7nv+j//j8xUe/8WPf9y+VZXnZ9/21TqezXpbloNfrjYqiGKVp mhVFUY/G0EVRaKXUeLggds4rvRbldKOQ0o6j5FvIZ14jspv863B9Z53mceMrz55mhInz9z7EW01I u1FH2xRSEAReGIZhp9PphWF40PO8k3d/7s9/aPWmM71XCtOoppu+9AVhQkaNdWO8EttyfxIAK408 GUFvrhfhHe+Ia86oyy15x1wSj3uddl56ecEqXFXeEeoychvO46pkfKQZHoDTd9y9cvD2u96X/sVf uuelr/7huRf/+Hd/lA8H55VSV4IgWAvDcEMpNej3+8OiKEb1SAxrSzTON2mtjZ1+axYQ0iIy2pUr xJukbN6I/8NzSGtexeJ1EZMjpbczIdVNjGyr6ep8kZnslm0F+Di/5AjpTVNHbUpJoCpmkJ1OpxOG 4Yrv+0ejbvemd/z0F+4IqFqg69LuWbIQ4z0HbeMDpgnZGGYYVSJNRqxGQx2vrkgDRl22Rg3Puym3 Bqr97XhXyyLzIhqa/qEO5TEw7uKWAHwAioHcVEUTq4cOxb0v/MLtd37+C7dc/O63rr74tT967urT P3nOGHNVKbVujNmI43hLKTUyxozKssyMMZlSqlBKFWVZlkoprZQqlVKmKAptjOGyLLXWmvM81wBg FdVulNKrIYq3YlHeLZHOe9+E3blitBGTIyUHG66rOvKZm46q1sdMm4YyIrBxRQ1vVchurJLCMJS+ 74dRFHV83z/g+/6xu37mi/dHSyv+2cKMyciY6RXAm2G6yYakqm4T9dJgpzWqPMNoOFAAKFpaloar sK2YcYqbSijUXbcN+4Y6N0mt+2neeSs+u+xZcvKo4USPuumIoXT1AkM/lHd9/KGjdz7w8NFk7dr7 z/3ge2sv/ulXn736zJMvGWM2tNab9bwmY8xQa50ZY1JjTG6MKbTWhZ2Cq7XWSmutmFlbGKWUZmZW ShlmHiuqsiyN1rpqp9Ca7e/yDIntNzKaVxiymzEhrYa3jpTehqibXkk0ihZoQka1MuK6/NsppDda Ee0UshO+73uVOAqXfd8/KKU8dtODn7gpFkBRV9O1XMo0M2DRTPYZqGvnGkMZofIM6WCgmBl+pyc9 ImhMnB5ml6qaWhozHsed1/UzETffHO+8KnJrFHBK+YlmQQYRpG1hMGDkmqDZoLtyMLz5wU8dv/2R Tx9XG2sfvPzU45sXn3ry6oUfff+VrcuXLjHzgJlHWusRMyfMnNUTcO1tab+UMUbZW21vDTMrZjaW vBgA299j+zjb7yuOnVlsm48175v+/OgNWaDr5zXGcP0cxhhu3t+4zzRJti4MsfOrFhWILCKmVuXk 8kpv06gdiXHIbmrL0sgZGWNmZg04QnqjCGqhQvI8TwZB4EVR1AmCoC+lPHj6Yw+9s3/wUHi+4IlT 7pwKNm4oCWIaf9hkiYSIxnknUxRIB1ulMQZB3JGKJ9YHdTiwLSEw+8RNAqqNHggzVZ3cUFPzCiAY O6ip6gUKEIgY0sorg8qaiJlRMhAurYa3ffjBI3d8+IEjAnhHvrVZXD33yujy889sXXvphatXnnvm 0uja1XVjTNIYyV4CyC0pFZaACgDKGKOat8xsmFlXh4kNM1d2ftXCamYW2CZBcc1NuzpZXgeCsjw5 fv7G64B9D2MutY9pS7DaWNjvtdbaaK11WZZGKaWNMSbLMl0Uhcnz3LxWYlpE1g77hIxMIyRXV9PV 1Xb1+HLDDTJyIbu3gpjGBQ3MTGEYhkEQdD3PW/U879DJjz10S0CEnM04VLddwDRUkA3PmZlgyTg3 ZO8ejkbIBkPFzBBRLAuuHLuBCeG1nRbUQkjcUEvNkkG03MfNx9BagDfz/maYitgO+KpO4EpBTTbu xhASY6DtE4WdpeD0PfcGp+5516oAn/GIUGapHq5dyzavXcnXz58fqSIvrr784kZZFOmlp5+4WqZJ wsylMaYA0FRQmplLS0C6JihgbOHXXPSbaqLtsde7cm8uKdmFv0matYgekxARafu+jCVgY9+rsgRd aq01gLwoClsnkmeDwaAcjUZqMBjo61RMc0OHzhVin6L+VHVjImw9foIBo5uVwXa2jSOkN00VidnH oijyoygKfN/vSimXwl7/6IG73rFcWCeGWRufWWKq3Tg0Wd8oosoiipoFD4AmwrWNTajRoDTGAL5P hQ2DzY6caEtd1zZT21RQg/xMIx9U/5ppNGGjkXti4jkSvaVJt05j1VKMp0N9YLaVhgQyVQn5RsFT SQ9PhjI6erJ75sSp7ql733MA9r149VgOAKON9UKVpd68diUvisKsXziX6KIoDZPZunppmG6sZwBp JtZrr7wyGF27ktSqqYV0agVSk1czqvqGbUibEcNa/NqfdYMoa0JSzKxQFTfW35f1LYDcGJMxc6KU GpVlOcyybEtKORJCZHmel0VR6Dlhvd2OCNnRGcIpqhuZkGiijHg6LMLN0DwbkIGbGPsG7AXm/Qy0 +NZ5nieCIIg8z+tKKZeP3v/h2/wwktdsE6yemU3UXHeMVUW6+QymCqNR3YRK1vqdgeFgCzpNyqrO PCTFVTUbpuZlTdTSRDXR+BeImyqIp9+YLXxoNlw3Ow+Ip0QPxvmpWaKbs8xy/aIYjQmUaIxDnrw4 QhWjrv+/1kCiDYbl5DppsoMA4MXLQdQjHD5wOPYIOPGO9xyofq8yrq09AmuSDUQ1XwoGYEH2tfB4 0m5R5CbZXM/HEQueqL/xFM3Ga2eejnFySxi1+Vkxz2xUDI//XWkYo/WruUoTxY3Sfs1AsnEtKwZb OUBGlWW5ce6lLUHV6bD+8gtrxWg4YuacmXMAQ2PMlud51zzPu0xElwFQWZYcRREXRTEdOd6ulHYa EXK9tb6tJOUIaq/G7Bofe12VRVTVSI17kxhEoqVKyhHSG6mYWlWT7/u+53mRlLInpVxeveedJ0IB bNZBOZqooFmFZMDQ3Ii+1rsOnn1ChjYao+EISEelMQaGiEqeJrN5JZfcIA7MvJFxeG4mDjf1Gmha YTVJaapiDy3VIFP9c41cGk+bB/AUg9oSU21fPVXeWXVoYOyCb8s/YGe1FGAUNmRg2kNHU8w5lRjh bdcciKUI+ofiQEzGN5vmZ9VcsRtvZ3ZD0AyKTUipOhZmTFwEbf+/bYtGsHKk0xcEagxUzDXD4yqB LJhBgnALCLFPY2ImIowuXUhMmevB1ctpkQw31ja2Ljz9/Is/5O/+8VeMMToIAu15nsb0MEXCzg7s 81zY8SqJyhHUXkcdhuPKsaE6h+21aHS14aU5sXxHSG8IEbV+SSlFEASe7/uRlLIrhFhavv3uflDn jcz0wjhbUG0sAWnAyt1mw3M1bK9avAi6LJAOh4arqayA9KC46kPaVe0/N4dtzTgwNLT3VL6JbGFF 3aHbUEmzvyfsatskMGraXDFPEyFtV2nbiGnmltlM2cEanpJ7Y/KFzVcxT+nGKQKrY5RM06PfRYOc GNWo98zapYzfuSW2qb4MasbbaMxYc2NZhsGCLAHyuBJT29dq7PlRmuozLhVDE1BoRm6Akhmp/b6q zK2ImwQgGejK1c6hvkC0crJPwJEi03e+kn/j7pM/+PrTZVmOfN9PPM9LYMdsYXcj6AmLm5J3Ghey G5Jyo+v3mkKqK55UI6JhGGRHmk92nE4hvVEktCuCEkJIz/N8KWUohOj4ne5KcPhodE1jspOf2vVt /6y1lUUK1aJOdjESsEUO9lwo8wJ5nph6p85CipIZymDG32GSd5x9+dwMs82E3prrdPNFN9UTzSw5 1PgfekZdTR4fz5q0BRJVmKwm4JogCZgeddumbmYOIk9zojUh5sltQ6Vyk+zqMJ1VGGyJqfkPmSbP S/XFZusKmCdCoqonH7uqTDYHM8xttHXbsL9rbAKRGsedTZVLY8NgJiibW9Om2pwowyADCDs8UTLg gZEUugrdgmDAECSQE3AtVVXYUwBrV64g/bOvhEKIQ0KIC0KISAjho8o/NUN1phFhbssttfUpzXOH 2Imk2v6WHDntJUJqNNwLu0uyG5+piXz1Jk1rR0hvEDHtdEu+70vf9wMhRCiE6CzfefdREFFiJqEd zClqqG9LWyAgAAg2VQUaU2M4Y7WaqrKAyjJdX48azIarPqSpUNg85dzIZ7StKqhV2jYiaiorbKvm w1iRNP+OGnkoM7XoAjx+nqnqvjqkh+nKkan8FM/3kKhr0Kbyrts4jMe5mrHK0jy15PK4X2vSdc6W XBoF2JMwKBp9ZlT7TfLUCjx+Oo1pOVZHQmg27le9Z8mW1xjw7K1hU+UeNSCYIZSG0BVpwS4YpVGV wpaiIkCP0PM9eII8Iloioi4RBczsNQ63maOGdhoN0kYoO5EUWsjKkdNeRO2jaWZ2rGZ2V1rFu0kI R0hvATnVComEEJ7dbUbxidMHJICi6iMB8yQgZdqaTo1NoNtFqVZGZOUwbNUZCUAXBfJkpITWTERg 6Qk1Lvsmu5NvTBneKUbC29/glEqa2eNOyKh9DSBuKqcmE9BUrmq625inVNY0AZEtNeeW/BTNGi1N z4TC9vcw3421vZnKmIYnumn/vfZNAC/0FBzzzrZYLk+T7rh3rXr/bBORZEOG3CzR5Or1TsjVnlfa LhCFgdKmPiYdAB0iCqWUgZQyB8C2PHyn0N1OYTvaJUnxayAnZwD7JofsxlEA0Yym2IQrNzr3iaY2 e46Q3pjwXVtBA1DlkKSU0hNC+EKIMD52oh8JQqIrMjLbZg5Nl9zVP6naF65WxKiLCthWgRFUkSNP UhVozUII0lTNJNLgbWXUPId4muSxrU+psSjSrBrh6fAwzyO1liemRnyPeJaMqD1e2sgtUSMcNy6i sIwrGsuYQLu1xvxD0SCAFvcJ0z63YxvR8OwBWdBE3HbcpkKtZnrZZTC0tYeqar0ZylT3aVORjDLV /Vq3hDK52txAVGRVhUtpWQixEgTB6urqah6GYWBLyrUQwlh3iLq3qbK5sDZMzGzyPDdExHme67Is m44QtEuSWhS+2w05YZ5qcsT0RkTsqvg1CcI2J+daDTEvGFPtCOm1qKBF61lbUYMkIt/G4kO5vBL5 tGBWArfvmusokrGjxKc7cAmGgMEogUpG2rNZcG13x6pBYpgZTzIJL01X8rW/Qdu8yi0rCU8vkm2r xjYyaslJbd8+87b7moqpbRcgxnQ2KY8nmqY20SQz+42YbThuKMlZUmm1Cuc5IcMZxllgst6uqprT NhvXtrGfR0VGjMIwlP1ZsUFhKpeLwlSPTQ3r5Elxh/QIWleERJWqP+x53tEoilIhhN/tdkdWpGsi MjUZ2R6nugdrbMvEzEprbYwxyhreaqWUyrLMlGVp8jzXaZoaIuKiKNouBZrzM10nObX67Tlier0Z iWwBQ51YnU22Yrr8VjhCejPV0mzITgghBACPiHyvv+TXC5dq9gO1b8xbduUNhVQvrsxgAVxZ34Qp MmVtZaDs+VHq7QGQCYnwdF6EW9ryG9V04xOwTU013BV4dkjklBMFT7lAbA+fTeeympV5zZDdtjBf U2HVr9fUpD15TtH8kOo/bIxqqd+DmPPBoknmu5jAOy+MOauMtpvS8rZv61lZVTtAVampGahDs6UB SjYoFCM3jNwYZBrINI8JaIoECVClhvAFyJPweysk1sWy7/u3ElHoed4hZh5ZMtKYuFdo2GZbVA23 JapG27K2aLIuEApAoZQqtdalMaa0jhCqLMsySRKdZZlSSrG1LJpXPj7vdjdTcR0xvbESyRYwELiZ IyKaatOY6vJ3hPSGKKUd5yIRkSAiYV+zRBCJghsmqTTdr7KbcE4zb1HXIJMhDJMRUJbK+phRrjUH zFB1ARhPW6m2Pdk2eyGe3tnTgpwK87z7mysML5xEtC0xwDMl4AwQ8TjH0jSfpZkerSnS4YbjOZpF EhPrJaKqb2dqR0GN20bF0NTUXvuk2/u4aErlzYbvZlxZt+WVuFHqXecRq7wVj9WytqpI2/JvxWzJ yCA3jEwBGU+kG89sXMGVrYsxDHg9HP3452X0p8N+T/IdILqFiYZFMhquv/z8phCiJiPTIKPSklEB oGjYMhWofASbX5nWOjfGZFrrXGudK6Xysizzoijq2VYqz3OVZZlpENSi0vJ5ThE083eOmN4wPjI2 m1tbBGFi6U+NvJFTSG8YGS0ipbaycDEmJz+QCk3vmZlFaTZM15J2aCoLNoAQVVNklqWgic0L6bIw DILSXElqItuX08hYzbTptO3jGfOG+bUk5Hl7mHGywJqpKrztgmC63NwwTTXVMjeUjpm2JSHraDGV 0GvklYT9JdFwmhiH8+oyc9bjC0o0womikZsiW0BAMy4Vs3ms5kGlGVJtKtTpDcfkM2naPXFNPjwh I23sfQC0roioNIxcM3I2KDSQarYuILzNpombIURbtu77AodOHA9P/KW/fdfpnm/naBGEACJBCP1J PsAwkI6GZT7YKvNkWORbG0UxGpTp5vqwSIbp8MrFzXRjbXNw6fw1AKk1u00BjKwBbmJHiCTGmFQp lSqlUq11XhRFlud5kWVZbolJDYdDNYecFlX9kSOmN4ORsL07nhshB91YXATA2hU1vFXqieyJPr41 dpT3eLGZ2hG3h+l4ZnfNc7JWKs8hWdWu1WIqPCWq3fRs+GiuCSpvz5W0Pj8v6KPi5gRcMzeN1PxD nlFms04GU69hSvVtv0AITTcJHlfk1b1OAs3Haud0bhgS0uRxogaxLe6GRkP9zpavt5I3T6vOsUND 06nd5oC0LVrSzONQnTKMkk1FRhrITNV71pq34unNz3hqAAGFMjhfGlwsNL5yNUNeVAQoieARwfOr 90OeADHDF/D7cslfipc73d5pRASEQuCARzjpEXq+BLTmdPNykl+7kuXrV0dbF165dvX5p89uXHjl EjMPjTFb9a0xZsTMQ6XUSCmVKKWSsiyTNE3zPM/zOrzXQk7zVJMjpjdj0bMhOjZmcp7TTHXTePdM IOdl96YS0bRCMAY8LvFmNlyNKq93wGZOvqj+/LAoSM4Yqx5jgCLLEFQTBLQQwtNacWU1w41RJdxO eLy9wmy+kmkPKTYD/7W0m6Wh1rEUM42s2yJ/TVI27U2v25RGy/wnbqpOO6m2qlzksWKqiUhYchJ1 M7LtAyOrnprhPFGrJ0tawKRCsF1K86RCz8yZkmcmfnmGJ64MlTIy0LbhuRwro4qINM8o7bZcFk+0 L2vrWKEZwiNAWs8+q+urY0HwA0JAVDU+2nOpKBlrWuNaxjCmeh1ZyVDKwJMEzwNCX1If3e7h/nL3 8JG7Dx69T950TyTeG5pSDS+dS9bPv7h+7ic/fOXsj/7sOWbeNMZseJ63xcybWuuB1nqz0+mMyrIc VimnJMuyLE/TVCVJotI0NUVRGMxvsn3VxORIaZcCyXppkRBTVVlVoYOYxMypMlo0jpDeUCKa24M0 yy8AWBelbi6MrV5n83JGPDt0pkEczNBlAWm0Lu1cH1MUVR/kODw0o3jMfGU0u0DODcm1/Y2ZyRnN UVazGoy35Ztm/rfZToTMO/f/NO8zs+TJBoq3v3+q1mY7gr0iJWFJSAITRYWqylHYUAVZ8qpzXRNS 4u0hUdM4BjxlId5QRjUBTQoaykY1XWEYqTbbWjtmj92E+GYKJWx4UEgBlaVIzj6DrbMvYHjtKow9 4DLuwO8uw+90q3chJaizDC+K4fWWIIIeZBig1FQ13xKDFUOzgAZjjRlXkgyF0hCeQCQIR/uhd6pz bOn03aeW3v+BR848CPWR0ZXzydrZlzZe/NH3X3jlh999ipk3tNZrxpg1rfWm1nozjuNBWZbDPM+T 0WiUDofDoqGaroeYMIeMyKmlV6GQuDFl1LoaExFYGZCkqYmx+3FE340QsgMAMsbADh81zKzKZKTH E31NcwHmbSGp+ZV304tKRQIaRimmqvPRDpkDC7sbMcRTi1bbOLm2ajDTpn5mQ2wt/TZtBQyz/55n 3o2ZJeRm2JDnETXPDRVuf74ZUmMz53VZgufp4yIIkCAIYkjrNCEJEDYZVM9wEpguhCCyKd+Zqrkp OyeeHINaGVVGrRUZaV351WmuqiYLrgoXplQ0t6vbKfLnmd+luoWYoYoU6Q++XvZf/NHlqChMlawm ZiLODQel0j4bAyJiFkJslCZmo1EY8rUf+BTG8FaOwFs9Av/QCcSHT0IfvwmiswwSsiLZ0qAMJS5s 5ji3SfhxCCz7EkuBlEeiI/2Td53o3/+eB05/uEw/cvm5n6y//MPvPv/Cd77xBDNf1Vpf9X1/TWu9 FsfxRrfb3VpeXh6ORqM0y7J8OByWo9FIlWVpWkJ6s8Q0LxPi1NJ1S6QGEdXu9qgSnE0HlXFdA7sc 0psapmtCa812SKdiZl2OEjU0k+w3czO01ZKTacmvNJWIsGPsNQNGm3ExFjMb1sbmInhCXHPCcM2c USsp8vbA2zwrIp4X8pslVW4no205rBYlty3Ux4un1G4Lgc4hI7QQRw3FgIIZe9zZWn57QtqJtzP5 pzr013wltI08pwtHzFgNWTIy9rnt9NzSDqUypk0R8vZ8G7coowaEDdFJCZTJSN0cySvK8ze01pe0 1hsAF0REFPlkIRpfkoh8IvJHpV4ps/P90dlzB4oX/6ybGO5cKXScyjAW/WXyD5xEePwMouO3Ijxy CjLuYlAIJLnBRRQ4LyWe9AgdSVjt+P7x4+86cs8d7zvynp/9T99/7bnH11/8/qPPvfzYt36ktb5i jLnk+/61IAjWwjDcLIpi0O12R1Y11cTEdpbTrGJq+9mppde0GtYODFRV3dUOvvb6rWelTZkNO0J6 KzYPzMYYbYxRxpg8u3Yp29KMEPWOYZosZg1Q5y2u9R2a7YKitU2Gj8dWG1UWzA1DUW7ZGzJmlMgc MlqoSLb9TTsZzStgmEdGrWHFZv5jhzBd/fjE3KDR32SJhMx02NBwS4iRtzeo1syvxgatBhIED7BK CmOnCNFoPB6Xrc8cmPpzqJ3ZNcw4Z6QMo0RzbtY0GTVfH5sFYVFuJ2xlDLxAgqSE8X02xoyKongx z/OzRVGsGWNSIoIQgoUQ1ICwP1duJER+ROR3PBGQL0IpZUREMRHFW8XW0eTyxqH0wo8PJIo7F1n0 yt6BMDp6Bp073o345G3Iwz4AAUGEAyXjwqDAE77AUkD+iePvOvLOO9575N0/+0vvO/+j71z4yR// hz9L1q++5HneJd/3L4dheDUMw41Op7PZ6/VGw+EwscREo9Fop6m3u7UycmppkUoaK24xuX5V5VhP NO5QBDm377cOSimjlNLGmKop8MqVYc6EUNTVVJPVYZ51GVpySbPbPGaG0HULEldWLlliiHjsucY8 j9gWhAvbQoUtRQf16+c5BQzNGT/NXzCtpNKed2KeT4rt33Orupv2n5tmZp577KcPDM8QcN3orOz/ JZt38ix1CiKIhns5ZsKRY79CA2jWtsy7UkbTqydPh3qbg6caCnDsBG94ymx5ctLYNgAA0hMgu2gY wyjLci3P80uj0ejccDi8WhRFIqVkImIhBBMRpJQkhID1ahRSSnsjpRAikFJ6UkpfCBESURgIEUWe 6JBPkZRel4h6OQ+ObJx/7OTg5ccOXdVipegejOOb34nOne+DPnQSXhgiyDWWfYErQ4VnrkmsRDI8 ee+DNz/yvgduGrz01NpTX/3dH19++kc/kVJe8DzvQhAEV4IgWIuiaCOO42Gv18s2NjaKlhwTdgjj LVRLjpRmL8yZeUd17FlUyolFNaUA+1Mg7QlC2tVhtf4pWmtdGGPS7OXnryljxnNpjGku5gsU0YIf CAJmkvMwlpQMF7mRNNl9M7Ut3DuT0dRCzttDx1M5I7SFi9qVEbeWjL8WMuKFZencUh44HaIktJdJ 8/b8E+bna2ry0myQW3KoRrBXRrhTM564OYPcOnU3VePMm9GzyoimdzN1b5UeJ6oaJky2B0BwNRfJ ECDlxHWdbd+UMWarKIrN0Wi0sb6+vjYajRJrGcRCCGNJiaWUEELU5ESe50FKKaSUnu/70vM8T0rp 17d2BEsopYyEELGUsnNAit7hQPZvF7Sc8frxtWe/dsu1p/7k6PnOoaXwlndQ/677kSwfgeeHWJKM YWmwlim8HEhx+NCdh979n73jYV47d//zf/rlp5//5h99R0p51vO880EQXA6C4Fqn09mMomg0GAyy 0WhUzhDTTkTUppZcCG/bSthCRqDxeJZqfMvE+dGVfb95BLXt5FZKsVKqUEoVxpiseO7pS8aUhoUn GALMoqpm4kVu03NiUvZk4ImbLtfhOmbWxWhoqrsrE9ftCfDdVtNNwmc8JyfEswvzLLnuQEbbe3Ew 6zPbSorbmjwxY3nU8l63Jfyn1CnNENh2gtwebuO2UO1Y/WkzW7zA28Kc3BIr5Rbia+snQqMJnscD Omwey8MkZkmTAYoKgBSVIaYQBPIEtKwWWK31SGudFEWR5nleJElSYGIZVC/mU7eWmOB5HnmeR0KI evQKeZ4nq6HJnmenJ/ue5wV2aGXseV7HTlPuH/HkYyciWi1x7cTlp75659rjXz96tXdkOb7t3Uhv fy82+gex2ouQG8aoNLiWlFjxD/VO/dQvvu+Whz5zzxO//1s/Pv+9b3xHSnlWSnnB9/1LQRBcjaJo M47jxPf9fDgcFqPRyGzPTu6ollwIrzV/hIkzg6hqTw1PXBvYTBYOEuQaY99sEmreb4xhG7bLlFKp ytJBeflCZo6f7oyHrPKc7VpLafTsQi+oNhYjcDWh1KatjNF5pkaqIiOzwFut7Xl5VkG15XkYr2Of USM/0yig5xbCma24o5kjZHiiHurHqxi2rYYTwl4wdpBhfU3Vy5Oolt9tuReqSXm7i+o0AW6fddWm AMdE21Rhc1xbZysQZ9/zmDvtbFchqSq31QzyBer6/3oAoIdqBlLtUgFT4urjP0SxdqXUWm8qpVJr jqqwfdzELCmxMYaNMWg4ewNAUz2REIKCIJC+78swDD3f970gCALf94MgCCLf9zue53V93+97nvf8 USl/fDL0DpS4cvrS479315UnvnF04+Q7usk9H8DWiTNYjmOMMo1BKLCeaSwH/fjMz/yVD9z2sT93 9+O/+6++d+3pHz1mFdNZ3/cvep63HobhVhRFaRiGxXWqJRfCmxsGsrscuxjN9jPW1x7ZXRMJp5De svCdMcbURpJa68QYM0ife2YwOHZTpysavTFzwnVTSe+Zu2enitZNuDaSYHSamYJ53NcyiUhtr7ia ra4DFpCRaQ/TYWZRblNfs6G3baJhxii4JjxqW9xpklNBw7txYsRaxa2FtMqAxHissmAalxqMB+Qx gyTAZXVLxnq8oeH3VpPYHDnLjaZU3mZou52MeE6ctv7/gnhsCTa3xN5e3/X7FB6BRFVKIUI5IdNi CF1m0EpBDwdQ2RBlWiDbvIr06kVsfu9P1CnPfC/P87WiKAZFUeTGGNVQRvMUEuYt6lpr1lqjLEsA wGg0Ki1JCc/zxgQVx7EfBIEfRVEUBEEUBEHH9/0l3/eXPM978bjn/eSUHB5ev/T9ey688oPbzx66 fXXjng9h5ebbcQg9ZCUjLQxGucZy51j/3l/6tYfyV556149/+3/75tbZF34kpVyVUp6zobyNMAyH vu/ng8GgTJJEt6ileaSEeSG8ty0pjUccb99kkr0m6uZrErQfxyHt6ZDdtpHORVGooihypdSoLMtB +th3zwUf+cTRCAxRG9q0FELxvHEFjYS2sdYumqqGxcm6yKyzhGsTTmF3xoZ5W/hpXgFDa3LfbH99 beTVNuSOeVF+qU01NZRDS0CFx4l5S1hCAJohhD0uAmCuvNiMzfRLKcdyiISEzlOYNIEIQggvhCEJ Dgy0ss2xkmC0VaD17I25buyTMF2r8wVNlj3D83NzlX9eNQ+DmcBUXchVSWUjFyYqCSlB0IJgtIH0 BNLLL2Hw9A+w+dxTGF14CWqwCaMKmDJHz5O58HyGVuj6XiY8aXSpVCTpSijklV5Rfj3JsqtZlg2L osisDdUiQpo3MXZecKcmKS7LEmmaKiklbW5uZkEQyDAMR1EUeVEUBVEUXYuiqBMEQS8IgiXf9w/0 vPLld4T+95PB07ef/frT95770elDG+/4mDh86z04GHeR+wKJNsi0QX/1tgPv/+W/+9lLj339nU/9 +3/5h0KIVSnlK57nnZdSXvV9fxAEwSiKonm5pZ2UkyOlhkqaCnXTpJqubpDFPiWjt5KQFg0Tm6uY lFImz/O8KIpUKbWV//C7LxTJ6D7qRJ4WtE2lzDZLzu6Mp+MG1YIsfA8spKBJ04sxWWbYmrnVw9nm zZmeW5Y9b+AczK76jJphtHnFBjRbNTgbCuQqIU9WBo0T+TaZKkRjcfaqxZxsjoSJYIoM2SvP4ZU/ +zbWn38G2aXzUOkQplRgpRAQlUEc80ibQHY66N/6Dhz/8Cdw4NY7IOMeDFE1oZfIlurTmBRI2O+N qV4O1bNhaNt01jEZTcc6po6FYIAkVWrXAEJWZdBjfz5ZxRRZV4OxyDp+e5JgpAQJQK1fRvj9L6/f kg82WBiODwRX2HgD5rhA5c6tgbBENTaiMAElSqlhWWZroyy7NhqNriVJMsjzPLdTYutxEzxDSovI aJsf8LwQmCUoKsvSZFmmBoMBBUGQhWGYxHE8iKJovdPpdKMouhIEwXIQBOd93z93R+A/qfOXbz77 nYvvefnFe45du/sD4qZbb0epA5SKMfIIifJE550P3PyBM3f/wtO//S8f3Xj+ie8KIfpCiK7v+5ds 2HDIzDmA0pLSq1kL3sakVEUP6lBc5RQ0uQ7AAEkxjjbAFTW8IaS0LZaMNpFTFTbosizLPM/TsiwH uizW8h88ur72oQcPL4uGH91MR/3sVd3mIce1WSgDxvMqa7VKObBJEz21CPKc0NkOz7Ut57GAjLbl UFpUU3PceE0+dS5sHGNujHqoR0oIAbDHY8NUY6rw1NjlvjZ5BIO0Qn7tEi7++Ae48O2vYfTEj8qj oVg71Ym3iDGKO3KDWShm30xi3cIToojyV358ZOP8s8ub73344KkPPyj8g8fAQoz7iARNnpOZIRgw UlThOksiYIaQjbBjabmHANaYKK1GshdmYnha5XZoTEDCjoaulVt98TMR6rlogqrnTrRCHIR5XGyd L3R5cZQW60qpgZ1RpJhZAdCNuUW5Uiory3KYZdkwy7JhmqZJWZaFDdnpXaqjXUyHmrLY2nYtzZLT aDQqgiDI4jhOO53OII7j9TiOr1lyuuj7/oUzQfnisY0f3/n8N154/5Nn37t6+M734OSxU1DSQ2EU +qXAcniwe9cv/trDGz/8k9ue/vf/n98noiUhRMdW/V0TQmwFQZAPBoPiOkN4b3tS2hYJsBG8sWuD MWBqzEhyI8zf1JDdrNhhY4wpikLleZ4URbFVFMVa+fU/fHbrA48cXtIKTB5gd93zyKitCm8ihWwS 2wuIpSeBHMwMnYx09fnzeGFnzXMr5XYKn9UOB7w9UrW99wfToSkaKwvrnWbPS0ETAhpf0YLHOdKp lYyoIgMbqvNs2IrKAmpjDZvnXsbai89h/dknMXzxWei1K2qZ9PBAt3Pp5gPdl41SW7rIR1rrbMuY wk44HS88QghfShl4ntc/FOQH5A/+6OTl5aXbT33wY5HsLYMNgUz1Hir1NVE/gm05NQhKaevvVRE3 K65MS+tjIasD2mxuHZO0BFSSQOUJwAoCdqJrHYcHqlCksWXctghEa0ZhNPJSY3TpAnxjBmmaPpem 6cUsy9byPB8aYwrbo6YbhFQaY0qtdaGUyouiyIuiKJRSRVmWyhgzL2R3veG61twL2ke6NMmJ8zzX VjnlcRz73W436XQ6W51OZ92G9a74fnn5HUH+wvpL33jvS2efeMfGXR/t3HrPu7Gk+yhLiawgHOSA orsfuOn+W975nzz+r/7Hrw7PPtezpBRJKT3P8zZtAUaxtbWlZnJkjpQWfbDCltnoiVKq3fi5rk5q uDk4Qnp9lVHbz1hwobJSqszzPMvzfFiW5Xr57BMv0oWX36OOHY1F4NndMS80VZ1WHM3O6CqUJOMY xvM92NYXPdwqq9wFNQJtc1TNLEFxe5hu/CZblp/Z668uMGBro81W5dStCp6cOCawqcqPmQ2EJBhd qYNalZgyg0mGGF2+jK1L57F5/hy2zr+C/OJZ5NcuQ6RD1RXIOr6frvrexklfXvEP9K4aY4ZlWQ6H W1tDm8PLlFKF1rpebLnORRGR9DwvCIKgF8fxSqTUxsHv/H5y9uTN74/Da7LTiSHHjt5Vyd24ItDK O+ZJeFQZHm8AWITwOl0AclKj3fg8K8KpcopbT38f2Z99WY1efk7rsqgIeH6JeV3FYmv+2RhjVLS8 9LIYDl8cjUZXR6PRepqmIzuxtZ76qmt/RUvMWmtd2ttFRLRTMQPvQEbzVBIvIqeyLI31qNNpmpZR FOW9Xi/tdDrDTqezFcfxehRFa/1AXX0v5U+df+r3P/L0xqUzp979YXn4yAkYeFAbBZZ6EsvRanzn L/7tT5/7yr8+duW7X/kKEcVWKV0QQmwEQTAEQFmWqaIomu+xLqA3jpRmN6VmUuzEE3uU+voeT5Qk WiA+HSG9XqpoXmqmWdig7dCxUVEU60VRXMZXfufFF77wl++5WSiQqLylmbb3m7T2v6Au+6ZxpZ3X 7UOHUVjnOMxoqIX1RRMAlOZWxTUmnjmO3Ho2a9kW1mu6HExenDUR5TEZETX9r+scDEAewLqE3lxD trGGzXOv4Nq5lzG8cB7JuZdQrq9BFlnpC6iOEFnoecUKIYk9uRHGYlPG/YGdSJoppdIyydPUztQp iiItiiIryzKzxSVK62pMBzemxVpCklEUxUVRbJRlOYjVSwP+xu+tvvSj753gPBXjEPm494emF1Bm 2who/6cgEEkcet8Don//gxLHbxWEqgy7snOqk0MGQsjKJmi0iWNbFy52lv2R1iIvy3LDGJNaZVN1 C1S5wuapoZk511qPytJspuuXrm2NRleHw+HGcDgcZnZO+AzBtJHOovvbwnVAuxXPIjJqU0k7kdNY NaVpykVR6CzLVBzHRbfbTXu93qjb7Q6iKFqPomj9iK/WVi7/2b3Pfu3SB4fv/Hj35jvvhvFi8Eih yA0Odjx57BO/8O74yOlDr/zHf/nbQohQCOELITzrhzTc3NzMmVmVZVn74dXm+cKR0mz4pmr0n6wt PBkVMw6HiDpe7QjpTSSmVqVkjDF5npdZliVZlm2FYXgl+Prv/6h45KdvNv7BWIax3SkvyBm1NLNq U+c/CFF/CWUQBT6RBKBNMlR1Q6SemZHT1gs0+1yM9gKG7WG86aqE8RpbjXgFkRhPWgUq5WPKAmrj Gobnz+LS009g4/mnMHr5RfDWmupKkQdEZezJ5IAUyRFg0OvKa9zp5DbslBtjCq11bvKiSI3JjTG5 DTsVWutMa12UZZlXqbs8L8uysOX3SmttlFLWzGCSrCIisoQ0KooiKctyVJblIP7OH63dEgTLMpI9 a4UjmVnMLprMbO2OIYjIk1LGvu+vCCH84NxjovfJz58ZhUFwJdONA1WFQY2xA858QmkETBAZnWRl lmUX8jy/WhTFlh0PbphZ14REVHs/VCE4rXVWlmWS5/kgSZI6F5RrrcsG0cwjnDZi2m0hwyKFtNOE 5VkCaiOnqVWsJiZbMKTSNC2TJMn6/X7S7XaHcRxvhcZsvstkF1/64dZDP9m6cvzOe95Hpr8K1oA2 GqsdQf27PnrqrkMnf+GZf/UPfxuDjYiIPACetBWrzEyj0QhlWZoGGXHj1rztSYmnXb3r3Ob4zrEg MtPnvSOkNySEN7tLaiMlA4DLslRZlqVpmm6FYXjN9/2L/u/+6+ef+/m/8s5bhQfp+4Ch6T6XljDd rK0Nierb3soqroaxF1QLJpssNTAMo+r2ULR6SW1zTTDTZLQtSTYnTMfNXIio8j3CKgEIAqsS5cVX cPbPHsWFR/8E+dkXy8iovOt76UHf2zjtyWv+cmfDGJNZtZMbpXJjTDnITF77AdrQU2FvS6210loX WutSKdX8qglI60oSsR0Fwu1hB0ZZlgRA1XmVsizTPM+3giDoeJ4XCyF8e/6N515VRDS+rckoDIJg OQzDPI7jk0s33RY+8q47g98/n9gChjq/xlMl4GQIwYHDgJBg5lJrnRZFsZUkydWyLJP6PdekYonJ 1IRkm1nzsizzoijysiwLG4ord0lCbYrIzJzLO4XqeAd1hDkEBGyfMTa72E8RU1mWxhjDRVGYPM9V nudFnudZv99POp3OMNJ6cFqd39x6/mv3P71+5b6b3vvxYPXQcXSUB9YC/dhD7/AtS3f9lf/ui8/9 q7+/lFx40QfgWxIRALaAqn/K9lLNxpuEI6XqGidr1Fj39I1zRsaOWtZ10tgppNebiID55d/cQkYC VY+szvO8TNN0GIbhehiGl4Jvf/UHxYceuWl4+qZ+b2m5sm1nGk95naWhRZNAlw4cwMXuUiCE8Opk vclTw15HsOZt3nOtBQzjqjzeZoTaRkD1d7VZTV0RRxPZgOLqBaw99SO88OXfx+iZx9UqzNbJfvdi dyk6b21qRlqXSVFkWWrVjVU8Nfk0iUhZAtJ1TkRrrZRSyn5vlFK6dquoZ1G1fEaYt2u36kkxc1mW ZZZl2dDzvMDzvEAIIatEEOqmL1GrJWauySiIoqgHgH3f7wvp8fv/z7989Gxa4lymqnLwmoxMc+mt LuiVO+8DDa/0vG98KZFSBkIIAcCUZZnakG+mta4LFIxVSfXo+tpZfpwLqqvqdiCeWTV0vT1HvMvr ZaewHeaoo3nExFprqse8KKVMURS6KIqyKIq82+2mnU4n6RkzuNs8duXZR5OPDe/9+NJNp24GRAgz KqFLxoH+cnj65//Gn3vlt/5RgLPP1LMZhfWs29yBlGg34bv9mz+q2x2MrfnFuFF2ssMV48Ph5iG9 OeE6mkNE459ttV2ZJEkahuFWGIZXPM87F/5///H3Xvrlv/Pxu31fyk5v2vqmxeanuR+rVQkBkL0l 6E4vkFIGNiktTJ5p6XVE2WgwnWueOtUnw63mq7MUNLmjGm8tiOCJykW6HFzFte99E8/8zm9xcPHl rcOd+Mrtq70XlFIbZVlsbSXlUFV5ntTmfnKrcgpLOrMEpCzBaOugbhrEYyzxLAojLdrFo6F4oJQS lclGWRRFkRKRtGQkqAqJ1kQk7AZYApCe5wVxHHc9z/OtK7b/rp/+C4f6x0+GXzs3AkkBaFMNMW9u BuriDmZ0ycOph3/6QHz/B7vn/+2/IPOj76TGmMQYkxZFMTLGlFmWpWVZlo3GVd2SA9ptaK5NDV2P MtrNCvNqwnZtpDRXMWmtkaapUkqx1loXRVGWZVkopfJut5tGxqR36R9vvvRY+shz+YNHb7npdnDU AbEGA1ju9f1TP/vXHzn72//Ex4s/EU0DVWPMYAEp7ZRTwr5WSfWIm6atfL1G1QaYBECIqXPdEdLr F6ZblEOavVjNrEoqiqJIkmQYBME1z/P63sVzT4Vf+50Tz33yz99xi/ThBSHYbC8DH6uhZlNps2XH D8AHj4RCiEAIUQIgk+XsdYGSmgMBMU44zpKTmZMzaitgmOSMaDz7h1Al8tMXn8Jzv/2bGH7zy6Pb Diy/KJf7LxZFcW1ra6u2pRmWZZmWZVn3wBQNpTMmoSbZ1HIHC6oZXwUhzS6U4/Cb3XkLG8Ybk0/j +/pLEpH0fd+3ZcMiDMMoDMPlm9/3oTP3/tTPHfrOeoEruQGXpqpIsg20swfYlMBQAs8NSxztHg5X f+m/vdN79A9WrvzW//tPhRAgIkVEBTNnzMxWDepdElKbCuIdvt+tMtpNufduwnZtJNRGSvOuQyrL Ug+HQy6KQpdlqW3YtjDG5JEx+RnzdHbhSfPIi6U5c+aW24FuD0gZWhkEQeSd+sxffeDsH/xzP3nu sUn1oiUS6zBRNkhoN6SE/R26Y5i6VqE5iqJmJUEzURhXZfdmEdSsQmpeUKYmpLIsVZqmqe/7W77v X/Y8r9P/0z96dHT09KG1d71ndfXIcQgZWAsO2j6MrlE1zNbYkKxpaHjomFSdni+HW6EQQugsNb4A UlN19G/3V5shIzLbx5vPuDjUVc8EGsv1asS3gJCEreefwJP/x/+CzrM/vnzXweXHsyw7l2TZpSzL 1rMs2yqKIrFNwoXdwSqlVB1+M3ZTqhtBRJ4OKL4uhIQFYbvm1zwikphUvMGSkOj1elGv11vq9XqH D548feahX/5vbnt+pOmH6zmMqiqPGJWv17RvH9vy/Wp2BGvGOVboeUTLH/j00aBz6OH+//7ffxlA wcyZMabKsdmD1kJCehcKaR4BmTmhZ+wybzSPjOapIt5BGWEOIc0lKa21KYqCjTF5PZOsDv8yc3F8 49nyyrP8yEtkbjt8/BYSiCGIEPoCq0uhPPTJ//zDl+l/BZ79s/H7txsAAwCDwWCWlHiGlOYeh/1G SlzvRqeu0EY1nTFg27TebHh3hPTG5ZEW5ZBm+xeMUkpZlTTyPG9NShlJKePOv/+XX7ls9Kf6H/xo P1g9CCG9ikSan+OMM3bzctWasXLiNEarhzu9ZFgSETjPtIBtjhUAq/bVo1ZGTePUplPCmP0sEQGN PiNUw+gggGLjCp77vd/C0ivPXDzYCX+YJMmLw+HwfJIkV5MkGWRZlthke2kVkW6WM2O+s/RuCGk3 IaXdVIGJGUJqU0X1AiSllBQEAXU6naDX6/V7vd6hbq9/8hP/9d9+98Dvet+5mlQl92TGfYFcWdVV T2irYY0t/hD2d0yhMdDV3KLwrvesrn/6L3+s97v/09AYU/dUJWVZstZatZDQbsJ23BKW240Tw46T UhaQEb+KsF1bmK5t41B/JuMQXiPMy1prY0W3YmZz0DyjN55l9cJQ3bVy5CbqhH2wltgQObjjy97H /pMPm2SQ4fzTyhije72esc26Q6UUp2mqsL0UnOZsWvd/PknXvRCNKtKxbZaZhOr2Hx/tWacGWqCU RHMxsCopk1IOpJRXpJQ+EQW9//h/+E8L+ck73/+B2Fu11VZm4oXGLc/GbAfcCMLy6ZuwcfhER1x4 aZOIyOQZB1TLs3Z7oHG7K9P2FaVBOjUzjcc62BYcIQApq7d39fuPonjih8PTHv04SZLnt7a2Xt7a 2ro0Go220jRNi6IobEhO77AothES70BKi5TRTgvB7EIo5hCSbP5fIiLf9xHHsdersNrtdo996Bf+ 8/f3b7m7+5UrKYZldWFqNTHDFVwRODXCp0JSVRFp+zYMAAnCKFGgUKJ4x0eO+s899p74J9/cKMty 07p+CKUUNxtedyAjvYB8zC7V57xjyjsQ/byw3U7FDfOUkphRJjRzvTEAUYfwbJWlsQ3BDMCsrD3L CoLWPHknVk8ReX0gAaAMlvuBjB/5Lz5ufufvjcK1C7WrhTamijkppdj2KM2SEnYipX0XujNoNL1O bFjGbSFE15dxdIT0msJ02EUoqXnBaGOMKIqiSNM0E0JsSik9IvKISPR/9195T65ffeD4hx/srp64 CeQF46cZG3YSz5BTNdfG8wKom+7qiZ98FzCaTZZqicp7jXn7iAnTiMnVrgjbt8B2lomwxTPaNrnC 2vkIAgmGGQ5w9nvf5jM+nsqG2cuj0ejsYDC4uLW1tZamaVqrIuycPOddkM9uVdFuwkpYsOA1FdHM 1CFIz/NkEASy2+3GvV6v3+l0jtz8vg/ec8cnPn/0B5sFXhkqGK3HqlY0ziBP2k2lfYS1dalQxjbU ArowIAJGJeNwJ8C5m++76/iLP3wiKorLcRxfS9NU5HnORVEsIiSNncu5dwrR8XUQ0bxNGnahiniH MF0zPKZnyIgwHTyqrzehtTZJkpS1WmqQgTi09rSA8OUGidthjoN6SyAI0Eih34nD8FP/1af4P/y/ kpC5tKSktNamLEszGAyKGVKiHY7F/itymKqmq48qTQoYmgaaBq4P6U0I280jJNNyYdUnrTbGUJ7n uT05he1jQYeZV7/+u/mF9asPrn/4E6u33nU3KO6N3Q6qaaRWrdgVjU1VcKkJWLnjLpF+/1S/c/Hl oU5GRhgeq5pZFwjCjAt4XbZtXawFrIGnDS0pU7lRC0EgspV5rJCsreOVb38DfOGVhLL0iTRNz45G o8uj0WgjTdNRnufFLkYZ7CZkdD0ktFuPNbQses1db6s6slNREcex1+12O51O52BvafnUB/7TX3nn xcLQjzYKsKmaXrWyx5YIAgQ2OfKrV2AI8DtLgN8FeRLQuupTIuuBN05gGJSlAA6fDtOjt9wZpslL URRFYRhK28TZpoTaCGlRBd1O4VFcR04OC4io7Rqa59TACz4bmiEjmgm7Tu3ftdYmyzIFIJt9kYev /URq2QmH8E4TJBDF40KdXu9gR33qVz7H//F/SILKA7G0eU9tjDEbGxuzOeOdSHl/he6MsZ+I7Ssh MQnza7t7bZ5RJBwhvUXhujaC0k2lpJQqiYhGo9EQk45/ZuZy9bFvplvr1z72g5fed/Kuj35MhAeO gYRnBZJVTGJ8DozzEwdP3oSzt9273Lt8doA814oZ2jSu1rHHITfMSm34bZyv4vFoB2FPIAOGLwlm uIXk8nlcffZprD/9E2w+8yTUlQsmVMVwZWXlx0mevJwkycUkSdbTNB2UZZnZXpjdJtWvd6fO1xmq 4wVhpbbFsZXYpJQchqHodDpRHMdLcRwfftcXfuG93Fv1H72cQRsDoyuH7vEqKQjgEps/+gbUD79h oo0r6eaBk2H4no978Zm7IcPlcR7JiEkZLTFQMnDg2AkMugdOHwqCpSAIOmEY+r7vI01T06KQrtcG aLfHdDfqCAvySfM2c23k1KaUzII8kpkTfq3zSlOkRETSfvnHLn/Xf7lz4LMjGR2RYQCREYira6R3 4PTSxsf+05/xv/Y/p7Zpu64KNUopHg6H5cxr2CmPtn9Cd2ISpYE1UJ5qsJu6CvdnGs3bg2TEOyil 2d1dXUVGdWND/X9s5VSptS66zz+RdNcv3/Pjn/zwPd37Pxzfcf+HIJcPQAivGkynaayKRdVTCw8A v/ejHfXiE6HMRyY1kwbpKoFA1siz2onL2oeKqT6nKjUmCeVwiGL9CjZfegGXn3wc60/9GOmFc+iU WdoL/LTjya0jgX8hPtA7WxTF1SwbXhqORpeGw+G1LMu2yrLMtNYFrs8NYDfFDDspoeutBGtTsgIL RitIKb0oirxOp9OJomhl6ejxm04/8FMnnh0qbOSqGuxnx0VoVQ3PAwHD5x7H8LtfNreNLr8cSUpp 80Vc/fqllatP3Xa4876HvPjYzYDXqayE7ITaUgMeGGGvi1HcXzoqZc/3/civIIQQbKqBMzsR0W59 6XZ7HF/t6jJLUIvIqU0pzQvnzRJTU+k2SUkDyIUQm0IIEkJIIvJPv/zlrz4bHfrsYMPvYekASApQ VoIkoXP8XYeH93zyU/5P/jCJoig1xhS2UU3neW4a/UltJeD7N3Q30xc55SU0Tb/Vo278xBtKQrRA JRlMl3237e60JSUwMxlj6oFlSimVK6WSWKmtU4PNVwZrF9713a/9/i3hbfdEJz/0AA7cfAu8qAsG WbNpO9aBgKUTp2jwyZ87xM/9YBBLgrRhPmnHUQiiqVwjCYIabaG8egWDcy/hyjNPYeOZJ5Gefxne aFD0PJF0A394sy/XesvRBWOCxBgz0lonKs+GW0ptFUWxlWXZZpIkG7aiLlVKFahKLnQLAS0K2c2G kHbTB7No8byekB1h23za7b/v+z5FUeSFYRj7vr985pHP35ORL54YZjBcKSNjDQqlrMi+HKxj40ff xsnR1YtCl+eHaXHNGKNib9S9QyXHN32cKLorB2nJq9RwPU/JMCAZXDJyGfuQXl9KGfq+73nVHKx5 pL6IkHiXZL8rIpq3qBLR9WyL57nq70RMYuZ6E9hebFCTEmmtdZZlEEJkRLRpCSkgouiml3539fmb f+5hKT1PiFUQE2BKLHU8+Hf/1B3l1Rc+4F98ZhRFUdLr9TLrkWgGgwE3SKlNLWFfhu6o5YQwM4P4 mk7gLmT3lqkkzOSR2pKeNSnBLt61QtLWiy0ry3JYFMVGmOdXbg7Dw9lg7baz3//mLU8uH1yOT94k V267CwduuwP9I8eAuIORETAg+He+u8dCK58IV0vGciDglxl0MkSRJMg3rmHr3Cu4+vST2Hz+aeSX LyAssrzre2nH85JTgbceh/KyCPsDY0yitU50WaaDLEu01rW7Qlp/FUWRZFmW2DEbWVmWdd7o1Ybr dio5XlT19VoUksD85PR4EfR9H0GF2Pf9/sq77j96JVcolKlye3VPEaqSbiKguHYR8dXzWR/q/CBJ zqZpellrXQZB0GdmdeCVH0v50c/Ea0HQKUuGtqEP8gRYA4U28MKIsqh/QIyGvqwG+ZAQAjMKyczZ ALyaia+viojmPd5CULSLRXonYprNHZmZz3YbOdXhOyLKPM/blFJ6UsowHl7pHL/4jcPn6aH7iDwS UQcilNhKGL3IE+q9f/FD3lf/4UXmzVEcx5l181BFURgb7WgLH2LBe76xVRLzZMzEeOhXY+yELQHn beMEHCG9GSoJcxZOM2dh0807lVKoy1Ntv1Ke53lqRzmvhWF4KQjS80eD4MfH8tHqcO3izclj3zp0 DdRLtYkKkoGIO6AoAkUdPNnrL9Mf/zFGj38PJkth8hwRofSk1IK17giRdaQYHPK99bgfXjbGz5g5 VUqlpizSJFW51jo1xqRKqdreJ7ffl0qpTOtqIG5ZlqVSqlBKlVprzcy6UY78ahoyd8odAbvrN+Jd 7MRnlZHA/J4lEkIIz/PI930ppQzC5dUVs3woen6gquGIZrqYSAgCg6CTLcRQo7Is1/M8XxsOh1eV UkWn08l834+VUkfuWOmIbtfH88MCxFQVN9Q7TgJkGEJJv+tXvnnCAgtycIuOsXmjiGg3BLVL9TSv yKEtcMQzG4qmStlGSvVoCc/zUinlppTyohAiXl578tujztGDQ+Gf8mQwHsWdQSPqHYlH7/7Cp7xH /+VaEASDbrc7Ukrl1s3fVFM+WoscaMF7umGxjYxa9npM1HBwcIT0ZhJU20I5m+Rc6J1hjEFRFMaW lqo8z/Msy9IoiraiKNoIguBqGIZ9z/P6nuc9vyJl95DndYgoJFJ+lmQ9NUI0ue6ZBKC6sRwi7tR9 GCWzV9ZjG0ye5YPK2DRvftmwYTHzpZRSheXM2m27SUA7zda5XnWEV3GLXf5MLTvptkFx23JMUkqq RueQFxw9uTzUjLXcQGsGK2Pzujw+M4gZplTw2dQDAmvj2Pr4KQA66i9LZexAPoOxOzj59WhzD4aE Z63WSAixcPTJgvCceTVk/nru5Ov/VfvGYbEZ6zzF1Ba6Ey0qaS4ppWlaSilHvu+veZ4XSik7Jy98 40+e7pz67HAULQtaAdnchyTAP/neQ+XNzz7kP/+nm8aYQRzHab/fL9M0NWmaclmW8xTd3NDdDa2S 6sZXw5NS73ELyaSH0Z7QjpDeCHzxi1/kL33pS7TDbmeRUlrkiye11mBmU5altruv1Pf9YRRFke/7 nTAMY8/zYs/zYillKKUMhRD+uHKoMaeHATOoqvdMTRx2vIEyxtSqprCqZzzKQWtdj3BQ9r76b+sG wUWzdK5npMFrIaPrIaR5YVZqCauKOfk/Ww1PhoiYiIxm8Kh21Rh3rJuxw4bRDCEFICR8gvY8rxME wVIcx6nWurQbjF60vNo/cOiQ94MLySTyMW4eszZSxQhKa2qs6btxCwF2bwX0hpLQayCmXS2NczYZ Zg4pMQAURaGHw2EupRx6nnfN87yOEKJ/89nf/7MnbvqFhzw5kqLTgyg1hszo+wLFLQ/fLS899UzA VzfiOB6UZZmmaVqYypXXYHtP1I6huxs1ZDfd+Fqf9AZcD+er51jWtiSOkN6SMB4vUErz/l42F4p6 0a+JwfO8Ik3T1PO8oa2wCj3P8+14BF8I4RGRJ4Sg5v+yjsXcMCk19c68NjQty1I3xjjUtj5Ga107 abeFf9rGGLxW37R54brdEM/1lCXzHPUj5qjacYEKEdUTZxUzq+LqxY1RyWBdVn0YPBn3XjfDMgOd 29+N+NKzfvCT9cNa68yOClGe53XjOD565uOfOiSFoI1Ug0xFbnWlXRXgZeSXLyIq04F97tqAlncI T15PufybRkSvgpgWqaVZ54a2cB1mNhu1aaouigJJkuRhGG75vn9ZStntjC7/5NjgB7dcpHffQiIA hT4EEUbDAn58QOa3PvJg+PiXLgRBsBHH8WhpaSmzc8/qIZC0i9Dd/lBJdkp0bQtT7aOag/rqcl+n kN5sldS2A19kLdK2qMqZW2HHV6iiKIQQQtr8gSelFFJKX0op7ZgEsqMSxslSZkbdpW4mzMRaa8XM aBhrm8b8oNlqt3mEtKiia6exBm32QLv1ottpEd7NfbOf2aKQz5iwrC+asjm1RG9cW9u8fCkzfi8i MS18jd0QCmOwGkU48jN/+ejq/R/uXvnKv4nXX3j6gDFGSSnjuNeL3/PwZw89NiwrZrevoi6TNZqB bAg13OCezq8lEzIyr2EJaT02b/WiuICYsCCkN+XOMIeU2jaGArZxNk1T5Xle6vv+pu/7Fz3P6x25 8CffXO/ddijJ/b4nVyBgwJrg+wCffP+B8vJPPuhf+slaGIab3W53mKZpnmWZ3traamvabdu07gOV ZG9rG7vxO+VGfokx5QztCOlN+1jmnWA7+V3NLsLNHd/Ul12HCFUFG6Fq9COb3SZ7IY8X0noH3RLe wQIymCUk3gU5zSOpV+PEsBMhXa8i2unxtsUMc3IxVNVwqFxrPdBar2c/fvRcft8jt4VsIIR17rZm trVe3VKMMlXg43f33vlf/Xe9brp+urx6PpMqNwcOHgq2KBKPr42si7upvIXqpkMG8q01xPkoI64M Qm0BDHYIA78qMtgb0aBWYmqLQtCCa22eOmoSGGw+SaVpSoPBYBQEwZrv+xellC+eufAHjz1+7Asf 92RCgrsgZowyhU7kIbn1U/d2159/KtB6LQzDrX6/n9mR6kopxXNCd3OdKW44lTQmo3o6gX17orEM jhsc4cZPvIkqaZ462i0pYc4CKFq+Zl2pyRIPod1JeTe7Y14QZrweUnotYw1265m204TS6yGiWYXE LbvubcRpC06SPM8HYRiuxX/6298vbrv/jIwCj0QHzAQhGEbbMeUKgGGkDDyvSrw0KrAsQ+/Y6p29 lUDgpdLg0sUEw1QDAjBl03SQwb4AFwV6kjJUY7Z9WcHzPE8YY4RVSwtHM9yI+Qtm5l2qpd2SErA9 lzTOJyVJkkdRNAyC4Jrv++fjzZcfP3HgmVsu0F2nCAGE9EC5hpAE7+CZMDn94EPx839wKYqia0qp Qa/XS9M0VVtbW7O2QvOuyRu4Mbau2mmYqQKNAgae5JWYnUJ6C/YLO0nxtgtkp+qoRWQk0O6IvNOO eafm0nmvZdH3uyGi18Mz7bUQz7zf3+04EQbASimTZVme5/mgKIprwXDz7Mo3vvTU+ke/+M5uJwAJ H7q0pqqCqvES1neQFUODccVnXCuMvajrA8KAmvwsiGAkwWiD6NhNwLFTLIbnup7n9Xzf78VxHMVx HNjcn9ZVwcO8Ca0057zc8/N6dqmWdiKlWY/J2Z/HTg7D4TAPgmAjCILLnuedPX72j75z5Z33Hhnl o0BSDyIEkCj0BSE99p4T4ZUfvdPT564EQbDR7/eHWZblRVHoLMt4ASG12VjdWCqp5hrTqKCrjTdr MhprQJr43O0j7Lms2Be/+EXexULPCxbwNmPMuqm0+X3bV9n4UnO+b/tSO/yNmvO7i750y1eb4edu 80rX+zVevHaDXZD03M9RKaWyLCtHo9Eoz/P1oiguRE98+4fR1tVNoxVIcHVN2mVPgCpy0QbGGDAR dGagS0aZG5SFgdYGRpnxGHuwHayoNAQBHT8CP/h/WVVHz5zwff9IFEWHu93u6tLSUrfX64VBEEhZ zQKZHS64W9sdzCz62KvE9BquNcYO1Z5lWaokSfLBYDBK03Q9z/OLpshePnXtmy+WGkjLEmmqUGiD YVLAiw7S1pH33y+lPB2G4ZEwDFe63W4cRZG/w7FepGBvmJjd1ABRa0lWjS83k1Jwg/HQUUdIbx0p LQrFzV4oesGXarnd6WuWfNQOpLTT93oO+VwvEe24ILxW4nkVi9si66HWL601Z1mm0jRNkiTZyPP8 clEUZ7uP/fGzqQjASkH4AlIKkABIwt4KkCeqFah2Sa53lXUBRHNUva0xMZoxzBWWo4hGn/mVW+WB Y3eEYXi61+udWF5ePrS0tNTtdDpREAR+g5Ta3CfaFsC3CyntVIAz/qpDd8PhcJCm6bWyLM8dOP/N P+vGJkmKHKlm5LlCkWkwG6ij9x3Il8+8y/O842EYHuh0Ot1Op+OHYejtsDmY/Rxorx//qc+iaabZ zBmxjYALgXEr0tjZ2RHSW0FKuwn9LCoEaCOl3ZBQm5op5yic3aofPUcFqdeRiOYdp9dMPK8yELGT SjJKKZ0kSZEkyShJkrUsyy7IJx/9vjj/7BZMAiEY0icIS0Akq1yvlARBgC8FiAjSq37H2Fi70Twm o3o2EgyDNWOkNJa6fV9/4W+9Lzx207viOL613++fXFlZObKystLv9/thGIa+nUtBc4hpp137fiSl nTY9U+el1trkea5Ho1GSpulGnueXdVmcPXnhq89Q4GNUlsiUQa4Zo2EJ6fewefC+d0spT1n1utzr 9aI4jj1sn7G12zzfjcBI0+7es2bupjG7zTCYHSG9ldHVXe+4Mb+xtG3w2jyyul4VtdPvz/5/0/LY 7Gt+PYgIbxLx7FRVtlA52f4VPRqNsiRJNtM0vZRl2Ssrf/Avvrr+/DNKDa5UDgsewet6kKEHGUqI UECEslJKAUEGAsIjeIGAJADSOrCDqpzTuA6MUGQam4WBv3ogMD//tz8cnrjlvZ1O585er3d6eXn5 yPLy8tLS0lLU6XQ8S0rzimDE25yUzE7hYqWUTtO0GI1GozRN14qiuLR8+Xs/WKLNgTY5EkPIC4Oy 1DCaUC7f2R/1z9zn+/6xIAiaKknuJlR6Q6okbsy2qcN0euLcYMajqbk+n/YdIe3loobZqrs2R4DZ i2jebolbFg9ukPKiIoZ5jXjYIUey2wt7J3J9NV50uyWJN3NDsdOcK9Tj6MMwTHzfv+p5XhRfeiU4 9I0v+S95Sw/rbj/qHD+DeOUAWJUoBpsokyFYa7BheHEH8aFjiI6ehrd0GOwFkHZWiLaxd7Cp+pE0 gwQhLw3WRgoHon6An/+1j4b/7jd8euWZsbGd53kQQoCIOEkStuXHbcd70XiEPV/oUJ8ruyx0aH4/ W13XNsOI6wKHJEnSOI63oii67Pv+hdPn//iJrVP/pw9mgxxeFIJKBvISXmcFa8t3v+P04KUf+L5/ MQiCtW63OxwMBkWe53qXpHRjSQiyQ9nGlt40PoJMVL0xS0bsquz2DCkBu2+E4x3Iad4As90QERac +NczfZXx6ofmzSPEvUhEbcdm21gRpZQZjUaJdcq4xMwUXXyxuCOKXl6/6r+rePZ7R0ZKL5EqRCCo jD2vHG9/SVAJ8jfgxaOVw92Vd39ERGfuRbB6FJI8aLJuK7ZKz1h/u6I0WGfgQNzz/b/wtz6E//g/ x+Lp7wnbNU1CCKqJKU1T5HleYrGbwX4lpVkS2k2kYny9GmN0kiRFHMejTqezHgTBpc61p548cmrt ngsI+qkOIX0AhYYUAsXK7f3RtR/cHaqz58IwvBzH8Wav18vSNK37kuZd262VjzdGxV3jUNdk1HiI 2YBIgLA/DVa9G+FF7tCftJNh5CL1hN2EWnapjnYTXgSufy7RdfvO7TEyamu8nEvKZVkqIhJCiAS2 678syzwsio3Y8873pOxJX8bwPQ+AqDxoK+VLICmECKTkrswuLW995z+eGV565TDe/+luePgkiL2q rFYAzFUYhG3vR240rjJwqBfI4Kf/6nvkV/5/IX3/q54QolZLJISAHXPODVJqLtK0y+Nwo5ISWqIT 8xz4t5GT1hp1WLbT6QyiKLrq+/7Fg5f+9PnLh37m3SbNkCoBEftI0hIyOozL3dvvvTm58HgQBOfD MLwax/EwjuNyMBiYXaikG8y9gbcd2UnOyExyRvt09MQNQ0g1KQHAdYTwdiKmnUJ0u+k/WhS2u54Q 3k7EtZvn2MvKiOctUmgZtqi1VlmWZdaSSRdFkYdhuBUEwVUpZUcIEQDwmFkAIGYGM9d2T77nebHv +0txVJ5fevmxUxfC+N3FfR9fkktHIb0QSokqLK9tb5NkwBDKQuPqAFiNJUUP/9I9YXe1S9/4t17D RoqsCSwDqJXSLMw+JqXdRAPamqANrB9kWZY6y7IiSZJRp9PZDMPwcvfi93986NSn7ryUlHFJHWS5 RhgIeCyx1b91Nd/80a1SXX3ZqqStMAzTXaqkG8tKqGGmWvk4WkVk3xpRlQedfBJuYuyNGsLjXYTo Xi0Z7UYdXQ9BXe//2ktEtFvFxAvIiWxTKpRSKMvSpGla+r6f+r6/ad3YfbvACWNMTUqCiISU0vc8 LwzDsBvH8dU4LjaOPfn1rctl8RG+78EDdOAEhIigFVdNtpphFCCIAQGUpcYVxViOBS194HNn/N7K 5+n3/1dJRIIq6VZHCIdWKanG+xP7mJTmKY554ec2UgIAURSFTtM0y7JsK47ja77vX1q9/OjZK92P 3sElIy8NiAGDEtQ5SReCm951Jl9/0vf9i1EUXet2u4MkSUql1DyVNHcC9d4O243HTls1ZEu7xcQB vP44WGuQcOaqN0IIDzsQE+acuK+FiHZDTDsR0G7ubxXse5yMeE4IpS3PMDWMTSkFpZTJ81xJKUs7 HlsKIXy7+AtmHher2Mek7/t+FEVRt9vdKstyZIxJDz3zzWJN5R/L3vXwkejQTfCCDkyhxpkfw1XP ki4YXmiwkVU55QP3PXBMRb0/H/6Hf1L3wNRVW+Nj3iAlvY9JaV4+adFGw7SF8IwxJsuyMkmSxKqk K0vnvvmDpfs+evNGlvvG+MhLBRYe4tjH1e7tR2/Knj7lKfVKFEWXbFFEniSJWhB+vzHHm4/dgSoy IiHApsobjcdTcKOwwRHSng7hYcHJOG/wH835u9eDkHYik91a+vC8xeIGCfXsdkfdCmNMPVZcWGVU 52+22UARkZRSiizL0qIosrIsc2bOmbk88ML3ig1VfGx07yOnoiM3wQv71SSKzEAIjAcBqhyQQmOT AGMKLN1834HsM//l58Lf/adk+QP2i4iIt7a25pFS23vbD6SEXX6m8xqhTa2S0jQdxHF8zS/Si0cH P7y04d13SgiCykuQYlCuwb2b5IWtU+8+Xjz9rOd5K1EUrUVRNPA8TzTCdrOu8gttnfYktAELUeU5 dfVWqvNMTE6c5iniCGlvXiz1Bb1o8V5ATvOStq8HGV0PwezKbfsGci9mLC4E2ZGIZv6mJqN5JrmV VwOzUUpRPXeKmTUAVc9bWnnlx8pX+UfW7/3ELZ0Tt5P0+xAeWa+8qk9JeIAhQJQGA6XB2mD51vsO 5D/zK5+L/sM/psa5Vt8O5pDSvBlCNxwpzdnIMdoLHGiH8N24LylN01Ge5xtBEFztn//WT1be9aGT m9cGRL5EWWowEYKgh0v+qZOn5HNHPM9bDcOwF8fxZhzHxUxxA7DYRWNvewxaJwYwT3qMGq+Stq1U rg/pRiImLJDt83qY5qmnV0tE/Dr8LvjG1+bzdqqvl2P7FCnBVucVRaEbAxHHjcjd808rYXRxReu7 usdvI9ldhTAMbQNARnPllWdf1kBraAYO3PzO1eyn//rngt/5R00n8zp8N9zPpHQd+SSaF6qbVUl5 nqssy9I8zwdRFF0LRlfPHihe2diklVXmqldMFQpC+sijk/Fmfviurrrwgu/7S1EUrYVhOErTVNhc Em74cN2M6mFtJnki5nHJd62cHCHdQMS0S9X0atXO66mW9hv57KSUZisLdyKlV+PeLlCVGdcKyTCz tl8KgOpceFYdUWVx2Xz63vj4bcLrHoC0PmGmnGxHjTIQAWGUaLBmHDh954r6/K98NvjtfzRVamzP tVmlNDugcb+Q0qLQ3Tw3lVaVlGVZkWXZqNPpbCilrvQuPXY2Pv7nV9NrQxhigERFSsuncXFw7PY7 5eVDvu8vR1HU6XQ64WAwKJVSzQ3CTiXgr8d1/cag4U3HZqKS2JiqoKHOJwkBMGEy/9MR0o1MTm/m Ccm7fX377bgvWLjadq27HSNiWhTR7P3Nn9lOB2ZLTBqAZmbDzLqLl8yxH/2+umg++e749F3Si1YA DQgfgKrcxKskU/Wq08JgkGgcuunu5eJn/8Zn8G9/fXxq1eeXEGI4HA5pNBqVLe9xP4bv2jYbbSoJ bSopTdMyy7KkKIqBUupadOF7Tyzf/Nm7Ey58kLSWOUAYB1j3jh5gGRyTslj1fb8fhuG67/tygXPD 3KjIHiZ9W+bdUEzM0xV1tSW4yyHtD3J6s0lqvxLPq1i4Fh2HeePOGe1NtWZGGcmZ+8bfG2NMWZZm NBqNyagO43X4JX2c/1CfV+q9nTPv8LzOCqCoHgRQFTqQARRD+gKDUYnYEzh4+vbl9C/+Xz8nvvTr Elvr4x25rfobAMB+JKXXoJJmFRIAoDELa6iUWjequLy8/vjVi+Edx6kEdGlAmqFyBdM97l3ND999 QKZP+b7fj6IoDsNwmGUZKaUWNb3fIMMTDQiTkFxd2l2H6TDmIXs/XNn3vicphzds4dotKbUlp9sI aTYPxTMhuym1ZIxhpZRJkoQbBQ+GmU0XL/Mp84fqnOEPxDff43nxwWoumqkGAiqtIYjAmsEEJKlC mSvI8Fjf+/xf+3Tw7/8+iAazi+HbhZSwQCXtFG4lY4xO01TVKikMw2ud848+s3zXe45vXNoEoQpT 6VJB9E7i6sbBU4fluQOe5/V93487nU64ubmZzyGjeY3xezNs1zBkavYZ1R8/2bdUkZXZl+uG55ZO h7cgtLPTgtDcTYsdyKmNmMyMYhr3vyilOE1TtusqAzBEZGI+Z04/8Qf6FfCHwlN3+8HSYbCoLnyh qim1xraAnF9P4PuEpb6PA0unl/2f+7Wfwm/9PbQszvuWlOZ8xjupotZZWNZUN7Vhu4144+WXDpir w3Xh9cYGo5oR+B42xKEVlsERKYvlIAh6YRiuR1HkDYfDWVPXHcN2ew3NAobm95VtnSUjIapiBxIu h+Tg8Cp30gsX3DnkNW+321RD88ZqN41Pp0J+Vilxmqb1RA5jX6rp0kVz8vHfM2eN/oi46R2+7B8C CQIEQIqxtZUjSxXAjH7fRzpU2ALhQO9EP/z5//az9Ft/TwDr4yIHSyT7kpRepUoyaMkp2fHkZZ7n o7IsN4MguNrdePJK1P9IL9sY2cF0jDJXQOeQuFau3r4ikp94ntcNwzAIw1AOh8NZItoxbLfnjqkx lfppln2PM0o8LgmfHGQXsnNweK0qabeGuDU0pucNzXNrnyWjNqVUFzqwUoqzLBsvlnZh4g4z3/T4 7+uXdfnR6My7Qtk9jFwzttbyKkzCDPIE0pGC3yOkI4UNAAdWjnajL/7aT+FLf08A61MLtBCV98t1 kFLbMbsRlBK3KNl5TvZjcrIl+mWapmmv1xtorTfCSz94bvldH785HxCxQdU0qhhi5TTWNpdPHJQX lz3P6wZBEPm+7800ye4UttubCqm5d5s2BqtIiieedsa4kJ2Dw2tVSW32M4tcNQjTFVttE0LnuYov UkpjUsrznBs2QDanBHPmyT/Wrxj++Kh/a8TLx0C+qEZMl1UYTxkgSTREBHgS2BoRVjpHu50v/u0/ R7/164SNK63b112S0tzG7b1ESgtU0m5ySNvGnOd5nhdFMVJKbQRbF84u66vDyxT0CQQGAdrAlxE2 sLwqhFgWQnQ9z4ujKPKFELOkTljs2LD3yIlniIkbdzayq9Wgvqok3hHSHsN93782/sx++L6DjgFu LFICrm+mlWlZbMQulFLrbt0Yg7IsW5+0C/CpJ/9IP3smf6AU3EHvGKAFyBPVbp2ArNDwBMMjA48I W0RY6RzpdP7C3/o0fvO/B9av1K4OTXeHfUVKu1TCOw6dVErpPM9VURSJUmqgtV6P1p9eC8P7+7kq wGCwVjDaRyE6QULdE54s+r7vR77v+0EQiKIo5oXtgBvBAXxq4pRthB3njKoHjamnytJU35IjpL0W JHC4EUkJ2F0+ad7YkLZpwE3X7UWLIaxSQlmWMMZwXXVXJ5d6AN/+wlf5WeYHimPcRXwUJHzbtMhg MIaZhicFRGGAzRIoDVZXDnQ6X/i1T+Pf/n2Jaxe3hSGZmYqiKJVSNzwpzVFJPOeznft5aK05y7Ii z/O0LMstY8x6dOH7z67e85EzF5O8crwmglYKIjqALdU5fkhsdoUQcRAEvu/7YgERzSWhPUfubHNJ gsZbq6rsu+rHAtG+XvxueEKqk4AONyQp4TrU0m6GLs6G53bKZdS7TjZVUJ7r11n/bpeZb3/xa3hO 4IH8MHXROwYIAdZltUhqxmaqQESQ2kD6wOZmgdXewU7/53/tk/jSrwtcPd80YyUhxGBjYwNA5Wi+ AynN3YbtYaW0aCjj3C/bk1QopRKl1FYwuHhuSQyS81p1QB6gDSAB6hzCYNA5fESIrpQy8jwvDILA A1DMCdkRbpA8Uk1GVYOsGNsFmak5SI6Q9jgrYbq72eFGIaXdENO8cQfzFh1uISegvWFz6qouy1LN C9/d9vzX8KzBA7k2XeodA7EElAFLgikZW4MS1JWgESA0sEUKy93luP+Fv/FJ/JtfJ7p2YVtgZjAY UJqmxQ6kNHe2z14hpV2oJMZiW6Fm2K7I8zxVSg211hvh1nObUe+dnWwrrf4tM2TvEAbngx4RdYUQ HSll4Hme9DyvbpC9ngDZnlJHRJaUxg2ylozQmI80vnxcDmkPbsXYkdENSEr1YroDMe2WnBbthEXL 1TvX3LYmpdkqpi6A21/8Gp4FP5Ab7lLvGJhl9aA2UMZgkDCkEBCkQYJAgtGPl8Pez/3NTwz/3T8Q uHJWoMURcz+Q0i4U044jKqzhalkURaaUGhpjNoNrT72ycvN7j18aZeO/lgZIKe4QUUcIEXmeF1iF NE8dYc6GZe+tZsxTn7AZf1/lLjHuT9qfa8ONH7JzZLRfiWkROe2GmLiFhOaF7aYu76ZSai70XQB3 vPA18yyJh1JBXYqOAuyBAgKUQFEabA5KUNer5tYoDRSMpaWlcPkLf+PhrX/7DwQuvYz9SEq76Dnb lVqqq+3KshwppbbiK0+90L1NvY/JeNDVvzOaoEUsU0SHpCgiKWUgpZS+78vGFFksOI/26gVRKSOq bIS4KfCbZDRWSS5kt6c/TIcbm5jGq8f1ubTzHEXUXNT5euMbC8J3uP35r+AZNg9lq9wVy8fAmbVy IUJuGINCg001WwlSgTaBpaVeuPSFv/HQ1pd+Hbj88rbKu32klHYTtpsbzrMTgvOyLBOt9cCoYr0z enmT5LGDLArAAJoJ5PcxKqPDyzSIhBCBlNKXUrYVM7Sppm3n255QmEyNg9ggI26scUxj9wankPZq MMCV2r3dCGpRIYTB/BEEaNmdzwvj8ZyScLZKCc8CD6YCPdE/DrDlO2WQ5BUhEQAhCRQo8AhY7nWC pS/+zYcGv/UPBC6+QDPvb2ufh+92yiGhDttlWVaH7QbGmM1g7enLBw7dfPDaxbJSDwAQ9pEU4eoK USSECOrmWOyuym5Py4uqtJum1ZCwIbvGHmY/7sH3gULi6uIXLnT3diComeT5rq7vlgVqRzJqKKXW 19IFcPsLX+NnQQ+ljB5FRwAtwZ4AZxqJ1oCud7jVGAUog+V+FCz93K8+yP/uNwTOPzdLmDc0Ke1Q RUm7VUtFUZiiKHKl1EhrvRVe+fELyzd/9u41GDIaIMOgaAnZltcTQkRCCF9K6dnS750wr5F375IR 27Y6IQCjqypPl0Pau5E6EgQ2TiW9nchpgfvD7C5czCzq171zWdA8i9tf+Co9C34wPWB6FBwDSR8I UZFSYYfUMoDYPjUXWF7t+P3P/bWP0+/+Y8LZZ+q3U4fwNndBSjxDtHtNKbU5cSzsB0NLtZ1SKjPG bCHbvNIp1lKW6JDwwIYhvA5S7YUkKSSiUAjhCSHknBAd7UJZv/VkND6DZ1Okde5IA0TVwL563Lkj pL2FscsGOYX0NiYmXrADrhdu0aKWXhdSuuP5r/Izhh9KDqInu8cBkkAgwKVBkmmgoeDZALiWob8a +f3P/bWP4Xf/iaBXnqQGcYKI2pRSPSoQM2ppT5FSS3HD9YTtxq7sRVGURVFkWuuRMWbTH7y8GcV3 dbJBAZIEES4hMzIkrwrZCSE83/flLpXRno32VGQkJotbs+fITozdr2S0T0J2+zrH5/DawkTN702L Wno9SIkB4I4Xv8ZPgx9OQT3ZOQYICSgGPCDJDRglTClhQg2wB6wDS6uB3//0X/0o/dE/FXjpifHb aC7oDVJqGsWavUxKLWGw3YTtpkZSVHUNZaaUSrTWA3/zxUsHj913/FxSAlyl/DMT1OpoHLKTUgqt dZtj/Kxy2qNLumg5glxZCQmq/OuaRQ6OkPYWTK1zHSM5UnrrSAkA+M4Xv45nDD+cLKueXDoJxB7M SIEJSEsDsAF5AUgxAA1eL7C07Hv9n/qrH+Hf+2eElx5vLpqYQ0qiJYS3l8N3i8J2c++zxre5Uiph 5i3vyhMvd8787LthNEF4MIbBIpA5e0sAalKSUkrSWmMOCe3pkF11hs4qoEo1saA5n64jpD0WsqP9 +tk4vHZSat3D7EBKO55KC0gJd7z8J3jmJn4oAfVl/wQokuBUg5krpWRycCcAIgmAYdYNlnuB7H/y lz9Mf/zPJV78YevO/kYipR3CdrME1Ta4kfM8V2VZlkqpTGudcDG6FpfrKYToQBuwkCC/gxThakck gZTSk1LKhsnq9a4je6M6UYgqmcRcWVPBpiOavUembp51Tg17czF61ftdh31OSvN2xG+EUuIJKX0D z5zGQ4lAn6Lj1iGcwZqQFgYwBaAlAB8AYWtYYHkplL1P/BcfwFf/ucBzj+3Up3QjKaW2GUm78rYr ikKVZZnbPNLAyy4M4s6tnXRQgI0G+z2khbfcJQqIKPA8T9Szp3binz2rNcZHi6w44rGxbJWbIIyn 6LrG2D0Kw3A1DQ57gJTAzNxlxu2vfAPPGjyUHEBf9I6BtQ9AAwbIjAbnts9RMdDxsbmZY2k5kP2H /8r9wL8AnvvelEqqF9objJTmlacDiwscoLU2lUBShdY6M8aMvK2Xrx1cvevo2UFRGYaFfWR50GtW 2fm+v8jxe16obm+E7+pKYZr6wKYnxU7NFt5/i96NX/Zt4MjI4XpIaWoJwBuXU8Lt5/4Ez7F5cAQs ic4xQHpgo2E0I1W2T2n86iQ213OsrEai/9Bfvh9CSjzzndb+qRuBlOaE7RjbrZ/mWkEVRWGUUrnW OmXmkbfx8sXeSe8dTFXYSvhdFPA6RBQSUSCE8D3Payv93rt5o+mDVqkh5mkyqr+vTVZrvzuXQ9p7 qId9sgvZOeyOlNqcHd44Ujr/TX6W6KGh5iURHQX5fsUYyiAtq+IG8gisDNALsLmRo9cLRO9jv/Re JgKefnQ85K/5f2/wQoddTZEty1LneV5qrVNjzIi2zl7ypdYgIwEPIuxXvUg+BUIIT0rp7ZC7mkdU e2Uxw1QgzmBSQswzFo3E+7LVZV80xoKdSnLYu6R027k/xXPGPDRY4SURHwcFPoQBDBtkymBjWMJ0 PGCrAHd9sChBXU/0P/6X3gcAePrRMSHZeUq0trZ2o5DSovLvRWQFY4xRSmmtdWmMyZh56GdXRuT3 lzjXgOwg1yKgYNyLJHfoRcKeVkxUR+YIU7tsFpPDZj9RnvyyI6S9tepM8n0ODm81Kc1b32+78C08 J8RDA81Lcukk4EkIZcAA0kyDNQNdH5QpAIwtw+j3fVr6+F9630BIiSe/WXPI+H/eQKSEluefp5TG r09rzUVRKBu2y4wxiZdeGR3srC5dzRSE5yHnICSiiIhCz/N83/eFnYs0q4b2HgG1MTehCuUK61/X VEl2JAo3y8MdIe1NleQUksNeICWlFLIsm/zDxlyl2879KT93HA8PmJfk8kkwJJArgAipZnCiQIzK Obw+sfsB9T/8i++G8D164uuoSaR+P5ubmzQcDvO9SErXkUeaVVPNJlmtlFLGmJSZU5FeG/SWveNX ZTVVVftdL2dviapKO19KKRuVdovU0N50/daTcu/KTFVM8kdUTZCtPlUxJihHSHsIY3XkFJLDHiOl tsXt9vN/ws8eM48MCEuydwLke9ClAmkgyxXWtQHH3qTsV2eg5Yh6H/wL7wQAPPH1NvcB7FVS2kVo bpagpj6Toii01rowxpTMnNLg/Fp8VMIjgso1SHYx4uhQX6ShHUHh216k3aqhvVP6zXZBM82PkCdk ZEwjJGQmxOUIaY+REiYVkw4Oe4WU5r2M2y/+KT/L/MiQxDLCIyBRlYSTEVVOKVWTUt+Oj81RgX7p Ue9Df/GdJKTA419pzd3vYVK6njzSFDmVZWnKstTGmMIYk9Pg/NUokJA+oDSBOgeQJOHKElEshAh9 31/k+r23S7/H79rmjGqbIDuwb7rqTuzLa3Rf5JAq9yDHSA57n5Tq9f72S9/Es4xHBgd4maKjQCnB ZEAgZCVjQ5fj3bBRGugCJAR13/eFe0j6hB/+Qaujww2olIAFYTyttdFaK611ycwZ5VubPpXKJ/IK EChYxmgYLJOoCMkqJDmHjPbw+HJMrIAnJ0tVAj6bJOf9mzi/8b3sYMnI8ZHDHiel2XX+9svfxLPA I1vLZln2TwCZAAsD0lyRUqptqEYAXADaYAkhxe/583eDAfzoD8Y7/qZkeg2kBAD8epLSgtHmwPwe pPFjWmuuUkhGMXPJzIVfDoswDLyiKGCCAxiaqEuSOkKIurBB2sKGnRTR3iKn8Xzj+mNjMInJOIqm W8OU4HOEtJdWF2es6rBXSIl3q5Tq3x+TksGyXDoJUhLMGhCELNPY0Aw2fpXgZgaDsKQkxff9zN2Q UuKx352yGapvXyUpjW/fYKW0qKhhW0hPa22YWTFzwcw56bTsBBESMHzPxwjdjhCiI4SIPc+rFdJu w3N7h5TGa1ndj9RQQbOVW4YB1o6Q9qxMcqTkcIMopVmMSYl5WUTHwMIDl1XSOtfAZlJUIyuIQEJh i4ElEHXu+/wdICnx/d9uHdfeICVu2Ye/1aTUpohaq+6Y2RhjNDMbZlayHOad6DCkIGQG0KLrJ4iO SMpjKeW4/FsppWdIaG8R0CwaOSIeKyX7spsl3oarqJAzV92jcGTkcOOSEtek9Bybh7cErSA4ChEG 4FyDtUaWjxOlIFQlwJvaAIap887P3Abgz82Qkl3DBG1tbWV2YRavlpTq4/Q6EE+bqSntpJaMMVyT EYBSqqHqL/vwPAmTK4hwGVtlfPSgGMS2H8kLgkCkaTqriPa+dZBhsBDj/FFlJySmDwkZO6rC5ZD2 tkpycLiBldKtl7+F54GHN7u8gu5xIJBAXrk7Z4UBqOpZMkYj1gabzDAAOu/4zG0kPYHv/tvZnNIa AGxtbeWqeuJXRUr1P3y1pNQ4vovMVtvIqD5mxlSspJnZCF2o0Cd4sqoCoHAZozxYPUQUSSl9z/Nq k9WdFNEe60WiqsDOaNt/JGx+vBG2Yz2uvtuPafN9E7JzTg0ONzop9QC+9fK38PxBq5TCIyDft6Mr GGmhYbQGd7xqDphkDIYFAEbn7k/dwiQ/g+98qV5ohV1g1y0pYSaEVb/PSQZ9vpp5Myrw5obuGk9r ABhiY3wBkNHVVF4/RqpEl4LKYNV+zStamNc0i7daPVU257MODNR4pWaajJyX3V5cSeqT1jGSw74g Jdx67VG8QPTwRs+sUHSsukylAMEgt9V3JERlNxRJDKkabR3d+cgZkPgsfec3RVujklVKaHkfZhch trfUlLXxnEawNkIKSD8AOANEgFxRQCEFAAIhhJBSvprS77c2pFeH56ZsgdjaB9lGWNPML7kc0t5m JQeHfUJKt1z9Nl5gfniTxAoHR0ChD5NoAIw811g3DO561SImBcxmDhhGdNsDNxGJz+LRfzXe+TfJ KUmSIssy9RaTUuu4CexsvAqgWqulJAhWIOmBlYBiSABe5T0rZu2D3nqy2S0hEU3IyOjJR0OVeqo+ ALEvyWifENJYIrnV1GE/kBID4Eopfcs8R/SJjVitoHsCFPmAMuBCIVcGm6m2o3FKxKHEQBBYG3TO fPQUSHwW3/7fMRP6Gl8ke4CUrguN105CekJ6AiSrcd9MBA1IIvKISBKRaIzs2EkR7bGyb5ooJJIY p/cMJuMm9vH+ex8Qkj2fXBLJYZ8pJQC49eq3xfMH+eENohXqnQCkBwo9oNRIMwWjTDUxWQCUAwNj QJIQ3fyRUyD6PL71vzX7lAgA6mjWjURK9qMQAKT0fUnGQIBAMCCSMIoFpnNnYncLx15c0miSM7I3 PHZnaH5izlx17y4gTiE57ENSqnNKz0M8vAFaod4xgD2wJwHNyEuDjURVfmeGEQcGA8s90ekPnyDh fR5/+i8FWmyG9ggp7Rim8zxPWEgikjKIPHDVNEpCAioHjKoJC8z8arzs9gYRAbbPqHZ8p+3TY+vf cdZBe3LVqMjIlX077E9SIhu+w7OMhweCVqhzDFzKKsmtGXmhsVG/GiNBVGLAgCkVOqfvP46PyZ/G N/6XhtiY3r29RaS069+3Ibg6R+SHcT/IiCFYV9e/Keojz7tQRHvTWLVJOuOjT9uVEVeKGELCWQft QdRNy+zsvh1uDFLi6yQlqpXS7WvfwrPMD28qvSI6xwHPs6+AkWcaG2YSLWAQoAWADNGJ9xzpfox+ Gt/4FzRvxPdeDt95niellJKIfABB1FsORmW1chMzSAoI66NjXwIzc1MN7f2ChvGZYcaT+hiNnNI4 AikAwZPvHSHtNUYCGAwSLmTnsK+VEnoA7qBH8Qzo4U0hVkRwGOz54FyDPIG8NFhPNdgwiA1APpAS QCU6x+870v34L//06E/+p7bQHbWQEi94D68HKbU5hG67iKWU5HkeCSE8IYRPRFFn+XB0/oIGCQIT A6WuX62pPyr7Om4MIkJD/YAnYTpMBvONjzpbcjLs+pD2IqpwOYGNhoPDficlAHQHvo1niB7ZjMyy 6B4HpHWGVgZ5VmJD2zk6QgK6BJQGc4jO8XsPdx74L38m+fo/nRpd0SiRbpLSTu/hjVJKNEtIsoJH RIHfO7Ak/Y4/SK9V4TplYIyCJDb2eZnHY1VvtMUMgKHpPqN6GF+Tv40bP7GnVS6xAbmiBoe3Dynh DnwLTy/zI1tEy6JzDKYUgCCQEMiVwUZSVotWJACWwCCv5v0dvvtg58G/+tPJ1/7JuEepGcZjZsrz XNn30/TA45b38XqREs372Y6S8IUQgRAiDFeOHdDGIC8rNcEkIFQBqsapjknJmBswhq9NFWolwnQ4 Tsw5Oo6Q9uCmwuWOHN52pEQAcCe+jaeBRzaJloV/CAiDKnwFVI4OwxxEoW201OBRARDQPXLXwe7D v/LTydf/WVMpjZe5ra0tWFJCg5SaFkPmekiJdrdbbCMlklJCSimIKAAQRStHVsEAaQaUgdEaBgq+ NBqAts7gmCEk2uG59gTGOogbh5Ybh3YqTOdCdg4ODntLKdGd+DaeAj2yFellER8DCwmoKuSTa4H1 rRxsDDjyas8ZQBl0D9x2IP74f/kz+JN/KpoLtH1PwwWkBGwveJhLSq95gfI8IaX0bA4piJePLmtl IATBKFNFrYyCB1a1+aoN2TWJ9obYtRJZ26BxmM7yPzcq4+toZF3s4Ahpr60Me3nP4+BI6Q0nJdyF b+Ep4BNbwJLoHANCr1qslEFmGOsjyyd2vAHZkuLuwdtX6IG/+nl8/Z9MKSVboTaYISUzc7srUtql GtoNIQVEFEVLq7HW1ah3IyqbHVY5pIBm5rFKUkqZOc+7dwmKYc1Tm6dL7dwA63VHTQZzhLRHFwaX Q3J4u5MSPaXNI1vAkugeA7McP1OuFdaNAhBWQ/5IA5xX4bvVW1a6D/3K5/G1/7GthniWlPAaSImu g4jG5Gh96bw6ZBf3D4TD0gBaQ2urGEwBT7ACUM2pMKYth3QDVdyJiRoa9xxhQkZtrg2OkPaKzoWN szo4vN1J6VE8RfTIlsES9Y8DiiAkwSiFvAQ2tnLAbrbJI3Bagg2j2z+93Hnor30WX/2NejUcFzwI IQYbGxuvhZTmqSNqIyBsr7ITUkppFVIQ95aDtY1qUTZKAZ4Eqww+mcKG7MakdOOdSPb0YDMpbKin GLCZrrgzu/KhdYT0lnyGtUW7g8PbjJTq56y96u7Eo/QU8PCAaIm6x4CSIaSEYUamGBujvCqX1hqd bggyBkRA3Dm+3Hnwr30OX/uN+t9RY1osjUajfDQala+ClHajhFohpSTf94XtP/KJKIrjvp9d2AIb hjZ2XEORIPB0ysyqHnd+QxJSfSiIJpvsmoTqU4tENTNpfJgdIe2tj7Cu+3HFdg77i5Rol6Q0bFFK 9BTooS3mJREfBViASgNmRqYIG1kJQII8CRgBcAmA0O0dX+o+/Ks/ja/9Iwls1u9p6nW8ClJ61bDq qG6IDeLVY6tSCpErhiFAMQGlBnMOX3DCzGWDlG7QcA/skD45ISJqhOoMV0YAcCG7vQnD1xeddnDY f0qphZS+jSeZHxoCSxQdBfmyGl3BBlmqsWHsotYNAFaWTjx0+8d7nYf++mfx1X8oiLaaTuGvhpRm t/FzQ3Mtj5Hv+3W4ziOicOnozQeNZmilYQqFslAgKcFFgihWQ9asjDFaKWW01jfmcl0XNhjTkjOq yInq+5xC2qObCqeOHN6epERqwkrbSOluPIongYeGREsUHwdIgsrKjDjLNDZq8dPxqvEVutqRd7qH e72H/pufGn7176ONPJiZkiQproOUFl29c7eTUkpYh++AiMJo+dCy0gzDlToqNQMSgMoRCDNgxaUx RhljTFmWi7wE926VHTfCcbNnSm0bxPt3Bty+yCGRIyWHt7dSqklpBEz3/9yNR+lJEg8NmPsiODIe WwEw0lzZC8hGGmIfnClAG3T6h3rdh/6bzyRf/w0BrI+JwxY6DIFq+uwOpMQLlNCOJFVbBgkhfCFE EC8d7JeGwQyoQiM3BNYpYAoOhRmlVbhOL4jX8d5fzGwOokk2TTKqLdKaeSZHSHtIINFE0To4vA1I iRaRUlv7w934Fp5kfmgA9Mk/AvIkWBFgFNJCgwblOPQdM4OMB2agt3yo233wV38KX/sHAlhvfTE7 kBLPKBJqUUZzVZLnecKrhiH5AMKovxoVhYEuFApduTSwGSEUumDmgplLY4wuy7ItZMc7aJM9sJg1 GmHHs5Eaj/G00ep+rOPaF42xTiE5OKVUkVKWZa2l1nfj23iC8fAwRk+Ex6qkuWKwZowKXfXy2US5 sIbFNCjQ7ax2+g/96qcHX/sNAq7NOjrsREqLyJR2Ils7csKzIbsoipf8rUKjNIwsK20aJUMgOW8Q ktJa35hrNeuKcOpddlMBmUal3T4uKt43OSR2I8wd3r6kRA1SKrMsa/2le/BtPGH44YE2Pdk9BiYB hgYISEoDGuYAhSAAsalySgKMfv9g58An/+an17/yDwQ2Lo8rwm0F3tYuSGm2L2mRUhr/zUyVXRj2 lsPsmkZRGqQlA74PszlCKLlk5sKSkeYbdjFovH2m6ZxRvetmmhxYdtZBew/1PCQXs3NwSmlMSnme z94tKlJ6FE8IenhIoofwMCjwwVkBEGOUGYAKgILqDwSqeUrIsLK0FB955G986sqX/77AxqXZ6rst ACiKopxp3N1tyG52VSY7B0nULg1EFPpBxx8mm8gKjSRTVcm6ThBJk9eEVFfZXV+MZa/wEW3/1I2e hOkMYOxARufUsHcv9b12Wjk4vOWkVJZlOe+xe/BtPM708BDcE8ERkC/BSoOkwCjXIJOD+j4AoKMN JDFGkrDa70XHPvmrn7j05X9MWDs3JhNb6LC1sbFRE2Lz4jTbt//byGibUmqoo4CIwt7h0wcZRFup RpYUSHID6gRVybc0iQ3ZFVrrNh87nkOSe2/VMI3TwZaAs9EgCBhqNsvCVdntTZVLY3cNBwdHSlOk NM9niN6Jb9HjzA8NGT0ZHwXggVUJgsAwU+Np2sQ+hDSQUmNAOVaWlqLjn/rVT17449+QuPrKNhug wWBAaZoWlpR4hgR2q5Lg+76ojVWJKOwdOnVAG0aSKiRlY81WQ0Sh2bIKqdRaK6VU2/PufehGlV2D cIjk9AmgzbTJqiOkvSeQ4HJIDo6U2khpZv822Va/E9/G40QPDTV6IjwEEh4AA1bAMFVVGJwIJAhS MDx42BICS504OPbIX3/4wpf/ISwpNVfHLQCwpGQWEIPA/Go7EkJQwzIoiJaPrOSZxv+fvTd/kuu6 8ju/59635FI7CgvBDQT3TaJEUSIlUaJ6kdqyLdnsRW07JmLGEfODw3/QeH5yzNjdHWP30C237QmP w+62puUWtZAiJZKguBMgdtSS29vuPWd+eO9lvUpkLSAgIFE6n4gKFAqFypeZlfeT59xzz0mzokzX gcrtlayHdsdvCktaHj8q6rZBch2ryS17c739KqRK0zVGTzC2H5hVIc3qi1wXOkWltB8pNXkML9Ob HXxtYGjOBCsQCoDAAF7QHxZVFavASAAjgLEWBEK3HUd3vPDPXzj/3/8F4dKH2EFKRSNSmtZ9e8fy 76rk29YFDe255W7iGKOc0R+kgLXgIgXlicwFfi3PJPfeO++93+NQ7E5fn4EVZGIsuVC5Z1QvcFLJ iLnc4FMhzeALu56iqEUNikpph1VuZyl1Kym9JXi+LzJX9r6zqNuC95O8LEceH3M1EGEIB5hf6ETH f+ufv3D2r/6FwcX3aGIcei0lVJHSfs8jAWXboPGB2LLCbrk9GDqMRgWyAoD1gAwRGFcQeMTMdcrO 70M4O+4h3dIKvW0yAnh8ULZ6qOpHx5jtj6IKaYaofv+Ftd23olKaFNF+IqU5orLQwcvXhkDXxEcg DhApm3z2k3J+kqBMH3kOwAKwpFiYi8NjL/yzr5//6/+N6NL7W6/K8j5tAqAkSZxzzmP3vnaTKTtb nUMqK+w6C8HmRoFh6stNfhtB0h461mUikjJzHSFx4xzSbdjwrSrtHg+9xdakX2DrPBIRIEaFNKtP opZ9KyqlvWlIiZqdvOcAPI4f4w2ir43IdBGsgBCUDVlB6CUODgTnPLyP4JxH0QrAQliaj4NjL/yz r134wf9ucOHd5tRZiEhPRChNU9pjiut4T6mqsKNKRhERtWw8F633Mgyr/SOQQPIeuhESZk5FJGNm VxSF3321x7V0cLj5sFxdTSeNQsVaRjx7l65Cqn6fhFVIikoJ+0zkTImUCAC6IvQYfkJvMj8/bN3X pXC1XPxs2dVhlJYdtgsP5JlFUTA8A549VhZawdGv/q9fvfDDf2lx/tT4nBIRETP3AWRpmjYr4HaK lAwmJsWaIGzDdsJL/R7KRuMCCkNI3kc74EREUu997r0vJqIj3FaR0mQHBmn8Kox/G+hAz367/feQ vMpIUSldR6S0ZQYi6gB4rPNTvEX0/ICoS60jgAfgyisoGLi0niCfi1E4hvMC5zyEgZWldnD0q//L cxd/+C8Nzp0aR0rV3RqISCYirtFnbvJskgGAIAi2NVWdW717JfdMlzdzgAVkDIQFkm2g0+aNOmXn nPPVHtJ+5TNTkmKgsWdkti6PJr+peiOuEdKMor3sFJXSNb9qqnNK26QgIjRHRI/ip/QGgudHMB0E y6A4hGRFdasGm/0MeWGQoxwHAWQQAQ4tRMHRL//TZy/+6P8APnljW+QjIgMRybIsq6U0tZWQMYaq pqoRgLi1dHQ5SRlpVt5NsQEIDMn7mF/0l9hx6r3Pi5LdUnKzfSj2qsho4pmXpoyg3b5n0kWGbsBs SkX5jY2UimaEVH86B9Cj9GP7BuxX0ha1YZfKyEQAVEHIKPUofA4uGMxl6pydx+qhjj3y7P/87MWf /InFxz8fS0lEjIgMAGRZlvmdIqWJCCmO5lYXkrTAKM3AvuwoITwCfCod66+khaTe+8I556qS708j ndkQ1DYZ8ZbPJ2XEop0aZjpCUhSV0vVKaVCJCUSELmAe7/44/EUWPpe3gojipbLvnSUILFB4FLnD 5R6XKTTvy5JwEA4tt+2RZ/7JMxdYCGdeq2VkmbmOlNI8z3lapEREdXVdBCAO55a7w8wjTXm8wS/J Oro2H4nwyHufeu/zqpJvp2V+p+4NsxMtTVbTGTPxrJaP7VYvO22uOsuvYF3FFJXS7lLacfxDLSUi Gla3SURkunTFPNZ5OfgF7Jdc4QOKlyHegzxDAgM4hneMy/2tZt8sgHjG6krHHn32f/rCxZeNwelX Lcq0nRERQ0Sm3+9nWZZx1VmhGSGFzUmxYXu51Rs6iHegMAQRlRV2oSQiMmTmzDlXVHtIkyXfst+I 6NZ3CW/c/FWNVqWxxNH271EhzdgL17NuISkqpRucviMiU0rpon2cXg5/4b/0tBhjKZiH+KpjAAAY ArPg8mZWX3OZviPCocXYHvniP3n6ogmsfPjjusjBArjUjJQaUiJrrakOxEbGmDiI56P+misjhsID sQVna5gLuc/MCTOn3vtsl5Lv2d83Gj+LvDUTibcuXba9h6ieft1DmtHIyJBm7RSV0g2UUt10obpd M0fn7WPtV8I3smc+K0IG0QIoJwhcuYhWJctXetX0WWsByiDO49BKxxz+/B89BYLBBz8mEbEiQlX6 zgwGgyzPc8/MYowhIgqMMXVRQ8t2FqLNYR9w1fRAQ5DRFczN82XmMmVXFIXL85wxPSW3j5BkFp5o bJWA8Lbnv/G0VmI6oO/Ab/+yb1zPy09RVErb80CA996laZoBQJU6M8YY08Fp+3A7jE9ln3uUTEAS tEEFQciU/9sznPO4Uu8pLTLYl/seK0sts/qFf/RZIkN4/0emkpIFYEWkLyJZURRsjKHm2Akbxh1Q K1jvr5VRgzGQtAdkm7J82J9xGQ+r6Mgxb2vXslu7oNmMlupncltpN8pIiCaiqBn0qQoJW/t6GiEp KqUbEykxM5xzSNMURNSvIiYDwC7SB+aBdhi9m9D91D5GYlso+wxtXYATYK2fA1Sm8gADL4xVdGjl qe99BhRYeff/s9U1GhExAAaDwSCtJDjuYdc5dNch75mGoxwQBsHCD8+hY0aJhV/PvB8VRZHleZ5P VNjNbiS065O81dlbpg3hk2q1I2jKbiapU89GlaSolG60lJIk2Wq5UO0pHcKvAt+Jw/ez6F4KV0C2 BSmK6sAqA8xwAK4MinG6ib0Fe8HKUocWnnjxcUAI7/5NvadUS8kUReGCIAgBREQUt5fuWMqrA7hA la4bfoJDLb/hve9574d5nmd5njfLyLFDJLRTOk9mZi0TqbaHaKvqbnIsxQE+d3kwziEpikrpeqVE O0iJRqPRyBhTT4Y1RBQepV/arN1ufZLiKNpHShl5LivgKgn5wmOtxxBmsLTBAFhGOIQOLTzx+48B 1uLd/15HSRaAzbIsCYKgZa0tu3wvrC7kOZeZEGMAKcCDczi0gjPM3C+KYlQURV4VNOwkmN32lWZo aS83j8al3eMzSDwRGU2kh1RIs/YCLWe2KIpK6dcTKY1GowQY7ylZIrL30k9/kMat37lSRMuIV0Cg spVXnU0SwHvGlUEBhgU7rrqEjyDSpvnHvvuwGGvk7f9qqmukJEl6YRhG1toOEbWizkpn6LjaNxFw ehnW9dxKiz9KU993zo2ykmn3bd9l37e+5Lt8eoRMddXNyKju7u23d/gm7fY9m1GSykhRKf3a5ikx s8vzHFWAtFlVwlkiCh6iH/3gjTj6rV7K89Q6DIKBkAeJVGkngXjBWi8F+2B8RolFsLIQ09wD335Q RAi/+m8EwARBcJmIEATBnDGmE3WX4suJH0cLPDyLQ1GxyezXnXODPM/TLMuah2J3i5Jm/o31tk+k McpcfPkU1t2/yRzIo5cHoLkqgyxpLztFpfTrjZR8lmVZ+QaQxkIyxgSPmr+NX7PPfz0dmTa1V0EF V/PJZNtqu9Evyuo7ieEdQwoPWWnT3EN//wEygcWp/9dYazvMnIdhuGCMWQiiuXC04crFObSQ3hms zuGy975XFMUgy7I0TdO6N95eMprx80jNA6+NlmhjGdXnvsxBzNYdDCGpjBSV0qeWEl2LnJgZRVEU o9EoMcZsmBI7RxQ80Xm5/Rp99cuuiEKYeYj31chtW16CZwCMzWFRbonMl0PoPAw8g+Yf/Dv3CSwN f/Wff8bMQ2NMZK1dDdvz0SAdlS2J8hGQbsjhI/jQZ77vnEvykv20DLoNnsjGhNjxlfutp6z6N+Hm 06xCmrEnsXqxqJQUldKnkZJpSIl2eNs+/rpzrnoTT3UKzxpjbJcuh4+1f9z+Rfbs09yCpXAe8B5S FNWt8zhS6qUejAzehxBk8N7BM2juxO+c6IgPig//+2kAFMadDpk42OxtlMUSwwto2TQN4C7n3g+K okiyLCumzFjaKUqa3Qq75sNf7yGByz0jajqLx6PkNUKayRdioyBFUVRK1yKlWkT18B2+enW8Wk7O uSLLMhDRsKq6s0QUdOmcfaT1avzm8KknpSWGTBcwtso6yVYZM3v0E4Cl3EtiDsF+CC+g+RPfukvE kv/4ry51lo+18twjScs+eZJcxHKL+977QR0dVV3DP8Vb2FmTEbYmxAJVms5OyKjq2EAyk5evQkJV zcNoPEmKolL6FFLa4237doqicESUE9GgKnIwxhgzTx/ZR2LYt7LPPi7RUaKgW6YvXK0+W6XzHIYj QLwHs4AZ8JeH8Lmj7vGv3bUUExbDpLAEMFcdGkaXsNSVNWYeOufSoigK55yv+uDRbf+2dJuMaFvr uu0FDAf3INLBSNkZlZGi7FNKzVeONOS0l4yuWuydc0XVzWF8aBaAXcRH5tGIzFvFU4+CDEFiUBRB iqJcWA1Vh0CBUebByCEs5Tj0wiHPYwTLX7nrjuX+qD/MwYUDXArJNrG8Khe44MQ5lxVFUVT9664l KprhJ463mqoaU1lIqrFIBuMzSbTVzUGFNKtvK9RJirIfKTUF82kq78YD95jZN7o5mLqdAwAs0Uf0 SEj2VPKZhxAfJTJdiLHVIc/6XE0ppTQtIBAwAB9Z5IXHcJjj3CXTCYN1sC8gXCAg51rW90cZF8zs nHNS7R/Rtcp0JmnKqPp7KaPGyNhtIyf0HNLscUAnJyrKLZCSTBET7baoNw7OjowxzZXSLnU+oIci ol9l8iDHdxAFHUjR2JQnP761LC0AEbALEEcGrvAYWgvhFJ4ByTNERlx9t6p2Q80R6ZMf+xERzVQE xdh6OkSwdfew/amTre9RIc3iuwpFUa5FSs1FuCml/e4rTZXSYDAYlS9Jqie/YgXvm4ciordz84BE R4hspxxZUd+sIYB9FSm5ss0Qh4ish7Xl93kxQBDDBrEnotgYE1trwzAMwziOA2b2zEw7REU0GdlN kzMR0S3v1iC8VWi3rXFqc5R5LSPWTg0zGyEZPYukKNcgpYm33LtKiXaImmiKlKhuMVSt8SQitIL3 8GBkzDs5nSyl1CormsmML6G+kCzjsl9daBCyKX1lCMa0kXZORsasLVprl8IwXGy1WmudTmcgIj5N U1+Nn7h9ixuqZ0SkuhsijXNJtYDMlKdPhTQ7qIwU5UZJqVnkUNvCT1k2p8qJmZHnOQDUXbyp+jm0 incMh6B3s8dPIjwMCufK3ne53zZPCQCy3JcTZwNBEAZVVZ6HW3w6/BDZ8bvCV8+1Wq3L3W63571P ADAR+TRN2XtvtocUO35Mpi7llkdJIhDYraeATFlxV0+QlYnMkLYOmsVXWhUladm3olyvlDCRJ0Il lH0f9KmkNF74q8o7AMDh9q8ENuf3kofuFz5OFCwBkQHyvHEFZaFDXjBEAGYPCgwcC+ZbATZb37i7 m8e8yP9jwMwJgLwSEgPgSkq77StNE+tMpO6k2R6IsP1p4WZRQ2M0hQppFqOkyZyroij7kFK9qu1H StP2laZWt9XNWJu3ycwQETnc+dC37Cg5leSPuc5JS9ESSGKId1U36+r8DTOKgsFeYDxByKJfFAAZ nIu/cg8t8HML+FFGRAUAT0RsjPHMzHmes/eesfc+0uT9kFsqJZks0KpSdnWD1TqNV5V+H8S34Acg QhLN2CnKp5PSbgdnt+Ug9pDRtFlKlOd5UQugqooDM3O3w/7JyCdv9EZPZfF9kekcA8EAHmXx93gr SOBYQCzluswF+gMCEehc9xsnCezm8WOuIyQi8iLC/X6fsyzjRsPVqsUBZIeISWZCStQsdmwcZxlH TdVZpHpmkgppBl9cvH1TVFGUGyqla628qxd7X6fvqr2kTRHhMlhi7nS4+Gw7Hb25eeWZQfFwl1rH QbZdRkgsZUcHkrIfHlWTaAGAPXqDHCBDZzsvPHQnvJ/Dz8ZSkrIiQABIJaWd9pMm79NsSGlbRR22 V9NxFRk1/65CmrEXFsqpsbqFpCi/Nint1dGhiW+KiZldURQ0HA7hva8/PDMXHeb8qcVs8NFw8MyZ zf4R6dxNFC4DQQj2bupkVGEHeI/+QACJ6Wz7tx69S5zv4DUPgEXEE5EYY7jX63GWZfXh2TpKaoYg hJ1L4W+BlBqXIs2oScbnLWXbM6LdvmfzheVFR5kryo1ZDT/tLKXJFN5YTFVXBUrTNK3Tds457713 IsInuiLL4h5/a0R3O2NDCRauEtG2KxEHLgj9PgBj6JO5bz1+J4Q7eF2qSEnq9F0tn4aUCNO7ne+4 r3bTI6WmiMmM99Vk8t8PILf/PKR6E1DnTyjK9URJ1yOlaTKi5ue1lEQk9d6Lc46r27bGmNZKtz// zOqHxevRlx4eDrOyyGHqQl0dqvUeHoT+xhA03zFn5v7uk/dI4dt0ylcVd0LlKGkhIknTVBpjKiab sc6GlCYPvdLWhNh6+u7W+SQ6kE0BDsQe0gEdDaIosy6l+t+bh2hpMkKqP2dmYmYwM4kIjDEmiqJO q9Vac85tLB0/du8L963iP/7wE8AGABcTMtqaqSQQwDt4T+j1EoDIfNz9zlMn4F0sv2IRGRc51JFS JSVMuU/A1Weybr6UJrvysZT+afT9G59P2i1WVSHd4kyDlnwryqxESjRFTPXnDMB77ynPc8rzPHfO pd77VESy1sq9nWE9SqZwWx2vx2dwyvSVwFfRhAWY4alAb2MIWuqYDzvfffqE/Dtp4V0xxvjqNus0 niRJIlMG+k0WbkzuJd1EKXGj1Lv5wNfjKGo5kXb7nkXGryHN2CnKr1NKzVfZtMo7wtVpr8mv13Ly ImKqUm2pps9SuHR3Z6Pvqu9uZtR4672ncDkWvereAGMB5+CNoNdLsbDQsh91vvP0CfkLF9MHXLmj lokAQJIkeSNSMo37tVPl3c2RUl3AUF2yVNHg9il9jTfg2stutgMlRVF+bVLChJia+zE7iWgcFTW+ 5us13VpLQRBYa21IRK1g4c72hQ/WASKQCSAuK8Vkg2qdrm7W1T70W1ECe7jCodfLgMU4+HDuH37p Pvy5b+FjrgQolUR6VSk4qkhp2vTcWyMl2erYtC0yapZ+X9V0VYU0Wy8grirsdB9JUX6dUgL234x1 cqGniUiJrbUSRZEJSiPFrZV7DnmEwcWeG6emZO2nsJa8j49b0zkOUFieRyKuFm+qzuZUKS5fwAlj c50hi53g/c53n71fXuIWPpEqEhun7jY2NlLn3OSKfoulZLYKGLY92tP2jJpV7CqkmaEu9xavIZKi /BqlBOzcjFUmPiZTdFOFFIahCcMwCoKg1V6973CWM9K0qA7H9uE338YX7s3ffy/ZPLqeRwsmPgyQ hRgCvGwN+Rt3/C/b6njv0O+NYJY60fvzf/Tl+/FnLpJz3JRHNfYco9Eonx0pSaOAod4z48aZo4O/ V34Axk+Uz5OeQ1KUmy4lTBHSZMXdZIRkAHAYhhSGoQ2CILTWtqOle5fXhpUbiCGjM5gL82SpGyaf 657/6LXh4j1XcrNoolWQjcDwgC+q8mhUXQuk7BjOHo49NjcMFuaj6P257z1/P/7Mx7hQtmJupO9m SUrb0nSQrShQdhpCqs1VZzBEqn+FNEJSlFskpUkRTYuW6sWdjTEmCAKKoigIgiA2xrTtwvH2+kUP KRwojOBHZ3F4wWyISC5cjD7TfjN5PcHDVzJeNO07YMSCva82/asP00hhOQ+HFL0+QIji97vf+/r9 8mcS49L4sGxTIjMTKV2VpmsEoeOedhY6D2lWXzD1OST1kaLcCilNq8SblFHzcwYgURRRFR1Fxpi2 aa+2L1y+BBiC+ASSXsYdd9m1LEs/ds5tElHwWPj62imHZy+ltGTCQzBRBM6z7ftI4xQXAO/gshQ9 CGA6rXfbf/D1++XfcIwr24Q0M+k7rn400UQ1XRVgkt220LG2DprBAMnQ1hOpKMrNkNLkojwpol0/ giBAEAS2+oijxTsPeQnsWt8BMODkAlpmlLVMcXo0yj5J03RdRNBqtTYebr/mjPBXLhRmmYIlUBhB 8rxczaXa6CdsK5cu8hy9DYbMt9vvd37/hfvxbznG+nhPqfqzf8ulRI2Uj0zzPE24SyOk2WOcKNA9 JEW5SVKatlI2pbOboDgIAlQVdpExphWv3LuapgXyNAdAkOQClluu772/kmXZ2nA4vOScc3me90XE P9j5hYjDVy/k9y+b+DAoDCFFUZ5LanRzGB8eFULOgr4xoLlu5725P/7GA/KnvjV20bjN0MB7z1mW uZ1WmcmH5IZKqd4r4mm+p2p6rG3ISCOkWXyVQMZtNRRFuYlSwg6r4p4RUhiGQRAEgTEmtt2jS/1R ATHVcpRewfIcrTnn+kVR9EejUS9N0yzP86T+GQ93Xvck8vz5TA6ZaLXcPyIDeLdVDFCpREx5uXmS oScELHa777X/4LcfwL/xrVIcPJm+20FK08Zw7Gem1D4jpGr0xraKusbDSxZc3qEtQamQZgwCCHoO SVFupad2kNFUOUVRZKy1pto/agWdQ+1ByoBzAHlItoHlw3zOJX5QFMUoy7LRcDhM8jzPK3EwAHmo 8wuhQr52LuVDJlqFUAjAliXh1ZvU8SA7ZoAs8iRBXxhYXJ57r/OHv/sA/i9uNVoGNSObhpQE0xuw 7iilTxUlcVNAzQ5NjX8e78p57dQwk68ELyBLYK2yU5SbHSXttDDvGjFVJd+BMSY0xsSme6TdW8sh ZAG3hhBJERu/njMnzrk0z/Msy7LMlf1+GFupNjzY+SVI5PmzBVZNcKiUUnV+Z9zZgetIwgHGIs9c 2SV8cXn+vfgPfvd+/BtuVUdrG/dPer1eU0oeu4/guDFSqtJy20c30Vaabhw4Gd1DmskAqZKR7iAp ykxGTtsiJWstgiAw1lprjImNMS0JFlqXe+sAe0jeQzemhJlHzJx473PvfeGc88zjEanjzgsA+IHO G0yFfO2THIdNuAIEbbDLSxHVhQ7iy8Oz3kM4QyaMfs8A86uL77f/8Jsn8W+ldXU5+OCmS6kZ9Yz3 jGSr/HtbvzvdQ5o5mKXME6uRFGWWRDTt700hBcaY0HYOLTGFpjdwIEsQl6AbIRWRkfc+9d5n1SA/ 571v5rO2FUrc33lTDMnXTif3HaH28bLpKsoR6HXbu3Kcg6n2ahhpmpY/auHI0getF795Uv7c1/Ko xqELAEyR0rQR6DdGSsJbZd+1jKQ5+0iuHm2uQpqhCAmNCklFUWZaUmEYmoaQoqB7dDEvPArvS2EU A7QCSZk5ZebCe19474tq8af683r4XkNOuK/zllBbvvZxSkcpOgxBCFgqI6XxgLv6fA8DnpGk1QK/ eMfy++0Xf+8kXprs5oCGlApMnza7m5RQCe4aIiUDkGzJqOn0+szVAc0JHYCiBtpWvq8oyuxirZWq oCEgosh2Di1kWTGefyRFH+0W90UkF5GMmQtmruu5qZKS5Hk+ngbbEBOf6JwStPC1j1Mco/AQBBFg grLNUD22omo+LlW0kUhWjrVYPL5ypvOdb90l/268l1TbwHtfV98VzQTNPqQ0tsneUuJq/6g69Do5 s3xbCyHRPaRZTg4Is77aFWXGX61lpbexxpjAGBNQa2kuyaWUhTDgUnQj3hQnGTPnzFyIiMP2seNj KTWq7nwVOfF9nbe9AX/9g4SPm/AwYNvlSHRBeTvsKkNUaT2XIxVBGCTIDp1cvbT8B98+vP7n4+ir 4ZCh956rWUo7SWmn06z7kJKpfmCdlpNGC6G6bZDZ+vMAZoUOxDwkYQbpwVhFmZm8xU7/YIyhMAwN EVkiihB04zTfKj4QLhAaHglQiEhRpe38pJAqKTEAHo1GXBU41EP4+N7OOzCQ599P6C6iI6AgLqXE BaSuUKur78gAzMjzAlmWwy3ev7q+8g9+b3ntL7iKwlhEpK6p6PV62S5SmiwP37+UxIPHoqknxEoj TYftE2UPIAdihLnKSFFuD6y1hogMEYVEFFA0H6X9atCeMRB2iK0MExEnIr7+aIhuUkpS/TtX5dq+ ltNd7XdE2nj+/ZHcbeKj5egKMmVH8NoT4zZDAhKHLE2RRUA4/8jRTfrutxevfB+Yvqd0w6XEZMfT YrdlgJrr2wGW0cEQ0jhlp1UNinKLo6I93xkaY6hK2VkiCsW2gyRjgAXCBYi9GJICgEOZhvPVHhLt JCVmpnpPqRLB+OOezrtsO/z8OyPcS61jIBNDJK9aCslW5R07cCGQokCaBghtAtN59Gh/pfjW/Np/ 4oZIpIqWZDAY5FOkVF/ntUuJ/VbBglQV5uNqOtkqYQd2GUmhQrrlQhIRnYekKLcBxhiq0nUGQAAT BmnhqzRaAWO3ZEJEviGXSRnViz4BADNznuf1/6v3fgSAHG+/B3RF3hniBIVHgKAFsKsiJQak3F8q nIdnhi9SjBKBMQZm/rPHB5Dfm1v7f8Y/symRKVICrm7Iuj8pVQUN5Wj26seMS7sbd3uctnMqpFl8 X0ZEWvWtKLMTKe38jyUAYInIwraDrMiqYXu2sSjvOvSv/lwmIiXJ85yrPZ9te0p3dj4Q6gp+NcQJ Cg5BqFUVONRRh0AEyHOHMLCwJscwsTDGQLpP3Tng4lvd9f/C7XabJ6/rhkoJUvaqIxlPwN36MWhM knUH8vDlgZiHBKMHkRRlhiREu8mp2kMyAKxHaLN0CIBAQQgPa6rvARGJMWYyQpr8czJ9hyzLmiXh 43Tb8c6HYrrCp3oPnaT4CGC7EGlU33mHUeIQhCGstTCuwHDoy76ti1+8Z8Tum53NvxqL8kZHSua5 78u2NF2dkhsXn/N2GWnKbhZzAKWMxKmQFGXWZVWl7MaRjgAo/FbQIUxUCav+PjHGSNWFmyZ+Lk2T EzNLlmV1lLRtYTja/hBYAN7u4z5ExwgUltEIqGzEKoJ0lCKgCJYIhgTD4QhzAtDil+7LyP9OvPED RqNDOAB47yVJEjjnGhs91yYl/tvvknnuL2V7+yA0puI2psDXHR1USDMWIXkPIqN7SIoyuyKihpDq KImIyAgC611RCsExKGghZ9MiImOMQRAE02Yt7RktVXtKk730AECOtj8UmvP+VA8PUOsoSdCCOF9f ILKCEeQegXWwZGFBGI1GmDMdFMvP3w/43403fjj5c7G2tjZKkkScc832Qtcopb9P5rl/L1sTY6VR 6OCq0RPldeIAnr08AEUNBJBAvEZIinKbCYoYhKKoh+oxYFrIfdANTdl/1VpLQRCgKliY9jNpyuem khJqKdUFDjVHOqeFFiFvbcqDEq4STLvqf1dKIM0KRAEhtAQJyx+YpRkCC/IrX38gh/PRxsvSnDpb z1JKkqRO3/Gnk9J3yHzp+7I1ylwakVHzEdRedrP3W26oehOhEZKizDrV4dLxOu5c1cOumuyKoI2M w24IhMYYGwQBWWunRUjTJEeYaGxaFTpsewuLan/pcPu0YFHw5ubDD0p4mBAuAFkKGAMvgPMYTxIw xAhQFj10Q0M48jsPOxEfbbxci25bCu+6pfTydyspVZ3Kx3vl1X9jahQ8qJBmKEJCNTFWIyRFmZEI aNfvaUQrDM49WWuFy9cw2S4SH8wvhCa01gbWWlOl7Zqteabd7mSkZGr5VFK6aoEQERzunJEnluB/ uYFHBCCEc2UqzHsQCMZYGCMIbYAoYNhAwM4hDgLC8d97jOEk2vjZtu7j+4yUpo2Cb369lNKz3y/H Oplq3+iAjp04MEISZpAx2lxVUW6PCGnbAVaBgTUEV3dLiBaRuGDexKZFRJG11jb2kTDlz2mpwFpG Zry4l+m7fPJyAOBQ5wyeWBL55QY/ChAJtQFjQMbAGCAwQGAYYRggCMtCB3Y5ooBI7vr24w7soo1X pS41bzJFSjIRJU0Wa2zrFM4/qiKlsYwaaTotapjBt2XGQER72SnK7SSlqt2P90VSQMSWG/QGiJYx TFotImpZa+MwDIMwDA2uHvaHKZ/TlEXdbL13nSolAJBDnU/kM0siv9igRxEcNWI6EDJVBxgCGQNr DUISWEtVc4ccYdwmuvs7ny3E+3jz9W35yB2kZFG3G9+vlF7+LpkvVlJCo3ODRkgzGCFVMtJe34oy +3jvudGjrpB84FqtEIO0ALyHCdroZfGcMaZrrW1Za6Moiqy1lqoREDvtJzWl1NxL2va906RU72ct d87KZ5ZEXl+XxxDdYRzPl72LZBxmwYQWgTUgYgiF4CJDFAZEd3/ncwUcRxtv1OIRZh7LaUqkxFOk tJNUwT/+Lplnvi9X31UV0oy93QLYQs/FKsotfm+4nxWSmYWZvZTNUwv4pIhsBAhDqIxCMp6LCwlX jMnaYRjGURQFcRyb0Wjkp0RKu+0pmR2uAXme5/VeDzfKpxfbZ/GZZfDr6/REIt7E4TIiJ4hyRhgY hAwE1ZtgEgdLBt4z4ig0dPfvP12w+Kj35nhPqRLS5oSUGqvXNikBV+8lbUnpJ5WUxv3ttKhhJl8F KiNFuX0iJO89V3OOcsl6WRiuQEwAeAfnGNI6RBt55/iSGc2FYdiKoiiMosiMRiNMkdFO49Jpt+9j ZjjnMBgMRlWX8PH3LbbP4qllllfXH3tys0fGYBkGBGM8DASEEFEIGCOVTRhFliMMAiN3/8Nn3MfO x4N3WESa6btrkdJkhDRFSl4jpJnEUNWPSlGUWcc5x957VwkpNdnlXis6eQwQiHcgFlB4GJezuWOH 5tbnjTHdOI7jKm2HcjQSpqXupkVKgl0O69RSGo1G284oiYjMd87L55aBn6/Jk1c2YBjL5ZEgzxAQ RAhRFMCasmu4MRaF84gCY3H3Hz3rPv5TH8v7tXDqSKlXT569MVLSCGk2Iao69yqKMssURSHOOee9 z5g5MdnltXgxqpbjcrM+bC3iyvrCklkwy0EQzIdh2G6322EYhqYayoddhDS5iAO77DkxM4qiwGg0 SiYjrfnOefncivhXr/jPrm3AClYgTBBy5Z9CiEILaxnkGcYEyHOPMG5ZvuePn5OP/oRjfDQ+OFv/ 4I2NjbrF0PVLSYU0azmA6gySFtkpyq1i2v6R7CAkLorCMXMmIokdfvyJWTYCEYJweYwjijAyq52E O3dZm78bRdFcq9WK4zgepWnqdrj9aXLatcnrTlJqymOuc0E+tyry6mV6av2Ks7JyGCICFgtmB2ZG HFlYC5B3MBSiyHJEkQ3zu/74K3z6X/sYn3CjJJzrvavRaJRfr5QO2gHMA5Cyq37fNGunKLMsqPL9 o/eS57kriiLz3o9Q9Ncjv54A3AEZEBGKrADFR3FutHj/ve3+62EYLrRarXa73R4kSVLkee53ENI0 EfIeQpJJKU2Ubctc56J8fhXy6mV+amMdgcgKmKWKkhgsgjgKYY3AGAaEkaeCIAjD7M5/8rw58698 C+em7mVdr5SIiF588cXrXv1eeumlnR+gm+i8g5Gy83VbDUVRbqGEBNNTZeMP770UReErIQ2ZuRdk 5/qt1tFOMkggzIABwngFFwZHD52cO7caBMFSHMdz3W631+/30ylCmiam5iK+r8WBmaUoCgBIJ39m p30Bn18VfvWK+fzmOgJZPASRAiwBWMppt1FkEdiivDEi5LkgjOIoPf6Pv24/+dfcwoWpQ/6uV0ov vfTSDZGSRkg3AlYZKcrtRJZlriiKvCiKkfe+Hw7fO9Pp3HM0HeVl9/5qOvfAnpi74k4/tBhc+DCK oqVWq7XR6XRGaZq6qrhh16hnh7/LHlJyk1Kq5dFuX5TPHQJeveQ/39uQQHgZwmVjZ2YCCyMKQwRB ObNIECBPc0RhO06O/eOvx+f+lY/lUvNH4kal7w6KlA5ELzuIQLRTg6LMUqQ0GSGN/905x1mWZc65 ofd+szM69W538YXProGDOkWUpylM6wg+GBx/8OnFy69FUXS20+lc7nQ6/dFoVAyHQ96neJqDhICr e8ftS0r1dXW7l+TpI8yvXJSn+z0KhRerU7ACkRaYC0QSIDAAqICIQZ4y4niuPTr8j36rffFPOMYV bnYJBzDw3kuWZcVvupQORMqulJFuIinKLZTQtMq2qe8S0zT1aZoWeZ4n3vsNcaOLXT6zAVpZBZV7 MMKMEB7r7q6loXz0QBy4M1EUXex2u5tJkqRVlCSTizL23k/a14nSKVIaRzWdjuDzR07JKxfpC4MB QsEShC0YDswGwgU4tLDWAuLhISiSDEE01+6vfO+356/8KbewsdVgthEp/aZL6QA0VwVgBdo7SFFu iYiAnfdoZErkJAAkSZIiTdNRnue9KIouLyY//1Wr+3dX080MLAKwIMs90D5OHw7ueOzx+c23oyi6 0O12N5IkGaVp6kajETvnCDsfhp12HZ9KSpOFDp3OZXn6yJvys0vyzLDPIfxilawxECa0GAgDhrFl 6zoWRpEb2Gihc2Xxe7+7uvknvlU1mG1cX/83XUrBgXhNOBzIzreKchtGSU0hTPaTE2BcaefTNE2z LOu3Wq21ufzdU0ut/lPnwB0yEUQKiC/Qji0u5A+vPoCzD4ahuxDH8frc3NwgTdO8KApfneehiShp Wsqkvn2D7Z23d63Ca0hpW5gkItLtQp458qb/yQU8O0woFFqGsAd7A+8FrdgiDABjCMJlqXieCEy4 0rnY/UffPCx/ynFZ39AcyzH4TZbSwenUoD5SlJtnn7LdDu2w6O+WQxcAkmWZH41GebfbHbTb7Sth GJ5bLX727jnz9GfAXA6lI4s0KxC2j9lT/QefemrhlY/iOL7S6XR68/PzaZZlzntfjyrfTUrTvrbT Aj9NSr4ppeb96HSEnjn6Jn56AV8aDVwkfBjCZTeHshwcCIyAjIVwAe8N8szBxofmzrW/983j+DNu bU/d4VNIaWpkejtK6eBU2ekWkqLMWrQkmN7mB957TtM0H41Go06nsxFF0cWjwWs/+yB+8uRgIHNk o7JNjxcE5HAJTxxa8+efWgxPX2m325tFUYyKosi4RBqR0rRGpVct1o3P90rdUS2KoiggIiQiw+pP AUCdDuQLR38pP7vw2LNJEkYiC2BBeXjWO0SRgaWibDnEDOcEecEI4kMLp8M/+Nbd+HNpb2/GupOU CFePrtgtSr3tpHQwIiTtsKoosySh3Vr2jOWUpimPRqNsNBr1oyi6FATBmYfCH/7iFfPl5+AzgCKA PUajHN1uG2+MvvjYc/Nrp6OIe91uN/He50VRsHOO0zStpdS8/cnrmXatmCLNOo3XTOdR1fuO0jQF AKrcQSJC3S7whaNvyE8v4Lk0ORYxL4KZ4WODlieEAcFQABEHEYOiyJE7RhgfW/zY//1v3ht9nxvR J1XR5+SeUj1Pqd57mpZ2vGq20ksvvUQAcDuI6fYXkpPyKVIfKcqtEhFw9YC5XQ/IopwXVEdJw1ar tRaG4bkl+97P74jvPXl2sHwU1pR7wyLI0gxx+3DrzfTZ5z7T+usNZk663W7mvXdVuksqKdUL97Tx 4LtFSs1oiaZIiSsp+UpKWf299bZStwv5wtE38LML/GySStyTlVJKnhBXURJZgngPgUGeFSiKIcLW ncvvy3d/72T0/fIHEhmqMMb0B4MBjUajppQmx6GbHaR02+0r3f5CIuw+rktRlFshJ9nrw3vPSZK4 4XCYRFG0GYbhhSAIFh6O//YHa9G3vpMWWQzTBojgheCdxzB69MhHfvD8PdFPRiKSiUhRDfsTAEjT tKgiJTMhk53kuVO6a1JQ06RUABhVRQlUnlMSevrIm/LTi/RsklGr5xfgfYCCGZEV2EolzARmwOUO eV4g7BxfPm2+/bt3R/+JqiiIajEZY/oAkOc5Oef8RKruQEnpYAgJgGhRg6LMWvoOe0mJmXk4HOZR FA2jKLoSBEG3Y8z8k+2/ffln+TNfFQRGKAJ7QZJkCIMAF6Ln7mvL6KuH4zcKlDW2DADGGGxubkqS JKgW7jqlNW3mN02JoHba87rqa8zMzjmfpmle/6xqXwlzc8AXjrwhP73IzyVZ3ur5ZTgXIg4JgfGw hiBEEM9gsSiKHIVjcPee1bD7+986iu+H7VJG1lQQUX8wGKTVfZt8vJtSmtY66baR0oE4GMteQFaN pCg31TpXV9rttH+0a5SUZZkbDAZpEAT9MAwvWGtb8+3znUfm3lp+s/fQkwhWARsBYtAbpFjoMr1n n3+8FY6Suej98Sa/McZYa02/3x8Nh0PKssztkE+ZjJKmpRv3vPZaSkmSZCJiRGSjGspn5uYEzxx5 Q352/pHnhjnaI6yg8AEiw1UT1tIdAoL3HlnGSPM+CKvLPPdH3zxKfxG1sB4QUVAGSaWXAGAHKe1U oHFbSelATIxVGSnKTKXqMGURnPbBAKiquHOj0WgUhuFGEASRMaZ1R+u9H2Qdar878A8gPATYLiCE /iDFwkLXfGy++dQD8X/yMZ221aIdhGEYxnFs4jhOBoOBSZKkcM4xppei7yQl7BQZTZFSXaCRVTKC iBgANDcHevqOt+3PzuGLQ4d2IcsoQLDwsMbBGAKIId7DC5A5wF/uwfu5eTf3h799nL4ft+hiWEnJ GmNARGStTQaDwbTJs+Z2l1Jw8F4TiqLMUNpOdlngx+/qnXN+MBgUxpiBtdZWa5O9r/0eiRT0Xv++ +6l1HLAdiGcMhhli24rOLv7+F++J/nMrHp4KjTHtMAzbYRi24jhea7Vaw8FgkI5GI5dlmW+IaTKa m5bG222R2XafmFmYmav9rATARrX/E84b0/rinW93fnLGPT5w0oGZhycLX1SBndQBXg4Yi4wNrqwR ROY6fuGPXriT/qIV40xQeshaY8wFay2MMdTr9bKDJqWD0VyVtHWQoszgO8NmtNQsU56WuvN5nmM4 HMIY06sWdENEcl/7I4lk+LVTm73HpXXCwC7Bi+Dy5ggsYu3Kt56658idy9Gl//YDY8y8tXYhiqLz 7XZ7bX5+vj8ajZLhcJglSeLSNHXOOank1IyMaJ/3a8dUHjNznufFaDRKwzAcRFG0EcfxxlyUXnzu 3o9aP7p04v5+HnXAVRGgNHxN5WwlMKPIUly+zGCZj/z8P/jy3e3/tx3TOwERhUQUGGOsMWbdWot+ v59PDC38VFKalXf0B6CooZSRsEZIinLT7bO1j7RT+fdu532mVt2hbGjaq/6PB+Dv7FzOF+N07efn N7+URg+2qHUMLAZrvQJFIeQOP3niwfvuXgzP/cef2OTS22EYrkRRdKHVaq11u93NxcXFQZZlSZIk eZZleZIkPk1Tn2UZNw7V7iWmHa+9kU6rahBo3DlCRBCZzH/3heP+B69bfHxuA4Ct/pXrx3HrpkXg XYYrVxjs5wNZ+ntP39n5QbdNr4REVKcnbRAEV+oLu14pYffuGiqkfcP1o6n7SIoy41HSTgdQx6k7 7z2SJAHKcmoRERYRz8x5J+bky3fll1+7kPzWlSRdpvY9EDLYGBVIzw3g3OLyyTv/6W+v8s8fGpz+ wSvWJh+HYXjRe3/ZObfunOsvLCwMi6JI8jzPi6LI8zz3RVG4PM/ZOcdJkoj3HnmeA+X+1tT7ZIyh 6sMGQRAGQRCGYRhFURS3Wq1up9NZ6nQ6y1EULQdBsPjQ5759OFx9YN6/8jbAvhJR6ayqOV75EBAB UgAsYABrV9bhnTNu6SuP3tPttrv0N/WeUlDdvqnSnDQcDovbXUoHYw9pryHFiqLcTBnRHqmu5it2 smS5GSklIsK+pPDeZ60WJ08fO7/x7pXR19+//MH9WHiMEB5BWlh8eLaPtc3UnrzrMyce+ewzd4b9 Vz7ZOP2jN4tk/UwYhpe89+sisumcGzLz0HufVh+Fc85Vf0rVtJW99+K9J2YmZkZVSRcQkUVZ1RdZ a0NrbRQEQVztX3WiKFqIomi11WrdEUXRic8+9937use/fudf/tf38MnFtJSPsQAZCLvGI1Y9BFXU BHalcDeGYGaSpc/ed+f88t9b7P9lZIwJjTFBFTGRMWYAANV4+NtWSrd/lZ2XceZOUZRbnrab1h1h WqPTyT2lbYtmFSk57z0qMTjnXOG9T5i5f9+S3zw2nz72zvlzz1zsnThEcw9C4mPYHDq89tYVfPRJ FD5432dOPPHM8ydi98n68OIvz62dfuUdl/UvhGG4ycx9ERkwc8LMKTNnzJwzc8HMnpmd974uWKh7 2EFEAgC2ilJCIoqJKA6CoG2t7VprF4MgWA6C4PCR4ydPPvONf3z/lXR1/i//+kP85BeXyrtpwyoy YsC2AHalhMgAvjrWJFI1mC17dfZ6IzgPeLnv2B1zf/j3Do3+fasFNFN4xhjT7/f7GQBcp5Q0Qroe yBDEaVWDosx4lDQZKcmUCImbUsrz3DGzFEXhq8glc86N2u12P4557am7g4/Wk4+e+NX5009uJg8u UPchcLiMtX6Gl189i9dOreHYanv5yQdeWL7n+W8/GrqzvXTzdG+49uH53sV3PynS/jozJ1V1XMLM GYCcmV3VAYJFRKou3CQithYSgIiIWsaYNhF1jTELYRgv3/Pg50488MTzR033vsWfndqgv3r5PXzy yVp514wBTADxIyA5CwRdIFiqxMSACUtB1Q+RMOALwHiMhuWYdPGrK8XC9/7OUfMXcYvWbS2lySfh U0gJtzpKCg7K7z8FmrNTlBmOkqZFStMWSjMhJfHeV1XVwt57V+3/JO12ezOO4/WFyF969mTw9tnN U0+9e+GdRxN7V5u6DwOtI8gyxodnevjw9AZarYgOL7cXH7r34cV77/783Q8/GT0TyjDhYjNLhhvZ aOPsZja4tJn0L/cG62fWANRtibi+iyjb+liU0Um0evyhI/NLR5cPHbtvafnwvXPx3B3dS+spfvTu On76xq/w0ekrZRaHDBBEpYyKy5DLf42uezs9fGhu88z68VXffsSidXcpJionzZbREsq/swOQIU0I l1jgeW4+m//jb94p/3cc46Kte9/tIaXdDjFjFlJ3t72QaOdJyYqi3PooafJw7LR37WZKtNQsyzZF UThm5qIoJE3TIsuyrNvtjrrd7qDVaq3HcXzp6Fx4/o6F4LWz6+999uyVt05eubyyZBYeATr3AXYe aebx8SfrOH2uD4ARBBZz3bh9x6FW+/DKERxZvvfokZMxjs+FmO9GaMcGnoF02MudGxWBIcRxZNpz q+288CAiZLnDpfUMH1xJ8V/eHOD9M7/AxcuD8t74ooxwbAQEISA5pP9zyJW/wdH2pY3PfebEh8Yg e4hH59899+rRD/u9oxLfSwgOlUIyIcDF1kPBHkCKPAMuX9kE83w7a/2Db5yM/j1FOF+3Lxo/xtXj tVU9cfVB4GlRke4hXd87s+pR1j0kRZnFKAm7LHSTEdK0z8dNQ6t9pdw5Z9M09Wma5mmaptWQv404 ji/HcXzh6EJw5s6V6HBajO756OL/eOLs+Z8czYK7Ylp8HBQdLfdlvKDIMqynOTY2Rnjr3eoSqeow bgwggBWHViuMluajqBVb5AWjNzqDjZ6r9ngM4LkUB5lSQmTK27BhOR4nX4P034Fs/hxtfzp76MTq e0cO3Xkqy5JNEcmJKLz/SLB0bOWDk6+f6T0ylEdaCFYACqtHj7cveJzDZcCVywxeno/fn3/xGyei vwxiOiMAhIjqqbbltL/BYLL6Dth7JIcK6breiymKMstR0l6v3mkpvObZoLGYqv2kuky7GI1GaafT GXW73V673V6L4/hCGIbLYRh+/NDx8NQjd5nV8xtnHj1z6f37r5wPljk6QjT/MKh9F2BapYBgqkKC 8nCqOAa8hyPCoHAY9JMpcqgu19ituxq2ys/dEDJ6G+i/ARq+K4fm8t7xu5ZPHzl04q2iyC/2+/21 oigG3vvCWhtGUbQQx8WVL58sLv7yPL5wLn1wBeFqGSWBAVfJTxjwApgA3uVY3xgC1I1ORd/+2sPh f+Ao+kQA+KpU3lXVgpwkiUxESbTLc3TLoqXbP2VXp01VSooyi1HSfkaa1+/caYfoqDlaYfxRFIUw s8myjNM0HYup3W5vtFqty3Ecz0dRtBiG4fKhrv3gyEJ0iMUeubhx/uRa7/Sdlz4plpMiaFG0AsTH gPgwEC6CohWQ7UJMsCUE7yvxUCkFY6vzRAXg+kBxGZKeA9KzQHIWUqxjoe2HRw/NXbzz4SPvBhbn i6JYGwz6a2mabiRJ0suyLPXee2NM0CnZ7Hg/fOKoG8br9NyHm+4YwqNlpGSjMvoqF71xVZ73BdbW h1hc7IRv5N98/onOfyji+HIhInW1YD1Rl4uiqDufe0wfYqhVdtdvpPpXVY2kKDMaIe2Wz2gOnMMO 0REmZFTvOVGj6IGTJHH9fj/vdDpBq9UattvtzTpiiuN4PgzDeWvt0uEF+9bRpdbC4yc6855peb0/ ON4bnlodjF5fHA3zlnNih6O8IzCEoAuYePvdcH2IG1V96ASBZddtBel8Nx7NH4p7C3PxxaX5e88z +03vfb8osl4yyvtZlvXSNB0mSTIajUZplmW5956ttTZN00Ge54n3PmPm9IGlj9NW4L789mV3j4RH CXaujJBcuvUwigecAwuj3zdYWGi3fjn6uy881X1pFEWcdzqdgplz770risKPRiMUReEagp+pCrsD ISRxArL6yleUGYySmgLarQKPJ2QzGRXV7+yp8Q5/W5lzdXiWiqLgPM9dEARFq9VK4zgettvtuNpj akVR1AnDsGOt7QZB0DHGdBY7pr3UDTvGxDERtaqzRRGAcJS6+STzXUC2bk/m+NDS4StVBZ6vmqrm 1VmmzHufjEbDxDk3yvN8lOd5kmVZkqZpmiRJlmWZy/O8TqeJtdYURZFX56xyZs5FpLiz+4mLbPHF X17gBxnHDEy33Jca98Lj+gGHyxP0e4L5xbnOjy//9jefW/2P/VgkEZHEe5/leV547+sih936+Oke 0nUFSLbqY6cBkqLMqpSA/XcEmJSRmZLSoykpvHEU5b2nes5SGIau3+/nURQNO51OFEVRGMdxFEVR KwiCKAzDlrU2stbGRBQZY6KqA0JERNYQBd0Ytnk7IpAkSbiqRffM7Kr0WOGcy8s+sXleFEWW53me ZVmRZVmRpqkrioK99xARVKMryDlXn3fiSnBORAoAxeHORfeFuzh75VzwuBNYBPMAiq30HVAWVJgA RZZi0LcIomMLb/We/p1H53/cZ+Zhp9MZOeeyPM99lmW+UXm3m4BuSSrvQHT7JiKdGKsos5+6uxYp Ea7eO2pGRzTlo3lbBABFUbiiKCjPcxoMBkUURTYMQ4qiKAzD0ERRFAZVIzprbWCMCao/DYCg6pQa NK+3kgmaezTVWPOynURR+NJHBed5znme+4aEMCUFCe99LSPPzE1B8XwX/NSxd+mVC/Hj7K0BReMq wPH4CnaACZCnCcLQ4Ez2ubuWw0tfPBK9dzmO4yvtdrvXarWSIAioKAra43nQg7HX86vOIuWvqaIo s5y6u9beaTtFQbyDkHYSk3jv62mrXDVvLay1FASlc4IgMNZaGwSBCYLA1O14rLWmPnRatQ8SEaG6 pVAlJJSt8Dy89+ycE+896u/Z4fqu+nvj3BATEVfy9UQki51z+MyRKHjt/EOPSLhCoLqjA21V3wkD 5DEc5ZhbatGbvc98/tDhc68FgTsTBEEnjuMojuM0SRK/w/Voyu66f+kJgCctalCU21dKO0VVpvEn 9iGiXRd8TOyV1Kk9TB/UB2utAcouqs1/875soDkR7Ux+vp/ruOraaykNh8O6QwQbY4SIsNr52D58 uNU+ddmcgF0GbFyl7rjcu6CyLRGMRZIxvL0zemvtga88uvDqL621sbXWVt0m9nNAVoX0qah6EtZN VhVFue2kNNlSiCYiof2KaNcoaYoIpkVr4//nq9kTlbR2k8+1iAl7XTuXB4jMaDRKjDFsjEH1Ye7u vGPT5bj14YY5BnOoLD+X6kdS1aLIELzPgd6PcLb/5iMnHok6wMhMuVadh3Tjf9nLsnwyRl/5inL7 R0p7nVnaVvY98TntMyLZaSAf7RI17CSh/QoJe0RxZoqUeDQajQcAVpNi7cOLb4ap7/zu+UFwCOEK wFQd7pWyRRFZoP9L2LW/cl95cvFfB8avDb3Pi6LgKkLaL3ow9lqhehSwaISkKLexlLDHu/Xm9zXT bH4HMWEfcvo0Etrvgr7fNN5kNGiaUsrznAGwtRbW2nrORPjkys9bI/fV3+m5bA7hQnnpVHWMSD+E rP0NHjvRfqUdmw+SJFvP8zyp9rlmuvnnAWgdRNf4e6IoygxKaS8RTUvD0RQxfZq03TSBXE8qi/ZY pCbFaKZcIwEwtZSGw6EYYzgIAgrKSozwc4df6f6PSy98o5AkQLhcOm34K8jF/4z7V4fv3nl4+YdZ lp3Lsmw9SZJkOBzmWZbxDtcgtzo6OiBCqg/HqpAU5TaVErC/FN5OnR92Exawd9oO+1icb8S75p2i JG5Iqfl5XTwheZ5jOByKtXbDlgTt9lrwxPIvuq+uPfNlZOeBwZug9R/KA8fo1P33rPyXLMveS5Lk 7GAw2BgMBqM0TXniccMsSOhACUkclwP6vA7oU5TbVEr7jZb2K6KdIqOd9o92q/z7NIv0flN/tMc1 jv90znGapmytRRRFVJWm00rrneKoiZbPf/TjR+ftpSsPP3jnyyuL8etZln2UJMmZfr9/cXNzc7Cx sZGlaeqdc4yrp/fODAegU4OBeNYtJEW5DaUEANcQLWGHSEmmiGinyGhamm43aVzLyrLX9+62lzSt SGNbtOec4yzLpN/vi7WWALCIJA/MvfV/rp5cuO/YUve0936YJMmVNE0vDofDK5ubm71+v582ZLTb dWuV3Q34tS5lpBk7RflNi5b2ioKmRU3A7mXf17N3tJ/v3ylKqq9lp/QdAaA8z8UYI0EQ9ETEe+9H cZxdmQuC9/p9YWbO8jwfJEnS6/f7w+FwmAyHw6IqYZdrkM8tkRPJTQ4tpkzZxYsvvqivSkVR8NJL L+3nbM9u0cZOX9vte7DL165XSLLH7Ux+mD3+TtZa02q1glarFVYfUXWIl733RZ7neZqm2Wg0ytM0 LapzVHXnhzplxzt8PvkBuYmSUCEpinLQxLSXjLCHmK5VSrLPf5t2G7sJaZqcUEspCAIThiFZa40x hkSE6/NLzjmX57lvyGaagJoSUiGpkBRF+TWJaS857ednXU90tNvCup+ODWaHr+0U6TVTcTIhn90i op1EdEuEFOivvKIos8qLL74oE2Laa79nt9Lw5vfeyL2ja5XStOislo3BlPNIU66Rdrifkx+8w58y cX3TvnbTUSEpinI7i2naYr+XnIDp545uxDkc2eNrtMs1TFbbTSvY2CnquxYpyR4S0uaqiqIon0JM wP7m+sguC/hk5II9vrZf+WAft7fbgd5mxDQZGe027XU3Ke0UHc0EKiRFUW5bMe0zatpNDLTPr32a yGja1/fbaUJ2iI72ipB2EtKu+0S7SOqmymomihoURVFu1BJzg75+I5E9bn+3Igfs4++7CWk/gsJu n99MR2iEpCjKQWKniERu8fVMkxI1Fv+9msfu1P5ot4huP2KaJqNbhgpJUZTfJEHttoDfzGvZb5Xf bq2Qpn0/pshlt0IGLWpQFEWZMUndTKYJaLfRG9MiqGn7XdcipWkyuuViUiEpiqLcfCHuZ3ou9imo vcQ7LR03E0UMKiRFUZTZlRKwvzHu1xohYQ85ATNQCq5CUhRFmQ0p4RojoP2KYz9puZk4i6RCUhRF mQ0p7RYByS7/59MIa6b2jlRIiqIosyslYPdx6jdiVtOn6TShQlIURfkNkBKwc0n6biKia5CKXOPX VUiKoigqpj2FsVe0dK37SyokRVEUZU9R0D6+59P83JnipgvpZvfOUxRFOYCCKi1V9ga9lpTdTEMq CEVRFGUWMPoQKIqiKCokRVEURVEhKYqiKCokRVEURVEhKYqiKCokRVEURVEhKYqiKCokRVEURVEh KYqiKCokRVEURVEhKYqiKCokRVEURVEhKYqiKCokRVEURVEhKYqiKCokRVEURVEhKYqiKCokRVEU RVEhKYqiKCokRVEURVEhKYqiKCokRVEURVEhKYqiKCokRVEURVEhKYqiKCokRVEURVEhKYqiKCok RVEURVEhKYqiKCokRVEURVEhKYqiKCokRVEURVEhKYqiKIoKSVEURVEhKYqiKIoKSVEURVEhKYqi KIoKSVEURVEhKYqiKIoKSVEURVEhKYqiKIoKSVEURVEhKYqiKIoKSVEURVEhKYqiKIoKSVEURVEh KYqiKIoKSVEURVEhKYqiKIoKSVEURVEhKYqiKIoKSVEURVEhKYqiKIoKSVEURVEhKYqiKMqvj/9/ AGrOfJ6daD7YAAAAAElFTkSuQmCC "
     id="image10"
     x="0"
     y="0" />
  <g
     id="g15645"
     transform="matrix(0.22615701,0,0,0.25497113,11.815042,-0.1776528)">
    <rect
       transform="matrix(0.516109,0.856523,-1,0,0,0)"
       y="10.356378"
       x="31.372629"
       height="5.0174885"
       width="15.230728"
       id="rect11208"
       style="fill:url(#linearGradient15651);fill-opacity:1;stroke:none;stroke-width:10;stroke-linejoin:miter;stroke-miterlimit:4;stroke-dasharray:none;stroke-opacity:1" />
    <rect
       transform="matrix(0.516109,0.856523,-1,0,0,0)"
       y="3.983655"
       x="31.372641"
       height="5.0174885"
       width="15.230719"
       id="rect14724"
       style="fill:url(#linearGradient15653);fill-opacity:1;stroke:none;stroke-width:10;stroke-linejoin:miter;stroke-miterlimit:4;stroke-dasharray:none;stroke-opacity:1" />
    <rect
       transform="matrix(-0.536293,0.844032,-1,0,0,0)"
       y="-45.477615"
       x="0.82551414"
       height="4.9338641"
       width="46.467571"
       id="rect12091"
       style="fill:url(#linearGradient15655);fill-opacity:1;stroke:none;stroke-width:10;stroke-linejoin:miter;stroke-miterlimit:4;stroke-dasharray:none;stroke-opacity:1" />
    <rect
       transform="matrix(-0.536293,0.844032,-1,0,0,0)"
       y="-39.038486"
       x="0.82550603"
       height="4.9338641"
       width="46.467583"
       id="rect14728"
       style="fill:url(#linearGradient15657);fill-opacity:1;stroke:none;stroke-width:10;stroke-linejoin:miter;stroke-miterlimit:4;stroke-dasharray:none;stroke-opacity:1" />
  </g>
</svg>
