/* XPM */
static char * title_1_active_xpm[] = {
"1 20 5 1",
" 	c None",
".	c #000000",
"+	c #FFFFFF s inactive_hilight_1"
"@	c #4C7BA6 s inactive_color_1",
"#	c #4B58A2 s inactive_shadow_1",
".",
"+",
"@",
"@",
"@",
"@",
"@",
"@",
"@",
"@",
"@",
"@",
"@",
"@",
"@",
"@",
"@",
"@",
"#",
"."};
