/* XPM */
static char * shade_toggled_active_xpm[] = {
"12 21 5 1",
" 	c None",
".	c #4B58A2 s active_shadow_1",
"+	c #ACB5C4 s inactive_hilight_1",
"@	c #3678E5 s inactive_mid_1",
"#	c #8E96A4 s inactive_shadow_1",
"            ",
"            ",
"            ",
"       .....",
"       .+++.",
"       .+@#.",
"       .+@#.",
"       .+@#.",
"       .+@#.",
"       .+@#.",
"........+@#.",
".++++++++@#.",
".+@@@@@@@@#.",
".##########.",
"............",
"            ",
"            ",
"            ",
"            ",
"            ",
"            "};
