/* XPM */
static char * title_4_inactive_xpm[] = {
"21 26 7 1",
" 	c None",
".	c #D6D6D6",
"+	c #969696",
"@	c #000000",
"#	c #494D59",
"$	c #515961",
"%	c #BEBEBE",
".....................",
"++++++++++++++++++++.",
"@@@@@@@@@@@@@@@@@@@+.",
"++++++++++++++++++@+.",
".................+@+.",
".................+@+.",
"@@@@@@@@@@@@@@@..+@+.",
"@@@@@@@@@@@@@@@..+@+.",
"#############@@..+@+.",
"$$$$$$$$$$$$$@@..+@+.",
"#############@@..+@+.",
"$$$$$$$$$$$$$@@..+@+.",
"#############@@..+@+.",
"$$$$$$$$$$$$$@@..+@+.",
"#############@@..+@+.",
"$$$$$$$$$$$$$@@..+@+.",
"#############@@..+@+.",
"$$$$$$$$$$$$$@@..+@+.",
"#############@@..+@+.",
"$$$$$$$$$$$$$@@..+@+.",
"@@@@@@@@@@@@@@@..+@++",
"@@@@@@@@@@@@@@@..+@@@",
"%%%%%%%%%%%%%%%%%%%%%",
"%%%%%%%%%%%%%%%%%%%%%",
"%%%%%%%%%%%%%%%%%%%%%",
"%%%%%%%%%%%%%%%%%%%%%"};
