/* XPM */
static char * title_5_inactive_xpm[] = {
"8 26 5 1",
" 	c None",
".	c #D6D6D6",
"+	c #969696",
"@	c #000000",
"#	c #BEBEBE",
"        ",
"        ",
"        ",
"        ",
"        ",
"        ",
"        ",
"        ",
"        ",
"        ",
"        ",
"        ",
"        ",
"        ",
"        ",
"        ",
"        ",
"        ",
"        ",
"........",
"++++++++",
"@@@@@@@@",
"########",
"########",
"########",
"########"};
