/* XPM */
static char * shade_pressed_traditional_35p_xpm[] = {
"27 27 6 1",
" 	c None",
".	c #040004",
"+	c #ffffff",
"@	c #837f83",
"#	c #000000",
"$	c #575557",
"..........................+",
".@@@@@@@@@@@@@@@@@@@@@@@@@+",
".@@@@@@@@@@@@@@@@@@@@@@@@@+",
".@@@@@@@@@@@@@@@@@@@@@@@@@+",
".@@@@@@@@@@@@@@@@@@@@@@@@@+",
".@@@@##################@@@+",
".@@@@##################@@@+",
".@@@@##################@@@+",
".@@@@@@@@@@@@@@@@@@@@@@@@@+",
".@@@@@@@@@@@@@@@@@@@@@@@@@+",
".@@@@@@@@@@@@@@@@@@@@@@@@@+",
".@@@@@@@@@@@@@@@@@@@@@@@@@+",
".@@@@@@@@@@@@$$@@@@@@@@@@@+",
".@@@@@@@@@@@$##$@@@@@@@@@@+",
".@@@@@@@@@@$####$@@@@@@@@@+",
".@@@@@@@@@$######$@@@@@@@@+",
".@@@@@@@@$###$$###$@@@@@@@+",
".@@@@@@@$###$@@$###$@@@@@@+",
".@@@@@@$###$@@@@$###$@@@@@+",
".@@@@@$###$@@@@@@$###$@@@@+",
".@@@@$###$@@@@@@@@$###$@@@+",
".@@@@###$@@@@@@@@@@$###@@@+",
".@@@@##$@@@@@@@@@@@@$##@@@+",
".@@@@@@@@@@@@@@@@@@@@@@@@@+",
".@@@@@@@@@@@@@@@@@@@@@@@@@+",
".@@@@@@@@@@@@@@@@@@@@@@@@@+",
"+++++++++++++++++++++++++++"};
