/* XPM */
static char * top_left_active_traditional_35p_xpm[] = {
"4 35 6 1",
" 	c None",
".	c #000000",
"+	c #fd5585",
"@	c #a80030",
"#	c #40A740",
"$	c #7d0005",
"....",
".+++",
".+@@",
".+@@",
".+@@",
".+@@",
".+@@",
".+@@",
".+@@",
".+@@",
".+@@",
".+@@",
".+@@",
".+@@",
".+@@",
".+@@",
".+@@",
".+@@",
".+@@",
".+@@",
".+@@",
".+@@",
".+@@",
".+@@",
".+@@",
".+@@",
".+@@",
".+@@",
".+@@",
".+@@",
".+@@",
".+@@",
".+@@",
".#$$",
"...."};
