/* XPM */
static char * shade_pressed_35p_xpm[] = {
"35 35 4 1",
" 	c None",
".	c #390000",
"+	c #b87f00",
"@	c #ffffff",
"...................................",
".+++++++++++++++++++++++++++++++++.",
".+++++++++++++++++++++++++++++++++.",
".+++++++++++++++++++++++++++++++++.",
".+++++++++++++++++++++++++++++++++.",
".+++++++++++++++++++++++++++++++++.",
".+++++++++++++++++++++++++++++++++.",
".+++++++++++++++++++++++++++++++++.",
".+++++++++++++++++++++++++++++++++.",
".+++++++++++++++++++++++++++++++++.",
".+++++++++++++++++++++++++++++++++.",
".++++++++++@@@@@@@@@@@@@@@++++++++.",
".++++++++++@@@@@@@@@@@@@@@++++++++.",
".++++++++++@@@@@@@@@@@@@@@++++++++.",
".+++++++++++++++++++++++++++++++++.",
".+++++++++++++++++++++++++++++++++.",
".+++++++++++++++++@+++++++++++++++.",
".++++++++++++++++@@@++++++++++++++.",
".+++++++++++++++@@@@@+++++++++++++.",
".++++++++++++++@@@@@@@++++++++++++.",
".+++++++++++++@@@@@@@@@+++++++++++.",
".++++++++++++@@@@@+@@@@@++++++++++.",
".+++++++++++@@@@@+++@@@@@+++++++++.",
".++++++++++@@@@@+++++@@@@@++++++++.",
".++++++++++@@@@+++++++@@@@++++++++.",
".++++++++++@@@+++++++++@@@++++++++.",
".+++++++++++++++++++++++++++++++++.",
".+++++++++++++++++++++++++++++++++.",
".+++++++++++++++++++++++++++++++++.",
".+++++++++++++++++++++++++++++++++.",
".+++++++++++++++++++++++++++++++++.",
".+++++++++++++++++++++++++++++++++.",
".+++++++++++++++++++++++++++++++++.",
".+++++++++++++++++++++++++++++++++.",
"..................................."};
