/* XPM */
static char * top_left_active_traditional_35p_xpm[] = {
"4 35 6 1",
" 	c None",
".	c #000000",
"+	c #679ba5",
"@	c #124650",
"#	c #40A740",
"$	c #001b25",
"....",
".+++",
".+@@",
".+@@",
".+@@",
".+@@",
".+@@",
".+@@",
".+@@",
".+@@",
".+@@",
".+@@",
".+@@",
".+@@",
".+@@",
".+@@",
".+@@",
".+@@",
".+@@",
".+@@",
".+@@",
".+@@",
".+@@",
".+@@",
".+@@",
".+@@",
".+@@",
".+@@",
".+@@",
".+@@",
".+@@",
".+@@",
".+@@",
".#$$",
"...."};
