/* XPM */
static char * title_4_active_xpm[] = {
"6 21 8 1",
" 	c None",
".	c #000000",
"+	c #90B8DC s inactive_hilight_1",
"@	c #3678E5 s inactive_color_1",
"#	c #4B58A2 s inactive_shadow_1",
"$	c #CFCFCF s inactive_shadow_1",
"%	c #ACB5C4 s inactive_mid_1",
"&	c #8E96A4 s inactive_color_1",
"....  ",
"+++.  ",
"@@#.  ",
"@@#.  ",
"@@#.  ",
"@@#.  ",
"@@#.  ",
"@@#.  ",
"@@#.  ",
"@@#.  ",
"@@#.  ",
"@@#.  ",
"@@#.  ",
"@@#.  ",
"@@#.  ",
"@@#.  ",
"###.  ",
"......",
"$$$$$$",
"%%%%%%",
"&&&&&&"};
