/* XPM */
static char * top_left_active_xpm[] = {
"3 20 5 1",
" 	c None",
".	c #000000",
"+	c #4B58A2 s active_shadow_1",
"@	c #90B8DC s active_mid_1",
"#	c #3678E5 s active_color_1",
" ..",
"..+",
".@@",
".##",
".##",
".##",
".##",
".##",
".##",
".##",
".##",
".##",
".##",
".##",
".##",
".##",
".##",
".##",
".##",
".##"};
