/* XPM */
static char * top_right_active_xpm[] = {
"3 20 5 1",
" 	c None",
".	c #000000",
"+	c #4B58A2 s inactive_shadow_1",
"@	c #90B8DC s inactive_hilight_1",
"#	c #3678E5 s inactive_color_1",
".. ",
"+..",
"@@.",
"##.",
"##.",
"##.",
"##.",
"##.",
"##.",
"##.",
"##.",
"##.",
"##.",
"##.",
"##.",
"##.",
"##.",
"##.",
"##.",
"##."};
