/* XPM */
static char * close_prelight_xpm[] = {
"26 29 4 1",
" 	c None",
".	c #FFFFFF",
"+	c #ea4335",
"@	c #030303",
"                          ",
"                          ",
"                          ",
"                          ",
".+......................+.",
".+.@@@@@@@@@@@@@@@@@@@@.+.",
".+.@@@@@@@@@@@@@@@@@@@@.+.",
".+.@@@@@@@@@@@@@@@@@@@@.+.",
".+.@@@@@@@@@@@@@@@@@@@@.+.",
".+.@@@@..@@@@@@@@..@@@@.+.",
".+.@@@@...@@@@@@...@@@@.+.",
".+.@@@@@...@@@@...@@@@@.+.",
".+.@@@@@@...@@...@@@@@@.+.",
".+.@@@@@@@......@@@@@@@.+.",
".+.@@@@@@@@....@@@@@@@@.+.",
".+.@@@@@@@@....@@@@@@@@.+.",
".+.@@@@@@@......@@@@@@@.+.",
".+.@@@@@@...@@...@@@@@@.+.",
".+.@@@@@...@@@@...@@@@@.+.",
".+.@@@@...@@@@@@...@@@@.+.",
".+.@@@@..@@@@@@@@..@@@@.+.",
".+.@@@@@@@@@@@@@@@@@@@@.+.",
".+.@@@@@@@@@@@@@@@@@@@@.+.",
".+.@@@@@@@@@@@@@@@@@@@@.+.",
".+.@@@@@@@@@@@@@@@@@@@@.+.",
".+......................+.",
"                          ",
"                          ",
"                          "};
