/* XPM */
static char * title_1_inactive_xpm[] = {
"1 20 5 1",
" 	c None",
".	c #000000",
"+	c #4B58A2 s inactive_shadow_1",
"@	c #90B8DC s inactive_hilight_1",
"#	c #3678E5 s inactive_color_1",
".",
"+",
"@",
"#",
"#",
"#",
"#",
"#",
"#",
"#",
"#",
"#",
"#",
"#",
"#",
"#",
"#",
"#",
"#",
"#"};
