/* XPM */
static char * top_left_active_xpm[] = {
"5 29 3 1",
" 	c None",
".	c #000000 s active_color_1",
"+	c #FFFFFF",
".....",
".++++",
".+...",
".+...",
".+..+",
".+..+",
".+..+",
".+..+",
".+..+",
".+..+",
".+..+",
".+..+",
".+..+",
".+..+",
".+..+",
".+..+",
".+..+",
".+..+",
".+..+",
".+..+",
".+..+",
".+..+",
".+..+",
".+..+",
".+..+",
".+..+",
".+...",
".+...",
".+..+"};
