/* XPM */
static char * maximize_inactive_xpm[] = {
"14 25 14 1",
" 	c None",
".	c #8E8E8E",
"+	c #F5F5F5",
"@	c #FFFFFF",
"#	c #FCFCFC",
"$	c #FDFDFD",
"%	c #FEFEFE",
"&	c #F1F1F1",
"*	c #F2F2F2",
"=	c #E7E7E7",
"-	c #DBDBDB",
";	c #D2D2D2",
">	c #C0C0C0",
",	c #B1B1B1",
"              ",
"              ",
"              ",
"              ",
"              ",
"              ",
" ............ ",
" .+++++.++++. ",
" .+@@@@.+@@+. ",
" .+#$$%.++++. ",
" .+&***...... ",
" .+========+. ",
" .+--------+. ",
" .+;;;;;;;;+. ",
" .+>>>>>>>>+. ",
" .+,,,,,,,,+. ",
" .++++++++++. ",
" ............ ",
"              ",
"              ",
"              ",
"              ",
"              ",
"              ",
"              "};
