/* XPM */
static char * top_right_active_xpm[] = {
"3 21 4 1",
" 	c None",
".	c #000000",
"+	c #3678E5 s inactive_color_1",
"@	c #CFCFCF s inactive_mid_1",
"   ",
"   ",
"   ",
"   ",
"   ",
"   ",
"   ",
"   ",
"   ",
"   ",
"   ",
"   ",
"   ",
"   ",
"   ",
"   ",
"   ",
"   ",
"...",
"+@.",
"+@."};
