/* XPM */
static char * hide_prelight_xpm[] = {
"48 48 284 2",
"  	c None",
". 	c #000000",
"+ 	c #6D7077",
"@ 	c #4D4F52",
"# 	c #4C4E51",
"$ 	c #4D4E51",
"% 	c #4C4F51",
"& 	c #4C4E50",
"* 	c #4B4E51",
"= 	c #4D5052",
"- 	c #4E5052",
"; 	c #4E5053",
"> 	c #4F5054",
", 	c #4F5155",
"' 	c #505155",
") 	c #505255",
"! 	c #4F5255",
"~ 	c #4F5154",
"{ 	c #4F5153",
"] 	c #4D4F51",
"^ 	c #4B4D50",
"/ 	c #4C4D51",
"( 	c #4C4F52",
"_ 	c #4B4E50",
": 	c #484B4D",
"< 	c #46484A",
"[ 	c #434548",
"} 	c #424346",
"| 	c #414246",
"1 	c #414346",
"2 	c #434446",
"3 	c #444648",
"4 	c #494A4D",
"5 	c #4B4D51",
"6 	c #4C4D50",
"7 	c #4E5153",
"8 	c #494C4E",
"9 	c #3E4042",
"0 	c #353638",
"a 	c #2C2E30",
"b 	c #27282A",
"c 	c #242526",
"d 	c #222324",
"e 	c #222325",
"f 	c #242527",
"g 	c #28292A",
"h 	c #2D2E30",
"i 	c #3E3F43",
"j 	c #494B4F",
"k 	c #4E5054",
"l 	c #4D4E52",
"m 	c #4A4C4E",
"n 	c #444749",
"o 	c #3C3E40",
"p 	c #303233",
"q 	c #272829",
"r 	c #1F2022",
"s 	c #1A1B1C",
"t 	c #171818",
"u 	c #161717",
"v 	c #161617",
"w 	c #171819",
"x 	c #1B1B1D",
"y 	c #202122",
"z 	c #303134",
"A 	c #3C3D41",
"B 	c #444649",
"C 	c #494B4E",
"D 	c #424446",
"E 	c #2F3132",
"F 	c #232526",
"G 	c #1F2021",
"H 	c #1C1D1E",
"I 	c #1C1D1F",
"J 	c #1C1D1D",
"K 	c #1D1D1E",
"L 	c #1D1D1F",
"M 	c #232426",
"N 	c #2F3032",
"O 	c #343638",
"P 	c #18191A",
"Q 	c #191A1B",
"R 	c #1E1F20",
"S 	c #1E2021",
"T 	c #1E1E20",
"U 	c #1C1C1E",
"V 	c #4B4D4F",
"W 	c #4A4D50",
"X 	c #1D1E1F",
"Y 	c #1B1D1E",
"Z 	c #191B1C",
"` 	c #434649",
" .	c #4D5053",
"..	c #4A4D4F",
"+.	c #4A4C4F",
"@.	c #3C3D3F",
"#.	c #232425",
"$.	c #3B3D40",
"%.	c #4B4C4F",
"&.	c #47494C",
"*.	c #3D3F41",
"=.	c #303132",
"-.	c #2F3133",
";.	c #3D3F42",
">.	c #474A4C",
",.	c #4C4E52",
"'.	c #333537",
").	c #262828",
"!.	c #1E1E1F",
"~.	c #262829",
"{.	c #333637",
"].	c #2C2D2E",
"^.	c #1B1C1D",
"/.	c #111314",
"(.	c #0D0E0F",
"_.	c #0E0F10",
":.	c #2C2D2F",
"<.	c #424447",
"[.	c #414344",
"}.	c #262729",
"|.	c #424344",
"1.	c #4F5050",
"2.	c #4D4E4E",
"3.	c #4C4C4D",
"4.	c #1A1B1D",
"5.	c #414345",
"6.	c #4A4B4F",
"7.	c #404243",
"8.	c #161718",
"9.	c #111213",
"0.	c #ADADAE",
"a.	c #DEDEDE",
"b.	c #D5D6D6",
"c.	c #D1D2D2",
"d.	c #111214",
"e.	c #1A1A1C",
"f.	c #171719",
"g.	c #3F4244",
"h.	c #212224",
"i.	c #151617",
"j.	c #0D0D0F",
"k.	c #505052",
"l.	c #E2E2E2",
"m.	c #FFFFFF",
"n.	c #505152",
"o.	c #19191B",
"p.	c #1C1C1D",
"q.	c #3F4243",
"r.	c #4A4B4E",
"s.	c #19191A",
"t.	c #505254",
"u.	c #171718",
"v.	c #D5D5D6",
"w.	c #D1D1D2",
"x.	c #D1D1D1",
"y.	c #424244",
"z.	c #111113",
"A.	c #1A1A1B",
"B.	c #242626",
"C.	c #434546",
"D.	c #494B4D",
"E.	c #515456",
"F.	c #464749",
"G.	c #4F4F51",
"H.	c #4D4D4E",
"I.	c #4C4C4C",
"J.	c #4F4F50",
"K.	c #272729",
"L.	c #1B1A1C",
"M.	c #1B1B1B",
"N.	c #29292A",
"O.	c #484A4C",
"P.	c #525456",
"Q.	c #494A4C",
"R.	c #1B1B1C",
"S.	c #0E0E10",
"T.	c #0E0E0F",
"U.	c #212122",
"V.	c #303032",
"W.	c #484A4D",
"X.	c #525356",
"Y.	c #4C4D4F",
"Z.	c #393A3C",
"`.	c #292A2B",
" +	c #1E1D1E",
".+	c #18181A",
"++	c #1D1E1E",
"@+	c #181919",
"#+	c #515356",
"$+	c #4E4F52",
"%+	c #46474A",
"&+	c #37383A",
"*+	c #202022",
"=+	c #57595C",
"-+	c #262728",
";+	c #4A4B4D",
">+	c #57595B",
",+	c #484B4C",
"'+	c #5C5E60",
")+	c #545658",
"!+	c #1B1D1D",
"~+	c #545657",
"{+	c #5B5D60",
"]+	c #48494C",
"^+	c #535557",
"/+	c #565759",
"(+	c #545557",
"_+	c #252526",
":+	c #151516",
"<+	c #1D1F1F",
"[+	c #1E1F1F",
"}+	c #151616",
"|+	c #434445",
"1+	c #535556",
"2+	c #555759",
"3+	c #474A4D",
"4+	c #47494B",
"5+	c #4D4E50",
"6+	c #5E5F61",
"7+	c #555658",
"8+	c #3A3B3C",
"9+	c #212223",
"0+	c #1A1B1B",
"a+	c #282A2A",
"b+	c #393B3B",
"c+	c #5C5F60",
"d+	c #474A4B",
"e+	c #5A5C5D",
"f+	c #3D3F40",
"g+	c #2D2E2F",
"h+	c #131414",
"i+	c #535555",
"j+	c #5C5E5F",
"k+	c #585B5C",
"l+	c #48494D",
"m+	c #47484C",
"n+	c #46484B",
"o+	c #4E4F51",
"p+	c #56595A",
"q+	c #646668",
"r+	c #616365",
"s+	c #4F5152",
"t+	c #414343",
"u+	c #373839",
"v+	c #2B2C2C",
"w+	c #414244",
"x+	c #505153",
"y+	c #636567",
"z+	c #555859",
"A+	c #4C4F50",
"B+	c #4F5254",
"C+	c #57595A",
"D+	c #5E6062",
"E+	c #606263",
"F+	c #616264",
"G+	c #626264",
"H+	c #616263",
"I+	c #5E6161",
"J+	c #5C5F5F",
"K+	c #5A5C5E",
"L+	c #58595C",
"M+	c #545558",
"N+	c #5D6062",
"O+	c #646669",
"P+	c #696B6D",
"Q+	c #6D6E70",
"R+	c #6E7072",
"S+	c #696C6D",
"T+	c #656768",
"U+	c #56575A",
"V+	c #46494B",
"W+	c #47484B",
"X+	c #515355",
"Y+	c #505355",
"Z+	c #45484A",
"`+	c #434648",
" @	c #454749",
".@	c #454649",
"+@	c #47484A",
"@@	c #46494A",
"#@	c #47494A",
"$@	c #454849",
"%@	c #45474A",
"&@	c #464849",
". . . . . . . . . . . . . . . . . . . . . . . . . . . . . . . . . . . . . . . . . . . . . . . . ",
"+ + + + + + + + + + + + + + + + + + + + + + + + + + + + + + + + + + + + + + + + + + + + + + + + ",
"@ @ @ @ @ @ @ @ @ @ @ @ @ @ @ @ @ @ @ @ @ @ @ @ @ @ @ @ @ @ @ @ @ @ @ @ @ @ @ @ @ @ @ @ @ @ @ @ ",
"@ @ @ @ @ @ @ @ @ @ @ @ @ @ @ @ @ @ @ @ @ @ @ @ @ @ @ @ @ @ @ @ @ @ @ @ @ @ @ @ @ @ @ @ @ @ @ @ ",
"@ @ @ @ @ @ @ @ @ @ @ @ @ @ @ @ @ @ @ @ @ @ @ @ @ @ @ @ @ @ @ @ @ @ @ @ @ @ @ @ @ @ @ @ @ @ @ @ ",
"@ @ @ @ @ @ @ @ @ @ @ @ @ @ @ @ @ @ @ @ @ @ @ @ @ @ @ @ @ @ @ @ @ @ @ @ @ @ @ @ @ @ @ @ @ @ @ @ ",
"@ @ @ @ @ @ @ @ @ @ @ @ @ @ @ @ @ @ @ @ @ @ @ @ @ @ @ @ @ @ @ @ @ @ @ @ @ @ @ @ @ @ @ @ @ @ @ @ ",
"@ @ @ @ @ @ @ @ @ @ @ @ @ @ @ @ @ @ @ @ @ @ @ @ @ @ @ @ @ @ @ @ @ @ @ @ @ @ @ @ @ @ @ @ @ @ @ @ ",
"# # # # # # # # $ $ # # # # % % # # % % # # # # # # # # # # # # $ $ # # # # % % # # % % # # # # ",
"# # # # # # # # $ $ # # # # % % # # % @ @ @ @ @ @ @ @ @ @ # # # $ $ # # # # % % # # % % # # # # ",
"# # & & & & # # # # # # # # # # * % = - ; > , ' ) ! ~ { - @ ] # # # # # # # # # * * & & ^ ^ / / ",
"# # & & & & # # # # # # # # # # ( _ : < [ } } | 1 } 2 3 < 4 5 @ # # # # # # # # * * & & ^ ^ / / ",
"5 5 & & 5 5 5 5 6 6 6 6 ^ ^ # ] 7 8 9 0 a b c d e f g h 0 i j k l & 6 6 ^ ^ & & _ _ _ _ ^ ^ _ _ ",
"5 5 & & 5 5 5 5 6 6 6 6 ^ ^ & m n o p q r s t u v w x y b z A B C 6 6 6 ^ ^ & & _ _ _ _ ^ ^ _ _ ",
"6 6 ^ ^ ^ ^ ^ ^ ^ ^ ^ ^ ^ ^ ^ D E F G H I H H J H H K L I G M N } ^ 6 6 ^ ^ ^ ^ 6 6 ^ ^ _ _ ^ ^ ",
"6 6 ^ ^ ^ ^ ^ ^ ^ ^ ^ ^ # C 1 O d P P Q H R R S S R T U Q P P d O 1 C # ^ ^ ^ ^ 6 6 ^ ^ _ _ ^ ^ ",
"^ ^ ^ ^ V V W W ^ ^ W * = 3 N d H s H X X R R R R R R X X Y Z Y d N `  .& V ^ ^ ^ ^ ....V V W W ",
"^ ^ ^ ^ V V W W ^ ^ 5 +.: @.#.P s H R G R R R R R R R R G R Y Z P M $.: ..^ ^ ^ ^ ^ ....V V W W ",
"+.+.+.+.V V %.%.%.^ # &.*.=.S P H R R R R R R R R R R R R R R H P S -.;.>.& _ ..V V +.+.%.%.%.%.",
"+.+.+.+.V V %.%.%.^ ,.B '.).H Q X X s P Q Q Q Q Q Q Q Q P s !.X Q H ~.{.n % _ ..V V +.+.%.%.%.%.",
"+.+.m m +.+.+.+.+.^ ] D ].G H H R ^./.(._._._._._._._._.(./.^.R J H G :.<.@ ^ +.m m +.+.+.+.+.+.",
"+.+.m m +.+.+.+.+.^ ] [.}.s ^.H s q |.1.2.3.3.3.3.3.3.2.1.|.q 4.H U s }.5.@ ^ +.m m +.+.+.+.+.+.",
"8 8 C C 6.6.m m +.^ @ 7.#.8.^.Q 9.|.0.a.b.c.c.c.c.c.c.b.a.0.|.d.e.U f.#.g.( ..8 C C m m C C m m ",
"8 8 C C 6.6.m m +.^ - 7.h.i.^.P j.k.l.m.m.m.m.m.m.m.m.m.m.l.n.(.o.p.v d q.= ..8 C C m m C C m m ",
"8 8 m m C C r.r.r.6 { [.d i.^.P (.n.l.m.m.m.m.m.m.m.m.m.m.l.k.j.s.p.v d [.7 ^ C 8 8 r.r.C C C C ",
"8 8 m m C C r.r.r.6 t.2 c u.^.Q 9.|.0.a.v.w.w.w.w.x.x.b.a.0.y.z.A.p.t B.C.t.^ C 8 8 r.r.C C C C ",
"D.D.D.D.C C D.D.D.6 E.F.g s ^.p.s q y.G.H.3.3.3.3.I.I.H.J.y.K.L.p.p.M.N.F.E.^ C D.D.C C C C C C ",
"D.D.D.D.C C D.D.O.6 P.Q.N y H ^.!.R.z.j.S.S.S.S.T.T.T.T.j.z.R.!.R.p.U.V.Q.P.6 W.D.D.C C C C C C ",
": : D.D.D.D.: : O.6 X.Y.Z.`.K s.K  +A..+s.s.s.s.P P s.s..+A.++H @+K `.Z.V #+^ 4 D.D.D.D.4 4 4 4 ",
": : D.D.D.D.: W.O.%.> $+%+&+*+u.R.!.!.!.!.!.!.!.X X !.!.!.!.X s u.*+&+%+@ ~ +.O.D.D.D.D.4 4 4 4 ",
": : W.W.: : W.W.O.4 +.~ =+C -+i.s.x X R X X X X X X X X R X x P v -+;+>+~ +.C : 4 4 W.W.,+,+W.W.",
": : W.W.W.: W.W.O.O.O.; '+)+&+c U .+s !+H X X X X X X H !+s P U c &+~+{+; O.: : 4 4 W.W.,+,+W.W.",
"O.O.O.O.]+]+>.>.O.O.&.V ^+/+(+2 _+:+i.w s H X <+[+++J s w i.}+c |+1+2+^+V &.O.O.]+]+O.O.3+3+W.W.",
"O.O.O.O.]+]+>.>.O.O.4+D.5+(+6+7+8+N.9+X ^.s s s 0+0+s ^.X 9+a+b+~+c+^+& D.4+O.O.]+]+O.O.3+3+W.W.",
"O.O.&.&.&.&.d+d+d+d+&.&.]+5+7+e+'+1+f+g+9+Q }+h+h+}+Q 9+g+f+i+j+k+^+_ l+]+]+O.O.>.>.d+d+O.O.>.>.",
"O.O.&.&.&.&.d+d+d+d+&.m+n+Q.o+p+q+r+s+t+u+=.].v+v+].=.u+w+x+r+y+z+A+O.n+4+]+O.O.>.>.d+d+O.O.>.>.",
"4+4+d+d+]+]+&.&.4+4+4+4+4+4+O.V B+^+C+e+'+D+E+F+G+H+I+J+K+L+M+B+V O.4+4+4+4+4+4+4+4+4+4+&.&.4+4+",
"4+4+d+d+]+]+&.&.4+4+4+4+4+4+< < < V 2+N+O+P+Q+R+R+Q+S+T+D+U+^ n+< < 4+4+4+4+4+4+4+4+4+4+&.&.4+4+",
"V+V+4+4+W+W+W+W+n+n+4+4+W+W+4+4+4+O...% { t.X+X+X+Y+t.{ $ %.]+n+n+n+4+4+W+W+4+4+4+4+V+V+4+4+4+4+",
"V+V+4+4+W+W+W+W+n+n+4+4+W+W+4+4+4+< Z+n n 3 3 3 `+`+3  @.@%++@W+n+n+4+4+W+W+4+4+4+4+V+V+4+4+4+4+",
"n+n+@@@@n+n+4+4+V+V+#@#@@@@@< < +@+@n+Z+Z+$@%@%@%@%@$@Z+< n+W+4+V+V+#@#@@@@@< < +@+@n+n+@@@@n+n+",
"n+n+@@@@n+n+4+4+V+V+#@#@@@@@< < +@+@n+n+@@@@n+n+n+n+@@@@n+n+4+4+V+V+#@#@@@@@< < +@+@n+n+@@@@n+n+",
"< < n+n+< < V+V+< < n+n+< < < < < < < < < < +@+@< < n+n+< < V+V+< < n+n+< < < < < < < < < < +@+@",
"< < n+n+< < V+V+< < n+n+< < < < < < < < < < +@+@< < n+n+< < V+V+< < n+n+< < < < < < < < < < +@+@",
"%@%@< < < < < < Z+Z+%+%+< < Z+Z+Z+Z+%+%+F.F.< Z+%@%@< < < < < < Z+Z+%+%+< < Z+Z+Z+Z+%+%+F.F.< Z+",
"%@%@< < < < < < Z+Z+%+%+< < Z+Z+Z+Z+%+%+F.F.Z+Z+%@%@< < < < < < Z+Z+%+%+< < Z+Z+Z+Z+%+%+F.F.Z+Z+",
"%@%@&@&@ @ @ @ @F.F.$@$@F.F.Z+Z+%@%@Z+Z+ @ @ @ @%@%@&@&@ @ @ @ @F.F.$@$@F.F.Z+Z+%@%@Z+Z+ @ @ @ @",
"%@%@&@&@ @ @ @ @F.F.$@$@F.F.Z+Z+%@%@Z+Z+ @ @ @ @%@%@&@&@ @ @ @ @F.F.$@$@F.F.Z+Z+%@%@Z+Z+ @ @ @ @"};
