/* XPM */
static char * hide_inactive_xpm[] = {
"48 48 278 2",
"  	c None",
". 	c #000000",
"+ 	c #6D7077",
"@ 	c #4D4F52",
"# 	c #4C4E51",
"$ 	c #4D4E51",
"% 	c #4C4F51",
"& 	c #4D4E52",
"* 	c #4D4F51",
"= 	c #4C4E50",
"- 	c #4B4E51",
"; 	c #4E4F53",
"> 	c #4E5053",
", 	c #4E5052",
"' 	c #4D5052",
") 	c #4B4D50",
"! 	c #4C4D51",
"~ 	c #4B4E50",
"{ 	c #4A4D4E",
"] 	c #494B4D",
"^ 	c #47494B",
"/ 	c #46484B",
"( 	c #46474B",
"_ 	c #484A4C",
": 	c #4A4C4F",
"< 	c #4C4E52",
"[ 	c #4B4D51",
"} 	c #4C4D50",
"| 	c #4A4D4F",
"1 	c #454849",
"2 	c #404243",
"3 	c #3B3D3F",
"4 	c #38393B",
"5 	c #363839",
"6 	c #353738",
"7 	c #353639",
"8 	c #36373A",
"9 	c #393A3B",
"0 	c #3C3D3F",
"a 	c #404244",
"b 	c #45474A",
"c 	c #4A4C50",
"d 	c #4B4D4F",
"e 	c #434647",
"f 	c #3C3F41",
"g 	c #37393A",
"h 	c #323335",
"i 	c #2E2F31",
"j 	c #2B2D2E",
"k 	c #2A2C2D",
"l 	c #2A2B2E",
"m 	c #2C2C2F",
"n 	c #37383B",
"o 	c #3C3E41",
"p 	c #434548",
"q 	c #48494D",
"r 	c #4B4C4F",
"s 	c #47484B",
"t 	c #3D3E41",
"u 	c #363739",
"v 	c #282A2B",
"w 	c #262829",
"x 	c #262728",
"y 	c #262629",
"z 	c #272729",
"A 	c #28292B",
"B 	c #2A2B2D",
"C 	c #313335",
"D 	c #404043",
"E 	c #353638",
"F 	c #2C2D2F",
"G 	c #2D2E30",
"H 	c #37383A",
"I 	c #38383A",
"J 	c #2C2E2F",
"K 	c #404143",
"L 	c #4A4D50",
"M 	c #48494B",
"N 	c #3D3E40",
"O 	c #2F3032",
"P 	c #343536",
"Q 	c #47484A",
"R 	c #555658",
"S 	c #5C5E60",
"T 	c #606364",
"U 	c #616264",
"V 	c #5D5F61",
"W 	c #56585A",
"X 	c #2D2F30",
"Y 	c #2E3032",
"Z 	c #3D3F41",
"` 	c #474A4C",
" .	c #4A4C4E",
"..	c #434547",
"+.	c #37393B",
"@.	c #444648",
"#.	c #565759",
"$.	c #626366",
"%.	c #696B6D",
"&.	c #6C6F71",
"*.	c #6A6B6E",
"=.	c #636568",
"-.	c #585A5C",
";.	c #484A4B",
">.	c #3A3C3D",
",.	c #2F3133",
"'.	c #2B2D2F",
").	c #36383A",
"!.	c #424548",
"~.	c #494C4F",
"{.	c #4B4C50",
"].	c #494B4E",
"^.	c #444649",
"/.	c #3D3F40",
"(.	c #323435",
"_.	c #535456",
":.	c #5F6163",
"<.	c #5E5F62",
"[.	c #5D5E61",
"}.	c #5D5D60",
"|.	c #5C5D60",
"1.	c #5C5E61",
"2.	c #5D5F62",
"3.	c #5E6063",
"4.	c #545557",
"5.	c #2D2E2F",
"6.	c #47494D",
"7.	c #3F4144",
"8.	c #2E3031",
"9.	c #444547",
"0.	c #66676A",
"a.	c #58595C",
"b.	c #555659",
"c.	c #545457",
"d.	c #535457",
"e.	c #545659",
"f.	c #57595C",
"g.	c #66686A",
"h.	c #5E5F61",
"i.	c #2E2F30",
"j.	c #2F3031",
"k.	c #46484A",
"l.	c #333436",
"m.	c #464748",
"n.	c #525355",
"o.	c #57595B",
"p.	c #585A5D",
"q.	c #555759",
"r.	c #535557",
"s.	c #525456",
"t.	c #555758",
"u.	c #525356",
"v.	c #464649",
"w.	c #2C2D2E",
"x.	c #464749",
"y.	c #383A3C",
"z.	c #343537",
"A.	c #4E4F51",
"B.	c #595A5C",
"C.	c #535558",
"D.	c #515355",
"E.	c #505254",
"F.	c #505355",
"G.	c #505253",
"H.	c #505255",
"I.	c #595A5D",
"J.	c #4E4F52",
"K.	c #393A3C",
"L.	c #494C4E",
"M.	c #4A4B4F",
"N.	c #454749",
"O.	c #333536",
"P.	c #4F5154",
"Q.	c #4F5254",
"R.	c #505155",
"S.	c #535458",
"T.	c #292A2C",
"U.	c #2E2E30",
"V.	c #444749",
"W.	c #323436",
"X.	c #56585B",
"Y.	c #4F5153",
"Z.	c #4F5053",
"`.	c #4E5154",
" +	c #4F5054",
".+	c #515356",
"++	c #57585B",
"@+	c #4D4E50",
"#+	c #29292B",
"$+	c #4A4B4E",
"%+	c #2C2E30",
"&+	c #292A2B",
"*+	c #484B4D",
"=+	c #525557",
"-+	c #505154",
";+	c #4D5053",
">+	c #4E5153",
",+	c #494A4D",
"'+	c #333335",
")+	c #2A2A2C",
"!+	c #47494A",
"~+	c #4D5051",
"{+	c #444548",
"]+	c #323234",
"^+	c #373A3B",
"/+	c #3A3B3D",
"(+	c #303133",
"_+	c #303234",
":+	c #3F4143",
"<+	c #3E3F41",
"[+	c #303233",
"}+	c #4A4B4D",
"|+	c #2D2F31",
"1+	c #2F3132",
"2+	c #414345",
"3+	c #343637",
"4+	c #434447",
"5+	c #3A3B3E",
"6+	c #313234",
"7+	c #464849",
"8+	c #4D4F50",
"9+	c #454649",
"0+	c #484A4D",
"a+	c #494A4E",
"b+	c #424346",
"c+	c #2D2D30",
"d+	c #454748",
"e+	c #4B4B4E",
"f+	c #444748",
"g+	c #2B2C2E",
"h+	c #393B3D",
"i+	c #3E4041",
"j+	c #454648",
"k+	c #3E4042",
"l+	c #393A3D",
"m+	c #525457",
"n+	c #484B4C",
"o+	c #515255",
"p+	c #3C3E3F",
"q+	c #424345",
"r+	c #313334",
"s+	c #434446",
"t+	c #48494C",
"u+	c #313233",
"v+	c #303132",
"w+	c #393B3C",
"x+	c #474A4D",
"y+	c #47494C",
"z+	c #313435",
"A+	c #2A2B2C",
"B+	c #2B2C2D",
"C+	c #525455",
"D+	c #474A4B",
"E+	c #55585A",
"F+	c #515456",
"G+	c #46494A",
"H+	c #3D4041",
"I+	c #3D3F42",
"J+	c #515455",
"K+	c #555859",
"L+	c #525556",
"M+	c #575A5C",
"N+	c #4F5253",
"O+	c #494B4C",
"P+	c #3C3E40",
"Q+	c #575A5B",
"R+	c #545558",
"S+	c #494C4D",
"T+	c #545658",
"U+	c #5E6062",
"V+	c #5C5E5F",
"W+	c #595B5D",
"X+	c #505054",
"Y+	c #46494B",
"Z+	c #4C4F50",
"`+	c #45484A",
" @	c #46474A",
".@	c #45484B",
". . . . . . . . . . . . . . . . . . . . . . . . . . . . . . . . . . . . . . . . . . . . . . . . ",
"+ + + + + + + + + + + + + + + + + + + + + + + + + + + + + + + + + + + + + + + + + + + + + + + + ",
"@ @ @ @ @ @ @ @ @ @ @ @ @ @ @ @ @ @ @ @ @ @ @ @ @ @ @ @ @ @ @ @ @ @ @ @ @ @ @ @ @ @ @ @ @ @ @ @ ",
"@ @ @ @ @ @ @ @ @ @ @ @ @ @ @ @ @ @ @ @ @ @ @ @ @ @ @ @ @ @ @ @ @ @ @ @ @ @ @ @ @ @ @ @ @ @ @ @ ",
"@ @ @ @ @ @ @ @ @ @ @ @ @ @ @ @ @ @ @ @ @ @ @ @ @ @ @ @ @ @ @ @ @ @ @ @ @ @ @ @ @ @ @ @ @ @ @ @ ",
"@ @ @ @ @ @ @ @ @ @ @ @ @ @ @ @ @ @ @ @ @ @ @ @ @ @ @ @ @ @ @ @ @ @ @ @ @ @ @ @ @ @ @ @ @ @ @ @ ",
"@ @ @ @ @ @ @ @ @ @ @ @ @ @ @ @ @ @ @ @ @ @ @ @ @ @ @ @ @ @ @ @ @ @ @ @ @ @ @ @ @ @ @ @ @ @ @ @ ",
"@ @ @ @ @ @ @ @ @ @ @ @ @ @ @ @ @ @ @ @ @ @ @ @ @ @ @ @ @ @ @ @ @ @ @ @ @ @ @ @ @ @ @ @ @ @ @ @ ",
"@ @ @ @ @ @ @ @ @ @ @ @ @ @ @ @ @ @ @ @ @ @ @ @ @ @ @ @ @ @ @ @ @ @ @ @ @ @ @ @ @ @ @ @ @ @ @ @ ",
"# # # # # # # # $ $ # # # # % % # # % % # # & @ @ @ * % # # # # $ $ # # # # % % # # % % # # # # ",
"# # = = = = # # # # # # # # # # - # * * @ @ ; ; > > , ' * * # # # # # # # # # # - - = = ) ) ! ! ",
"# # = = = = # # # # # # # # # # # ~ { ] ^ / ( ( / / ^ _ ] : # < # # # # # # # # - - = = ) ) ! ! ",
"[ [ = = [ [ [ [ } } } } ) ) = % ' | 1 2 3 4 5 6 7 8 9 0 a b c @ # } } } ) ) = = ~ ~ ~ ~ ) ) ~ ~ ",
"[ [ = = [ [ [ [ } } } } ) ) = d _ e f g h i j k l m i h n o p q r } } } ) ) = = ~ ~ ~ ~ ) ) ~ ~ ",
"} } ) ) ) ) ) ) ) ) ) ) ) ) } s t u h i k v w x y z A B i C 8 t s } } ) ) ) ) ) } } ) ) ~ ~ ) ) ",
"} } ) ) ) ) ) ) ) ) ) ) = : s D E i F G h 6 H 4 4 I E h i J i E K s : - ) ) ) ) } } ) ) ~ ~ ) ) ",
") ) ) ) d d L L ) ) L ~ # M N E O F k P Q R S T U V W ] g X J Y 7 Z ` # ) d ) ) ) ) | | d d L L ",
") ) ) ) d d L L ) ) L L  ...u i F O +.@.#.$.%.&.&.*.=.-.;.>.,.'.Y ).!.~.| d ) ) ) ) | | d d L L ",
": : : : d d r r r {.[ ].^./.(.J j 4 _.:.<.[.}.}.|.1.2.3.U 4.9 j 5.(.Z ^.].~ | | d d : : r r r r ",
": : : : d d r r r r [ 6.7.+.8.X P 9.[.0.<.a.b.c.d.e.f.V g.h.9.P i.j.+.7.` ~ | | d d : : r r r r ",
": :  . .: : : : : r ) k.0 l.F h m.n.o.p.q.r.s.n.n.s._.t.-.f.u.v.h w.l.3 / - L :  . .: : : : : : ",
": :  . .: : : : : | = x.y.O B z.A.B.C.D.E.E.E.F.F.E.G.E.H.C.I.J.z.B O K.b - | :  . .: : : : : : ",
"L.L.].].M.M. . .: d = N.).G v O.@ p.r.E.P.P.E.E.E.Q.P.P.R.S.I., z.T.U.H V.~ | L.].]. . .].]. . .",
"L.L.].].M.M. . .: r = N.5 J v W.~ X.D.Y.Z.P.P.P.Q.`.P. + +.+++@+l.#+G 5 V.~ | L.].]. . .].]. . .",
"L.L. . .].].$+$+$+r = 1 5 %+&+h *+=+-+J.J.@ , , ;+>+> > J.P.d.,+'+)+G 5 1 = : ].L.L.$+$+].].].].",
"L.L. . .].].$+$+$+r * !+4 8.B C @.' J.J.@ @ @ @ @ ~+~+@ @ @ J.{+]+B 8.^+!+* : ].L.L.$+$+].].].].",
"] ] ] ] ].].] ] ]  ., _ /+(+'._+:+_ } @ @ # # # # = = * @ ) ^ <+(+j [+>._ , : ].] ] ].].].].].].",
"] ] ] ] ].].] ] ]  ., }+<+z.|+1+y.2+] @ # # # = = = = = @ ,+K H 8.X 3+<+}+, : ] ] ] ].].].].].].",
"*+*+] ] ] ] *+*+,+$+A.r 4+5+6+G (+y.7+8+= } } ) d ~ = = = 9+).j.G 6+5+4+r J.$+,+] ] ] ] ,+,+,+,+",
"*+*+] ] ] ] *+*+0+$+} } a+b+E |+c+h <+d+M }+e+r | | L._ f+/._+g+G E b+].} } $+,+] ] ] ] ,+,+,+,+",
"*+*+0+0+*+*+0+0+_ 0+].# u.d h+,.G i 6+5 i+j+_ : : *+V.k+).6+X G O l+} m+# ].*+*+,+,+0+0+n+n+0+0+",
"*+*+0+0+0+*+0+0+_ _ _ ) C.o+..K.C G g+i 5 p+K b+q+2 p+5 8.j G r+4 s+H.C.) _ *+*+,+,+0+0+n+n+0+0+",
"_ _ _ _ t+t+` ` _ _ _  .Z.D.s.}+K.O G %+8.,.6+6+6+u+v+j.5.G 1+w+] D.E.,  ._ _ _ t+t+_ _ x+x+0+0+",
"_ _ _ _ t+t+` ` _ _ y+0+d Y.W s.j+3 5 z+Y F g+B A+B+w.8.h u 3 d+C+q.,  ._ _ _ _ t+t+_ _ x+x+0+0+",
"_ _ y+y+y+y+D+D+D+D+y+y+t+r -+r.E+F+G+H+5 6+Y G G j.6+8 I+/ J+K+L+>+ .y+t+t+_ _ ` ` D+D+_ _ ` ` ",
"_ _ y+y+y+y+D+D+D+D+y+y+s _ d E.-.M+N+O+9.K Z P+N <+:+..,+P.M+-.G.{ ` / y+t+_ _ ` ` D+D+_ _ ` ` ",
"^ ^ D+D+t+t+y+y+^ ^ ^ ^ ^ ^ _ L.= Y.D.r.W f.-.B.B.-.Q+W R+u.P.# S+_ ^ ^ ^ ^ ^ ^ ^ ^ ^ ^ y+y+^ ^ ",
"^ ^ D+D+t+t+y+y+^ ^ ^ ^ ^ ^ k.k.Q ] Y.T+p.S h.U+U+V V+W+R X+$+/ / k.^ ^ ^ ^ ^ ^ ^ ^ ^ ^ y+y+^ ^ ",
"Y+Y+^ ^ s s s s / / ^ ^ s s ^ ^ ^ ` *+ .~ $ * * * % Z+= r ,+t+s / / ^ ^ s s ^ ^ ^ ^ Y+Y+^ ^ ^ ^ ",
"Y+Y+^ ^ s s s s / / ^ ^ s s ^ ^ ^ ^ `+`+1 N.N.N.V.V.N.N. @ @s s / / ^ ^ s s ^ ^ ^ ^ Y+Y+^ ^ ^ ^ ",
"/ / G+G+/ / ^ ^ Y+Y+!+!+G+G+k.k.Q Q / / G+k.k..@.@`+k.k./ / s ^ Y+Y+!+!+G+G+k.k.Q Q / / G+G+/ / ",
"/ / G+G+/ / ^ ^ Y+Y+!+!+G+G+k.k.Q Q / / G+G+/ / / / G+G+/ / ^ ^ Y+Y+!+!+G+G+k.k.Q Q / / G+G+/ / ",
"k.k./ / k.k.Y+Y+k.k./ / k.k.k.k.k.k.k.k.k.k.Q Q k.k./ / k.k.Y+Y+k.k./ / k.k.k.k.k.k.k.k.k.k.Q Q ",
"k.k./ / k.k.Y+Y+k.k./ / k.k.k.k.k.k.k.k.k.k.Q Q k.k./ / k.k.Y+Y+k.k./ / k.k.k.k.k.k.k.k.k.k.Q Q ",
"b b k.k.k.k.k.k.`+`+ @ @k.k.`+`+`+`+ @ @x.x.k.`+b b k.k.k.k.k.k.`+`+ @ @k.k.`+`+`+`+ @ @x.x.k.`+",
"b b k.k.k.k.k.k.`+`+ @ @k.k.`+`+`+`+ @ @x.x.`+`+b b k.k.k.k.k.k.`+`+ @ @k.k.`+`+`+`+ @ @x.x.`+`+",
"b b 7+7+N.N.N.N.x.x.1 1 x.x.`+`+b b `+`+N.N.N.N.b b 7+7+N.N.N.N.x.x.1 1 x.x.`+`+b b `+`+N.N.N.N.",
"b b 7+7+N.N.N.N.x.x.1 1 x.x.`+`+b b `+`+N.N.N.N.b b 7+7+N.N.N.N.x.x.1 1 x.x.`+`+b b `+`+N.N.N.N."};
