/* XPM */
static char * hide_active_xpm[] = {
"48 48 388 2",
"  	c None",
". 	c #000000",
"+ 	c #6D7077",
"@ 	c #4D4F52",
"# 	c #4C4E51",
"$ 	c #4D4E52",
"% 	c #4D4E51",
"& 	c #4C4E52",
"* 	c #4C4F51",
"= 	c #4C4F52",
"- 	c #4D4F51",
"; 	c #4C4E50",
"> 	c #4B4E51",
", 	c #4E5052",
"' 	c #4E5053",
") 	c #4F5054",
"! 	c #4F5155",
"~ 	c #4F5154",
"{ 	c #4F5153",
"] 	c #4B4D50",
"^ 	c #4C4D51",
"/ 	c #4B4E50",
"( 	c #494B4D",
"_ 	c #47494B",
": 	c #454649",
"< 	c #434548",
"[ 	c #434447",
"} 	c #434547",
"| 	c #444648",
"1 	c #454749",
"2 	c #494B4E",
"3 	c #4B4D51",
"4 	c #4C4D50",
"5 	c #4D5052",
"6 	c #494C4E",
"7 	c #404345",
"8 	c #393A3C",
"9 	c #313334",
"0 	c #2C2D2F",
"a 	c #292A2C",
"b 	c #27282A",
"c 	c #292A2B",
"d 	c #2C2E2F",
"e 	c #323335",
"f 	c #393B3D",
"g 	c #414346",
"h 	c #494B4F",
"i 	c #4D4F53",
"j 	c #4A4C4E",
"k 	c #45484A",
"l 	c #3E4042",
"m 	c #343537",
"n 	c #2A2C2D",
"o 	c #222324",
"p 	c #1C1D1D",
"q 	c #181919",
"r 	c #161717",
"s 	c #181819",
"t 	c #1C1C1D",
"u 	c #2B2B2E",
"v 	c #343538",
"w 	c #3E3F43",
"x 	c #45474A",
"y 	c #4A4B4E",
"z 	c #444548",
"A 	c #353538",
"B 	c #121313",
"C 	c #0F1011",
"D 	c #0E0F10",
"E 	c #121213",
"F 	c #161617",
"G 	c #222224",
"H 	c #28292C",
"I 	c #38393C",
"J 	c #272729",
"K 	c #1D1C1E",
"L 	c #19191A",
"M 	c #252626",
"N 	c #2B2C2C",
"O 	c #2D2F30",
"P 	c #2F3031",
"Q 	c #2E2F30",
"R 	c #2B2C2D",
"S 	c #262627",
"T 	c #1D1D1E",
"U 	c #1A1A1B",
"V 	c #1C1D1E",
"W 	c #262729",
"X 	c #4B4D4F",
"Y 	c #4A4D50",
"Z 	c #343637",
"` 	c #272829",
" .	c #1E1E1F",
"..	c #171819",
"+.	c #4E4F4F",
"@.	c #666768",
"#.	c #737576",
"$.	c #797B7D",
"%.	c #7A7B7D",
"&.	c #747577",
"*.	c #68696B",
"=.	c #515253",
"-.	c #2F2F30",
";.	c #191A1B",
">.	c #1D1E1F",
",.	c #343638",
"'.	c #44474A",
").	c #4A4D4F",
"!.	c #3E4041",
"~.	c #292B2C",
"{.	c #1D1E1E",
"].	c #1F1F20",
"^.	c #48494B",
"/.	c #6A6B6C",
"(.	c #808283",
"_.	c #8C8D8F",
":.	c #929396",
"<.	c #929395",
"[.	c #8D8E90",
"}.	c #828386",
"|.	c #6D6E70",
"1.	c #4E4F50",
"2.	c #353536",
"3.	c #202122",
"4.	c #18191A",
"5.	c #292A2D",
"6.	c #3D4043",
"7.	c #484B4E",
"8.	c #4A4C4F",
"9.	c #4B4C4F",
"0.	c #484A4D",
"a.	c #414345",
"b.	c #222425",
"c.	c #303132",
"d.	c #616264",
"e.	c #7A7A7C",
"f.	c #797A7C",
"g.	c #78797B",
"h.	c #77797B",
"i.	c #797A7D",
"j.	c #7C7C7E",
"k.	c #636465",
"l.	c #1A1A1C",
"m.	c #232326",
"n.	c #414245",
"o.	c #484B4D",
"p.	c #4B4C50",
"q.	c #46484B",
"r.	c #2C2D2E",
"s.	c #1B1C1D",
"t.	c #28292A",
"u.	c #464748",
"v.	c #757778",
"w.	c #87888A",
"x.	c #717274",
"y.	c #6C6D6F",
"z.	c #696A6C",
"A.	c #686A6C",
"B.	c #6A6D6F",
"C.	c #6F7274",
"D.	c #767778",
"E.	c #1C1C1E",
"F.	c #1D1E20",
"G.	c #2C2C2F",
"H.	c #333435",
"I.	c #242526",
"J.	c #494A4A",
"K.	c #616263",
"L.	c #6C6E70",
"M.	c #707274",
"N.	c #6B6C6F",
"O.	c #67696C",
"P.	c #66686B",
"Q.	c #65676A",
"R.	c #66686A",
"S.	c #67696B",
"T.	c #6B6D6E",
"U.	c #717374",
"V.	c #6D6F70",
"W.	c #606163",
"X.	c #48494A",
"Y.	c #333436",
"Z.	c #444649",
"`.	c #434546",
" +	c #1E1F20",
".+	c #151617",
"++	c #595A5B",
"@+	c #6E6F71",
"#+	c #67696A",
"$+	c #636567",
"%+	c #626467",
"&+	c #626466",
"*+	c #646568",
"=+	c #4A4B4F",
"-+	c #424445",
";+	c #131415",
">+	c #28292B",
",+	c #5A5B5D",
"'+	c #656668",
")+	c #606164",
"!+	c #606264",
"~+	c #606165",
"{+	c #656669",
"]+	c #6E7072",
"^+	c #5A5C5D",
"/+	c #282A2B",
"(+	c #414446",
"_+	c #424446",
":+	c #2A2B2C",
"<+	c #1A1B1C",
"[+	c #57585A",
"}+	c #6B6C6E",
"|+	c #626365",
"1+	c #5E5F61",
"2+	c #5E5F62",
"3+	c #5E6062",
"4+	c #5E5E62",
"5+	c #626266",
"6+	c #57595A",
"7+	c #2A2B2D",
"8+	c #1B1B1C",
"9+	c #141516",
"0+	c #262728",
"a+	c #505253",
"b+	c #636566",
"c+	c #5C5C5F",
"d+	c #5B5C5F",
"e+	c #5B5D5F",
"f+	c #5C5D5F",
"g+	c #636467",
"h+	c #505153",
"i+	c #2D2E2F",
"j+	c #474A4B",
"k+	c #595B5D",
"l+	c #5A5A5D",
"m+	c #595A5D",
"n+	c #47484A",
"o+	c #515355",
"p+	c #484A4B",
"q+	c #313233",
"r+	c #212223",
"s+	c #3D3E40",
"t+	c #555659",
"u+	c #58595C",
"v+	c #57595B",
"w+	c #56585A",
"x+	c #565859",
"y+	c #585A5C",
"z+	c #545658",
"A+	c #4D4E50",
"B+	c #3C3D3F",
"C+	c #222323",
"D+	c #191A1A",
"E+	c #484A4C",
"F+	c #515356",
"G+	c #4B4C4E",
"H+	c #37383A",
"I+	c #202022",
"J+	c #313133",
"K+	c #404243",
"L+	c #555759",
"M+	c #545657",
"N+	c #555758",
"O+	c #1F2020",
"P+	c #37393A",
"Q+	c #3F4043",
"R+	c #313234",
"S+	c #303133",
"T+	c #535558",
"U+	c #535457",
"V+	c #535456",
"W+	c #525355",
"X+	c #515354",
"Y+	c #515455",
"Z+	c #525555",
"`+	c #535556",
" @	c #2E3030",
".@	c #1F2121",
"+@	c #323234",
"@@	c #404143",
"#@	c #494A4D",
"$@	c #4F5053",
"%@	c #3D3F41",
"&@	c #1D1D1F",
"*@	c #252627",
"=@	c #393B3C",
"-@	c #464749",
";@	c #4A4B4D",
">@	c #4E4F52",
",@	c #4E5153",
"'@	c #4E5152",
")@	c #4D4F50",
"!@	c #4A4C4D",
"~@	c #464849",
"{@	c #3E3F41",
"]@	c #585A5D",
"^@	c #303233",
"/@	c #1E1E20",
"(@	c #232425",
"_@	c #1C1E1F",
":@	c #1B1C1E",
"<@	c #1F2021",
"[@	c #484B4C",
"}@	c #2F3132",
"|@	c #242426",
"1@	c #3B3D3F",
"2@	c #3E4043",
"3@	c #3E4143",
"4@	c #353637",
"5@	c #2B2B2D",
"6@	c #232426",
"7@	c #404142",
"8@	c #55575A",
"9@	c #5A5C5F",
"0@	c #48494C",
"a@	c #474A4C",
"b@	c #47494C",
"c@	c #58595B",
"d@	c #4B4C4D",
"e@	c #1E2021",
"f@	c #232324",
"g@	c #1F1F21",
"h@	c #4A4C4C",
"i@	c #525456",
"j@	c #474A4D",
"k@	c #545557",
"l@	c #5F6062",
"m@	c #595A5C",
"n@	c #2B2D2E",
"o@	c #242627",
"p@	c #202021",
"q@	c #252527",
"r@	c #2B2C2E",
"s@	c #343536",
"t@	c #424545",
"u@	c #585A5B",
"v@	c #5D5F61",
"w@	c #535557",
"x@	c #555658",
"y@	c #5B5D5E",
"z@	c #5E6162",
"A@	c #575A5B",
"B@	c #383A3B",
"C@	c #232526",
"D@	c #38383B",
"E@	c #46484A",
"F@	c #575A5A",
"G@	c #5E6161",
"H@	c #595C5C",
"I@	c #535657",
"J@	c #47484C",
"K@	c #494A4C",
"L@	c #626566",
"M@	c #555859",
"N@	c #4B4D4E",
"O@	c #3B3D3E",
"P@	c #353738",
"Q@	c #363738",
"R@	c #38393A",
"S@	c #3B3C3E",
"T@	c #56575A",
"U@	c #626565",
"V@	c #555858",
"W@	c #5C5E60",
"X@	c #5F6163",
"Y@	c #616365",
"Z@	c #646567",
"`@	c #646566",
" #	c #616464",
".#	c #5F6262",
"+#	c #5D5E61",
"@#	c #545759",
"##	c #636568",
"$#	c #6D6F71",
"%#	c #686B6C",
"&#	c #646667",
"*#	c #55565A",
"=#	c #46494B",
"-#	c #47484B",
";#	c #505254",
">#	c #505355",
",#	c #4F5152",
"'#	c #444749",
")#	c #434648",
"!#	c #46474A",
"~#	c #46494A",
"{#	c #47494A",
"]#	c #454849",
". . . . . . . . . . . . . . . . . . . . . . . . . . . . . . . . . . . . . . . . . . . . . . . . ",
"+ + + + + + + + + + + + + + + + + + + + + + + + + + + + + + + + + + + + + + + + + + + + + + + + ",
"@ @ @ @ @ @ @ @ @ @ @ @ @ @ @ @ @ @ @ @ @ @ @ @ @ @ @ @ @ @ @ @ @ @ @ @ @ @ @ @ @ @ @ @ @ @ @ @ ",
"@ @ @ @ @ @ @ @ @ @ @ @ @ @ @ @ @ @ @ @ @ @ @ @ @ @ @ @ @ @ @ @ @ @ @ @ @ @ @ @ @ @ @ @ @ @ @ @ ",
"@ @ @ @ @ @ @ @ @ @ @ @ @ @ @ @ @ @ @ @ @ @ @ @ @ @ @ @ @ @ @ @ @ @ @ @ @ @ @ @ @ @ @ @ @ @ @ @ ",
"@ @ @ @ @ @ @ @ @ @ @ @ @ @ @ @ @ @ @ @ @ @ @ @ @ @ @ @ @ @ @ @ @ @ @ @ @ @ @ @ @ @ @ @ @ @ @ @ ",
"@ @ @ @ @ @ @ @ @ @ @ @ @ @ @ @ @ @ @ @ @ @ @ @ @ @ @ @ @ @ @ @ @ @ @ @ @ @ @ @ @ @ @ @ @ @ @ @ ",
"# # $ $ % % & & @ @ * * $ $ = = # # * * @ @ & & # # $ $ % % & & @ @ * * $ $ = = # # * * @ @ & & ",
"# # # # # # # # % % # # # # * * # # * * # # # # # # # # # # # # % % # # # # * * # # * * # # # # ",
"# # # # # # # # % % # # # # * * # # * - @ @ @ @ @ @ @ @ - # # # % % # # # # * * # # * * # # # # ",
"# # ; ; ; ; # # # # # # # # # # > # @ , ' ' ) ! ! ~ { ' , - # # # # # # # # # # > > ; ; ] ] ^ ^ ",
"# # ; ; ; ; # # # # # # # # # # = / ( _ : < [ [ [ } | 1 _ 2 # & # # # # # # # # > > ; ; ] ] ^ ^ ",
"3 3 ; ; 3 3 3 3 4 4 4 4 ] ] ; - 5 6 7 8 9 0 a b b c d e f g h i % 4 4 4 ] ] ; ; / / / / ] ] / / ",
"3 3 ; ; 3 3 3 3 4 4 4 4 ] ] ; j k l m n o p q r r s t o u v w x y 4 4 4 ] ] ; ; / / / / ] ] / / ",
"4 4 ] ] ] ] ] ] ] ] ] ] ] ] 4 z A a o t r B C D D C E F t G H v z 4 4 ] ] ] ] ] 4 4 ] ] / / ] ] ",
"4 4 ] ] ] ] ] ] ] ] ] ] # 2 z I J K L t M N O P P Q R S T U V W I z 2 # ] ] ] ] 4 4 ] ] / / ] ] ",
"] ] ] ] X X Y Y ] ] Y > - 1 Z `  .s ..c +.@.#.$.%.&.*.=.-.t ;.>.b ,.'.= / X ] ] ] ] ).).X X Y Y ",
"] ] ] ] X X Y Y ] ] Y Y ( !.~.{.L ].P ^./.(._.:.<.[.}.|.1.2.3.4.>.5.6.7.).X ] ] ] ] ).).X X Y Y ",
"8.8.8.8.X X 9.9.9.] 3 0.a.Z b.;.4.c.d.e.f.f.g.g.h.h.i.%.j.k.c.4.l.m.v n.o./ Y ).X X 8.8.9.9.9.9.",
"8.8.8.8.X X 9.9.9.p.# q.f r.>.s.t.u.v.w.%.x.y.z.A.B.C.$.w.D.u.t.E.F.G.f q.* Y ).X X 8.8.9.9.9.9.",
"8.8.j j 8.8.8.8.8.] # | H.I.4.I.J.K.L.M.N.O.P.Q.Q.R.S.T.U.V.W.X.I.4.I.Y.Z.# ] 8.j j 8.8.8.8.8.8.",
"8.8.j j 8.8.8.8.8.] - `.Q  +.+t.++@+#+$+%+%+%+$+$+%+&+&+*+*.@+++t..+ +Q } = ] 8.j j 8.8.8.8.8.8.",
"6 6 2 2 =+=+j j 8.] - -+R s.;+>+,+@+'+)+)+)+d.d.!+!+)+)+~+{+]+^+/+;+s.R (+* ).6 2 2 j j 2 2 j j ",
"6 6 2 2 =+=+j j 8.] @ _+:+<+;+t.[+}+|+1+1+2+2+3+3+3+2+4+4+5+}+6+t.;+<+~.(+* ).6 2 2 j j 2 2 j j ",
"6 6 j j 2 2 y y y ] , } 7+8+9+0+a+b+1+c+d+d+d+e+e+e+f+f+d+4+g+h+0+9+8+7+} , ).2 6 6 y y 2 2 2 2 ",
"6 6 j j 2 2 y y y X { 1 i+>.F I.j+k+,+l+m+m+m+m+k+k+,+,+k+m+m+n+I.r >.i+1 { ] 2 6 6 y y 2 2 2 2 ",
"( ( ( ( 2 2 ( ( ( X o+p+q+r+;.o s+, t+u+v+w+w+w+w+x+x+6+y+z+A+B+C+D+r+q+p+o+] 2 ( ( 2 2 2 2 2 2 ",
"( ( ( ( 2 2 ( ( E+X F+G+H+t.>.I+J+K+{ w+L+z+z+M+M+M+M+N+w+, !.P O+{.t.P+G+F+] 0.( ( 2 2 2 2 2 2 ",
"o.o.( ( ( ( o.o.E+9.o+- Q+R+G T G S+E+T+U+V+W+X+X+Y+Z+`+z+_  @.@E.G +@@@- o+9.#@( ( ( ( #@#@#@#@",
"o.o.( ( ( ( o.0.E+j $@$@8.%@>+&@s.*@=@-@;@A+>@{ ,@'@)@!@~@8 b.;.E.>+{@9.' ' 8.E+( ( ( ( #@#@#@#@",
"o.o.0.0.o.o.0.0.E+#@8.~ ]@, ^@3.&@/@(@0 =@} j @ 5 6 } 8 0 (@_@:@<@S+@ ]@~ 8.( o.#@#@0.0.[@[@0.0.",
"o.o.0.0.0.o.0.0.E+E+E+' e+w+K+}@|@E.;. +R Z 1@2@3@1@4@5@ +;.V 6@P 7@8@9@' E+o.o.#@#@0.0.[@[@0.0.",
"E+E+E+E+0@0@a@a@E+E+b@X V+[+c@d@c.3.V V e@r+o (@(@f@r+g@E.V 3.}@h@6+w+i@X b@E+E+0@0@E+E+j@j@0.0.",
"E+E+E+E+0@0@a@a@E+E+_ ( A+k@l@m@`.Z n@o@<@s.L s s L t p@q@r@s@t@u@v@w@; ( _ E+E+0@0@E+E+j@j@0.0.",
"E+E+b@b@b@b@j+j+j+j+b@b@0@A+x@y@z@A@~@B@d C@e@V V <@I.0 D@E@F@G@H@I@/ 0@0@0@E+E+a@a@j+j+E+E+a@a@",
"E+E+b@b@b@b@j+j+j+j+b@J@q.K@- x+L@L@M@N@a.O@P+P@Q@R@S@a.9.T@L@U@V@; a@q._ 0@E+E+a@a@j+j+E+E+a@a@",
"_ _ j+j+0@0@b@b@_ _ _ _ _ _ E+X { z+y+W@X@Y@b+Z@Z@`@ #.#+#m+z+~ X E+_ _ _ _ _ _ _ _ _ _ b@b@_ _ ",
"_ _ j+j+0@0@b@b@_ _ _ _ _ _ E@E@E@X @#v@##A.y.@+$#y.%#&#1+*#] q.E@E@_ _ _ _ _ _ _ _ _ _ b@b@_ _ ",
"=#=#_ _ -#-#-#-#q.q._ _ -#-#_ _ _ E+).* ,@;#o+o+o+>#;#,#% 9.0@q.q.q._ _ -#-#_ _ _ _ =#=#_ _ _ _ ",
"=#=#_ _ -#-#-#-#q.q._ _ -#-#_ _ _ E@k '#'#| | | )#)#| 1 : !#n+-#q.q._ _ -#-#_ _ _ _ =#=#_ _ _ _ ",
"q.q.~#~#q.q._ _ =#=#{#{#~#~#E@E@n+n+q.k k ]#x x x x ]#k E@q.-#_ =#=#{#{#~#~#E@E@n+n+q.q.~#~#q.q.",
"q.q.~#~#q.q._ _ =#=#{#{#~#~#E@E@n+n+q.q.~#~#q.q.q.q.~#~#q.q._ _ =#=#{#{#~#~#E@E@n+n+q.q.~#~#q.q.",
"E@E@q.q.E@E@=#=#E@E@q.q.E@E@E@E@E@E@E@E@E@E@n+n+E@E@q.q.E@E@=#=#E@E@q.q.E@E@E@E@E@E@E@E@E@E@n+n+",
"E@E@q.q.E@E@=#=#E@E@q.q.E@E@E@E@E@E@E@E@E@E@n+n+E@E@q.q.E@E@=#=#E@E@q.q.E@E@E@E@E@E@E@E@E@E@n+n+",
"x x E@E@E@E@E@E@k k !#!#E@E@k k k k !#!#-@-@E@k x x E@E@E@E@E@E@k k !#!#E@E@k k k k !#!#-@-@E@k ",
"x x E@E@E@E@E@E@k k !#!#E@E@k k k k !#!#-@-@k k x x E@E@E@E@E@E@k k !#!#E@E@k k k k !#!#-@-@k k ",
"x x ~@~@1 1 1 1 -@-@]#]#-@-@k k x x k k 1 1 1 1 x x ~@~@1 1 1 1 -@-@]#]#-@-@k k x x k k 1 1 1 1 ",
"x x ~@~@1 1 1 1 -@-@]#]#-@-@k k x x k k 1 1 1 1 x x ~@~@1 1 1 1 -@-@]#]#-@-@k k x x k k 1 1 1 1 "};
