/* XPM */
static char * menu_inactive_original_xpm[] = {
"32 44 105 2",
"  	c None",
". 	c #4D4F52",
"+ 	c #4C4E51",
"@ 	c #4B4D50",
"# 	c #4A4C4F",
"$ 	c #4B4D4F",
"% 	c #494B4D",
"& 	c #484A4C",
"* 	c #494B4E",
"= 	c #4A4C4E",
"- 	c #4D4F51",
"; 	c #525456",
"> 	c #4E5052",
", 	c #4C4E50",
"' 	c #4A4D4F",
") 	c #484A4D",
"! 	c #515356",
"~ 	c #66676A",
"{ 	c #696A6D",
"] 	c #595A5D",
"^ 	c #4F5053",
"/ 	c #46484B",
"( 	c #555759",
"_ 	c #747678",
": 	c #7E7F82",
"< 	c #737476",
"[ 	c #646567",
"} 	c #505255",
"| 	c #474A4C",
"1 	c #747578",
"2 	c #46484A",
"3 	c #57595B",
"4 	c #7C7E80",
"5 	c #939596",
"6 	c #9C9D9E",
"7 	c #8A8B8C",
"8 	c #5C5D60",
"9 	c #898B8C",
"0 	c #939496",
"a 	c #7C7E7F",
"b 	c #535557",
"c 	c #707274",
"d 	c #8A8C8D",
"e 	c #A1A2A3",
"f 	c #9A9B9C",
"g 	c #747577",
"h 	c #5B5D5F",
"i 	c #4F5153",
"j 	c #4F5152",
"k 	c #5B5C5E",
"l 	c #A1A3A4",
"m 	c #8A8B8D",
"n 	c #707273",
"o 	c #626467",
"p 	c #828485",
"q 	c #959597",
"r 	c #999A9B",
"s 	c #87888A",
"t 	c #5E6063",
"u 	c #5D5F61",
"v 	c #868789",
"w 	c #989A9B",
"x 	c #959798",
"y 	c #838587",
"z 	c #636467",
"A 	c #505254",
"B 	c #47494C",
"C 	c #424447",
"D 	c #4D4E51",
"E 	c #66686A",
"F 	c #828385",
"G 	c #9FA0A1",
"H 	c #9B9C9D",
"I 	c #75777A",
"J 	c #626466",
"K 	c #9A9B9D",
"L 	c #9EA0A2",
"M 	c #828486",
"N 	c #67696C",
"O 	c #484A4E",
"P 	c #616365",
"Q 	c #97989A",
"R 	c #959698",
"S 	c #939597",
"T 	c #939497",
"U 	c #97999B",
"V 	c #86888A",
"W 	c #616366",
"X 	c #4E5053",
"Y 	c #6B6C6F",
"Z 	c #848688",
"` 	c #A5A6A8",
" .	c #9A9C9E",
"..	c #858688",
"+.	c #6B6D6F",
"@.	c #484B4D",
"#.	c #47494B",
"$.	c #868889",
"%.	c #424446",
"&.	c #6E7071",
"*.	c #7D7F81",
"=.	c #55575A",
"-.	c #444649",
";.	c #434548",
">.	c #454749",
"                                                                ",
"                                                                ",
"                                                                ",
"                                                                ",
". . . . . . . . . . . . . . . . . . . . . . . . . . . . . . . . ",
". . . . . . . . . . . . . . . . . . . . . . . . . . . . . . . . ",
". . . . . . . . . . . . . . . . . . . . . . . . . . . . . . . . ",
". . . . . . . . . . . . . . . . . . . . . . . . . . . . . . . . ",
"+ + + + + + + + + + + + + + + + + + + + + + + + + + + + + + + + ",
"+ + + + + + + + + + + + + + + + + + + + + + + + + + + + + + + + ",
"+ + + + + + + + + + + + + + + + + + + + + + + + + + + + + + + + ",
"+ + + + + + + + + + + + + + + + + + + + + + + + + + + + + + + + ",
"@ @ @ @ @ @ @ @ @ @ @ @ @ @ @ @ @ @ @ @ @ @ @ @ @ @ @ @ @ @ @ @ ",
"@ @ @ @ @ @ @ @ @ @ @ @ @ @ @ @ @ @ @ @ @ @ @ @ @ @ @ @ @ @ @ @ ",
"@ @ @ @ @ @ @ @ @ @ @ @ @ @ @ @ @ @ @ @ @ @ @ @ @ @ @ @ @ @ @ @ ",
"@ @ @ @ @ @ @ @ # # # @ @ @ @ @ @ @ @ @ @ # # # @ @ @ @ @ @ @ @ ",
"$ $ $ $ $ $ $ # % & * = $ $ $ $ $ $ $ $ = * & % # $ $ $ $ $ $ $ ",
"$ $ $ $ $ $ = - ; ; > , $ ' $ $ $ $ ' $ , > ; ; - = $ $ $ $ $ $ ",
"# # # # # * ) ! ~ { ] ^ $ * # # # # * $ ^ ] { ~ ! ) * # # # # # ",
"# # # # # * / ( _ : < [ } | * = = * | } [ < : 1 ( / * # # # # # ",
"= = = = = % 2 3 4 5 6 7 8 2 & % % & 2 8 9 6 0 a 3 2 % = = = = = ",
"= = = = = % 2 b c d e f g h i % % j k g f l m n b 2 % = = = = = ",
"* * * * * * ) $ } o p q r s t = % u v w x y z A $ ) * * * * * * ",
"* * * * * * * B C D E F G H I o J _ K L M N . C B * * * * * * * ",
"* * * * * * * O B ) . P v Q R S T R U V W . O B ) * * * * * * * ",
"* * * * * * * * * B C X Y Z K ` `  ...+.X C B * * * * * * * * * ",
"% % % % % % % % % @.#.% > J $.w w $.J > % #.) % % % % % % % % % ",
"% % % % % % % % % % % #.%.i &.*.*.&.i %.#.% % % % % % % % % % % ",
") ) ) ) ) ) ) ) ) ) ) & / * ! =.=.! * / & ) ) ) ) ) ) ) ) ) ) ) ",
") ) ) ) ) ) ) ) ) ) ) ) ) B -.;.;.-.B ) ) ) ) ) ) ) ) ) ) ) ) ) ",
"& & & & & & & & & & & & & & #./ / #.& & & & & & & & & & & & & & ",
"& & & & & & & & & & & & & & & & & & & & & & & & & & & & & & & & ",
"B B B B B B B B B B B B B B B B B B B B B B B B B B B B B B B B ",
"B B B B B B B B B B B B B B B B B B B B B B B B B B B B B B B B ",
"#.#.#.#.#.#.#.#.#.#.#.#.#.#.#.#.#.#.#.#.#.#.#.#.#.#.#.#.#.#.#.#.",
"#.#.#.#.#.#.#.#.#.#.#.#.#.#.#.#.#.#.#.#.#.#.#.#.#.#.#.#.#.#.#.#.",
"#.#.#.#.#.#.#.#.#.#.#.#.#.#.#.#.#.#.#.#.#.#.#.#.#.#.#.#.#.#.#.#.",
"#.#.#.#.#.#.#.#.#.#.#.#.#.#.#.#.#.#.#.#.#.#.#.#.#.#.#.#.#.#.#.#.",
"2 2 2 2 2 2 2 2 2 2 2 2 2 2 2 2 2 2 2 2 2 2 2 2 2 2 2 2 2 2 2 2 ",
"2 2 2 2 2 2 2 2 2 2 2 2 2 2 2 2 2 2 2 2 2 2 2 2 2 2 2 2 2 2 2 2 ",
"2 2 2 2 2 2 2 2 2 2 2 2 2 2 2 2 2 2 2 2 2 2 2 2 2 2 2 2 2 2 2 2 ",
"2 2 2 2 2 2 2 2 2 2 2 2 2 2 2 2 2 2 2 2 2 2 2 2 2 2 2 2 2 2 2 2 ",
">.>.>.>.>.>.>.>.>.>.>.>.>.>.>.>.>.>.>.>.>.>.>.>.>.>.>.>.>.>.>.>.",
">.>.>.>.>.>.>.>.>.>.>.>.>.>.>.>.>.>.>.>.>.>.>.>.>.>.>.>.>.>.>.>."};
