/* XPM */
static char * stick_active_xpm[] = {
"32 44 96 2",
"  	c None",
". 	c #4D4F52",
"+ 	c #4C4E51",
"@ 	c #4B4D50",
"# 	c #494B4E",
"$ 	c #484A4D",
"% 	c #434548",
"& 	c #404245",
"* 	c #4A4C4F",
"= 	c #515356",
"- 	c #626467",
"; 	c #6B6C6F",
"> 	c #A6A7A9",
", 	c #C8C9CA",
"' 	c #47494C",
") 	c #6A6C6E",
"! 	c #C6C6C7",
"~ 	c #F4F3F4",
"{ 	c #4B4D4F",
"] 	c #484A4C",
"^ 	c #414345",
"/ 	c #696B6C",
"( 	c #C1C1C1",
"_ 	c #ECECEC",
": 	c #4A4C4E",
"< 	c #47494B",
"[ 	c #444648",
"} 	c #3D3F42",
"| 	c #656769",
"1 	c #BDBDBE",
"2 	c #E9E9E8",
"3 	c #424447",
"4 	c #3F4144",
"5 	c #3C3F42",
"6 	c #35373B",
"7 	c #5F6164",
"8 	c #BBBCBD",
"9 	c #E9E9E9",
"0 	c #505255",
"a 	c #616366",
"b 	c #696B6D",
"c 	c #686A6C",
"d 	c #646669",
"e 	c #7E8082",
"f 	c #C3C4C4",
"g 	c #E5E6E5",
"h 	c #424446",
"i 	c #616365",
"j 	c #A5A7A8",
"k 	c #C5C6C6",
"l 	c #BFC1C1",
"m 	c #BCBDBE",
"n 	c #D4D5D5",
"o 	c #DDDEDE",
"p 	c #46484A",
"q 	c #3F4143",
"r 	c #6A6C6D",
"s 	c #C7C9C9",
"t 	c #F3F3F3",
"u 	c #EBECEC",
"v 	c #E8E9E8",
"w 	c #E8E9E9",
"x 	c #D9DADA",
"y 	c #45484A",
"z 	c #3E4043",
"A 	c #F3F4F3",
"B 	c #E5E6E6",
"C 	c #46484B",
"D 	c #414346",
"E 	c #606265",
"F 	c #A5A6A8",
"G 	c #BFC0C1",
"H 	c #BABCBC",
"I 	c #4F5154",
"J 	c #696A6D",
"K 	c #67696B",
"L 	c #646668",
"M 	c #5E6063",
"N 	c #3B3D40",
"O 	c #343639",
"P 	c #494B4D",
"Q 	c #45474A",
"R 	c #646667",
"S 	c #67696A",
"T 	c #454749",
"U 	c #C5C5C6",
"V 	c #606164",
"W 	c #A5A5A7",
"X 	c #C7C7C9",
"Y 	c #4E5052",
"Z 	c #606163",
"` 	c #696A6C",
" .	c #404244",
"..	c #3D3F41",
"+.	c #444749",
"@.	c #434648",
"                                                                ",
"                                                                ",
"                                                                ",
"                                                                ",
". . . . . . . . . . . . . . . . . . . . . . . . . . . . . . . . ",
". . . . . . . . . . . . . . . . . . . . . . . . . . . . . . . . ",
". . . . . . . . . . . . . . . . . . . . . . . . . . . . . . . . ",
". . . . . . . . . . . . . . . . . . . . . . . . . . . . . . . . ",
"+ + + + + + + + + + + + + + + + + + + + + + + + + + + + + + + + ",
"+ + + + + + + + + + + + + + + + + + + + + + + + + + + + + + + + ",
"+ + + + + + + + + + + + + + + + + + + + + + + + + + + + + + + + ",
"+ + + + + + + + + + + + + @ # $ $ # @ + + + + + + + + + + + + + ",
"@ @ @ @ @ @ @ @ @ @ @ @ + # % & & % # + @ @ @ @ @ @ @ @ @ @ @ @ ",
"@ @ @ @ @ @ @ @ @ @ @ * # = - ; ; - = # * @ @ @ @ @ @ @ @ @ @ @ ",
"@ @ @ @ @ @ @ @ @ @ @ $ % - > , , > - % $ @ @ @ @ @ @ @ @ @ @ @ ",
"@ @ @ @ @ @ @ @ @ @ @ ' & ) ! ~ ~ ! ) & ' @ @ @ @ @ @ @ @ @ @ @ ",
"{ { { { { { { { { { { ] ^ / ( _ _ ( / ^ ] { { { { { { { { { { { ",
"{ { { { { { { : ] < ' [ } | 1 2 2 1 | } [ ' < ] : { { { { { { { ",
"* * * * * * @ $ 3 4 & 5 6 7 8 9 9 8 7 6 5 & 4 3 $ @ * * * * * * ",
"* * * * * # $ 0 a b c d 7 e f g g f e 7 d c b a 0 $ # * * * * * ",
": : : : : ' h i j k l m 8 f n o o n f 8 m l k j i h ' : : : : : ",
": : : : : p q r s t u v w g o x x o g w v u t s r q p : : : : : ",
"# # # # # y z b s A u w 9 B o x x o B 9 w u A s b z y # # # # # ",
"# # # # # C D E F k G m H f n o o n f H m G k F E D C # # # # # ",
"# # # # # $ ' I E J K L M e f B B f e M L K J E I ' $ # # # # # ",
"# # # # # # : ' D z 4 N O M H 9 9 H M O N 4 z D ' : # # # # # # ",
"P P P P P P P $ C Q p h N R m w w m R N h p Q C $ P P P P P P P ",
"P P P P P P P P P P P Q z S G u u G S z Q P P P P P P P P P P P ",
"$ $ $ $ $ $ $ $ $ $ $ T } c U t t U c } T $ $ $ $ $ $ $ $ $ $ $ ",
"$ $ $ $ $ $ $ $ $ $ $ Q & V W X X W V & Q $ $ $ $ $ $ $ $ $ $ $ ",
"] ] ] ] ] ] ] ] ] ] ] ' p Y Z ` ` Z Y p ' ] ] ] ] ] ] ] ] ] ] ] ",
"] ] ] ] ] ] ] ] ] ] ] ] P p  ..... .p P ] ] ] ] ] ] ] ] ] ] ] ] ",
"' ' ' ' ' ' ' ' ' ' ' ' ' < +.@.@.+.< ' ' ' ' ' ' ' ' ' ' ' ' ' ",
"' ' ' ' ' ' ' ' ' ' ' ' ' ' ' ' ' ' ' ' ' ' ' ' ' ' ' ' ' ' ' ' ",
"< < < < < < < < < < < < < < < < < < < < < < < < < < < < < < < < ",
"< < < < < < < < < < < < < < < < < < < < < < < < < < < < < < < < ",
"< < < < < < < < < < < < < < < < < < < < < < < < < < < < < < < < ",
"< < < < < < < < < < < < < < < < < < < < < < < < < < < < < < < < ",
"p p p p p p p p p p p p p p p p p p p p p p p p p p p p p p p p ",
"p p p p p p p p p p p p p p p p p p p p p p p p p p p p p p p p ",
"p p p p p p p p p p p p p p p p p p p p p p p p p p p p p p p p ",
"p p p p p p p p p p p p p p p p p p p p p p p p p p p p p p p p ",
"T T T T T T T T T T T T T T T T T T T T T T T T T T T T T T T T ",
"T T T T T T T T T T T T T T T T T T T T T T T T T T T T T T T T "};
