/* XPM */
static char * maximize_toggled_active_35p_xpm[] = {
"35 35 7 1",
" 	c None",
".	c #000000",
"+	c #679ba5",
"@	c #345b65",
"#	c #124650",
"$	c #001b25",
"%	c #ffffff",
"...................................",
".++++++++++++++++++++++++++++++++@.",
".+###############################$.",
".+###############################$.",
".+###############################$.",
".+###############################$.",
".+###############################$.",
".+###############################$.",
".+###############%###############$.",
".+##############%%%##############$.",
".+#############%%%%%#############$.",
".+############%%%%%%%############$.",
".+###########%%%%%%%%%###########$.",
".+##########%%%%%#%%%%%##########$.",
".+#########%%%%%###%%%%%#########$.",
".+########%%%%%#####%%%%%########$.",
".+#######%%%%%#######%%%%%#######$.",
".+######%%%%%#########%%%%%######$.",
".+#######%%%%%#######%%%%%#######$.",
".+########%%%%%#####%%%%%########$.",
".+#########%%%%%###%%%%%#########$.",
".+##########%%%%%#%%%%%##########$.",
".+###########%%%%%%%%%###########$.",
".+############%%%%%%%############$.",
".+#############%%%%%#############$.",
".+##############%%%##############$.",
".+###############%###############$.",
".+###############################$.",
".+###############################$.",
".+###############################$.",
".+###############################$.",
".+###############################$.",
".+###############################$.",
".@$$$$$$$$$$$$$$$$$$$$$$$$$$$$$$$$.",
"..................................."};
