/* XPM */
static char * title_4_inactive_35p_xpm[] = {
"4 35 6 1",
" 	c None",
".	c #000000",
"+	c #adaa9e",
"@	c #58554f",
"#	c #585549",
"$	c #030000",
"....",
"+++@",
"###$",
"###$",
"###$",
"###$",
"###$",
"###$",
"###$",
"###$",
"###$",
"###$",
"###$",
"###$",
"###$",
"###$",
"###$",
"###$",
"###$",
"###$",
"###$",
"###$",
"###$",
"###$",
"###$",
"###$",
"###$",
"###$",
"###$",
"###$",
"###$",
"###$",
"###$",
"$$$$",
"...."};
