/* XPM */
static char * menu_active_35p_xpm[] = {
"35 35 7 1",
" 	c None",
".	c #000000",
"+	c #b1b1d4",
"@	c #717194",
"#	c #67678a",
"$	c #313154",
"%	c #ffffff",
"...................................",
".++++++++++++++++++++++++++++++++@.",
".+###############################$.",
".+###############################$.",
".+###############################$.",
".+###############################$.",
".+###############################$.",
".+###############################$.",
".+###############################$.",
".+###############################$.",
".+########%%%%%%%%%%%%%%%########$.",
".+########%%%%%%%%%%%%%%%########$.",
".+########%%%%%%%%%%%%%%%########$.",
".+###############################$.",
".+###############################$.",
".+###############################$.",
".+########%%%%%%%%%%%%%%%########$.",
".+########%%%%%%%%%%%%%%%########$.",
".+########%%%%%%%%%%%%%%%########$.",
".+###############################$.",
".+###############################$.",
".+###############################$.",
".+########%%%%%%%%%%%%%%%########$.",
".+########%%%%%%%%%%%%%%%########$.",
".+########%%%%%%%%%%%%%%%########$.",
".+###############################$.",
".+###############################$.",
".+###############################$.",
".+###############################$.",
".+###############################$.",
".+###############################$.",
".+###############################$.",
".+###############################$.",
".@$$$$$$$$$$$$$$$$$$$$$$$$$$$$$$$$.",
"..................................."};
