/* XPM */
static char * bottom_left_inactive_xpm[] = {
"6 6 6 1",
" 	c None",
".	c #848284",
"+	c #FFFFFF",
"@	c #CECFCE",
"#	c #646264",
"$	c #000000",
"..+@@@",
"..+@@@",
"..+@##",
"..+###",
"..$$$$",
".$$$$$"};
