/* XPM */
static char * bottom_active_xpm[] = {
"28 6 4 1",
" 	c None",
".	c #CECFCE",
"+	c #848284",
"@	c #000000",
"............................",
"............................",
"++++++++++++++++++++++++++++",
"++++++++++++++++++++++++++++",
"@@@@@@@@@@@@@@@@@@@@@@@@@@@@",
"@@@@@@@@@@@@@@@@@@@@@@@@@@@@"};
