/* XPM */
static char * maximize_inactive_xpm[] = {
"18 18 4 1",
" 	c None",
".	c #CECFCE",
"+	c #FFFFFF",
"@	c #848284",
"..................",
".+++++++++++++++@.",
".+..............@.",
".+.@@@@@@@@@@@+.@.",
".+.@..........+.@.",
".+.@..........+.@.",
".+.@..........+.@.",
".+.@..........+.@.",
".+.@..........+.@.",
".+.@..........+.@.",
".+.@..........+.@.",
".+.@..........+.@.",
".+.@..........+.@.",
".+.@..........+.@.",
".+.@+++++++++++.@.",
".+..............@.",
".+@@@@@@@@@@@@@@@.",
".................."};
