/* XPM */
static char * maximize_pressed_xpm[] = {
"18 18 7 1",
" 	c None",
".	c #CECFCE",
"+	c #A8A8A8",
"@	c #B0B0B0",
"#	c #949494",
"$	c #B3B3B3",
"%	c #878787",
"..................",
".+++++++++++++++@.",
".+##############@.",
".+#$$$$$$$$$$$%#@.",
".+#$..........%#@.",
".+#$..........%#@.",
".+#$..........%#@.",
".+#$..........%#@.",
".+#$..........%#@.",
".+#$..........%#@.",
".+#$..........%#@.",
".+#$..........%#@.",
".+#$..........%#@.",
".+#$..........%#@.",
".+#$%%%%%%%%%%%#@.",
".+##############@.",
".+@@@@@@@@@@@@@@@.",
".................."};
