/* XPM */
static char * top_right_active_xpm[] = {
"6 27 6 1",
" 	c None",
".	c #848284",
"+	c #242424",
"@	c #000000",
"#	c #FFFFFF",
"$	c #CECFCE",
".....+",
"....+@",
"##..@@",
"$$..@@",
"$$..@@",
"$$..@@",
"$$..@@",
"$$..@@",
"$$..@@",
"$$..@@",
"$$..@@",
"$$..@@",
"$$..@@",
"$$..@@",
"$$..@@",
"$$..@@",
"$$..@@",
"$$..@@",
"$$..@@",
"$$..@@",
"$$..@@",
"$$..@@",
"$$..@@",
"$$..@@",
"$$..@@",
"$$..@@",
"$$..@@"};
