/* XPM */
static char * maximize_toggled_active_traditional_35p_xpm[] = {
"27 27 7 1",
" 	c None",
".	c #868f94",
"+	c #000000",
"@	c #313a3f",
"#	c #000000",
"$	c #788589",
"%	c #becfd2",
"..........................+",
".@@@@@@@@@@@@@@@@@@@@@@@@#+",
".@@@@@@@@@@@$$@@@@@@@@@@@#+",
".@@@@@@@@@@$%%$@@@@@@@@@@#+",
".@@@@@@@@@$%%%%$@@@@@@@@@#+",
".@@@@@@@@$%%%%%%$@@@@@@@@#+",
".@@@@@@@$%%%$$%%%$@@@@@@@#+",
".@@@@@@$%%%$@@$%%%$@@@@@@#+",
".@@@@@$%%%$@@@@$%%%$@@@@@#+",
".@@@@$%%%$@@@@@@$%%%$@@@@#+",
".@@@$%%%$@@@@@@@@$%%%$@@@#+",
".@@$%%%$@@@@@@@@@@$%%%$@@#+",
".@$%%%$@@@@@@@@@@@@$%%%$@#+",
".@$%%%$@@@@@@@@@@@@$%%%$@#+",
".@@$%%%$@@@@@@@@@@$%%%$@@#+",
".@@@$%%%$@@@@@@@@$%%%$@@@#+",
".@@@@$%%%$@@@@@@$%%%$@@@@#+",
".@@@@@$%%%$@@@@$%%%$@@@@@#+",
".@@@@@@$%%%$@@$%%%$@@@@@@#+",
".@@@@@@@$%%%$$%%%$@@@@@@@#+",
".@@@@@@@@$%%%%%%$@@@@@@@@#+",
".@@@@@@@@@$%%%%$@@@@@@@@@#+",
".@@@@@@@@@@$%%$@@@@@@@@@@#+",
".@@@@@@@@@@@$$@@@@@@@@@@@#+",
".@@@@@@@@@@@@@@@@@@@@@@@@#+",
".#########################+",
"+++++++++++++++++++++++++++"};
