/* XPM */
static char * shade_pressed_traditional_35p_xpm[] = {
"27 27 6 1",
" 	c None",
".	c #000000",
"+	c #868f94",
"@	c #060f14",
"#	c #becfd2",
"$	c #788589",
"..........................+",
".@@@@@@@@@@@@@@@@@@@@@@@@@+",
".@@@@@@@@@@@@@@@@@@@@@@@@@+",
".@@@@@@@@@@@@@@@@@@@@@@@@@+",
".@@@@@@@@@@@@@@@@@@@@@@@@@+",
".@@@@##################@@@+",
".@@@@##################@@@+",
".@@@@##################@@@+",
".@@@@@@@@@@@@@@@@@@@@@@@@@+",
".@@@@@@@@@@@@@@@@@@@@@@@@@+",
".@@@@@@@@@@@@@@@@@@@@@@@@@+",
".@@@@@@@@@@@@@@@@@@@@@@@@@+",
".@@@@@@@@@@@@$$@@@@@@@@@@@+",
".@@@@@@@@@@@$##$@@@@@@@@@@+",
".@@@@@@@@@@$####$@@@@@@@@@+",
".@@@@@@@@@$######$@@@@@@@@+",
".@@@@@@@@$###$$###$@@@@@@@+",
".@@@@@@@$###$@@$###$@@@@@@+",
".@@@@@@$###$@@@@$###$@@@@@+",
".@@@@@$###$@@@@@@$###$@@@@+",
".@@@@$###$@@@@@@@@$###$@@@+",
".@@@@###$@@@@@@@@@@$###@@@+",
".@@@@##$@@@@@@@@@@@@$##@@@+",
".@@@@@@@@@@@@@@@@@@@@@@@@@+",
".@@@@@@@@@@@@@@@@@@@@@@@@@+",
".@@@@@@@@@@@@@@@@@@@@@@@@@+",
"+++++++++++++++++++++++++++"};
