/* XPM */
static char * title_1_active_xpm[] = {
"1 22 9 1",
" 	c None",
".	c #B4B5B2 s inactive_shadow_1",
"+	c #FFFFFF",
"@	c #EDECE9 s inactive_color_1",
"#	c #8494AE s inactive_mid_1",
"$	c #B2C0D8 s inactive_color_1",
"%	c #8DA2C6 s inactive_mid_1",
"&	c #677B9B s inactive_shadow_1",
"*	c #E3E2DD s inactive_mid_1",
".",
"+",
"@",
"#",
"$",
"%",
"%",
"%",
"%",
"%",
"%",
"%",
"%",
"%",
"%",
"%",
"%",
"%",
"%",
"%",
"&",
"*"};
