/* XPM */
static char * top_right_active_xpm[] = {
"4 22 9 1",
" 	c None",
".	c #B4B5B2 s inactive_shadow_1",
"+	c #FFFFFF",
"@	c #A6A6A1 s inactive_shadow_1",
"#	c #EDECE9 s inactive_color_1",
"$	c #E3E2DD s inactive_mid_1",
"%	c #D7D6D1 s inactive_color_1",
"&	c #8494AE s inactive_shadow_1",
"*	c #677B9B s inactive_shadow_1",
"....",
"+++@",
"##+@",
"$$%@",
"&$%@",
"*$%@",
"*$%@",
"*$%@",
"*$%@",
"*$%@",
"*$%@",
"*$%@",
"*$%@",
"*$%@",
"*$%@",
"*$%@",
"*$%@",
"*$%@",
"*$%@",
"&$%@",
"$$%@",
"$$%@"};
