/* XPM */
static char * hide_pressed_traditional_35p_xpm[] = {
"27 27 6 1",
" 	c None",
".	c #2a261e",
"+	c #ffffff",
"@	c #a9a59d",
"#	c #000000",
"$	c #6a6864",
"..........................+",
".@@@@@@@@@@@@@@@@@@@@@@@@@+",
".@@@@@@@@@@@@@@@@@@@@@@@@@+",
".@@@@@@@@@@@@@@@@@@@@@@@@@+",
".@@@@@@@@@@@@@@@@@@@@@@@@@+",
".@@@@@@@@@@@@@@@@@@@@@@@@@+",
".@@@@@@@@@@@@@@@@@@@@@@@@@+",
".@@@@@@@@@@@@@@@@@@@@@@@@@+",
".@@@@@@@@@@@@@@@@@@@@@@@@@+",
".@@@@@@@@@@@@@@@@@@@@@@@@@+",
".@@@@##$@@@@@@@@@@@@$##@@@+",
".@@@@###$@@@@@@@@@@$###@@@+",
".@@@@$###$@@@@@@@@$###$@@@+",
".@@@@@$###$@@@@@@$###$@@@@+",
".@@@@@@$###$@@@@$###$@@@@@+",
".@@@@@@@$###$@@$###$@@@@@@+",
".@@@@@@@@$###$$###$@@@@@@@+",
".@@@@@@@@@$######$@@@@@@@@+",
".@@@@@@@@@@$####$@@@@@@@@@+",
".@@@@@@@@@@@$##$@@@@@@@@@@+",
".@@@@@@@@@@@@$$@@@@@@@@@@@+",
".@@@@@@@@@@@@@@@@@@@@@@@@@+",
".@@@@@@@@@@@@@@@@@@@@@@@@@+",
".@@@@@@@@@@@@@@@@@@@@@@@@@+",
".@@@@@@@@@@@@@@@@@@@@@@@@@+",
".@@@@@@@@@@@@@@@@@@@@@@@@@+",
"+++++++++++++++++++++++++++"};
