/* XPM */
static char * title_2_inactive_xpm[] = {
"19 23 41 1",
" 	c None",
".	c #000000",
"+	c #FFFFFF",
"@	c #6C6C6C",
"#	c #8B9AAF",
"$	c #D1E3FE",
"%	c #C6C6C6",
"&	c #B6C6DE",
"*	c #C8C8C8",
"=	c #CBCBCB",
"-	c #B3C3DB",
";	c #CDCDCD",
">	c #B2C2DA",
",	c #CFCFCF",
"'	c #B1C1D9",
")	c #D1D1D1",
"!	c #AFBFD7",
"~	c #D4D4D4",
"{	c #AEBED6",
"]	c #D6D6D6",
"^	c #ACBCD4",
"/	c #D8D8D8",
"(	c #ABBBD3",
"_	c #DADADA",
":	c #AABAD2",
"<	c #DCDCDC",
"[	c #A8B8D0",
"}	c #DFDFDF",
"|	c #A7B7CF",
"1	c #E1E1E1",
"2	c #A5B5CD",
"3	c #E3E3E3",
"4	c #A4B4CC",
"5	c #E5E5E5",
"6	c #A3B3CB",
"7	c #E8E8E8",
"8	c #A1B1C9",
"9	c #EAEAEA",
"0	c #A0B0C8",
"a	c #9EAEC6",
"b	c #B4B4B4",
"...................",
"...................",
"+++++@.#$$$$$$$$$$$",
"%%%%%@.#&&&&&&&&&&&",
"*****@.############",
"======@.#----------",
";;;;;;@.#>>>>>>>>>>",
",,,,,,@.#''''''''''",
"))))))@.#!!!!!!!!!!",
"~~~~~~@.#{{{{{{{{{{",
"]]]]]]@.#^^^^^^^^^^",
"//////@.#((((((((((",
"______@.#::::::::::",
"<<<<<<@.#[[[[[[[[[[",
"}}}}}}@.#||||||||||",
"111111@.#2222222222",
"333333@.#4444444444",
"555555@.#6666666666",
"777777@.#8888888888",
"99999@.#00000000000",
"+++++@.#aaaaaaaaaaa",
"bbbbb@.############",
"..................."};
