/* XPM */
static char * title_4_inactive_xpm[] = {
"8 23 21 1",
" 	c None",
".	c #000000",
"+	c #D1E3FE",
"@	c #B6C6DE",
"#	c #8B9AAF",
"$	c #B3C3DB",
"%	c #B2C2DA",
"&	c #B1C1D9",
"*	c #AFBFD7",
"=	c #AEBED6",
"-	c #ACBCD4",
";	c #ABBBD3",
">	c #AABAD2",
",	c #A8B8D0",
"'	c #A7B7CF",
")	c #A5B5CD",
"!	c #A4B4CC",
"~	c #A3B3CB",
"{	c #A1B1C9",
"]	c #A0B0C8",
"^	c #9EAEC6",
"........",
"........",
"++++++++",
"@@@@@@@@",
"########",
"$$$$$$$$",
"%%%%%%%%",
"&&&&&&&&",
"********",
"========",
"--------",
";;;;;;;;",
">>>>>>>>",
",,,,,,,,",
"''''''''",
"))))))))",
"!!!!!!!!",
"~~~~~~~~",
"{{{{{{{{",
"]]]]]]]]",
"^^^^^^^^",
"########",
"........"};
