/* XPM */
static char * maximize_active_traditional_35p_xpm[] = {
"27 27 7 1",
" 	c None",
".	c #8b8b8b",
"+	c #000000",
"@	c #414141",
"#	c #000000",
"$	c #7f7f7f",
"%	c #c8c8c8",
"..........................+",
".@@@@@@@@@@@@@@@@@@@@@@@@#+",
".@@@@@@@@@@@@@@@@@@@@@@@@#+",
".@@@@@@@@@@@@@@@@@@@@@@@@#+",
".@@@@@@@@@@@@@@@@@@@@@@@@#+",
".@@@@@@@@@@@@@@@@@@@@@@@@#+",
".@@@@@@@@@@@$$@@@@@@@@@@@#+",
".@@@@@@@@@@$%%$@@@@@@@@@@#+",
".@@@@@@@@@$%%%%$@@@@@@@@@#+",
".@@@@@@@@$%%%%%%$@@@@@@@@#+",
".@@@@@@@$%%%$$%%%$@@@@@@@#+",
".@@@@@@$%%%$@@$%%%$@@@@@@#+",
".@@@@@$%%%$@@@@$%%%$@@@@@#+",
".@@@@$%%%$@@@@@@$%%%$@@@@#+",
".@@@$%%%$@@@@@@@@$%%%$@@@#+",
".@@@%%%$@@@@@@@@@@$%%%@@@#+",
".@@@%%$@@@@@@@@@@@@$%%@@@#+",
".@@@@@@@@@@@@@@@@@@@@@@@@#+",
".@@@@@@@@@@@@@@@@@@@@@@@@#+",
".@@@@@@@@@@@@@@@@@@@@@@@@#+",
".@@@@@@@@@@@@@@@@@@@@@@@@#+",
".@@@@@@@@@@@@@@@@@@@@@@@@#+",
".@@@@@@@@@@@@@@@@@@@@@@@@#+",
".@@@@@@@@@@@@@@@@@@@@@@@@#+",
".@@@@@@@@@@@@@@@@@@@@@@@@#+",
".#########################+",
"+++++++++++++++++++++++++++"};
