/* XPM */
static char * stick_active_xpm[] = {
"15 21 5 1",
" 	c None",
".	c #4B58A2 s active_shadow_1",
"+	c #90B8DC s active_shadow_1",
"@	c #3678E5 s active_shadow_1",
"#	c #FFFFFF s inactive_mid_1",
"               ",
"               ",
"               ",
"...............",
".+++++++++++++.",
".+@@@@@@@@@@@@.",
".+@@@@@@@@@@@@.",
".+@@@@@@@@@@@@.",
".+@@@##@##@@@@.",
".+@@@#####@@@@.",
".+@@@@#@#@@@@@.",
".+@@@#####@@@@.",
".+@@@##@##@@@@.",
".+@@@@@@@@@@@@.",
".+@@@@@@@@@@@@.",
".+@@@@@@@@@@@@.",
".+@@@@@@@@@@@@.",
"...............",
"               ",
"               ",
"               "};
