/* XPM */
static char *title-1-active[] = {
/* width height ncolors chars_per_pixel */
"2 21 5 1",
/* colors */
"  c black",
". c #90B8DC s inactive_hilight_1",
"X c #4B58A2 s inactive_color_1",
"o c #3678E5 s inactive_color_1",
"O c None",
/* pixels */
"  ",
"..",
"oo",
"oo",
"oo",
"oo",
"oo",
"oo",
"oo",
"oo",
"oo",
"oo",
"oo",
"oo",
"oo",
"oo",
"oo",
"oo",
"oo",
"oo",
"XX"
};
