/* XPM */
static char *top-left-active[] = {
/* width height ncolors chars_per_pixel */
"3 21 5 1",
/* colors */
"  c black",
". c #90B8DC s active_hilight_1",
"X c #4B58A2 s active_shadow_1",
"o c #3678E5 s active_color_1",
"O c None",
/* pixels */
"   ",
" ..",
" .o",
" .o",
" .o",
" .o",
" .o",
" .o",
" .o",
" .o",
" .o",
" .o",
" .o",
" .o",
" .o",
" .o",
" .o",
" .o",
" .o",
" .o",
" XX"
};
