/* XPM */
static char * top_right_active_xpm[] = {
"10 64 60 1",
" 	c None",
".	c #21380E",
"+	c #9FDA6D",
"@	c #87D148",
"#	c #68AE2B",
"$	c #7ACC33",
"%	c #79CB32",
"&	c #46761D",
"*	c #6BB42D",
"=	c #6BB32C",
"-	c #5C9B26",
";	c #6CB62D",
">	c #6DB72E",
",	c #6EB92E",
"'	c #6FBB2E",
")	c #71BE2F",
"!	c #70BC2F",
"~	c #72BF2F",
"{	c #74C330",
"]	c #76C631",
"^	c #75C431",
"/	c #77C731",
"(	c #66AB2A",
"_	c #62A429",
":	c #7BCC35",
"<	c #7CCD36",
"[	c #63A629",
"}	c #7DCD38",
"|	c #7FCE3B",
"1	c #80CE3D",
"2	c #7ECD3A",
"3	c #84D043",
"4	c #83CF42",
"5	c #81CF3F",
"6	c #88D14A",
"7	c #8FD453",
"8	c #93D55A",
"9	c #8CD24E",
"0	c #98D762",
"a	c #97D760",
"b	c #9DD96A",
"c	c #94D65B",
"d	c #A3DB72",
"e	c #A9DE7B",
"f	c #AADE7D",
"g	c #9BD867",
"h	c #64A729",
"i	c #AEE083",
"j	c #9EDA6B",
"k	c #B4E28D",
"l	c #BDE59A",
"m	c #C3E8A3",
"n	c #C2E7A2",
"o	c #65A92A",
"p	c #C8EAAB",
"q	c #B0E087",
"r	c #D0EDB6",
"s	c #ADDF82",
"t	c #B5E28F",
"u	c #43711C",
"........  ",
"++++++@#. ",
"$%%$$$%$&.",
"**===***-.",
";;;****>>.",
">,,,,,,''.",
"))!!!)!!*.",
"~~)))~))#.",
"{{{{{{{{#.",
"]]^]]/]^(.",
"%%///%//_.",
"::$$$<$%[.",
"<<<<<<}$_.",
"|||||112_.",
"33433335[.",
"6@@666@3_.",
"7777777@_.",
"88888889[.",
"00a00007[.",
"bbbbbbbc[.",
"ddddddda[.",
"eeeeeefgh.",
"iiiiiiijh.",
"kkkkkkkdh.",
"lllllllfh.",
"mnmmnmmio.",
"pppppppqo.",
"rrrrrrrkh.",
"iisssisih.",
"ooooooooo.",
"..........",
"     .t5u.",
"     .t5u.",
"     .t5u.",
"     .t5u.",
"     .t5u.",
"     .t5u.",
"     .t5u.",
"     .t5u.",
"     .t5u.",
"     .t5u.",
"     .t5u.",
"     .t5u.",
"     .t5u.",
"     .t5u.",
"     .t5u.",
"     .t5u.",
"     .t5u.",
"     .t5u.",
"     .t5u.",
"     .t5u.",
"     .t5u.",
"     .t5u.",
"     .t5u.",
"     .t5u.",
"     .t5u.",
"     .t5u.",
"     .t5u.",
"     .t5u.",
"     .t5u.",
"     .t5u.",
"     .t5u.",
"     .t5u.",
"     .t5u."};
