<?xml version="1.0" encoding="UTF-8" standalone="no"?>
<svg
   xmlns:dc="http://purl.org/dc/elements/1.1/"
   xmlns:cc="http://creativecommons.org/ns#"
   xmlns:rdf="http://www.w3.org/1999/02/22-rdf-syntax-ns#"
   xmlns:svg="http://www.w3.org/2000/svg"
   xmlns="http://www.w3.org/2000/svg"
   xmlns:sodipodi="http://sodipodi.sourceforge.net/DTD/sodipodi-0.dtd"
   xmlns:inkscape="http://www.inkscape.org/namespaces/inkscape"
   viewBox="0 0 16 16"
   version="1.1"
   id="svg6"
   sodipodi:docname="code-variable.svg"
   inkscape:version="0.92.1 r15371">
  <metadata
     id="metadata10">
    <rdf:RDF>
      <cc:Work
         rdf:about="">
        <dc:format>image/svg+xml</dc:format>
        <dc:type
           rdf:resource="http://purl.org/dc/dcmitype/StillImage" />
      </cc:Work>
    </rdf:RDF>
  </metadata>
  <sodipodi:namedview
     pagecolor="#ffffff"
     bordercolor="#666666"
     borderopacity="1"
     objecttolerance="10"
     gridtolerance="10"
     guidetolerance="10"
     inkscape:pageopacity="0"
     inkscape:pageshadow="2"
     inkscape:window-width="640"
     inkscape:window-height="480"
     id="namedview8"
     showgrid="false"
     inkscape:current-layer="svg6" />
  <defs
     id="defs3051">
    <style
       type="text/css"
       id="current-color-scheme">
      .ColorScheme-Text {
        color:#f2f2f2;
      }
      </style>
  </defs>
  <path
     style="fill:#3daee9;fill-opacity:1;stroke:none"
     d="M 2 2 L 2 8 L 14 8 L 14 2 L 2 2 z M 3 3 L 13 3 L 13 7 L 3 7 L 3 3 z M 2 9 L 2 12 L 4 12 L 4 9 L 2 9 z M 6 9 L 6 14 L 8 14 L 8 9 L 6 9 z M 10 9 L 10 11 L 14 11 L 14 9 L 10 9 z "
     class="ColorScheme-Text"
     id="path4" />
  <path
     style="opacity:0.95999995;fill:#ff0000;fill-opacity:1;fill-rule:nonzero;stroke:#ffffff;stroke-width:0.0495356;stroke-opacity:0.94117647"
     d="M 2.0260062,10.511455 V 9.025387 h 0.9659443 0.9659442 v 1.486068 1.486068 H 2.9919505 2.0260062 Z"
     id="path8"
     inkscape:connector-curvature="0" />
  <path
     style="opacity:0.95999995;fill:#00ff00;fill-opacity:1;fill-rule:nonzero;stroke:#ffffff;stroke-width:0.0495356;stroke-opacity:0.94117647"
     d="m 6.0383901,11.502167 v -2.47678 h 0.9659443 0.9659442 v 2.47678 2.47678 H 7.0043344 6.0383901 Z"
     id="path10"
     inkscape:connector-curvature="0" />
  <path
     style="opacity:0.95999995;fill:#ffff00;fill-opacity:1;fill-rule:nonzero;stroke:#ffffff;stroke-width:0.0495356;stroke-opacity:0.94117647"
     d="M 10.001238,9.9913313 V 9.025387 h 1.981425 1.981424 v 0.9659443 0.9659447 h -1.981424 -1.981425 z"
     id="path12"
     inkscape:connector-curvature="0" />
</svg>
