<?xml version="1.0" encoding="UTF-8" standalone="no"?>
<svg
   xmlns:dc="http://purl.org/dc/elements/1.1/"
   xmlns:cc="http://creativecommons.org/ns#"
   xmlns:rdf="http://www.w3.org/1999/02/22-rdf-syntax-ns#"
   xmlns:svg="http://www.w3.org/2000/svg"
   xmlns="http://www.w3.org/2000/svg"
   xmlns:sodipodi="http://sodipodi.sourceforge.net/DTD/sodipodi-0.dtd"
   xmlns:inkscape="http://www.inkscape.org/namespaces/inkscape"
   viewBox="0 0 16 16"
   version="1.1"
   id="svg6"
   sodipodi:docname="distribute-horizontal-right.svg"
   inkscape:version="0.92.1 r15371">
  <metadata
     id="metadata10">
    <rdf:RDF>
      <cc:Work
         rdf:about="">
        <dc:format>image/svg+xml</dc:format>
        <dc:type
           rdf:resource="http://purl.org/dc/dcmitype/StillImage" />
      </cc:Work>
    </rdf:RDF>
  </metadata>
  <sodipodi:namedview
     pagecolor="#ffffff"
     bordercolor="#666666"
     borderopacity="1"
     objecttolerance="10"
     gridtolerance="10"
     guidetolerance="10"
     inkscape:pageopacity="0"
     inkscape:pageshadow="2"
     inkscape:window-width="640"
     inkscape:window-height="480"
     id="namedview8"
     showgrid="false"
     inkscape:current-layer="svg6" />
  <defs
     id="defs3051">
    <style
       type="text/css"
       id="current-color-scheme">
      .ColorScheme-Text {
        color:#f2f2f2;
      }
      </style>
  </defs>
  <path
     style="fill:#3daee9;fill-opacity:1;stroke:none"
     d="M 9 2 L 6 4 L 9 6 L 9 2 z M 10 2 L 10 6 L 13 4 L 10 2 z M 5 5 L 5 6 L 5 7 L 4 7 L 3 7 L 1 7 L 1 13 L 3 13 L 4 13 L 5 13 L 5 14 L 6 14 L 6 13 L 6 7 L 6 6 L 6 5 L 5 5 z M 13 5 L 13 7 L 9 7 L 9 12 L 9 13 L 13 13 L 13 14 L 14 14 L 14 5 L 13 5 z M 2 8 L 5 8 L 5 12 L 2 12 L 2 8 z M 10 8 L 13 8 L 13 12 L 10 12 L 10 8 z "
     class="ColorScheme-Text"
     id="path4" />
  <path
     style="opacity:0.95999995;fill:#ff0000;fill-opacity:1;fill-rule:nonzero;stroke:#ffffff;stroke-width:0.0495356;stroke-opacity:0.94117647"
     d="M 7.526662,4.9929489 C 6.7432301,4.4678683 6.0911522,4.0271687 6.0776,4.0136164 6.0640477,4.0000642 6.7106102,3.5506103 7.5144054,3.0148301 l 1.461446,-0.9741459 v 1.9567477 c 0,1.0762112 -0.00557,1.9552765 -0.012384,1.9534783 C 8.9566563,5.949112 8.3100939,5.5180294 7.526662,4.9929489 Z"
     id="path4487"
     inkscape:connector-curvature="0" />
  <path
     style="opacity:0.95999995;fill:#ff0000;fill-opacity:1;fill-rule:nonzero;stroke:#ffffff;stroke-width:0.0495356;stroke-opacity:0.94117647"
     d="m 10.016099,3.9975232 c 0,-1.5566739 0.01281,-1.9548668 0.06192,-1.925575 0.246363,0.146929 2.860681,1.9066723 2.860681,1.925575 0,0.018903 -2.614318,1.778646 -2.860681,1.925575 -0.04911,0.029292 -0.06192,-0.3689011 -0.06192,-1.925575 z"
     id="path4489"
     inkscape:connector-curvature="0" />
</svg>
