<?xml version="1.0" encoding="UTF-8" standalone="no"?>
<!-- Created with Inkscape (http://www.inkscape.org/) -->

<svg
   xmlns:dc="http://purl.org/dc/elements/1.1/"
   xmlns:cc="http://creativecommons.org/ns#"
   xmlns:rdf="http://www.w3.org/1999/02/22-rdf-syntax-ns#"
   xmlns:svg="http://www.w3.org/2000/svg"
   xmlns="http://www.w3.org/2000/svg"
   xmlns:xlink="http://www.w3.org/1999/xlink"
   xmlns:sodipodi="http://sodipodi.sourceforge.net/DTD/sodipodi-0.dtd"
   xmlns:inkscape="http://www.inkscape.org/namespaces/inkscape"
   version="1.1"
   id="svg2"
   width="16"
   height="16"
   viewBox="0 0 16 16"
   sodipodi:docname="document-edit-sign.svg"
   inkscape:version="0.92.1 r15371">
  <metadata
     id="metadata8">
    <rdf:RDF>
      <cc:Work
         rdf:about="">
        <dc:format>image/svg+xml</dc:format>
        <dc:type
           rdf:resource="http://purl.org/dc/dcmitype/StillImage" />
        <dc:title></dc:title>
      </cc:Work>
    </rdf:RDF>
  </metadata>
  <defs
     id="defs6" />
  <sodipodi:namedview
     pagecolor="#ffffff"
     bordercolor="#666666"
     borderopacity="1"
     objecttolerance="10"
     gridtolerance="10"
     guidetolerance="10"
     inkscape:pageopacity="0"
     inkscape:pageshadow="2"
     inkscape:window-width="640"
     inkscape:window-height="480"
     id="namedview4"
     showgrid="false"
     inkscape:current-layer="svg2" />
  <image
     width="16"
     height="16"
     preserveAspectRatio="none"
     xlink:href="data:image/png;base64,iVBORw0KGgoAAAANSUhEUgAAAC4AAAAuCAYAAABXuSs3AAAABGdBTUEAAK/INwWK6QAAABl0RVh0 U29mdHdhcmUAQWRvYmUgSW1hZ2VSZWFkeXHJZTwAAA0mSURBVHjaYvz//z/DUAQAAcTEMEQBQACx kKOJEQigTGYQF4qRATWj8T8SDcMMAAHEQoaDGaEOBullhbKZ0Cz6R0XHw8z6C8Ug/l+AAGIhw9Eg x7IvWrgokY+Pb8Krl68YhEWE/1jbWLOwsDAzMDEzM7AAMQNI+b//QATCQLv+Q9l//zGA8tX//xD6 3z8IG06D5OBiEAzKhhoaGiJAe39BMQNAAJES4iBHswEx56yZs+J5eXn7xcXFGb5//86gqaXJ8vXr VwYODg4GNjZWYPAzMjAyMcEd9x/mGJAjGBD8f3AP/EOogTv+HwRD2UDAC8RfoW75CRBALESGNhPU 0VxTJk9JEBUR7QU5moeXh0FUVITh/bv3YDY4twMdzMTEDEk7MEfDHAPF/5AcC2b/Q4Q8zPHIev5B Sj4BpKTzByCAWEhx9MSJExOkJKV6xcTFGIAhzsDDw8Nw4+MHhr/AEGFhY2HgBIY4JGpBmAmaPCCO YfgPiXKEPMyhDEhJAyaGCPV/CIeDQvwnEP8A5SuAAGIhwtGgNM01oW9CvIyUTK+YhDjc0dzc3Ayf PnxkYGVhBbP/QqIUkkORHAD2wD8GjKQD8c8/aAwgpXuweuQYAZvLCQ1AkJsZAQKIiQhHc/d298bK yMj0iQGTBy/QwSBHc3FzgUP4CzBt//r1iwFSkUEcBcqYiKiG0gxI/H8QB/37/xdC/4M4FOZgWCjD kg40xNmhjga5iwkggFgIObq7qztaTk5ugjgwpPn4eMFpGRS6nJycDKxsbAw/f/5k+Pv3L9hCRmhx DnIIIywToiUP5LT8Dx7yyGkb4nhQGvr79z8kM0NCHO5oEAcggFjwObqzvTNKXk5+kjhS8uDh5gE7 mg3oaGD5B3Y0qKS8cOECgwQw7TMCM6ajgwNKxgOx7929xyCvIA9Pu++AGfrD+3dgPjBgUNM5CP6F VAeQ0gizSgAIIBZcjm5va49UUFCYLCEhgZKmOTiBRR47xNGgEgSSDP4zPH78GOx4kIcePnzAoKWl xXDm7Fmwpc5OTgxXr11luHPnDsOzF88YIiIiGZYvX86gr6/HcP36dbDDHwD1xMbEwst95NDH1p4C CCAmtAoGnBHbWtoiFBUUp8AdzQtJ15xciJAGORqkBVLe/gfXbXp6evDk8fbtO4ZnT58xPH/+DBzS oBAGOer+vQdgPeLA2AGpVVdXZ3jx4iXDj+8/4EmKATljwpIOGgAIIEaQBNTRoNDnaGttiwI6eoak lCQwTfPBHc7FyQUPaWZgzQhrrnR2djAoKCgySEtLMwgJCYLVswBLGUTxBi3WGBDl9T+o42AZERGy iJrzH7xEAqZ1IN/C3CIIaN0TIH4NxO8BAogJLdlwKsgrzJCQBIY0D1JIg9I0FkeDszo7BwMrKyvD 58+fGB49egRpBSGVKDB87uw5hnv37oFLEpBH/oKTGDTjAvHJkycZTp08BUzb/6AlDkT87194cYgC AAKIBamVBw7xL1++MOy7sI/h7Z+3DI+fP2b4/uk7w8/vPxl+//rN8PcPpPRgYmZiYGFnYfDV82UQ FREBOp6dYcuWrWD6x4+fDBcvXgA3BcTFJRjeAzNgYmIiw7Vr1xk0gMni6NFjDOoa6gwnjp9gSElN Ydi5cxdQzw+g+m/gJGZoZISoQf8hynd0ABCAzWrHARCEoa9pwISJQU08gvc/CSfQCTedBBNjtGUg DN7gvfb9WnMqeLvdGyJHpDOBO4ZxBmQI9rF19BAT2DB6qXvvPZxof5IvLcsqWs0yiOZyXQWfr6vG m5JQMxz7XmSowEIIhfA4DnhrIbWg/1PlE0CwNM4GrVJF8hfn3/j6GVipfPvF8Pvnb3BIw4s1BmhD iBGoh4mRIdU8FZyM+Pj5gDQXAzuwgQXOuIxM8KgG51toSw9Rhf9DLf7+/UdSj95qhDQLbO3sUNI4 QABhlONMrEzgdgeoLgGFONs/SEiD+H///YU7HARADSxQ+gaFGBtQDzMTpF/xD7mCgToOlDRMzUzR GlXQTPkPWrMC6fcfPkBi4z9CDbbiECCAWDAa7UARcPL4A0wOf5khBsNqQQZYboeECh8fPzB0GcEZ dueunQwPHjxkkABWViB7+Pn5GV4Ai0I1dQ2G6zeug9srxqbGDKtWrmL4AHQcyLPv338Al+EvX74A BoIoWAwkB3IwKFAsLS3hsYYOAAIIo+cCSr+gUAeFNgsnCwRzQGgmdiYIZmMCqwGV6+wcbAzMwA7E T2CmBKVpkGPev38PxqD0DaqUEO1xSBkPClEVVVVwpmRjZwUWoXxAvT8YREREGT5+/AhsRvxg+PTp EzSQQH7+i+FwgABiwehuMUGyKbjIA4qCSpB/0CIKWlFBNfwHhjSws/CPEewwfmAmFRDgZ0iIj4eU 2X8RFch/eKPqH0NwcBBEHChvZGiI1HyFJBlNTXV4MoEklb8M2AYiAAIII8ThZSgQTg6ZDE7Xf/// hZcooLYJDMPSMUjcAdg+SYhPgHbPEI2jf8hdsL+gNPweXFbDqnRQRQRK1+fOnEXpKUHcAHH0PyzF IUAAYWROkEP/gWsrSPRMD5uOoSlqThRSfxASMvv27QOmz/fwzMTOxs7w/MVzaHqHZDYvLy+GuXPm MRgbGwPT9UsGJ0cHhg/ApAHSC0pmp06fAScjCwszYE0shdKCRAcAAYTh8D9//8AdBQK26bYojR1Y qMhZyKGIg0KS4R80REEOB2Y0NTU1MPvQwUMMOno6YDaovAalY1D6/gDsPUlLy4Cbx6AaGiT/+MkT cK0N6Xj8h7db0AFAAMHKcXDjCogF01am3YcVUSD61sFbDIrWipB0/u8fvEgEsbs9uxEdA2gl8w+p iIO18lCLPpgaSBH4H16O/8UoQpF7TB4eXijlOEAAYfSAYOkXFPLzYuYxHJl9hMFMwYzBTNGMYXnq coZV6asQaRxlCAHU/vgHrD3vgy0/eeokvCfzD5pujxw+AuZ/AJY8Z8+ehrYsIUkT1CxG6fEzIHWu sSQVgABiwerwf5DMGD0/mkH1vypDQ1IDWK5rcxfDylUrwSEjbSIN71eCDD9x4iTDDWB5LSYmBi4C b9y8yWAEbHeAqvRbt24Biz8Vhlu3bzOYW5ozbNi4AZgfPgLb7Y8YXr16xSAtI8PAzsrGcBaYQfUN DBikgC1TeGkEL/BQAUAAYc+c0FBclrQMLNa9pZvh0/NPDM2pzQxlvmUM3v3ekNIG2g4HOR7k6Bcv XoDb66DyGzY0AXIgKImCQpmXjwfsGPCQBpAP7MeCQ5oN6OiPnz6AnSgFzZT/4f3O/1iLQ4AAwkjj kfMi78McDsL3j94HO05EQwRcnL24/gJsmKShJMMk/4lInV/U8hijXQJuk/+Hdzz+IbfXUdhI5T9S Y8vX1x8ljQMEEBOuEAfRa9LXMMiayzKcXXyWgYUL2BbhZma4tPwSg4ShBLRSgpTZ8AYStKxGbjTB HA0rv/9hDEcgDRbBRq+QMY62CkAAYSQVWOkBKw4fHHvAwJDNwPD45GMGSWNJsNiT008YJPQloAZD DD946CDDR3CygFgESjKg9se+vfuAzV9RYJPgBzjD8QB7SKC49/bxgRZ3qKUHbBwG0sSFZVLMNA4Q QFjL8f/QwUkQuLD0Api+tOISoooFGgiLGVjIgdIyAzhNf4A0wIDtjzOg2hAIQb0nkBpQef3p4ydw 5cLwD214Dj7ahZS+YeM0WEoVgADCDPH//+DVuWefJ8OTU08QDvyHSIPgUVdwrockD29PT9R0izTA g0jH/xh27drNoKysBNT1FyVEMUMcMmQH7ptiGfsBCCDMEP/zB17B7CjaweDc6YzovP5FpGPwIBDD P5QaFTmtovZiEOnaxdkFkf5h6Rep9EDl/4eN52E4HCCAsJbjyGMZe8v3YmiyqLaAhDhSYwrWO/qH lKn+Iffa0WIMkjRgJQgDwqH/kJMJAyT5YEkqAAGEmVT+oWZO9WB1uIX/kbpZwtrCiCodaYjhH3o6 hUU50pAzw///mAOgkAoB2rb+D65zYDS2pAIQQFgdDk7jwNC0a7aDVBh6oohmLGz4ANY0RRnX/o82 ZPwfpQsGH3lFCmGwODwTMiA8ygAL6f9YJ2UAAghnUoE1lIR1hVHb3//+oYQ83GGwjIqU1v8hjUrB MQNqJkTOC0hj1EixBA15NAAQgCzrsAEAhEH8f7NSYxc1fkAbSBhf5ryfdAe4TeG43B/RG04IFYPP 7wzC5jAC5GwJTEV/ZrM+QmCZE5uVOFeaFmfOEUDoXbd/sPY4uOuF1LyFs//+Q53TQcpgmI7+h+RQ RBJigI5iIZqxDPDkw4DU40GOIehsBNzxAAEEa6uAR7GAGDSRIwgaX4HOufBAZwLImg+lAgA59DsQ fwHiD0D8BtROAfEBAgg5xEF9td9QhZ9hs1tIMwED5fCfSG76DnXjX4AAQnf4L+QpOaQ5l4GaOv8H dfwvqKO/Qtl/AQIIPY3/QtLwA336YoAcDnP8b6QJ2n8AAQYAbr0qlXcaTlEAAACEaWNPboAAEAkA ABAAgAAQDwAAAASAABABAAACIIAAEAIAAAHSgAAQAwAAABSAABAEAAAAFIAAEAUAAAAAgAAQBgAA AACAABANAAAAAIAAEA4AAAAAgAAQB/////iAABEHAAAAAYAAEAwAAAAAgAAQCyhJY29uIKkyMDA3 IEtlbiBMZXN0ZXIpAO62wdoAAAAASUVORK5CYIKJUE5HDQoaCgAAAA1JSERSAAAALgAAAC4IBgAA AFe5KzcAAAtkSURBVGiBzVlbbBTXGf5mb2B218GLscEYAhsBwXbAwcSGpAoQkkAhIQmBqKqiVhFv UdQ+RIry1Kc+RK0aqRUiD5USISXKQ9Mkyk0hgtwTUojDxTahgRhjfMOX4JlZ2BnvnP/vw8w5c2bX 1M5L6Vijszue3f3Od77z/ZcxmBnyGDi8I+sZUw0CRgb/R0ccXEhwaqhx+4e2vGZI4AOHd2RFxmyL zymuMmLccNNQTnMwGUPCrfohXrilU4I3mBkDh3dk3arJDelcVVs8tbgtMWde9maD1Q/PvW6X3OHv ileL3xZH05137PvYNi5/uF2BnpO9uy1Vvbw6llpmELFxswHLQ7iXMGVfslzr605rvNgprmZOJDxj qiE511kVT+XbUtXLq187yzuJL4KZQUzqjLwnf9yX3wcO/scAmAnEDDD7I/kjMalrJIL75XeS/1qN zGB1zT+Z87hrHX9UKl68KzGnp+AaqeGYgJExYtwQS1ZVI7E0JsEJFhAsEHlP0ZNBYEjQPgjIHyYO JqwBFMH9wT0SrDqJwRSSwxRMkgQo1pCIJedWw+BG10N1Qi4HMxtEFBMkIixL8BKIzrjPHIMJPlPl J7FiV/9/ZELyu+UktMmQup9RKolEySOUShx3SxRLAAAxG8QwiNjwyKuQiQQaAU0Mn2CG/ANrQAmB PPx7wQRmBEuvyYWgSUNek5KhQGqMkuclhGAqeRwvOiKe0DcBMxszAdbHgOpKphXjmuYJGmAOJx5Z PVIME+krQhCeiBNxjIhjAFABPMJ4OXDtvRBiGokErEGXh880I3wfbsSyDVrGMtTKMgLQBhGMqalA KjpwpXEKNc7E0LUf7nYK5EHhxlQ/KicTlYeuZVLM69pmtZpCBCT4WAxmGMwwKhgHAB24PgoS4fIp 5kOmjh8/jjlzUigWHWxoa4tsPGZG/6V+LGlcolg1TRPmpAkGY/HixVGdg8GCAUin4XKYMwMXJBRY CV5fEblB+/r60N/fH7y+iJUrV+JMVxfAjE0bN+GH8+dx6dIlXBm7goceehjvvPMu1qy5HRcuXEBD QwMGBgfx6COPKN/X2dfzKXnEpgPuCU95NRHBEx48Cq/J/ysJEAMMtLS0APDlcfXqJEavjOLKlVEs aVwC0zRBzBjoHwATobZ2AYgZ+XweY2PjcB03lJ++MaV0ZmLcE970G7LstVwJycyePY+BmLB16xal 440bNyp3eXj3Q2BitLe3g5hw/7ZtwfcxWlpaFGjl3cqRgnFGqbCIyCIiE30CFFobMWNy8ipM08SS xsYyR/HHnp4eZDJZNCxZrDYmgGAjMk6fPg1mRktzMwh6YJpeKjdkXDlJ2eb0Q3HgNtrme/PNt8DM WL9+Pbq7u+A4DmprF8I0Tezd+zjOn7+AfD6Pzs5OrMivwOlTp7DviSfwxRdfwnVdOI4DMKOpqSkS /uXEZ6VxIUIde+T5r+U1bdQ30sK6Wkyak3AdB7flb0M2Ww3HceC4jrI3y5wEwLBME+l0BkyEc+e+ x+DgQOjzFDiLtqKzdhUflMaszr4uI5ljgLF9+y/x4AMPqh9a17ouCCZ+xNy5a5cWXELffuqppzQv 1zPRMEP0CY9m2RWMKwcRIhwl+yJkXwihZXUEBBMkLaD4P+5P8tTJUxHQpM4wmBExTNMKNjercTqp VDIesK0zHPFw0vUfZoBHP/4Ely9fxsKFtSBiZLIZjI+OYkU+jws//ggwo/mOZnzw/gewbBupZBKW ZWHx4gaMj48hl8shlUrBsiwwM2pqatDa2qpWbUaNK02XaV2+j2qcAm0SXMeB4xQxOWnCMk1YpgXH dXH27Pdhiku+x2fSGdy6/FY4rotkKoFMJgPHcVFTUwPbtuG6UygUCoExAMxidhpXPk1cwbY6BUVc JZPNojpbjT179oBAYBEGED2X3779Qf+6YDStadISK/+78vkVSia+VASmccMbaDxg9IUdL0Q0rZ+e 8LTMjdDR0eGDZgZpyVEkKRMM0zL9SiiYFIhgWhZ6unq0lQkmAh80zVrjAcsA8OLDL1Z8aP9r+yNB iIhx7NjXSp/MjGQyhfGxMRAY2UwGzIzNmzfjjX+8gebmZkxMTKCjvR2WXcA33xyD67ro6u5COp3B unVrUV+/MJJBzgjcE54CBQC7n98dSXbk6/rW+sh107IAChhlRiqVwvIVy0HEOHHiOFatXgVmRi6X g20X4DguLNtGfX09kskk5s2bB2ZgZGQY6XnzgsKDVd4yM+Oanp/+59MgIjS0NaiVUC4jRMS2tt23 TeUVyuMDu2xublKT3LVzpywM/GKbGDu27wBJO9X9W6uYyo/KyKnp+ODjB/Hen95D+7J2dCzvwCtP voJDvzkU8XHdhwUTBgYGQMw4dfq0qmRkJPz2204QMyzTQnd3lx8dgxxoeHgkjAvMYTcg+PzPksr+ 1/ejKdGEZ/c9CwA4cOQA3nrnLTAxFrQsUMGHmXHy5Cn09vZiwYIczp49i97eXjQ3N+HcuXO4eLEP y25dhr6+PqxrXYsjR4/Atm0MDQ1hYuIn1C+qRyqRRE93D1bfvhp1dQtDN4JfUMwsFU0SL//6ZR/w 0QO4PnYdz/3qOTxz/zPY+9LeYAP7eTgTobe3F+PjY0gmE3Bc168zmWFZFsAM27KQzqTB5AcXy7JR X78Iw8PDSCaSsAs2GIy6+jplsWE9W4H7vzP+5KEnMfLdCJgZ1Suq8ehfHsXVC1f9yNZUE7Dt63r3 I7sjfszBd9y5/s7wfWCRv7jnHtx99yYQMVavXhWWbHoNquTyMyogeb7621dRu7YWR/92FLGqGGJV MXz20meYv2Z+mB3KQKN5tZ40SdCWbYFFeTMpWjz495edN9icN5SK9M6RkyMAgLHTY6hpqgEAjHeN 45bbb1GMMzOOnzgO27I1H08il8vh2LFvkMvVwHWnwMxIp9NgJmzesiWwO73g0DsEQaMIPyPJYmYI 4QegTw98CgD4/KXP1T2qtNISfcuygUDTzIxMOoOurm4wExLJJIgIyWQShYKNuro6rZFEYZApm4B0 lumyrArg0qOZGY8dfAxjZ8YA1RsJs0G/IcQqL9ly771BeI92sfTJERG++uprLF3aCIKIMFrJuN9I AtE0nnKDzSmTq7effhu7/rorrP3IbxPLJItQWXvqoPXSS+p608ZNof6lfjX3iL5nucSzk4qu8fd/ /37Fh7b+caufHeqdJrA2wbC9EHarwtUKG6HSQRACJV0mUG24WUlFMgoAHfs7lFR0yaRvS6uQHm0p lK9AsOSKRdKkoFkgglYE4Hd+KRxnJRUhhM8mMR748wNgYmRXZcvycC7Lx8O8PNoyjpZgUiLQGGYO Hg9wAFZOFJJpP8jNCrhcciJCemU6Ih856oFClnAEvdANHqHo1brmFPojFyktdchoKXU/DfIIcMMw WLEa1JUKZIRp9iscgqZn3drC7i2x34qGdBCSG1K6hn8fWHcUQGYpHDwwMAyDDQNsGP4sEnFwgYUx JNxiIV66PF940aI4BKn18QgVm5ADgFHQpAENJQT2OQzTWCj5QKt4IlliaZA8t1goFnnEK5GdSHBq yL4297xnDOY41rfhy+d/92kJi1KlKS/peSIhBMWYb/To0J3mmoGwBxKf/mOzPAzD4Hg8RgYNe47Z b/80OtA9PpY439ltDxnMjMMH75mfa3Q7sguq2lNVizYYibnzSx4lhMdxIo4xbs4zTwMGx2IGldyi PTE+eGawr3DiyCfXjh16t3/UYF8/sb//obVmdYvRMWeeuyYW46UljxMlj+NCcAyMm/Ow1gDH4wZd u8YjE2Pxf3/wkf2v1z8cGAfgSuAGgPiB59fOb1iUXOYx5l93RGJqiuIlwTEhuCKL/F8c8bhBybhB U1PCOnHGHjj0bv9PAKYAiP8AMOx3ElGrG0IAAABIaWNPboAAEAkAACAAgAAQAQAAALmAABACAAAA k4AAEAMAAAAUgAAQBAAAABSAABAFAAAAAIAAEAYAAAAAgAAQBwAAAACAABAMAAAAAIxUgdkAAAAA SUVORK5CYII= "
     id="image10"
     x="0"
     y="0" />
  <image
     width="4"
     height="4"
     preserveAspectRatio="none"
     xlink:href="data:image/png;base64,iVBORw0KGgoAAAANSUhEUgAAAIAAAACACAYAAADDPmHLAAAABHNCSVQICAgIfAhkiAAAIABJREFU eJztfXmcFNW59nNOLb3OvjPDMDMgMCCCLIKBIHpdoogaQW+iGEk0CeaaKyaamOhNyDUmJtFPFDTG mE+TkCtGjHg/cuUmJrgrArIosg07wwwzw2zd01st5/ujq7qrqqt7ema6Zwbh/f3Or6tOV1VXnfc9 z/u87zmnGjgrZ7SQob6B003WjRxZTgiZTQAvAfwEePfqo0ebh/q++itnDSBNWVddXRMIBh8ryM29 Ls/rhSgIUFUVwVBIbu/oWO10Ou+98tChtqG+z77KWQNIQ/6rrGy2wHEbRldVed1OJwAgIkngKAXH cVBVFc2trc1dPt/tXzxx4q9DfLt9krMG0Iu8VFVVoyjKtgm1tfmKouBEayu6/X6ojIEAcDkcKCsq QmFeHvyBAJpaWlZxHPeDqw4d8g/1vacjZw0ghbxYVcUHgsGN59bWzpFkGQcaG8E0xRMAhJDYdq7H g5EVFeAoRePJkw2hcHjxNceObRraJ+hduKG+geEsVzscd48oKrrd5XBgz5EjYIxFvyCWfkMIwpKE 9s5OuJxOlBUXF3Ict2QBz9OvFBW9+6fOTnXw7z49OYsASeQP5eWTBY7bMqmmht9+4AAikhTr7YC5 91vRoDAvD1VlZVBVFcebmz+QZHnJNceO7R2iR0kpZxHARv5UWekMRSIbJtXUlB9paUFnIJD8YCMa aNvBcBid3d3wejwoKy6uYowtuUYQutf4fJuzfOt9lrMGYCNXOp2/qi0ruwaM4eDJk9FKK+xrwuy+ IwSKqqK9qwsqYygtLBRzvN6r5nPc9FsKCjb+qbNz2BDEswZgkefq6i7yUPp0TWkpdhw6BFX3+0ii bKPYoEEgGER3Tw/yvF6UFhWNjUjSkmtF8eCLPt/u7DxB3+QsBzDIC3Pn5nft2vXxrLFjq/Y0NuKU z2fr4xP8v6EgCTfgCEFFSQlKCgsRCAZxrKnpeVEUvz3U4eJZBDDI5zs7nzt35MjP+UIhHG1rs4V2 XfqKBgyAr6cH/kAAhfn5KCksnBIIhW5a5HZvf6G7+0gmn6MvchYBAPzjL38ZR9zuDd0rVtSM6uzE u/v2QVVV+16dgv0nFJtjAYCnFJXl5SjKy0O3zyc3t7au4AXhB1cdOiQP7pOfRQD8c/16nsvL+x/C 8xPcc+eiTZZxats2MEWx9em2+1ZksIoVDRhDt8+HUDiM4sJCWpCX9zlfT881N3q977zQ3d2akQdL U+hg/thwFOpy3Q9gOgAwxpA/fz7OXbkS7ro6MMbAEFUqYyy2rwJQGYt+6tvaPrMrSa7T4fNh78GD CITDqKmqmlJUULDl1crK7w7m85/RLuD9d9+cKav0HUVReL2O4zjwPA/CGI79/vdofOklQFFSk8A0 CCJ6Oa+koAAVpaWQZRnHm5reACG3zD98+Hi22+CMdQHb3nvNG4Hrb4SQYp7nYz2TEAJKKSjHoWDa NBROnYrObdsg+/19cwN9DRdDIXT5fMjNyUFpUVGNJMtfu1YQDr/o8+0a+NOmuJVsXnw4y4fv/vMx CY5llFJQSkEIgSzLkGUZHMfFCqUUiESwf8UKNG/YECNyA0GDVOEiBVBeUoKyoiIEw2EcP3FiLaH0 6wuOHu3MRjucsRygXDjq93Ld0YbXer3T6YTH4wHRiJpeqNOJCfffj/N+/nPwubmJPh3J/b2JKxiK kQsYz1MBNLW2Yv+RI+AoxZiamkWiIHz8cnn5v2SjHc5IF9C19ZcT8/mO54v4Jp5AQZAUg2hIwHEc RFEEIQSqqsbQgRCCnNpaVF51FQJHjqDn6NEEmGfpRg1WsbmOJMto7+qCwPMoLy7O7ezqummRx7Pz z35/RgeVzjgX0L3l57yDUzYDbApjCpgaRkDNRRM3CzJXAKNLUFUVkUgkhhBGt3B07VrsXbUKSjDY J4II2LuEVO6jvLgYDlHE8aamTp7na68/cSJj7uCMcwEClR8EMIUxFUyVwFQJTrUJ1ZGXkSfvjPV2 QggEQYDX6wXPR4MEHbYBoObGG3HRCy8gf9Ik2zDPFCIathNcBnoPF5va2sBRChXIlxXlm5lsjzPK BYQ+Wj6bEu4ZxlTKmIRoiYCpEqCG4YrsgygfR8RRC8K5Yj3f4XDE5v4BiBmIIz8fNdddB0JpNHmk qv1KHhkl2egiASDJMlRVldcGAn8acGNocsYYQHDrj72UCq+DsULGpFjvZ2rUABiLgDEJvNwMV+AD qHwBmKMyZgSCIMDhcEBV1Sgx1NwE5TiUzpyJiosuQuvWrYh0dPSqeJbsO6sYvpMUBUrUAPmXA4HH M9AkAM4gF0CpsBKM1TAmA6oE6AigGj41gyByJ3Jan4an5RlQhGM9nuM4eL1euFyu2HV1qC6YOBGX vfQSxtx8cyLzT+UGUrgE43kRWYaiqlCBjIaDZwQChD76z2sJwcMMSqynM1UClAigo4DRJbBoHQ01 QOjcCNU9BsRRFiOIgiBAFEUoigIg7hI4UUTlvHkomjQJLZs3Q7ImjzIzurjhL4HAq5loF+AMMIDg 1h+VU8pvYEx1myDfoHSwSKJL0L6H3AG+428gqh/InQ5KuVhE4HQ6o4RPVWOughCCvLo6jLn+eviP HUNXQ0NGw0XG2AOvBIP7M9U+n3kXQKn4W8bU4ngPN8J9vETdQsSCAhLAGMAU0Ob/At11C0jwgEnZ DocDDocjljwCorAuFhRg7pNPYubDD4O6XCY4T8b2rQmhhMLYB185dSqjC08+0wgQ+ugn3wTId1KR PivsQ5UA7RgwGSAcGFPAmAwWPgn15EsgVADNm2YKC3UDMBoHIQQF9fUYNX8+OnbvRk9j40DQwM8Y u/zVYLAjk230mTWA4JYHRlMi/AVMFqFGNNIXMZC+iC3k6wYBJgFEAJgaNQTI0U81AtbxNtTOD0Dy LwSjHlPaWFXVWLJINwohJwejFiwA53ajZdOmfoWLjLHv3Nbe/r+ZbqfPpAEEtzzAU86xnkGps5I+ O2Ub8wG6QYBwICBm5TMFQJT4IdQItWkt4BgB1TnGZACSJIEQEksgAVF4L5oyBeUXXYRTO3YgfOqU reKZYdsg67/e3n53NtrqM8kBCBXuZ0ydZfbzGqnTirn3G8JBJoFBBSECGNRoYVqBZYGP4gPb+11g 711QpS6oqhorPT098Pvj8z11l5A/fjzmrV6N0bfcYppIEgsRkcAN2lTGvp6ttvrMIUBo64+mgXB/ YEyixt5vVnYkCemLAKoMynsAMK3XywYUUGx/kwQPgrT9PzDXOVDFypgRRCIRhEIhCIJgIomgFCWz ZqFo6lS0fvgh5J6e5G6A0pvuaG/fmq32+kwZQHDLA15CxQ2MSaUJSrcqO5YCNvMAyjlBCA8wGcwA /9Ht5Ev8iNoDrn09oHRD9kwHY1GFK4qCgLaySBCEuBEAcFZUoGrBAgSbm+GzhItaXuD5f2tv/0V2 WisqnykD+I9vXvIooFwVz/SlR/qgkb5oatcbZfya8mPbTEGSKZ8mEaUTcIX3ICKOgUJzY7wgFAoh HA4nhIxEEFA2bx7ctbVo27QJaiSiG8JhT13dglebmiLZbLPPjAGEPlo+H4StMMb6iaTPQv5MYaEM TijQFC2b4V9Hgl6EEBGCuwZU6YbTvxEMBGGhLppKYAyyLMPv98dGGo1o4KmpQfnll6O7oQGhEyfk nLFjr/na1q0HstdiUflMGEBwyw+LCeHWM1XKtSd9Nr3fkgugfB4I4cAMvZ4xWdtXkAr+dRE9dVH3 AQVgMsTgTjiC2xESJ0Ah7hgaBAIBRCIROJ1OExpwbjfKr7gCYlnZzhv/8If7s9tqUflMRAGEOn7N mFxln+mL+/rYAJDlOEKdoJwLgKrF/Vox7vcivKMseg0tYtDPFyL7UHryHrj9r8fIIWMMgUAAJ06c QCgUik8U0SKFkrlzP8hqgxnktDeA0NYf3cqYvCghvWtVdoz0mUM/gGnQb1E8rPvJhXJu8I4KrScb ShT7QdQgCjt/jZL2h0Fkc7jY1taGzs7oAJ9mCA1KKHRvFpvMJKe1Cwhsvq+GEG4dVMlp8usJkG/m AbFcAItAcJQBhGpwr5jhX3MBqckfgegdC0IootAfLSyWNFJi9YJ8DDnBvyPMVSLCjYhdQZIkPVyU VSl09fTZnz+U1YYzyGlrAIHN9/GUOl5mTBrPmAbxfSF9agQcnwfK51iyfTISs3/JRXBVa9fQFG9Q OmOKhiKKlkRSQFgA3uAb4NV2BMVzwYgAIEoSpbDvZzMvnPvHLDedSU5bF0AIfxdj0rxE0hcxZPqS DwCB8ODEIiTAfYLvT977KZ8HXiwFGINxWgfToB9giC0YY6pWDwAMeaENqO5YBqcUm+S7RWStP8li k9nKaYkAwc0/mAxC/8xYhJpjfCvpi5hRwHCc6KqOQ7+J8Rv3U8T+hIfDO06bV22AfQ36WRJ3EE/8 AhzzIzf0D0jciPUEytJZl3xlUBeGAgDf+yHDSwIf3usE4Z5nTOLTI32J5JB3lIJQRzT1a9frjftJ RHTXghBeM5bYSH9Uwdo1jBPDopEBS7gmgfr6tC/8aEH2Wiy1nHYugFDhQTB5iinPn5Dvj5iMIpYL YBIodYITizVIVrQBHyUWvjGtl7IU8M+JxeCEQiAB9tUY9Nu7A2a9ZqdES76azfbqTU4rAwhs/t5F ALsnTvoSlZ1q5g+YAsE1Kuqz9eQOU2LGAMRJW7LeT6gDorsW8V5tCR1T1FuvyUCW1iw8kPUVwKnk tDGAng+/m08Iv9oK5+bhXSvcm6MBwVUNQgTYx/k2LsBGRM85AGjsGGY415gASqxn1muuqbqh68Xs tVh6ctoYAKXOlYxJVYmkT4oneKyhn+F7yueBE4rN4/tMtd9PonzeWQmOz0UMzjV4NyaAUtbH5TiA O7LcZGnJaWEAwc3fX8iYtJipEphi18M1NEhC+gihEN2jkVavj/VWs1DOA8E1ygTviSQvbfK3uPKG 7qws9+6rDHsD6Nl0dxWAZ239fEKcH3cLxkkegnt0NFNnCNNi2yZjMO4bhUD0jtNW0vYF9o31MaNa UXlD95vZb7n0ZNgbAKWO3zIm54NZSJ8asTGI+Hc6GvCOCnBCoQnezXAfjdOjxR7+RXcdKOcGksB7 svpYBBDv/Z8A5AeD1HRpybA2gMCH9/4bY/IXjD4/nse3I33mQqgI0V2XOs63cwkGoUI+eGelplwb Vq/3dpv6aO+PhX4yQBZX3tAVGrQGTEOGrQH0bPrOOACPmBRt2EYCD7ASQxmOnIkgoEhL+TFFGvw/ 4eHw1mt1BjjvAwcwGNQDlTd07Ris9ktXhqUB9HxwF08Iv4YxyWkifRbYtw3/tO9Edy0on6NBfC+s 3xSqxcXhHQdKHTDDuTXvH0/+xNb0MGO9CgDvAPTRQW7GtGRYGgCh/I8Zk6YkjuglZvxMLkHjAZTL ibL+WK80D8tGe6Ux8WOE8KjwYil4sSwNkmdJ/8aUHgv9/AB3S+UNnYP+FtB0ZNgZQM8Hy2YC7D4w S8iXLONnIn0RgDE4c6dEmz9przeighLb1+GfUAdEbz1sYd9gLOnl/cmdlTd0HB6a1uxdhpUB+N+/ 00sot4ap0YGe+JKu5Oldq0E4vPVRxm4X6/c69BsVR85EEMpZFGno2Qn11rx/LPRbV3lD1+8HtxX7 JsPKACjnfIwxucZK+pCM9FkMghNL+8f6DbG/4KoGLxTF/HpypRvrrddkAGPNIHzWVvRkSoaNAfRs uns+Y/LtTInY9PD4ZI/EnL/2HaFw5U3TRvPMcX1i7J9IBIFotk/0jO1fosfkIhhAyO2Vi9qH/R9J DgsD8L//rWIAz6c1oqcaSV8cBVx500GoaOnlxoyfefQvtq/3WBA4cydrC0JZXJF6LM90dh9HBiMq MCMqgKyqXNRxWvyB5LAwAEqdz4FJxfakzz7jZ3QLomsUBGdlL/Buo3xD6lf0nAPK55oVaatgY8ho N+WLNRBCh1W2L5UMuQH0fHDXbYxJV6dN+iy5AEqdcBbMSCvOT+YSOCHfNFjUP9hXAagyCF08YmHr sPlTqN5kSA3A/97SGhC2wo70JbJ8m2FepsJdNAcEXPrEL4G0EThzz4/eULIQL1avx/w2sB8N+X46 YmHrsP+3UKMMmQH431vKE87xAlMkrx3pQ1LSFzcKp3cCeLEEzDLCF53MGVeetRczA5Q7vRO0gR7d 1xtKwmCPDv2GSCAeGWwB4R4amtbsvwyZARDKf58xeVZCD7eu3FHtX97E8flw5k+N9VQTo9cTPAbD iO/Hv+cdpRDco5IndNLP+/tBuMUjrm8eltm+VDIkBuB/747JAJabSZ99YscuFwAAnuKLoxfrlfjZ EUEFhPBw5k5OoeAkMM8MkUFssIfcN+L65mH517C9yaAbgO/dbzgJ5dcwVeJNL29KNskjYbKHAlf+ BaBCfrTHq2kSP8u+M/c87TUwcYhPvaDDhgNEj11fcX3zk4PdjpmSQTcAQvlfMVUa3zvps4sGZPDO CjhzJ1li+zRRQKsTnFXgHGV2LD553j8R9gGobSDCsJjb118ZVAPwv3/nFWDsTjvIt1/Hbz6OUAHe 4kttId00speU8asg1AGHd4L5GgkDOHF4TxkSgiyt+OKxIZ3WPVAZNAPofm9ZPqA+mx7pSwz9wFR4 ii4G4dxxSNfhPwbxiiUVbNzXWH/uZG0lr3mM38jqWRze4yVxytfzFV9sfHmw2i9bMmhLwwihjzFV qkro4UnifKNbAFMgesZC9J6DtJZz2e4rEN214Ph8RN/5kxrykaoe6mEQ4duD1XbpyjMHJ0yOKJ2r AMwC0MAR5/I7xhxMufZgUBCg/YOHqiKkYrFCixBdS9dLpk815gJkUM4LT/ElMM3atYH3VL6f8l6I njGx7/oX+jGAqTLALam47vCwyvb9uqF2dkTpfCffWT9nZN5VfKln5ngV8pqnGmpvTnXeILkA7loQ yitcKRRxAhjEuLLtZv0YSB8AeEuvAKEC4pM5DBM60mD8AODMOQ8AkHxqVy/1sciArCi/7vCwmdYN AE811M5WmbRhbNFXvSPzvgACigLXuTiv7B5wxPH8Uw21C5OdOygGwAg/ByDRkTbOC+aZCYjVSLqk S41EYRoMzrxpEFzVtpBumuKVwgUInjEghkki/R7uhbodhBtWAz1PNdTOZ0zaMLb4q15/5Cg+PvkY jnatx9623+FQx8uoL1nKE0LXJDOCQUIAUgVCtPffEYBwgGcySN7FABFtSF/UR3NiETxFc01ED5ae Dh0VbImfog30VMMK70ZXkTrvr/8GCwHckvJrDwybbJ+m1HUTSr/l7Q4fRKPvH0baiq7wfhzpfBX1 xd/gAax5an+iEQyOARBSE/sTNBIvRBwBrvRGEOdowDT3XwFAkFN2dfRYZlGQNSZPQvwIKBw5EwE1 cel2qry//VJvPFB+7YFhM637yf11CxnDmvqSpXxrz0c40b3RFLTopTO0Fyd8b6G+ZCnPgDVPWoxg UAyAGBFAQwGiGQOhTvAl14AvvT72ilYAcBd+Xnv9igHujeQujdSvI6cehIrxrF6a+f3E/ID6Rvm1 B4bNtO4n99fdBmDNhNKlfJPvLZz0v48U/0aIU4HtaPK9hQmlS3mArH5yf+1s/VpZN4BTmx+vMcG/ BQX0Os57HhyjvgvOMxa8sxKuggsQm9lrjPPTTP1yYik4R0ncj1tRw6r45BygE0S4JdvtlK48ub/u LkrEZyeV/Tt/wvcW2gLb7Tp+QmkLbMcJ31uYUPpNp8rkDav21cwGkP1/Dm3f/MQ8gG0EoZrSqfY+ vPg+CNGSM9F9KrdBZMFoLoBFtNAwSYllD8Px8BEErvxpAACmKhrHUDRuIYOpcnxbfxewanwvsHFb XVx2zb6M/U/fQGTVvrq7OCqumFi6FEc616MjuLvP1yj1zkSuowYNp170c8R5fvZdAEFlAvRbuYCl ThVLEREroVLBDMtJY3/dPUSjAkdOfZRoGkfubJI6vaICU9cOF+Wv3Df6QUodKyaWLsWB9pfRHtyd Vs+3lpP+TQgrPjDAy4CFg5AJJFXapy30J6tn1AHJWQcaaQINHe0V8vVt3lkJTshD7OVNVgWnGfoB 6nEQYVhM6165d/RjDi5v2YTS27C/7UV0hw9hIODd1P0OwAhUJnsHIxUc4wDEhgcQG2MgBmNQnSPB hDzQ7o8BFkKqdC/lXBA9tUlQInEhh01+P1bPQJaULdg15C9xeGLv6MdEPm9ZfckS7GldDX/k2ICv GVF8AABC6IbsGwCJRgDpQL+pzljP50MtnA34dgL+A0lYP4PoHQ+ARCFftSo3uSuw5v1VglXlV+/+ R9bbJoU8vX8aH5RP/tbB5S+pL7kVn7b8HgHpZMauT0CW/fv4Q+8OhguoSQr/faoTgPzpYI4KsPa3 waSgyQUI7lGgvBtQ5USf3re8/56AwA3ay5rt5Nf7pvEBqeWFPOfoRWNLbsSu5v+LoNSCDHL2Zcsm HHscGIw8ACFVRI8AksB8X+qIuxp0xPUg7mroK3wp7wXvHBFXZCz0MyzoQBz+U+T9ZZ/D8aW6K3YO 2Uscnto3jQ/KLS/kOesWjSn6Ij5p/h0CUku/CJ9NkRnYnXdrygeyPBzcvu1pL2EsP8Hv28B8r/zA WMd5wFVcC9K1HXLL6xC9Y7VftE7tMs7dY72Sv4BIl4++7KMhy/Y9uXe6Nyi1vJTnrPvCmKIvYmfT bzV/nZGeLwPsS9+deNw0hyHbLqDGDOl6rJ9+NJCqjhZMhSO3HqRzJxBuNZG/dJZ0+zgJ7xe1o9kR BscIXMxR/NK26fwN528Z9Hy/pvzXSr2T59QUXo7tJ55GRPZl6vIyCPvSPROPJUxgyaoLICCV9pBO berMxpCyzljPe8GKPweWOz6asU+Yv2+M7eORQJDKeK24Ff78SowsuhzlhfMQdDiXHRZa337+4+nl 2WwXq6zaM8MbkFpfK/FOmVOV/3lsa/wNwrIfDCQTJcQAW+UD2eYAhNT0G+b7Ei4SCuRNBMovAxNz EGP9dlO+wCARBa8VtaCibD7GlSwEJQ44hELMGLkMpZ7Js1rQum3lrkkzs9o2mqzcPaM8ILVsLPVM njMybw62Hf8twrLPNE41gOJnjF1677lHk05dyxittJOO7c88CEIeAKHa4I85/QtQsxJNdYZjoaWK 0zkOCtRTH4K1bzOndrVUrwIJfy1ogrNsJlxCMfa2rtNcBODgczCp4hZ0hY6gofU1mRJh2T2T9mZt yvfK3ReUB6SWjaMK5o4v8Z6LbY3PQlEz9i9xfgL2he+dd+TdVAdlGwGqEnx5L5A+4DoqgpbOBR15 DcB74uQPDCpUbMxrBQrHIdc5Cntb1oGpaowihyUfth57GhxxYGrVN3hK+FUP76h57olPL3Bmumme +PSC8kCkZWN1wdzx+a7R2Hb8WShKJCNUHwx+sN6VD2Q9DCQ16UE6jdcNKFyk0Ikm8Y4BP+ZroHnj EQ3xVLznbUN7fhkq8z+HT5r/DIUxqCCmojCGT0++ghPdWzGj+k7kOCqX9Eitbz++a2ZVplrl8V0z x/VIrW+PLJg7Pt9Zh+2Nf4CkSgn30s/SzIBZ35/cu/KBQeAAA8oADiBCACEgnAf8qBvBVy/ER95u HM5zYmzpAuxoXN1rb2vs3IIdjX/CpIqbUZEzdXpAatn8ix31Fw20SVbsmjkuILW8Ma5kwZgCVx12 NP5RI6jJ76UPpRmMzbtv8uFd6d5PthEgYSJIasWZE0a2MG9zfuo6it1iB7Z7gzhvxE3Yfnw1wnIA KiO9lq7QCWw68mtU5s3A2NIF5Yoqvf7w9vq7+tsaj30yc1xPpPWNcaXXlRMiYNvx1VEUSuNe0ijN jGHeD6Yc7tMaxayRwO0bflVVU1l8LBb/a8owhYHGuQC2x6V7LrU/jhA0BD7Ea6eewIxRt2NX0zp0 hfo+mEJAMa5sPvJdVdh2fDXCsm+1Wyi74zuT3k97avjPt9XPVlh43YTya4sB4NPmV/t8HylkDwG7 8v6phw739cSsIUC3L5hAAAcSBvYF+vW6iBrGhrZVqC6cjX0tf0dn8Dii/+rdt6Iyht3N63G0fRNm 1dyBXOfIxT2Rlrcf3XlhTTpt8bOPJsxWVHnD+VWLixmAXU3/3a/7SFL2ALi4P8oHsvivYS63e+b2 3UdvlCQFJUV5EAXBHMohsbcmD/lShYFc0nNPRg5hW/cGOPlcNHd/ChOn6EfpDjWjvecQplR9CYoq lbf1NCy+dGnFR//8TeuhZO3w0NYJs1XIG6aOvNnbFWzE3pN/G/B9GMoeQtjF/zHtYHN/9ZQ1AxBE x1Ub3tx5+bq/bcGza/6Jj/ccBQMwpmYEKOV6gX4rzJsVb4L+ZMYECoFzYXPnf6M71JSx5wrLfjR2 bse4sstQ4B7lPtm9+6ZLv1kR+OczLe9bj31o66SFCpPWTqu+ydvecxgHWt/K2H0AeIcQNv9H0/uv fCCLHGBM3ajHunyBZfo/ZgOAqqooKsjBt269ErcsugROh8PUq4lF8YnzB63H0hTH0gafcuqnLzb+ pLg90vhIpp+PEIpxZZei2Dsam4/8EWHJv9Yjln373invND+yYw4fkjpvY2CrLqz7Gn+i82McbEsr KktX3iGEXfnjGQ0DXp6WNQMoLy9/hTF2nf5v2XrR94sKcnDvtxbi5oWXpIB+q4tIC/qbJRZ5+FTk +G/qRlwfAoCHt0y9Iqj41gDIz/RzjsifhAkVV2Lr0TXo6DkqI/p/QMUcdXgvrFuCw6c243jHR5n8 yXdA2JU/uWDgygeyaAAjRozYzBibris8mSHMnDoOK376LVRXliaB+WScIaGukwE/VZnyZE7JjITx /F9unVnjkzpeAjA908+a6yzDzNrFONVzGKd6DsMtFmBkwfnYdWIDGjs/zuRPrSeEffk/Z+7P2MLU rBlAVVVVK2Os2GoAdoaQ43Vh5c/uxGXzZvTCBawhX1TxAFYAeNxTMj2nDoXGAAAHm0lEQVTlHL7l m+p5RVVWMpClmX5enoqoKZqBfHcFwnIAR05tRXcoc1O4AKwlhH35wVn7MjpUnRUDqK6udgII2ine +AnAtL/8e0vwjVsXwHaghxCQmM+nACEhgDwNsIc8pRf06Z2897837l8BPAvAm/GHz46sJYR9+acX Zlb5QJYMoKamZgyA/b0ZgBUJVFXF7YuvxoM/vD0V9MsM5GnC2EOe8ln9ZsD3vztuHGNkLYBzM/bg 2ZHVhLCvPjR7b1YmqWTFAOrq6v4FwOvpGIDREPTte799E+6+41+t0C8DZDUDHvKWX9iQifv84Tvj vCqjKwEsycT1Mi9sxcOf33N3Nn8hKwYwZsyYWwE835viU6HBE7/4DhZde4kG/WRdOCLfWzhqXkYU b5X73qq/jYGsApDxYd/+C1vxi7m7s6p8IEsGMHbs2B8DWJ6u4u0MwOVy4K8vPrqOUrp8ypybsj5R 83tv1k8GyFoAY7L9W2nII7+86NNBmZqeFQOor69/jjG2pDeFpzCEN84ZPXL5ps073szG/SWT7705 IV9l5DkA1w3m75qFLXtk3qeP935cZiQrBjBx4sS/M8Yu7aviVVXd4nI67jly9NigKt4q92yceBdj 5BEM4lvUosKWPXrJrkFTPpCl0UBKaRWlFH0o210u13UtLS0zhlr5APDIxbseF5TceYyR4xkcteul 0EFXPpAlBJg8eXKQMeZMo8c3OByO5Xv37h0WS7Ct8uP/ubq4SzzyAkAuzeLPyDwTv/TIZVuG5KWT GUeAOXPmFFNKnb30+MM5OTlLxo4dWz9clQ8AP7lqfVtRcOKVgpyznDHIGZqqbSwyr7iHTPlAFnyc 1+utCQaDiK7KhfWzOScn5xcjRox4+pVXXonl6++77z7icrngdDrhcrmI0+mEIAjgOA6U9slG9YFy oI/oFp0zrEClYcgkBIWGIJMQ5HAQLqn0Z6cc+z7w802rART35bopRHaoOV9+5Mp3hvR1sxlxAatW rSKnTp2Cz+fDwYMHrzt27NhfLFDfmZeX98jIkSOfyM/PD4miiPz8fOTm5oLnecrzPOU4jvA8TziO AyGkP4qniM5v4Az7mRS1WzhesS933TMSCQ100Yi/LHTeouLw+DcpE1SOCUwhYfDMBU51gmMiCDgW nSgbm/KpS2x78eLFzHrhvkraBrB69WrrdBT9fBoOh2k4HCaSJJGdO3d+85NPPnlUC+e6amtrn50x Y8bTFRUV1oVu+nV4AALiyuvPM+jKF7XCI7YQMSOiLyuSJRJUD3j/98528UDKV7AmvVlGArWBS79R HjpvEwAJgIzoMmerMnXFG1+RZp0HrBrqjeewdI0jZQNpStcn2/Na4RBvYH07psBdu3bNfvvttx+s rq5+a8aMGb8rKSnpgb1CCOJKcyKuOIK+K45q9+A0XCsbBhABEAIQanbsOP+g+41bVSiu9G+Shsf5 r/4/RdKYXYgqP6wVSbu+8feAqOIjWpEQNxTdKIwGpBq2Za2oANRUxpC0gTTlCwAcANxacWnFoX2n f29UoG4wvSlE7/36+Q4M3AAchnszrEAdkBh7m0lpPVxbzh73Xy8OcO15vV1EYM5Qfc81G/PkypOw GBPiyjWKrtCwdkwYcaXKhvN1A9LvLaiVgFbCAKRkRpCKBHKIKrsAQCmi5KcQQA4AD+KN7dCOc8Js ADziijUqRBcdAQREDURHkf4oTUcqAXGUsrqr/ooRcvXeJQFQPUoxm+K7qfmA6w3SJO7KTXYBkbmU Sf5FTR61aBSAUTArMYK4Yq2/a1W0saeHDEU3yh4APgDtANoAtADoMJyTILaNo/V+B6LKrwRQq914 mVbnRVy5erEigK7cZIrV9zmYyVt/laafZ+35mTAA/TO+xNjis5uEXUKD8w1RIZLp90TVzSYHFgU9 aqHRVxtfUKTDuZXoxXgHEqFedw1G5YcA+BFV+EkARwAcAtCo1YXtUCAVAuiNqbsAL6K9PxdmA9Ah Xle0lS8kUz41FDty2ZukMpZszXSyg1EGABXSRJajlEkNjrf4Dv4YJYygUBmlnBO6WHaxXL0dkinZ SObsDM7o7/VjZUSRV4d93c3KiCKBG1H9pORCqTiACCAPQDmAakSRoFir8yAO+zon4A3Fjo0blctZ ju+L8o2okSk/31+x9mgZNuiQ5BzjeVYFG4/VuYfRXeiooaOA7u/9ALoQhf9GAEcBNAPoWrx4se26 81QIoGgXbdVuoB1x/68r3WgAOgLorD4Z+RsIYdOJo9XA9O8GW4zcQFeSHaGzO0//1P28DuWK5Xsr YYwgkQgaiZ/OAzoAdGp1Se+ntzDQSNKsvl6v14veK3tT7kBCNv362Qr3+iq6Adix9XTicDumrxtA 0ugDcdQwEklj0Y+NIBoB9M8AAFMuQIdeainW7Js1N2Dn+/ubtMlmuNcfMRqA3hsjsE/s2J0LJMb6 ulswHmeN+Y1kVIE5WaQaj+ktIdTnRtMMwniu1X8bDcYuHTuQtK2RP9gZ2FCJNTHTGw/QJVW2zyh6 vTXrB8vxaWcAdcla49kYit1v9ydU683AhkKsjL4v5xnPT3pMJvL+djIcek+/JA0DGyzJ6ODMYMv/ B8AyPL4SobJ8AAAAAElFTkSuQmCC "
     id="image10-3"
     x="8"
     y="12" />
  <image
     width="4"
     height="4"
     preserveAspectRatio="none"
     xlink:href="data:image/png;base64,iVBORw0KGgoAAAANSUhEUgAAAIAAAACACAYAAADDPmHLAAAgAElEQVR4nOy9eZBl133f9znL3d7+ +r3eu6e7ZwFmAIogCS4SSVGQINuSl8RUiYSdslwpJrGopCI7Li8qp6IocpzIjmLLsVmWLUuKkDg2 RFiUbIgUCG4AsWOwY2YwC2bBTPf0vr793ntO/rj3vve6Z0ASEriAxg816Lfc5dzz276/5ZwH79A7 9A69Q+/QO/QOvUPv0Dv0Dr1D79A79A69Q+/QO/QOvUPv0Pc5ie/2AL7H6eD82O/KKL6N9I4ADJF9 9iN30mv/FRx5WxTLqpG5To/cV5+42P3NP33Pl5cAQyIE3zeC8I4AAPbkQpmm/hRC/i2jvKmIHMYq ZFBD5GdtKLwnL7y28Q/v+LO/82WgC8QkwvC2p//kBcD+h6ljlINfiXA/HsuyCG0JI31kfgpVPoJQ Hkq0idvXl65cWvynx3/is78BtIGIRBDe1tZAfbcH8N0k+8jsj+PkfzNW+bu61EWPMqgcqnorqngY lAMIDA7SKRRLeecDf+aHi+u/ff+FCyQWIHMJb1v6T1IA7G9Q/KW/vvA3wf3HoawstM0oMR4yV0NX b0cGYyDl/nNQCKfgj1fz77t1Xp/9/YeuXGfgCt62QqC/2wP4TpP9D1PHyAf/MML5iyE1EZoiaBdV nEMV5xOtt2LA0iE5sCi0YuJHjzT/GvAyA0CY4YK3Hclvfsj3B1mLsJ8/9FPkggciWfh4V0wmJt8p o2rvRpWPpSYfEEMKnUG9uEu8/Sq9zbNUqsEPP/JrMz8LlICARJHelnjqPwkXYO8rjLI49Yto9b/2 ZHWqY2rE0kcWptC125FuecA+0X+RqIcA29ki3jqFaa2AMSA9NVbh2MJo7/wDT7YXeRsDwu97F2A/ N/lefP/XjPQ+1hUj9GwRoQN09TCyMANC7dddS/JeWDAW01oi3r2AjbpDBwlkbmzkP/to++dPXekt /7Pf23ueAR4w1g7k4KGHHipZ2/2zlVLhA64rl2Pb+9Kjj/7Bqb/xN/758AW/a/S2NFvfClmL4IFD fwml//fIyc014joxPm5hBFU7jnDLg4MF+2dCCGzYwTRewzSXsSa+6Uxp0eb11y7+h5/4m5d+6fUN FoHGT//0T3fvv/9++/v33XfYDZy/XCjqDwsRH3e1mqzWxq3S3t7e3t5LYa/3by9eWf/cZz/72Z37 77//u4Yfvi9dgP2/izUWJ34Rqf5+R1XG9uJR2lEOm5vBGzuBdHIpQ1Ou7mM+mPYq8dZpTGuNvkkQ MLDwyQkGh1LeWfjB20z3d76w9xIQnT592vz6r//6IWT41yol7ycw3R+SktrIyJgulUe04+i85+p5 R8ufLBSDP3P8xOHdj370x5Z93+/edttt8vTp099RN/J9JwD2vvp7KBV/0yj/r7TlqLvdG6EV5hGF OdyRQ/hBQJ+hltTnp3NuQ+Ldi5jtC1jTSb7LAKEYNhMDiRHKUxMVjk+Px2cfP6WXDx8+rD74/vf8 93PT9btcx3xASqEqlRoj9Yn0egKltPA8X3mOM+V5+sccLZzqyPi5w4cPNx944IHvaIbx+0YA7H2o X/ovFv4ynvMvI1V6b1uME4oC+OPI8lF0voLve0glsNYiMoamvLThbqL1jSWwJgkFYeAehvVS7DcZ yssHx8b0LZ0ofPm2D/7UTx45NPbhIKc/LKUUuUKB8fEZhNo/1QJQWtNu7Qbdduu95VJ+cndv72y9 Pt5+4YUXet+2iTpA3xcCYD+TH6M89suRVr/csrXRrV4dnAJu/Qhu/QheoYDvO4RhxNZ6E2NjXE+n yh8RN64Sb7yK7e7tdw2QCEJmCYRASIVwckg3lwLFGIQmKOVHD5XMwqXm8fHReumHPc91PM9nfOoQ juPtE5rsVbO5y/bGGtYaV0neVS2X7hgbHb0yPjmzNTc31/tOuIO3vQDY+0Z/iHL+t42T+0STMWej XaEnK8T5ebzKNNpxEDJhYhQZjIlRUqFdjbAd4u2zmO0rYKP0gjBsGZDJC6F8VHGWSI/adq9kQlG2 KjcmdFASNtzBxIJiPppUQszsmgnf81zGJ2coFMqIA1lFAbTbTdZWFgmjCCEFWkqpFYdy+eDOQ4dm uq7H5UpltP3tFoK3bRRg7yPATn4KR/69UJemOnKMrsnRFKOQn8LP58gVfbQjUxMu+loYG4PtbGF3 zmO7u6mZHzb52etk7mVulDiYtzvr3eja2cvdna2d2PZiauMjavZ9t/nlQkubnVcRxhA2d3n0+p0U Jj7Cobl5PN9DK9UXAgFEUY/lpSt02m2EEEghEOk/EHRju9Lt2N86f+nyv5Iyt/jpT386/HbN49vS Atj7gmns2D8Mpf67bVmvtMUo0imhx2/FHZklX8oT5F2i0BCGMVLKdHIh7PUIN68g9s5jwhaxlQhh EamJ3w/6QAZ1qP6AvX5xs/fFex9Ye/yJ0xcfe/7auRdevX7x3JnXVzaubYzXJyZ1sZqT9HZRjqKm 1+m6R4l1AUdplJIIQIoEf6yvLtFqNhKXIgQCgZCDv0qKguOo943W60ebrfbZSqXW+HbhgredANh7 R+9G5f9fo3I/sceEWu9UiZ06wcwJVK6O1jpJ5VvodkKae10cV6O1wvYaNJfO0N1eJI4M7U6ifU5S 9AMsGDkE9iV69AdYW2pHn//X/37pCy+tPvfvT3VeurBlr13c5ro3+57br+3YltvcdA/NTwVBzmDj iLzfwXY22YhvQWuFUgopJVJKtjZW2NnZTC6fanxiBWTfCkgp0Y5yXUefKBbz77nl2OG1n/jJH7n+ e7/3+c5bPZ9vGwGwfxX/F/7e2Ke1Vr8WqvLhth4nlGUoTOHU5vCCIiJN3UZhRHM3mSvHVThaINqr xOunsOEuQkIcC4QFzwWpSE4UYp/5l0GdHiV76rHnG7/7pbNPPLrIs/l8/kq9Xr989913/1A+lxsL Crko8kfm6n5Xjo75yGgPIzwKcpWw22HXzqK1RmtNY2+LjfVVrLXIFJdkf4UUiEwIpEAIhdYK19Uz Wqs7pfb3Dh++9fzDDz8c8RY2o7wtBMD+E8a7t4/9H9K6vxDqeqmrahCM4E6eIDc2ixf4faAHJKFe qtGOjLE7lwg3L4HpoRUoCa5jkQrCCLCg5BDwyzRT+3R6vnn1zOtXfv0rq5+rVCoXJiYmrv6Fv/AX fmB2dvZDRxamNmamRt4XGxlUy4rpukCJFjaOEMqlaK+y3hsjlhW6vTabayuAGTA903xACInSGqUU QiqUlFgLUkqUpOp57gdmp6cqP/hDHzvv+37n9OnTb0kZ+nteAOxv1e6mVP5t4QZ/vikn5Z6toSsz OBMnEG6RbicijmOkEMTGJH5UCBytcOwO4eppGlsbtHsgpMBRA0W3CDpdQbeXaJ5SmQxlVkDTNZ69 fm3r9MOnW48EQbDzsY99bGF6evqnHG0vHz8yeefISGVcIKhVYHrUIG0H4h7WgtKSXO91ljtTbKzv YGwSgSAkUsh94M8NfPL5MkG+hBfk8P1C8vzWoJRCK5l3XfX+erU4v3D08NLs7ML6448/fhAXSN6k UHzPFoPs36LYva3+6Ujqvx2r8uhuXCdSJVR1DjEyCUqDEBhjaTU7iQYpSb7oozWYvavEm5fRxAQe dEObRXSJAZVgY4sxgtiCsZbYgjIpIEQCMZ6KmKj7uK4yx48fH52amvov46hz6pZjs3dIKRaMscwt HGbcPUOQ69LbGTyDEQ7F/B71tc9zbfsHKZaKSClxpcAiQEgQglyhhJ/L0261ub60Znu9kHyxRLVS AWERIhYIgSNx3bLzce3o2R//0Y/8b0ePHv3Kpz/96T3+BC7he9IC2H/szYcz1X8mhfPXQ3c03xIj dN0xTPko+BUcLzGVYNFaIpVEKoF2FURd2D6P2b0CxGnqVeA5oOUQwhdgbeKDAxeiGNptgdKgdOoO 4ginWJOFUsm/uCNemZm57a9aG50+fnh6LheIHzYW6Qd5ZqZKTI0so+JdosZy+hQJErXCpehs0e5G bHXraKXQWqOkQgpBoVSmVKlz9fVrfOUrj5innnkpPnP2Qvjqq+d7mxubVMoj0nE9CzFKKiGEwHOd qSBwP1SvFs37P/TRsyMjI+bFF1/MWtTeFH3PCYD9FyM/RS64F7fwwx13SkTuCKK6gDd6FOkESJ2Y TxMbhEwRcwKWsM012suniVvbYEXf1JvY0umlTDUQGoEElAJHWQSWKE5sp1apoGR1AmvwaxP5d83X Pnj29fa5emWkXq8XPialcpVyGR8vM1s+S2CW6G5fTSqHw7UCIRBSU3NWWG6UiEQpjQoUfi7P6Pg0 i69f5d/97h+Yy1dXOlFkWsbSaLbae0vLK62NzS2q5YrM53MCYYRWWggh0I6qaEd9cKxcLNcnD12c n59vP/744xE3Jq6/IX3PJILsL1JhsvY/4Ki/3tOlckePYnNV1OgRZHEMYy1SSuLYsLvTIQwNhZJP Lu+CiYg3LtHaXKLZNligEIDvWhAQW2j1BNYKYpMwOR+AUDYBj0DS/JmQHMYBUqDyo6jytG32dHNp TcmeqOZ8TzE2oqgEW+jeZdrrK0TxzcvGAErEbO1pnt/6MLij5PM5pmfmCHIFfuu3fsdeXdzsTE5N rfm+vyaE2NRaN7rdbnDp0qWZW289OvGRD76vUB3JO66rVBItSISAODbdVrv30LWra//o6vW1V+r1 evOee+5J05rf3CJ8T1iApV/25/yJ8j+XrvNzHafmd50xRGUaPX4CmasAg5i5sdul1w1TObc4toFZ OYNtroA1REbgSHC1JTICIRPUr3Vm8i2+JzAWjBGoNHQE0a/7xAaMFSCTopENW9heU+Tzjjta7Tn1 YJ2x/DIFcw6al+nsbBKZ5BqDdrIDkqAdiiUXFTVYbIyhtUN1ZJQLFy7w0stn7fjE1Ho+n3/Vdd2n Xdd9xvO8Jx3HuZjP59vr6+vj4xPj5dHRmlLCysSySUhwj3YccSxfCE6Uy/nGCy+evvLJT36StKrY l2newDJ81wWg9U9L9xSL3v8j3eAjLT1JqCqo+hH0WNKTv7/yBgjQSuFqgWqtwNZ5RNwEQEqBkhal kudsdSUWgasFEoHSFqUExgja3STz5jiD62YUx4JmK0ndOilMtnGXqLmFae8go21sc5VeY49eKDB2 aBoPFpMyMhaDQ7UEUa/LVq9GPp/n+tJ1glw+DCNe9zzvea31s1LK16SUW1LK9XK5vNhut6cnJyeO jI/VlRCRyiKHLHyUUgmt9ZQfOB+YnhzXjVZ48e677zaf//zns5xB1uf0vSMA9uep/NLPlH8B1/kH 1hmZaKsJYp0DDNIvIfO1G+dRCrQjcegit88Tby/S6qa+OwV4UgrCWBBGEiy4WqB1WslD0OkJeqFF CZtggINxkABrJVGUfKez7zPgaGLiyBJbjcEBK/vWqH+B7PiDl7YxwskxEjRZ3gvomTxCSKy1YaPZ u+w4zqtCiNPAmhAiEkIQRZGt1Yoz09Ozx4t57UuBEmn0kAgCgERKKV3XLQdB8KFi3p1stNpn7r77 T7UPCMEN9F0RgNX/xT3mTpb+hXC8n+3pUb8bTCBHjyBzVWxzE9vZQ2gPEZQAkTjllAFmb4149Qy2 s0UUy1TLDa6Tgj6ZJHWsTTJqrmvSFv9BZ49SAic9HssgPNxXtEutSWY8xVCiyA4xV9ihkrEYCMIN /E8/iLtoz6OstlhplLCygOs5Zme3s2GtvSqEuCql3DLGxEopLYQozM/P//mZ6bERSVROkoWDGkIm CKR1BK0dx/O92yql/HHX19ePH/+B9ZmZGfPiiy/CfkwgAfsdFQAL8u/+n8W/ks+5vy28wodaapLI KaFGDyNrcwgvD1EX29nDhi2EV0K4QXJuHGLWL2HWzycNmlZgYujGElcLXCe5QTIVFkcLlLJ0QkG7 IzFWoKRBK4FOlTaKBb0oScvKYSsuAGGJraQbCqyViRXBDhidHXigbLzve7jRJViLFZJCXmE7O+zY OSqlssznXb/R7G67rrtmrW1IKWWxWJyen5//zxcWZo8qejNSGk8IuY/xw4kra5MJ0NqRjuMeCnz3 3WPj9d29vc6148ePxydPnswEoN/6+h2LAuwvMtYrlX5BaPWzxq/lOmoEKx3AIMtjqInjCNfDdhpE S69ge01kcQw1dRyikHjtPKa1lVxMJGobxpKeEfgOKAFGiL7/Rwi6oaDRlRibIP9Czu7z+aER7LUS 4SjlDa47NGCR4IRGK8EJhYJFD6uL7P8vHQ/7Ss7ZNd6IhFsg6iie3XgPuZHbKBSLttPrbm9vtc70 etELBtGtlIvHxsfrh7SMD2GiisX2mT5cSDpIUiqkUhhjbRSG6xvrO//m+Vcu/Ms4jlcORgnfEQuw /UvBB1Qx96+06/3lnjvmdL1x1MQxZFDEtrYTbVcOMl9FOB5CKkxzCxs2IGxjtq5hO3vJRA9JvFKg BXTDFLWLpG1fyURT41hgrMDRmUUgFZDErguSDGCWLOqXE1JmivQ+QoCjxH5XAmRdQoP2sUFI2R/n G8iAkBInXyLa22WpVSWXC0S5XPXHx8emRserx2vV0q3Fgj8tRXjImjCfZATFG2r/MFlrsViUUkI7 Tt5x9G1+zt26dm3lUhRFvZGREV588cWYb7cL+LUjeP/+b+Z/Lsjpfync/O0td4K4OIWeuQ1ZGUN4 RQg72E4T220gvDzCz4FbSFxBexcbtiAOBxOaMnq4cBMaQTuUxHGS2FEpJ5UEzzF4fiIUUib1gOwa Vli0BkcnwLAbSqQcACOpLJ6fFI3anQRcap25CDG0hGyAUbIx9Unc8CJ5JwXoAmazxeW9EUAgsUJr KaW1vpK2aE1UsCZSyeVVv26QMf5m2t8nazHGpIky7Tla3CKVunLt2vLi0aNHo5/5mZ8x999/v/22 1QJe+Tkmjs7m/yfpqP869kfcjjeGqM2h63Pguil018iRGWyvie02iTdeRwRFbLeBbW6mAAtA7p8/ k2qhBCENeVegsBgSLU9nYND4GacuWgiiMNEQx80MuCCOodsVqW4L3LwdBE3pco8oBmnA+AKZjSvF CqTXSW9LHyvclLKxe0Rd6DQNNurSDXt0Oh3U3g6e56K0HmL4IKuZ3esbMn/oXiaOUdrB9/zpciH3 pwsF7zRgn3nmGQNE3xYBWPk73FEpF/6J9rwf7Tg1wtw0cvIwsjSaPLzJoLdA5CrI6gzxygVsY5Po 9RewYQfiiH6HjrJgRMqxDMdkwCcBfb5jiawkDEG4Ftnn4MAs97qWRk+ghKCobd+kS2nxXYHF4rlJ cUhmPBQghaWYS1LPwg4zPx2HTYeVfWbTgcnMQgwNgyQ1LP06jfWYjW1LFOh+FTPrXkpnJ33dD0WG LMC3RsYYFNDp9oSj5IKUeqLZbG4vLCzswVu8OPTXjuA1/2fvZ0dKhS9Ir/CjTW+GqH4rav4HBsyH dMIGYaksTSBLY8lXrb2U+QxwqrFpq7YdMrkJKu9HZkC3lwDDVkfQ7EjiWCTnkWh9N0xwQS+GZjvB C5CsBM95UMwJMLCzJ2i1B8+V5Qu0SsNCRDKU4dWA9sDOMQeZlAUR0kVVj9Jo+Fx49grrLR+h3UF5 uB/y7ncpBy3At0qJUCnarRa9Xo84JielzCml1H333affMgtw5r9lamE89z9KV30q8mp+1x9HThxB jUwlpdubZkiTD83uGmZvI/lIkjL3Jg+ZArZE20TirG2W5AFPgcEQGkkUWqyTHpeuA/Bdg1KS2ICj kvtYm7SFZbMbmSQVLPqanI4pVfs4hnYvCSV9byg0hAE+yUyEHfpOGAQOqnoLzU7A0198jN2mJlo4 Qk47ONpB6UHv4OA/mUFREgvwZrgi0I4LQrCxsRnv7vZWAUdK6QLOH/7hH8q3RAA2f0H/SN7X/0h5 3gfb3ihRfgI9ewKRK4OQQ4pxwDf2esTrlzFb6f5LGXMhMft9oRmOo7PJHkrApMdplTh7TxjCSBCG yf20TI53JDg6BiSxhU5HJt1BHmkPgMV1RAJRLPTCpI6ghky7iQW9Huggk45MUhiMRaTjy74TAuEU 0dVbabYUz33hKS4u9QgPvZvpQpkg8NCOSvoRkUMWYPD6j6P9Ukoc12dra5PXX7/eE8q/5jiONsao 7e1tAX/ChpCv/DSFHzzh/pyj5N8xQbne9CcwwoV4eK3jcNhEXytsY5t45TVsZ2fgS2Gg/SY9V4jE IUMyIZlaSjnQUEi0NGW0JXG/OvXPNtNokRSEuiGEsaAXgeuA62YdIgItoBdaGl1FbCFwDYX84FmU thRzEiuSyqLK7p1lAQUHMoVJZ7EauZ21azuc/MLXubxuaY3ezvzUDIV8jkIhj+cFOK6TgDuT4BGp 2Mf4bw34DUg7HiA4e+acaXejJaWjbSll13GcbhRF8b333vvHB4GX/zsWJqru31eOc0/ojepebhI5 fQTZ2cOsLxIvX0LN3Y5Qbn8iAIhDzOYS8cY1sGlH08EsdT+9yuD7DAtkPjKb7INALEU1cQw9I/Ck xSqDtTLBndam8EPgaovWg3g/u1lkJAiLEkm2MAyTqAFSXKeSjmKLxHNJikzSDsYxVGFU5SPY3CGu nL7Kcw89z6WGQzx+gsPHjlEuFikU8uSCAM/3UCrpII6iGKVV4uXkmwd+ANpxCXJFlhavcOnytY6X K5+21m70er2NMAwbQogIMH8sAdj+2+pP5X39q9L13912xwjzddSh25HFCrZbwbab2MYmZu0KauJo Nq/Ybot45Tx2d3MA8PbB0Dfy/QxZBjs4LzOzWShmSaMFi1ACiUmqdT2Nqw1e4g4JHEtks+KRTY1S di1BLgDfGowVGJNcNgwTKCNF6hIsdHqJMBUyhmdCgE3AXu02QlHjla88z6mT53k9riHHj3Hs6BFK xSL5Qp58LsDzHJRMWtqkTKyclGJg8CAd27fGHykVuXyFTqfFU0+eDINC4TWQl6SUW1EU7fi+387n 8xHw5jDAV36awgeP6p/3tPhbxitWW/40sVDQ62KbW1AoIzwfWZ8lvrqLWV9E5CvIQh2zs0K8cgmi zpBm20H4tI+RwybUDhibZQKFBZtt30EqREPCZEELi9aWRk/T6SVJHCEtrrZJFk6aRLtjiSstcZTm B3RyHymTzCASOr1kmEqllgmB7wgEFtdNO4qHQkHpVZD1d7O11ubZLz7E5WsNFvU8ldl55ucOkc/n 8HwP1/VwPReZLh5RMkn2SJ00fGRrBSyJkMpvQQiEkAS5EgDPPftsvLaxu12tjb8ax/FKGIabnudt Ly0tNRqNxpuzAJf+GvMTVf0PtHb+UpiryV5lHjm+gNxcxOxtYTauI4IislxHlmrY+jxm9SLx9dew uXXMzmoSNw2BtmGGgUmZ2v+AG+1eZmYPJIYyS2CHz03+J4XFkQbXyS4n+uGkkkmCp9lKsomBZ3Gc IQwiE6GI4qR5xLgSmQIPrUE7JFpv+zdEleex+TleP7fKC199nstbsBkcYXphgdmZKYIgwHU8tOvg uw5SqLQYpfouLcv1CwHGWIxJ8MA+kPkG5Po5tOvx6qlT9pVXzneq9YlX4zi+ZK1dAVZ3d3d3gd76 +noM3yIIXP8b/GDJ178u/dwd7dwEZuxW1PghcJL41Xba2G470figiHA9ZHUc21jHNHcwndZ+JmY9 +PseZghNA33pMICUCMcFncLzuIftB+FigBf6FnjAwMA15FyR8lTQ7gJS4LsWYS2uNERS4aaxfuIO +twHm5aWBUhhhgY8fG+bbChZPUaox3n54Zc5/fQZrlOjWzvMrQsL1GpV8rkcvu+jXY3nuWitkVJi YouRSYOr6BcjsrHcxP+/gRBo7RIEBa5fv2afeOpk1w3yF6WUZ4wxV6MoWvI8b8txnN6lS5eiD3/4 w/G99977zS3A1s9zV95zPmNz1duaxVnE1C3IkfG+dorSCLI9Rbx8EbO7gdhcQo4ewuysYTut9IGG GTv03qbMyhA8AxObaIODLFQQQRnh5UC5iUTEPUxnD9veTmoJNh64j+wW6QxmSt8LoRsrLBZnaPKk gIIbEyPo9CRaguvaNPucjMNPAWAUJsxw3P1yILwKeuzdbK51Ofngl7iyuMeiPkRxYoFbpqcol0vk 83mCnI/vumhHox2NUpo4TToIke1bMMj5Qwp3ZOIG4jiJkYVMcxdDJKUmV6jQajV55GuPh92eXazV i68aYy7FcbwshFjb3d3dzefznYsXL4Z33HEHfDMMcPm/YiHw9d81udpt3ZFbEbNHEUFxvwRakCMT 2PYeZmcds7GIbe1hG1tYY/ZN5H7mDIeGDKWH048dDzkyhyyOMrRiow8GVW4E2xvDdrYwjRVsrzUQ pgzQDeUfrEmwflLssQfi9WQgYQ9aBgIrCdykfUxgcRT0YkG3l/QTDvITFlU+DKV5Fi9t8OyXn+Xq esiKN8/43GEmJ8bwfR/P83A8h8BzUSpJ+CipEIBWib8nTTIZE6P1jUKAFWnTqUhAaPZ8IvX7+TIg ePyJx+K1zd3NsfHJV+M4PmeMWY7jeC2Kou1er9d6+umnOw8++GD84IMPGtLMwxtSIcf7urr8/u70 HcjDtyP84sDfDXeaOS6yNo1wHGyvi9ldS5ifCsj+v3aQBh62ppkQYEG7yNoCsjzOoLozYFT2V7g5 ZHkKVTuC8Ic2fcoA2dBpWgsCJ8aRdl+WNXO6SlryfoxSFhsnaWJrBpZKSsj5aQbRAkKjx+7AlE9w 6onzPPS7X+XsumC9fCtHb3sXC3MzlEpFioUChXyevBcglU4A5nCCJ839myzVPZxFHCIhSKIEkSjU 8NiCXAnHcXnhxefMhfNXm2Pjk2fiOD5jrV0yxqwAa3EcNxYXF9s//uM/Ht133339i38jCyBj4fxQ MHNr3czccgCA2P0ALewloV0UJ9UzlR2TTLA1WYIkfRiZvsmESQwLg0IWR5GFavp+iPE39SYC4ZdR I/PEmxeTvoFsZqzsL5ZSaQRhYgijrH0sMWULDnkAACAASURBVK1KJ4c5GqpOUjPYawocx5IPEuZr MXhm4ZbRk3ew17A888BDnD+3yiLjeOPzHD88T7lSJB/k8AMfx9G4jo/SIilnyGQ1k5K2z3ygXwSS QqWjT+YtA4SQCEC2vY21Fmstnp/D83O8duGsPfn0C51iuXrBGHPaWnvNWrtorV3udDrbrVar02w2 o2q1au655x5rrbVCiDcWgOc/ySHr5X+S6hR9QCSGMi0p8raNHczKJcxe1q3DfjQvLElAO8x89iVt GBJ8oX1koQbiJq0KQ7Jgow5Yg3D9BCR6RWRhCtO7iDVhCjSHEfogxOyEgl6UNYhAoAY+TWBRxCgh B/hlyHrJ0hSidpyVxT2e+uJTXFrpsKxmGZ1dYGZ6knKpQC4f4Pk+vuMglZNWHSXWmqFl4BJhhzaG kIPl4Qn6TyIAKQcgMNt/MBMCpR1yhQqbG2t8/ZEnetoJrmntnhFCXIqi6Jrrusvtdnuz1Wp1br/9 9u4v//IvR5cvXxbW2n5v4BsJgBgZ4aeK49MnTGl8aNYZaKqJMZurmLXL2F735qFJhsYPIH8rUnA2 HNtbEg3zc6Bz/QnfD4EtWItprGJ2l8EYRGEEWZ5MIo9cBdupYhurKYLPWraycQscZSl6hij9zlH2 hpKo40LZtYOxpdZH1U9gCguce/4Mz3z1BZZ6BZrFYxw7vMBofQQ/F+B7PoHn4bkOUiq0kyR3jAXt KIRIV/4CQth9EfH+fL9NtTx7f4BBUpIvjhCGXR55+Otxt2fWyiOlM9baC3Ecrwgh1hqNxkYYho2p qanO1tZWdN9999l77rknuWKS+bq5AJz8b6jlXP8nmDiS9kFl6pkyodslXrmM2UoWY+wvgqT+K1tz P8y89OHEwTRvRjEI6exvsOyfnkp/ewezeTXpFCLZ0FFoD6EnwXGQhRq2s42NeoOZzaKL1Iw72uIQ ExlBlla2qUUa5NvTc6xAeAXU+O00Oi7PP/Aop195netyFGd8nhMLs5TLJXJBQOB7SKlR2knW/qUb Qwgh0FL29wCw6fOkoB5HZyJ4I/oXInEZw65ACEG+WEVKyTNPnTSra5u75ZGxM9baV7XWS8aY1Waz udHpdPY2Nzc7Z8+eNX/uz/25YdP/DTGAmIA7qE6+2+RrAyal+Xnb2CK+fgnb2s3GfMAv24FA9D8b vOhv0ZZdc1hIBGDjpB6rhtH2kByELWw3K9ZbIML22kkPgdTgFBBOARttkiSXxGA8Mf1OD4ugGyYL RzopDvAdk6SE4zTRJEHkaoj6cZZXezz1R1/jymqbVXeO+swch2anKORy+LkAz3dxlIOVql+2sHGa NHKzJo9kMapNrV2y/l9AttQrE/TUFah0S7tEAAaT4AcFHMfn7OmX7HPPv9IZGZ28IIQ4Y4y5aoxZ 7Ha7K2EYblWr1d65c+fie++9N7r33nuttQeQ5RsJQCTknfnqSA3tDyY6jjHri5jVRWycalc2sTLb Vy99nxVqSP1/5uPTz21qLvoPZQE3QBaqiFwli3sGnB/GgTpIuod76W4pQiIcP2F+DELqxIXYLfq5 gSx/07f1yYAcBWEsidKqnsxSuunt1cgx4tJhXn32HCcffpHrYY5G8QiH5uYYHx9NYnvPw3FdXCfR eiEFSinieBiwCEi1H2tTHCCxJOsdjTHpIdleQfspswQAjucTFMqsLS/x6OMnu36udNlaXjEmvqSU Wmy326thGG63Wq3WyZMnu/fff39Esn/xPtP/hgJw309TFNr7U251XBud9FDbThOzdBGzu06/Zj/c IZuZUlImS4b8rxkIQZbDT19bMwCFslRH1ueSSeqDN9uXgT4Cz1WQ5dkEA4ikpUwElSEcoRD9ffns ILQSQ+A11UZXWTzH7MMIAMItoSZuoxn6PPdHT3H6xctcp4aoz3PrwiGqlRKB7+N5Lo6j0a5Gy2SJ upSqX9ARUqK0TLTeWGIM2sl6/UAqhRASYyCO46StHZUsbCFrAR+Ig1KafHGEdqvBw488EkaxuF4u FU4bYy4YY5bCMFwOgmCz1Wo1pqamelNTU9EnPvEJe88993Az5t9MAOQtOd6Vq1beZYrjYFOgt3wl MbPDDL6Zfz/YF092nL3xo2FfC2kIaZJYbNgA2AOXECBLY4h8NYkCtJv+yMPwU0iElNjYDN0r9emQ uIK0l9+mKF8kbxD5GmrqDtbWQx594GtcW2my4s5SnZ5jZmaaYj4gCAI8N2W+4/b9+5C04jipWU/D PhCDCKh/qE2eQchkc6vUQkdxnLiAoXkWUpAvjWCN4Zknn4xXVve2aqNjr1prX7XWXjfGrBtjtpaW lvYajUbnkUceiT/+8Y9zM78/TDesjHt9h/z4HbN538sRXz2P2VpO1lcPnm0fJmBfTiDl1rD29hkn hlD/jajW7K0j8hVEaTQ1mQfwQUaWgdknHccwcwUJqIuHntceENBh2D8ESFXtGGbkGOdeucgTX36e 6y3NXnGe2bkFxsfq+LkcOd/Hdd2+1ut096/MrMs+2BP9v1nOJkvfZs1eiVCowb4u6bFZ8NOfAQF+ rojWDi89/7x56ZVzrdrY1KvGmFNCiGtxHC8bY1Z7vd4e0PnQhz4UfuhDH+Izn/nMN2Q+7BcAAYjf eIbdmVsbzcB9pWh3N/dP/PCh/fhlaHKHD9yH4IfPtWBssnduipYsFhH1sN0m2Br9Ouy+09JZEUPv s2vL/cfZbhNMOOga6oeww6279JkvnDx68t30nCrPf+15nn3iVVZFBVM/xLGFBarlIkEQkMt5OI6L 1BotVX8DyCy2R5Aynb6bwSblYpmuPRNpBrCf58gClCwhROKtpBzMp+fl8f0CVy5dsE8+/WwvV6xc klKeAi4C1zzPWwF2Xddtnzx5Mrz99tv5zGc+Yx5++OFvug39DRbggSWcP/vK8qXxnBjLOfJgiDxg IgcZfMA19Js12KdlWThmTYws1hB+HttpIvwcIl9JhGFYwMSNt9s/4uGIAmzYTgVJJJYrSwj1782g qQSL9KvomfexuQtf/+yXeO3qDivOFJWpQ8zNTFMs5AlyAflCAT8IcLWbjD82aUbODHRBpNk7NVjB MwB2yfskwZMsWBVCIJTa92jD4R7QT/bs7mzx9ceeCq1wXs/l8i9HUXTBWrtkrV3pdDobjUajMTU1 1d3b2zP33HNP9Eag7yD1Fz8PvVf/9oW9k3OTlRM/dLhQucF/w2DCxfCpw68PxG/9cC+b+IRpwi8g R+dT7ZYIlZZBIwPCIG5oWj5g6mFgCQSAxLa3sb0GfRfUf/4hWU4FQdUOw/htvHb2Go998Tmu7sFu 7hBTs4eYnpogyAVUShVG6qMUKlU8N8D1vdSIWUwU0et1aDW2CbsdBn5+GBCnjSupzx+O8/cbtP3z nGULC6URer0Ojzzy9Xh3p7VWG5s4bYw5pbVe7vV6q0qpzUaj0V5bW+tNTU2Fn/rUp8yDDz6YXeMb Mh9utAAxsPvYUvjyF17afHamFvzwbNVxMUOWJOPlzTRy3+KIDHhl858h8cRnC8dFODmEUPv8vdle wYZdZH1mCACmFx4ODw9aBSuwrS3M9lKylIyBoCX3pz8e4Xmo0VsJc1O88MjLPPXoKdYpEY/MccvC IUaqFXK+T6U2yvjULMVSuW/6lVBInaD3zOd3O212t1Zp7K73a/h9DtuMmQNLIBCQ7gNobGLx+ptH DlGuUEEIxfPPPWWuLq02R0bHz6Z5/pUwDFe63e5Gt9vdu1me/5sxPqMs4T4M8TwL9dfWO7u3juUP z08UKq60Yl91ah8gHEh3nysiBXEC+q3NZP7YIhwfWZtDlkcRMumEsdZi1q9i1i8hSzVkUMKamGx5 l41CiON0331xgwCa5iZm/TVst0U/rZz9FfTXEggvjz70fjbaOb70+4/x0stXua4nKE4f5cjhOWqV MrlcQLU6wtShwxTL5aRxQ+nE18usgpf18GkczyNXKCGlQ6/TSKYmPVbJbD+fjPHp+XZQFI1TdzIs AEG+hB8UuHD2tH38yWe75Wr9NPBMGvJdc113udPpbF29erW1vb0dpZm+N4z334wAdAHdjslt73TD d8/Vj02NBD7RG+xVfNAS7JPiTGtB+EVkaQTh51Ej08jqZP9HFMzeBmb9Mra1g6xOIYIiZvNa0lDi BslxvRZmexnCTsLNOIJeG9vaxuwuY7avpt9luGNobJnJry/A1Hu5cmWHLz/wBBdXumwEs0wtHGbh 0EzaoeuTy+WYPLRAoVRGaYXMmjSkRKZ9eyrbUEAkTZhaO0k7luPS6zTJ8gDDFb9McFIGDYCfFPuK Ptr1KJbqbG6s8KUvP9xzvPwlzw9Optp/OY7j641GY2t9fX3vIx/5SHzLLbe8Kb//RgKQ/TOpEBRf 34vC0UCM3LowPlNwhUxM602Yn6LegYnOmJ++0i6yNoUanUOWx5JVwKm/jzeuYdauIHSAqk0jHB+z egm7s4HtNckWjNjmJmZnMWk06ewm7WZ7a9i9DWxnN6nzkgK+fQV/gXB99OTtmOpRXjx5gS//4dMs dny61XmOHjvG5PgoQc4n8JLybbU2Rm18MsnlC5ki/bSCl+Li5t4O2xsr9LrthPmej9YOnp/HWui0 9/pan20Jm6V4+xHDkCBkzFdKU6qM0u22eeiLX452W93lQrHynDHmlDHmKnDd9/0N13Ub586d6z76 6KP2ve99b/zZz372TTMf9mOA4RN3SUKMyu88tvTw+47W5+9+1+ghN+oJ4ujmZwwrvhSIoJQ0kIQd UDop8Q41INnYYtYuYbaXkfV5ZL6I2V3B7Kxj426Sh497mM1F2F0H0kQRYLuNwU3l0ACGM4hZnO0X 0HN3stV2ePh3H+a1i2usu6MUJuc5NjtFqVjE81zcNLGjtEOQzyeJoWGSsv+IrcYeq9deS+oaUhD2 ujiej+sFaMelPDJGp7VLt9vsA+WD0MkO5/eH5i5fGsECJ59+2qyubzeqtbEzqeYvGmOu93q9Ddd1 W6+99lrvwx/+cJz5/U9+8pNvmvmwf4+gYSsA0AG8liG/tRd133tk9Jbxqu/2c/AcOLMPARLfK/NV 1OQRZHkUmSuB65OlY21zC7N2EdveRdYPIXNF4uULmO01ks5hEmAkksZN4ihZ6TE8YcMBRz/xtP8R 5Mgsav4DXF9t88U/eJwLS3ts5qcZmzvKwtwMxUIhSem6LlrpxGdrRXmkjuv7ienPtF/KpHPXws7W Kp1Wo28VwFIojuB6fv84i6Hd2O2DP8g0X+wz/8PzlytWcP2AM6desU89/Vy7Uht/2Vr7pDHmInBZ a73UbDYb58+f73z0ox8NgyC4aYXvzdDNikEZlg9JrED1q+c33K++snR7/WPH7hzzu9q2Gzc5jX0W wXabEPXALyTdvNnF169itleRxTKyMgXWEC2ewXaaqfCkWqyysvEQ0+2B+2RzmOGOrAglNXrqNszo MV55/hwPf+l51uKAsHKEw/NzjI2O4HteqvVqn69OfLxKTXaGY+W+3IR23CFmJgUapQe/HqvSBs1m sEm3m5SthxmegfThYpjrBQS5IivLizzx5MlukCtfBF6x1r7mOM4VYBVob29vd+66667ePffcY5JL feuI/2Z0MxeQTXUM7JEIQf3/+qPzXzw8OTL9Y7eNTHsmFoOSLAOLq3Wq5TFCe1hrBtbNxEnn0O46 auJwAvQ2FjG7q4nJB/pNnaRtZNIm6WNIfW8qm9nOHP0lWAMSXmLyGzbPY//xMV546Qpbbp1g8hDH 52Yol0oEvotSyY9IZKCu748RmDhKzDti8FMvmT9XilKlhhCCxs4GnhdQrU2m6/CSsSe7k/k4Xo5e bzBPGQDsT1u/s0dTKNdo7O3ytS99Lex0zWJtNP+iMeaMtfZ6u91e63a7u61Wq3358uXoV3/1V7Nf KP1j+f1hOth3NWxc+y4P0M2IgoqNOH544vBo2XVtr3kDBhCOhxo9hKofQhRHEEEBhEyWiV2/AGEP NXEYtEO8dA6zu0qfqX3gNuTXU5eyr4gynG0cRvkkRSI5dycru/CFP3iUl89vsJ2bon7oMEfmZymV Cvh+AvSyPYazPfeyrdstNmnnyuXR2hnk97MQUEi045HLl8gXq5QqY+QKJbR2kqFnq3kstFvb9NLW +IPMz0hKSbE6hjUxjz7ycLy4trlVq489Czxjrb0Sx/HVIAi2Hcdpnjp1qvMjP/Ij8QMPPPCWMB9u dAHDFxt2BZeB0d99bump22cKC6M/fuLOer6mze76vjNtHCHcHKJQTRhqIszqRcz2WhLbj0xiey3i xXNJU0cWcwCDLTks/ZU/w35+GGcM1x/SHISaOEY8eoJTL1/m4S+9wJrx6FUXWJifY2y0hue5eI6b tmGLdLfx1LokMwlC4Ad5PD+XYBAGsijSnIYQpH35Cp1300hB9JmfCXF/w5kDgdFBCgplpJA8/8JJ c+bcpWZ9fPolY8xJY8zrxphrvu9vAPtAX3bun5T5cHMMcDMh2AXOA+V//djVL73r6NShD99aHve9 lrTdoVU/JsaG3eQ5oyjd9mULOTqHzJcwm9cx29exWTjZZ+aQr7fZbQeJI7uvVYs0/ZuaZj+Hmn0P DQo89uCzvPDSZdZllWBilhNzSbuWnyF8NbzRUsr87D3guj71iWkKpXLiGpIj6AuKSMx4ts5hMKJh zibXstb2M5gHfzYuIz/I4wcFXjt3xj751HPdUnX0vLX2+TiOLwBXPc/bWF9fby8uLnbuuuuuEPgT g76D9Ea7hA3rX0ZNwN9tR8HO1l78gePTR+u1kmPbe2TbsGAtMlcEpTGrl7GdFmpsAZGZ/J2VAVAb vhMi8fVDRZ2BUCThXb9Ppg/0BaJQQ83fyWrL5fMPPMUrZ5fZCCYYnT/K0flDlIsFfM/DcZ19zE+u MxA6mSJ9rR0K5Qqum2xVN2jVzhJAQ2Axyw+kPr+fJUzfh2GX7fXrmDi6qfnXjkuhXGd7c40vfulr odD+5WKp9GQcxy9aa69GUbS2s7Ozu7293f7IRz7SA8gyfW8V8+GNu4LtgdeGBBSeB0YefHXj5Mee u3pL+e4T7xktjGizs9o/2Gwtw9YyNuom6wN7TczG9X4T5yAgTrX44KNYGGyuZPsIf18vISAnDmMn foBXTl3myw89x1rXoVueZ35hjrFanSDn4bkuSidduMMk5dBWLMlevSAlUdhjZ30l6bgtlJK6ZCZs DIBg31oNR84C0mVQWGvZ3VolCjv7LVf//ppiZZSw1+Gxx56IY6vWiqXyC1EUvWytXXRdd6PVau31 er32yy+/3DsI+t5KerP7BKY/sUTt1IWV7fcfqR+bnZ8uqG5T9FPFcUS61hrbbmAbm2CGkkd9Uz88 caQAb3hyGViH7DgLws+jD99Jt3CIx77+El/+ysus2QKMzXHk6BHG6iP9tmyVtlwJsoUg2a9yJRqf gTs5BPTCMEQCuUIRrd3kp2LTYzOAp5INB5Pz1CDXn2X7Wo1t1q9fYXih5+B5oFCuIaTg2WdOmtNn X2tUa2MnjTFPKKUuR1F0dW9vb7NarTaKxWIUx7F9+umn47cK9B2kb2V1cAa9DIkAvA5UV7oE//qL Z782Pzv+F4/WpnLx4rmbn5k4xCFmDiXps31++i0xdiAAglRIsrZzgSyMoI/cyWbX48HPPc6rr62w 64+mtfspCsU8nptuuKTUwMr375146OyVTQeppERJjVTJQLxcLmng2Ofn2fcmA36DgwTGxPQ6LTZX F4eeM3WPaV9kUCjhuD6nX3nRnnzuxU61NnHWGPNMHMcXHce56nne1sbGRuPZZ5/t7e3tmY9//ONv Keg7SN9MAA7ib8MgQVR76OXrL/zYU+duHfuLH3xPcWRPmc3rN7/CcMx+A6Mz/CAGB1iR2KY+PrCo qWMwewfnLlznoQe/xuJuTKMwy8zcLFPj4+RyPq7roJUedNFmAK+PM0X/7/A/KRXFSoVcoYxyHIIg h9IO1lg6YQs/yO/DDtZaojBMMoMk3iwKe7QauzR3NgjD9o2m3xpcL0+uUGZ1ZYnHn3imlytULymt n4rj+Jzrute2t7fXwzBsrq2tRZ/4xCdiIH6rQd9B+lYtAAwCthjYAc5HUPnV33/hi7ffMn3oAycO 1XVrT9hO4+ZnHwR4w40cwxm/bIFo2lUsXB89ezu98jTPPnGahx89y6b1iatTHFuYpz5SSYCek/w4 YxbPJ4ppBzkCMTD/WQYvK9RYbArKKsmGDWm72vbGCiaOCHKFZMPF1HWAoNXcot3Yw3F9hBC0W7uE vXZa0r3R7yvtUqzW6bSbPProE5HQ/mK+UHg2iqKXjTHXt7e3N6Moam1ubnbuuuuucDjT9+1iPtzQ ePcN6aAVWAIurLTt4m/+x5NfXd6Nu2pi4Y3PzrTfDKN5MXi/b1SJgAg3jz76Qba8CX7v95/kS18/ x5qu4k3Mc+KWWxgdGUnz+MnmShlDhcx+jDEx9zJtCxO234rZjwKSZowD4xTQabfYXV8lyBcJe102 V5do7e0k7dtxTKuxR3N3g52N6+xurRBm4bAdgNYBZpMUyjXiKOKZp54215fXd4ul8stxHJ80xlyL 4/h6pVJp9Hq97qlTp6KU+d8W0HeQ3gwIPBi8xSQFo8qZ643mLaP+9JFbF8Z8LYRt7rzxmcP9AkIM OnX6++8m36uxObjlw1y4usPvf+5xLm9ENHJT1CanmJudopDP4XkOjtYp0k98/vAPRWcbQPbBn4Bs 40XZb+wA3/ep1MdxXQ8pkg6fnfVlitUahWKV7fVlmrtbdDtN4jCk096j295LUt2pReh3Ah/IL0BS 4XM8n1deftE89fQLrfrE9AtSyq9FUXQOWOx2u5u+77eKxWJ04sSJtzTT983ozWwSdbME0Q5wFij9 b//mqS+cWJiYev+J6bra2xD7Ckb7gsqhPMBwhizL+Xs+auoWOoVJe/Kpc/GXv/KKioqjgvEZpitl aiNlAs/FcV0cnQA3JVW/m2Z/pS37adZBXT75pfDks2RnLk11dBw/yAGSsNdla2WJoFggX6zQ2Num tbeDEII4CtnbWR/KA2TXvZnRT8j18vi5Alcvv2afePLZXqEycl5K+USv1zsfRdG1bre70W63W6ur q9GpU6fiT33qU98x5sObcwEZHYwKrgKX17p28Xf+6KVHFrfCnpq6JVmdczM6+Os1/TKyRfg59OH3 s+FOxv/fZx9vfO5zTzQvtDzrTt9qD01NUB8pk/NdtOOkLdkZs23iMobi/STME/tC9eyFkBIvyFEd HWV0eoZCqZKu5jFsbSyjXE2xUqfZ2GFn/XoiOGrQ1iX6HB8OM9L4IstSW4vSHoVKjb2dLR559MkQ 5V7J5fIn4zg+na3bb7fbrbW1tWh9fT3+1Kc+FR1cvfvtpjcrAMOQLvtZsogkQXT93z528cmvP3v+ /LYqx6IyfuPZQ0B/36/X2KR2z+1323PLYe93fuMLO48+febSI0udFzeM08KExnUcAt9DyeRXtbM4 XmaFnGG/L8RQh+J+xJ8xMcjnKVfHyBfKSayPoLm3Q6/VplKfJOx12V5bHjR5Grvv/L5LOZC66D+q 1BTKI0S9Lo8//oTZ2m1vVqojLwohnlZKXQvDcKXT6ew2Go3uXXfd1bv33nujbzfivxm9VT8YEaX/ Rs9eXt/5wC1jt04emg1U1BG20xwcNWz6s8SOE6Dn3kU0edw+/9Kl7r+776sbL7y2euq5TftUaWxq u1KpTobdbm5srC4r1RGhFag0AZMJAUPMl/3XDMJAMdzUkVQCS9UR/HwBQSJArWaDvc11quOTuK7H 1trioGtHZD17gyVg2TUZEqxhKpZraMfl5NNPm5dPn2uMjk0+Y4z5ahRFF3q93kq73d5aXl7unDt3 LvqVX/mVPuj7TjIf/nguAAaG+/9v78qa27iy83d7b+yNhSAhKWNKtpxRNJGXB1Xi1KhSxciexzzI fvGTn/Qz7D/gZz07k1Rou+yapDy2bGqxJEKCtVqSqY2SKJqESBBAA+hG731vHrCwiVi2y9ZGeb6q LoAkCBL3nD7Ld849N5oVLAG4dbtuLX545MrppVbgcrmtG13BSFWMqAkIv/8nGOnnwr/8T8X84M9H qieurZ48tep+niqMVyYnJ+d5nq91fda5dOWG1+50KS8qjBOEXkoWna1PItE3MGT4Bn+Y4wWk0hrG JkoolLZAjiX6VpzAdRwYzQZSuTwkWUW7UYPv9HoUBu+/zmAO7vp14Y9CiacgqTHM37jOzl246may hRuMsVnG2K1BQ6fneXa32w36RM9jifh/CL/GAoxmBQy9rCB9+W7TnExxpRf+4YWCmkgQ2l7DhlyL AFxuAuKufVhu+sF//9eMcez0tdsnFurH7nUxq2najWw228nlcmY+nxfb7XYxYGBr9YaU1XKclskQ vl8YGAoIEap3EKQN6d7eIMZUOotMYQyKGoMgCCBc7wzi5soy1Hgv6DP0Orqddp/iJet7/SIdQ8Nu oQipNIAkx5DI5FCvreCrI8c9SU3cVtXY16IoXuR5fsm27aamaUalUvH37dsXappGf2lD58PAwz4z yEePytFuLumdv5/I7Jh4cWdM1fI9gigMQOIZCFt/D6/wAvt2bsn7zz9/1ShfWf72xD39aNPFaVmW bxeLxW4mkwmSyaSbzWbt8fFxQdf1MdfzSX2txucKBaFQHAejAWH9TSujKVjkVh1u3KSMQpJliLIy fH27sQYahsgWt8DuGug0G73YYqBMfLQjOMIzkI0t3gB6ViY7Bse2cOzI8dCwgloqnZ4Nw7Ds+/6C aZprpmkayWTSe/XVV8NBT9+77777RIQPPJqDIy0AStsO5KtX77QyxN829nfbFGViktBYBk5yjK35 anh45lvr0/89vTI7v1L+ZtU+6jOcB7CkKIqtqmqoaRqbmJigPM9bsizXCoUC1zGMguV43GqtzqXi CWFsvEQ4jpAw6PUXDHv7gGGBZt0KjtrP3wAADMtJREFU9KxFIpWGJCsAITDbOhyri9z4VlAaQq9V +xwBt/5IuHX/Twb5/jrHAKwrQCrbC3zPVip0fmG5m80XyjzPH/V9/45lWavpdLp9//5958SJE+HL L7/8yGnen4OHoQBk5JEBsAGk6w71rt2qrnVW6xnfh7JUd8ILl793vjxyyTh98fatUwuNr+8a9BSA ywAaAFzP89xkMunlcjmWy+UCQRBYIpFwFEX5XtM0OI6T7hgmVmoNPhFThHyhSERBIIHvDo9bGZhs rm/6JVlBOpNFOp+HoibA8TwsswND15EpjEMURbRq90EDv7/5Y2PgSKIKMKSaNwZ/sWQGshrHtauX WfnMBSdbKF4mhHzpuu53tm0vWZbVXl1dda5eveofPnw4/Pjjj5+48IGHZwFGIyGvf6V1jzk3l5rL N28stq9cW2xcnV9ZnltufldZ7p7uBKgAuAnARC9+cAEEgiAEyWQyiMfjNJ1OU0VRqCRJjizL3yeT STcIgmyj2RRX6k1BFgW+UCxyoiAh8N1+Vr5RWIoaQ664BWosAZ7n4Xkumqv3kcxokFUVem0Vvmuv N3kMTLzQb/ggD1CCPhQ1gUQmh+rSPXb0+KyrJDLXVVU9Sgi54LruMmOs5fu+vby87O/fv58OmL4n LXzgV54YEsEoSxiglxWEAF5q+ggrq84a4PQPeMUKehXFFtYF7/d/L/B9n/m+z1FKA0EQQgBUFEXK 8zwTBGF2cnKyK4rin6rVKnfm3CW4nht75aU9QizNM9dsE7BIxQ8EruvAc23ISt/0600oagyxVBqG 3oDndHvp5Aa+AL229EHa9wDGTxBlxNM5WKaB2XIlZJxUjcfj53iev2Db9qrneW1N0+yzZ8/6U1NT oaZpTyzi/yE8zBjgQa6ggV57uQmgDuAugNvo9Rk66FkKHxEFcF03eO2114LJyUnaarVYMpmkmqYx xhjjOI7yPF9PJBINQki+0dTjDb1Nfc8Vi8UJLplKI/A9Mjgoigz9OYEaT8KxDFhGB6l8AYHnwWg2 N5r9gd/n1zmEYfAHLsI+9pQsnS2CgaF8+lS4cG+lncsXZimlM47j3O12u7V0Om3Mz8/7+/fvD56G oG8UDzsI/CFK3EXvTq8BWAWgoyf4gcB9bFSAEEA4NzdHeZ4Px8fHaRiGTJZlmkgkOFEUA0ppmEql moqiVBljWrOpq7V6k3qeLxfHx7l0RkMY+oRROjTpDKwn8E4LBL3ef8vogPQ3cY4qwLDPbxBTICJ4 ACAEiVQWshrHpfNn6ZmzV6yJrdsuhmH4uSAINwRBWLUsqzM/P+8NyJ6nxe9H8bhODx/0FA6uAXPo R55Hf0YB0P3797OFhQVWLBYZIYQZhkEYYzQej8OyLCqKYktV1XosFlP0VivX0FvotNticWKczxfG 4HsuYaynBKAUvu9iMDUs9P1ettAXfm8bGInEAGTE73MbfL8STyOZyeP2jTl25MQZV8uNXeV5/osg CC7Ztn3fMAyj1Wo5rVYr+OSTT0I8Iabvp/CoFWDAFg6eD+oHo8oQfRyyjNu3b8fbb79Nt27dykRR ZMlkMmw0GiyZTDLf93vHoomioShKLZPJoNFo5PW2gZbe5rJZTRwrjoMwSsIwWKeC+7P8hj1+0b1/ 3HrRh4ua/uHc4J7ZFyUV2lgJzcYKDs8cCwQ5cTsWi50IgqBCKV0KgkB3HMe+detWEN3I8bQJH3hw FfNhvXf04ka+jnYaRWnlocL01oyQ6elpAoD/6KOP+F27domSJMkcx8U5jhNlWVYppUlCSKrb7U7d vHnzXx3HyYwXctobb/xbcltpnHNNndhdY6gA3KgCRJtFI2nfINePcv68ICFb3AbPsfDVV1/Rxepa LZsf+yIMwy8kSZpvNBqrtm2bpVLJA+BrmkbffPNNCjwZpu+n8EtrAT8HUaFG7/pg5Bp8f4Pwgd6C McYGA47DqampYG5uzvc8z81ms6bneV4YhlY8Hu8QQuqJROKvO3bs+CKVSq3cr9UbX3551Fi4930Y z46zTG6sf2evVwijXP66yV+P+Ic/j7wulR0DpQEqlQq9cWfRyBWK5wkhs4IgLLRaraamaY5pmr6m acORLYPP8gjX+hfjkZ0e3sdoU+kPWZzR7oAN6CsBCCGYnp6mU1NTQblcZpZlsVgsxtm2HSQSCQaA 8TzPksnk8cnJyaBWq722XK3i2IlToIzEdu7cIaZ4HlarQaI1g9Fr2DQKst5G0EcyU4AoK7h88Rw7 d/GKMz6+5UoYhjM8z18HUPc8z6xWq97i4iJ9//33H0tP36/Fo1YAYGMN8EEL8aMLNFACAIwQwg4d OoRyuYx4PM4KhYLUTxWZ4ziMMdaSZXm2VCrpsixPLS0tvTBz7ETacuzUS3v+IKUKCux2gzAWRgTP 9YZaRJs9IsV+QgiUWAqxlIbV6iIq31z0C2MTtwjPn6SUXrcsq+a6bsfzPHdhYcGLzud9moUPPB4F GOBXLURfCUh/UUMA7PXXX2cAUCgUkMlkWBiGTJIkxhhjoiheGB8fbwZB8O8rKysvnjx1JqAh1V59 5SU5lZ+AqdfIYAjVenl3SPlsiPgFUUE6X4RltHDyZDlkgrwiKUrZ9/2KKIrL7Xa7nc/nvZmZGX9q air84IMPNoXwgUcbAzx0DBa0bw7o4cOHwzt37vimabphGDqMMduyLEtVVQNAJx6P396yZctfnn/+ +Qtdy9LLlXP18xe/dWwvYOn8FiZIveO/NuT5kSIP0CsIpXNF+J6LM2fO0KXqmpFKpc/6vj/LGFs2 DKOlaZoHwD9w4MBTx/T9FB5lFvBIMcgQAHDT09NcpVIRE4mEKEmSLEmSkkqlVMuyFMZYHMD2MAxf u3bt2t6YqmqvvvSP2Vde3hNLp9OcZzVJb8gj/h/fz3EcUrlxyEoMF85W2PHZb6xCsXSO47j/EATh aqfTqZmm2TZN0927d6+Px7CR42HjcbqAh4pIcEgBsL1790LXdQaAVatVlkqlWBiGVJIkBuAOx3H6 7t27m9evX3/9m/MXA8Mwc3/8478kcrkxnrd04ljdIdc/4PvURAaKmsDi3RvszLmLbi43NidJ0hEA d1qtVjOTyRi1Ws3/7rvvgs0S9I1iU7mAUYymiZqmBTMzMx4Ap16v2wBs27YtSqlBCKkrinJ0165d f+UFoX5l7lr92NcnjfurK6GayrOUVoAkx/rlZB6JdA7JTB5rtSo7/vWZgAjyoijLp3zfP+84zioh xKhWq16tVvOjbV2bSfjA46OCHxnee+89MMawe/duHDhwgJVKJVapVJDNZlk+n2eGYTCe5xGLxZjr uiGA1XQ6TUFI5t7i97zV7ZKxsTEpmdI4NZGCmtCQTGeJpKior62y48dPhrV6q5EfK34dBMGXkiQt G4bRtCzLmpub8/bt2xcePHgw3IzCBzaxC4gimiZ++OGHiHIFmqYx27bR5woIx3FtVVVP8DzfkWX5 n6/fnN/Z7dr+H3bvSm7fvl3RtDRv2yFbqVbZufMX/KXqqrntucmzvu9/TildaDabuuM4lmmafn8D J/3x/+7pxqYNAn8IjLF+oY6QQ4cO8eVymY/H40KhUJBKpZIchqHqOI6aTCYVx3GSjLEd7Xb7jeXl 5RcZY7FCNhvL5rQYAF5v6qHtecbvfvfcVUEQPguC4Lxpmvcppd3l5WX7zp07/mAjx2a9+4FnxAIM 8CCuQFVVFoYhM02TEUKYaZpUEAQC4KamaWE8Hjcsy9q+tramrTWbiiiKfDKZbD///At3GWPHfd// 1vf9NUqp3Wq1nG63G/TP393UwgeeMQUANnAFIIQMZ+cDwI4dO2CaJoIgQCwWYwCo67q3ZFnuyLL8 XC6Xe44xpjmOw8disVoQBJdEUbzmeZ7uOI6dzWa9S5cuBZuN7PkxPFMuYBSjXIGu60K1WpUASKVS SWm1WnImk1E8z5MppXGe54U+b8AD0MMwbKqq2m23291ut+uMVvg2u/CBZ9ACRDHKFWha70DqarVK 6/U6Y4yFYRiGkiT5tm07QRBwANZUVWUA/E6nY3ue5w6Er2laAGBY3n0WsKl5gJ+DUa4AgD83N+e3 Wi3H933bNE1L13XTtm1TkiRTkiSz2Wwaa2trhmmadrfbHZZ30Wf6Bu/7RD/YQ8Iz7QKiiDaX6LrO lctlPp/P8zt37hSq1SovSRKP9RuCep4XAghKpVIQFf6z4PejeKZdQBSjJWUAbHp6mn722WdhPp/n OY7jYrEYAYC1tTW6Z88eWi6XaalUCvEIJnQ+LfjNWIABolzB9PQ0eeutt8ihQ4fIp59+OnSH77zz DtN1nR08eHA4yeBZFD7wG1SAAaKKAAD9vsMhBr5+YDaeReEDv2EFGGCgCA/Csyr4v+FvAAD8H0JE f4Bblpb/AAAAAElFTkSuQmCC "
     id="image10-5"
     x="12"
     y="12" />
</svg>
