<?xml version="1.0" encoding="UTF-8" standalone="no"?>
<svg
   xmlns:dc="http://purl.org/dc/elements/1.1/"
   xmlns:cc="http://creativecommons.org/ns#"
   xmlns:rdf="http://www.w3.org/1999/02/22-rdf-syntax-ns#"
   xmlns:svg="http://www.w3.org/2000/svg"
   xmlns="http://www.w3.org/2000/svg"
   xmlns:sodipodi="http://sodipodi.sourceforge.net/DTD/sodipodi-0.dtd"
   xmlns:inkscape="http://www.inkscape.org/namespaces/inkscape"
   viewBox="0 0 16 16"
   version="1.1"
   id="svg6"
   sodipodi:docname="draw-text.svg"
   inkscape:version="0.92.1 r15371">
  <metadata
     id="metadata10">
    <rdf:RDF>
      <cc:Work
         rdf:about="">
        <dc:format>image/svg+xml</dc:format>
        <dc:type
           rdf:resource="http://purl.org/dc/dcmitype/StillImage" />
      </cc:Work>
    </rdf:RDF>
  </metadata>
  <sodipodi:namedview
     pagecolor="#ffffff"
     bordercolor="#666666"
     borderopacity="1"
     objecttolerance="10"
     gridtolerance="10"
     guidetolerance="10"
     inkscape:pageopacity="0"
     inkscape:pageshadow="2"
     inkscape:window-width="640"
     inkscape:window-height="480"
     id="namedview8"
     showgrid="false"
     inkscape:current-layer="svg6" />
  <defs
     id="defs3051">
    <style
       type="text/css"
       id="current-color-scheme">
      .ColorScheme-Text {
        color:#f2f2f2;
      }
      </style>
  </defs>
  <path
     style="fill:#3daee9;fill-opacity:1;stroke:none"
     d="M 11 2 L 11 3 L 12 3 L 12 13 L 11 13 L 11 14 L 14 14 L 14 13 L 13 13 L 13 3 L 14 3 L 14 2 L 11 2 z M 11 13 L 7.1738281 3 L 5.9453125 3 L 2 13 L 3.2226562 13 L 4.2929688 10.273438 L 8.7265625 10.273438 L 9.7636719 13 L 11 13 z M 6.5566406 4.2070312 C 6.6584806 4.5489213 7.1969681 6.0999019 8.1738281 8.8574219 L 8.375 9.3632812 L 4.6464844 9.3632812 L 6.5566406 4.2070312 z "
     class="ColorScheme-Text"
     id="path4" />
  <path
     style="opacity:0.95999995;fill:#ffffff;fill-opacity:1;fill-rule:nonzero;stroke:#ffffff;stroke-width:0.0495356;stroke-opacity:0.94117647"
     d="m 11.006811,13.508359 v -0.470588 h 0.495356 0.495356 V 8.0099071 2.9820433 H 11.502167 11.006811 V 2.5114551 2.0408669 h 1.486068 1.486068 v 0.4705882 0.4705882 h -0.495356 -0.495356 v 5.0278638 5.0278639 h 0.495356 0.495356 v 0.470588 0.470588 h -1.486068 -1.486068 z"
     id="path4487"
     inkscape:connector-curvature="0" />
</svg>
