<?xml version="1.0" encoding="UTF-8" standalone="no"?>
<svg
   xmlns:dc="http://purl.org/dc/elements/1.1/"
   xmlns:cc="http://creativecommons.org/ns#"
   xmlns:rdf="http://www.w3.org/1999/02/22-rdf-syntax-ns#"
   xmlns:svg="http://www.w3.org/2000/svg"
   xmlns="http://www.w3.org/2000/svg"
   xmlns:sodipodi="http://sodipodi.sourceforge.net/DTD/sodipodi-0.dtd"
   xmlns:inkscape="http://www.inkscape.org/namespaces/inkscape"
   viewBox="0 0 16 16"
   version="1.1"
   id="svg6"
   sodipodi:docname="createpath.svg"
   inkscape:version="0.92.1 r15371">
  <metadata
     id="metadata10">
    <rdf:RDF>
      <cc:Work
         rdf:about="">
        <dc:format>image/svg+xml</dc:format>
        <dc:type
           rdf:resource="http://purl.org/dc/dcmitype/StillImage" />
      </cc:Work>
    </rdf:RDF>
  </metadata>
  <sodipodi:namedview
     pagecolor="#ffffff"
     bordercolor="#666666"
     borderopacity="1"
     objecttolerance="10"
     gridtolerance="10"
     guidetolerance="10"
     inkscape:pageopacity="0"
     inkscape:pageshadow="2"
     inkscape:window-width="640"
     inkscape:window-height="480"
     id="namedview8"
     showgrid="false"
     inkscape:current-layer="svg6" />
  <defs
     id="defs3051">
    <style
       type="text/css"
       id="current-color-scheme">
      .ColorScheme-Text {
        color:#f2f2f2;
      }
      </style>
  </defs>
  <path
     style="fill:#3daee9;fill-opacity:1;stroke:none"
     d="M 2 2 L 2 5 L 3 5 L 3 10 L 3 10.111328 L 2 11.125 L 2 12.5 L 2 14 C 2.5669591 14.009969 2.9082961 14.002744 3.5 14 C 4.0300681 13.997542 4.84375 14 4.84375 14 C 4.8476677 14.000164 5.6326634 13.194382 5.8261719 13 L 6 13 L 11 13 L 11 14 L 14 14 L 14 11 L 13 11 L 12 11 L 11 11 L 11 12 L 6.8105469 12 C 9.2200533 9.5566597 13.84375 4.84375 13.84375 4.84375 L 11 2 L 4 9.0976562 L 4 5 L 5 5 L 5 4 L 5 3 L 5 2 L 2 2 z M 3 3 L 4 3 L 4 4 L 3 4 L 3 3 z M 10.28125 4.15625 L 11.6875 5.5625 L 6.2734375 11.123047 L 4.8652344 9.7265625 L 10.28125 4.15625 z M 13.96875 9 C 13.96175 9.00003 13.939141 9.0058594 13.931641 9.0058594 L 14 9.0058594 C 13.9879 9.0038588 13.98115 9.002 13.96875 9 z M 12 12 L 13 12 L 13 13 L 12 13 L 12 12 z "
     class="ColorScheme-Text"
     id="path4" />
</svg>
