<?xml version="1.0" encoding="UTF-8" standalone="no"?>
<svg
   xmlns:dc="http://purl.org/dc/elements/1.1/"
   xmlns:cc="http://creativecommons.org/ns#"
   xmlns:rdf="http://www.w3.org/1999/02/22-rdf-syntax-ns#"
   xmlns:svg="http://www.w3.org/2000/svg"
   xmlns="http://www.w3.org/2000/svg"
   xmlns:sodipodi="http://sodipodi.sourceforge.net/DTD/sodipodi-0.dtd"
   xmlns:inkscape="http://www.inkscape.org/namespaces/inkscape"
   viewBox="0 0 16 16"
   version="1.1"
   id="svg6"
   sodipodi:docname="draw-bezier-curves.svg"
   inkscape:version="0.92.1 r15371">
  <metadata
     id="metadata10">
    <rdf:RDF>
      <cc:Work
         rdf:about="">
        <dc:format>image/svg+xml</dc:format>
        <dc:type
           rdf:resource="http://purl.org/dc/dcmitype/StillImage" />
      </cc:Work>
    </rdf:RDF>
  </metadata>
  <sodipodi:namedview
     pagecolor="#ffffff"
     bordercolor="#666666"
     borderopacity="1"
     objecttolerance="10"
     gridtolerance="10"
     guidetolerance="10"
     inkscape:pageopacity="0"
     inkscape:pageshadow="2"
     inkscape:window-width="640"
     inkscape:window-height="480"
     id="namedview8"
     showgrid="false"
     inkscape:current-layer="svg6" />
  <defs
     id="defs3051">
    <style
       type="text/css"
       id="current-color-scheme">
      .ColorScheme-Text {
        color:#f2f2f2;
      }
      </style>
  </defs>
  <path
     style="fill:#3daee9;fill-opacity:1;stroke:none"
     d="M 12.5 2 A 1.5 1.5 0 0 0 11.087891 3 L 2 3 L 2 4 C 3.85517 4.95878 5.1650519 6.4794944 5.3574219 7.3027344 C 5.618921 8.4218139 5.2155266 9.7338822 4.171875 11.160156 A 1.4999979 1.4999852 0 0 0 3.5 11 A 1.4999979 1.4999852 0 0 0 2 12.5 A 1.4999979 1.4999852 0 0 0 3.5 14 A 1.4999979 1.4999852 0 0 0 4.9121094 13 L 9 13 L 9 14 L 12 14 L 12 11 L 9 11 L 9 12 L 4.9121094 12 A 1.4999979 1.4999852 0 0 0 4.875 11.904297 C 6.1789475 10.224649 6.7735438 8.6542873 6.4257812 7.140625 C 6.1320226 5.8619857 5.2413533 4.8645012 3.96875 4 L 11.087891 4 A 1.5 1.5 0 0 0 12.5 5 A 1.5 1.5 0 0 0 14 3.5 A 1.5 1.5 0 0 0 12.5 2 z M 12.5 3 A 0.5 0.5 0 0 1 13 3.5 A 0.5 0.5 0 0 1 12.5 4 A 0.5 0.5 0 0 1 12 3.5 A 0.5 0.5 0 0 1 12.5 3 z M 3.5 12 A 0.5 0.5 0 0 1 3.9941406 12.435547 A 0.5 0.5 0 0 1 3.9980469 12.464844 A 0.5 0.5 0 0 1 4 12.484375 A 0.5 0.5 0 0 1 4 12.5 A 0.5 0.5 0 0 1 3.5 13 A 0.5 0.5 0 0 1 3.0078125 12.585938 A 0.5 0.5 0 0 1 3.0078125 12.583984 A 0.5 0.5 0 0 1 3 12.5 A 0.5 0.5 0 0 1 3.0019531 12.449219 A 0.5 0.5 0 0 1 3.5 12 z M 10 12 L 11 12 L 11 13 L 10 13 L 10 12 z "
     class="ColorScheme-Text"
     id="path4" />
</svg>
