<?xml version="1.0" encoding="UTF-8" standalone="no"?>
<!-- Created with Inkscape (http://www.inkscape.org/) -->

<svg
   xmlns:dc="http://purl.org/dc/elements/1.1/"
   xmlns:cc="http://creativecommons.org/ns#"
   xmlns:rdf="http://www.w3.org/1999/02/22-rdf-syntax-ns#"
   xmlns:svg="http://www.w3.org/2000/svg"
   xmlns="http://www.w3.org/2000/svg"
   xmlns:xlink="http://www.w3.org/1999/xlink"
   xmlns:sodipodi="http://sodipodi.sourceforge.net/DTD/sodipodi-0.dtd"
   xmlns:inkscape="http://www.inkscape.org/namespaces/inkscape"
   version="1.1"
   id="svg2"
   width="16"
   height="16"
   viewBox="0 0 16 16"
   sodipodi:docname="filename-discnumber-amarok.svg"
   inkscape:version="0.92.2 (5c3e80d, 2017-08-06)">
  <metadata
     id="metadata8">
    <rdf:RDF>
      <cc:Work
         rdf:about="">
        <dc:format>image/svg+xml</dc:format>
        <dc:type
           rdf:resource="http://purl.org/dc/dcmitype/StillImage" />
        <dc:title />
      </cc:Work>
    </rdf:RDF>
  </metadata>
  <defs
     id="defs6" />
  <sodipodi:namedview
     pagecolor="#ffffff"
     bordercolor="#666666"
     borderopacity="1"
     objecttolerance="10"
     gridtolerance="10"
     guidetolerance="10"
     inkscape:pageopacity="0"
     inkscape:pageshadow="2"
     inkscape:window-width="640"
     inkscape:window-height="480"
     id="namedview4"
     showgrid="false"
     inkscape:snap-text-baseline="true"
     inkscape:current-layer="svg2" />
  <g
     id="g825"
     transform="scale(0.125)">
    <image
       y="0"
       x="0"
       id="image10"
       xlink:href="data:image/png;base64,iVBORw0KGgoAAAANSUhEUgAAAIAAAACACAYAAADDPmHLAABhVElEQVR42ty9B5xU13U/fl6bN31n tu/SlyoQTSCQUEOAGqpYsprV7Si24hInzi/JL+UfJ79ffmmO4yLJTVa3rGZ1oQKqIAQISYBEr8v2 Njuz01/7n3PvfTNvlmUByU6cDJ9hZqe+eed7vud7zj33Xgn+Z16kYfelUZ5zL84I9491+z/mIn3+ j/gvv0ieW3YdO3ZsdObMueP8VcGx4WBwol/3jwVJaohVxaolCaoNy/b5VM0vKTJ7r+PYjlG0CvhH UVKkwXQyNZAr5Lsdx2rv6x04aNnQcWjvjsP79u0bxJfbwIHwPwIU/10BIHmu6nkXXDC1vrp6fiQa W1xVFZ8djscmhkORxqpwlU/3+cHvD4CmaSBLMmiqCoqisLfKaH/6AMdBGyIybNsCyzLBwlsTb3O5 LBQKBRhMp8yhRLI3nU0dGEoN7Uz0973f3df94Ttr1+7Dt+egDAqA/2aA+O8EANfg8vz58+sntEw7 o7au+vzqmtpzqmsbp9fE6/zhcAwC/hD4VB8oZGhJIbuKH8mdln2IY/MPpOckcQoIDHhfpr/ZffGV koPAsBEQBhSNAmQRFMlUEvr6+o2+/s4DAz1967t7utccbGvdsHXjxnbgYLDFMf/eg+H3HQAloy9Y sCA2bmLLsob6hlWN48ad31A/rqGqqh5CoSjovhAaWxPGtPC0W3jmbXwjXYXR0ZAuGGRP0KD3uLbm j5VPicTfiEwh45tUzhgysYeDLGFCPp+B1FAS+vv7oP1I60Bb6+F1/YODz+7f9emrH330UQ8cHS5+ 7y6/rwBgdqLrOcuWzZ84fvz1EydNvappTMukeHUzBIPV4NNCaEgF6ZsbXELDM+eVbVCYoQAU8Umy ZAtw2AIM4kuk8n0H3yA5AhCSxCxGz7mWYy7tlN+M+gG/g8KJDDaGkEIhC0OpAejs7ICDB/d1dbS3 PX9o74FfrVnzygZgqKwIE783l983ALiGVy647LKLTpk89Q+aJ065qLFpii8SbQBdj6MxNTyNJhre YJ6skqEVMrIDzFEl7u2usSm+SyUntCtTAA8ACDEcHBwAIEllBlDwviODI5ffzazpEHD4YSuqgiSh snCRTSegt7cbDh084BzYu/Ptjra2nz395JPP4wvz8HsWHn5fAFAy/MrLL79s2szp354w4dSz4zWT IBxpBp8e5kZEw5Oh8VwLw0vM4OThZA1HUH453lfeHhMA7EFZhAjJAwL+IomJRbmkDSRJ3BeAcMFg c4oAVUXBiQdZyGch0dtFQIBPtn38YUfrwR89+eSTT+CLCvB7wgj/1QAoGX7FihXnz5wz+39Nmjx3 WTQ6BfzBMaDqAfQ+Ew1tg65KqODxipQrM67mRuf2c8DVXl4AuMb/XACQ3b9l/hgDA94q5dexxxX+ QbaNMHT4t8mIUl33g2ka0N91BPbu3gM7tm39YO++vf/6wrNPPwu/B6HhvwoA7mlXFi5cOP2000// y8nT5l4fjcxEx0HD+4JIqSZougOBgAR+XQHNx71dcrzGdEoKnxvZEh9e1l6/PQAoTFe4IODM4IYN vFXK8cTVDo5gDVVTQcdU1DTy0HkI2WD7dvh4ywcv796x6x/efnvNFnHg/yVi8b8CAK7X6zfedOPX Z8ya9+ex+Jxq2xyP1B5Bb7cAU3cIhRUUewrSv8RjvCIM5jF6GQTDAeAygssQdun13h99NAB4RiC5 Xi6D0AIKf64CADJ/ncsCchkAlDWwlFJR+OPsKmNoUMEfCEIuMwj7d+yATRs35T7ZtvVHLz779L8M DWE6UZlC/o8DQMnrzzpvxYJFi+b987iWhecWzckARi0yqIPK3oEwGj4SUUAPyExho9BmAKCrREAY EQCVRh4OgMrHjg0A2fVgDwC4l8vCwC4AysYHFwAiBPCsQ2bCUUbUKqosgOBqCBmZzYesJkNvWwds 3fIhrHvnnW17dn7yF6tXr16LH2LCfyIb/GcBwPV69Zprr//6vIWn/y1EZkezeaR7WwMf0nrYr0BV VEXKV5AJ8ORpJKaAn0AvCCQOgrJxrVF0gO0JEWXnOjYAQBhULmUArgCU3OIQyy8rdUEl/fPPkdlx IwAQBAwMePAEaC4gEdx4DSEIUDTA9g+3wrvr1hubN2/+3hO/eugf8WOy8J+kDf4zAMDy+fHjx9et XLnyhy1zl1zT7UyCfL4KMMRDCE9QdViHqoAKGp4UchQCgEIA0CR20hRNAEDl518+ThjwaPNRMwEv AJjKl1yV7/Fu2WNol85L8V8879K/x/upYKQK76eQoIhbYjGVfhNwEPjwN+l4CIfb2uG99zfB2++8 9cYH763/oy1btuyH/wRt8LsEQKlWf9ZZZ5123tKlP9Mnnjb7oNUEdlEHHX9a3KdBPRo/hJZVMc9W 8SSqFCvpJKHiV3wSv8UTqQgWkBVhAzhaDB47DJwMAKQSExxLAEoixrPXK3KpnOymiMzTFQKA1/tV 9rn0W1SJG1+VuXdo4jafz8O6DZtgzRtrWre8v+muNWtefR1+xyHhdwWAEuVjXn/lkiXn3JtomlV9 yI6DXJTBb0tQ5/dBrR+BQIa3USXjWzB7xpOisBPDDC9YgHmSBgwYLAzI4PF6uhwrDJwcACrSOm8G ICvlcQNP/JdkeWTxp3K6Z8Uhj/crzPtVxnIaYwBeraTf67188PHH8Pqatwrr33n7Oy+98OzPBQh+ JyHhdwEA1/jaqlVXf23ROef+c2vTKVq7FQbZsAEze2jw+yGKJ0IxMU92UOkjCHx0i89pklxiAUUl AOB9jXuOGwrkEcRgWRf89gDADa2UjOzm+6PTP6f9Su+X2XOu96typfHlEU7inv0HkAnehrfeeOOf nvz1I9/Fh4zfBQh+2wAoGf+22+7461mLl/zV3sYW6HX84ORNCEoq83ydIqCJHm9y4+s2AUBlAPAx FnBDAd76yixQoQU8YnB0HWB/DgBw0VYytDf+j0D/MhN8ighZHu9XBOUrnPYZAEYxvntp7+iE1994 C1559dVfPP7Ig9/Ch4pQ1gW/dwBwje+78fpb/s+CFcv+ZN/4FhhwfGAz46PYQ1emAh6g8RULTwZe fXS1BRBcEJAWkBSuBTQPC9CtOlwMjqYDXAAMf/wEACAPA8Cw+F9R/BnV+1XGWMz4xHCu9xMQTuCk 9vYPwKtr34DXXl792MMP/vJO4OMJvzUQ/LYAUDb+jTd9d8HyFX92ZNpUSMo6WHkDQoj3MBrUNh28 AotokiUxAHAQKEwLUBigkKC7oUARLEChQPewgDpSSjiSDvBmArbn9kQA4MkASgCQKx8Tub/X+wms JeWvIQCGUb92jLg/0sUWJ7UnkYQ1CIKXX3rh0UcfuJ9A8Ftjgt8GADzGv+UvT19+/t/0zZsGKc0P RtaCEBo0iD+5iPHfMvFqcADQ4VMYUNH4GopCn6WiOCyHAt0VhHi2aAzADQVeFpA9YrAyDFTqAOko fTAKAOThKaDIABR5ZPr3Fn4omxHez27FcPHJUr9rfDxd7FTRV/cOJOCN19fC6ueev+/Xjz38DeCa 4HOD4PMCoBTzV6684msXXHXlv2fOnA6ZSADMjAVBRwMd43zBcMBkVxtM/FW2FwSCBfSSHlBYKHBZ QJO5wTXyIpcFfMAeqxSD1rAwYI0gBIcBAHgoGREAwviyN/7LvFo4nP4pvpPxZQKn8H6VtaDxsKUJ 6ucgOHHjW+K2aNv4m2Xo6+6Dd15/HVa//NK/PfXYo38LnAk+lzD8PAAopXrLl19y1YqVFz+iXjBP zTWHmfFDZHz07iIeYhGjloH0bxALCCC4oYB+JWUDGoUBoQcoDPhZVoDsgGeRTp5GWsDHtQDRLDGA 6tECI4UBqeQgXiFojQwAqTIEeDMASR6N/mUGEmpBU7Vh3q9x6tdOgvq9xrfoFo2PpwsMx2aDSj3t 7fD262vghWef/vYrL73wE/ic2cHnAQDz/AULFixc9YXrXwxfODuWnxID6q0NIuaD6MUGHhpdCQSG C4KizQBgkR4QTMD0AAMB1wN+wQJ+EN6DXqUp3PCa7k0NvSxQTgeP1gGfBQByKc/n6Z98bPpnqp/T v6J6hZ/KDO47Qep3jU9HSUY3bd5hYKHxDXzCQERouh/a9+2GNa++Yr7w7LPXv/fuWy8KEHymYtFn BQDz/JaWlsZrv3jTa2NWzplemBMHu4CGk/wQkQN40BLSPfCrBwRFgzOBKdjAEZFMorQQje8zhR5w PCAgL1Jk3g+gyywMqBQGXBBIw8OA19gnAwA3DAzLAJTyQI4sAOCWjfmAj8K8s5wBiGPE1/uE6tc+ g/FZs4BDbGmzhhPDMvF8mvhdPti/YzusWf1q7zNPPXbhDrxAuVj0OwcAG9HDq37nnV99ZO5lS64y zgjjwWr4LwBVcgQPFhU/JjkWxnQTf4XlYQIWDlwQFDgTOCIcyIIFSA/opVAg9ACeaI20ALEACkLN xzMCAoE8Yhio1AFlDVDOBCoBoIj47k0BOaWX079K+pdlnvopWqX3qyXvJwAcn/qPaXz0eGoxIxA4 dGtZyAQWe56OZefHW+CVF1/cdM+P/uNSfHkSymXj3xkASor/8stXffOCa1b+k3S2DFYIo7UThCot hi/AvB+h4KDhGAjw5RTLTGKA4jAQUDgoChCIcFDSAybXAX6bs4BPUkpagAEAY4KqCxZQXBYYHgbM EwaA7I75e1JA8m4W/xW5HBbc+xIv/bL2cwQAYwFR9St5v3p86mf8JGJ+pfFN9jhjANsCh8CANEAg KBomB0vRgA83vgcvPf/cD5741SP/Gz5DeniyAGBxf968eQuuueHW16qXqSG7GY1n+SGq1aKHBsGW VPx2TYCAwKCwqzkCCIpFLggJCBQOWCRjFULBBBgKAjZnAQYCWYQCjYcCxgJuRlBiAe718rBiUCUI jgMA1muoME+XxPCv7DKA4paFZVGeLns/eT2xkiaVvf9EjV8Ugs9yuNdbrOMNb62y8R2L29ZEQBQK JqsyDvb1wrp337aeffzxL65f/85qOElReDIAYCN7VVVV4ZtuuvOVOVeNX+RMG8QDRMGn1UBQiYMl odFp1EZGw0suCPDKmEBhP8oolq8FBgICAAeCVSyDgFUIEQh+pgcQCCIU+EgQMi3AmYAyA01jbfsl zy/PB7BguBBk/YSldNEFgFSmfzEI5Hq/VBJ/Hj3g8X5VeD8JVZ4GqszwPqH8R4v75lGebzPa58Y3 8dw6wvgEAoczALXBWw6bvVQwMPD6fHBk/154/dWXD973k3uXJhKJLjgJPXCiACi1ca1add2frrj6 /L/3L2wHS0XTSmEIa/XgIPQdMrqELqnopfuOAIFdAoFUAgBjgpwAAQsJeAqKHMOUGfhMHgoCFAbw GgASmTKrCfg8LOAKQj5MzI0tC2O7LeJMaBCVspZyvLLOTack+Hguz2O4Ql29iuvtrgCU2GN8ogjw 1zLvF/TPsgAuWIn6NRg97h9lfEb3Jr8l+hceT4AgJmChwOGAANF0SqHAdrijf4p64LlnnvrF4488 8m04iXLxiQKAUf/UqVNn3HTrH74z6cJiFOqTSNsqM76Myp+MS5KcGR2vtkxAEPeBA8EWusBEEFA4 KJoiFCAICkW7pAkYCFw9QFoAr0FbMAF+j0/mLODzEwvgfR04Cyi8OddV+7ZZQGBl8XPzeFtArWGg 4U1GsWR8Wfwyhm7FbUFT2TxCn+4D3a/jbRB8gQCfTyiaPRlYhPdT7s+uCvd+7QSon5U/7MqYT3MR ybltOj4yvAAAzWuwBAjYHEbHM1kFHyugDqCaw9BgP6x/523rqV89tnLTpvfegXKR6HMDgFE/Xv23 3vpHvzz/+hnXRGa3M+/1STH8sWHBNzIzroPxz1Y8ICBAKC4IfIwNLAECiwBQ4KHADQfFAk8RHcEE KlUIEQgBk4cBuvoxPvsUzgI+v8yYwKfzrMA28/hZKcjnMszw5E108lz6Z6FBKlOaayWZhYLKVjDK AIjmdZ8OgVAIgpEo+P1BNt4vU3laFH+Y8qcWcEH/2kkY36Q4T/m+MD6L+dRajmxFLeZM/dvuvAd+ cZyyXVl9wDBZ5fHwvt0oCJ/d8JMf/3Al8LYytz7wuQBAQtZ3+plnL7/+S9c9O+3ifgVCObANP/iV WiBdYgpUWgwECheCaHyHaQE3JPD7rjiktJHVCoxhICgQCDDVKYrMwJAYAHSDC8KArbGxBV3mVKv7 NaYHHCkD+eIgiiM8NvxQlqtKYtJISReURwWPBoA7BxBKfX6S5GkTE7ogEAxCNF4Dseo4YwlJDPOS OPV5vH8047uCjxnftEtK3zbdeC8eIw3g2BVe7xqfwMH/pozKYL/IwBP54ab34dePPPzVt954/WE4 gQkoxwMAPU/hLPi1u/7s5eU3jDuzZm4PFLNoRqkan/SDQeLEFmVLx53poAg20AQb6MgGOgsJNt0X TEBgMKlWIEJBgYBA4QBBYLggQCaQDN47QCwQRFFIVcYAgsyPHujYOcgbCaTQPHqBzQaNZLeju9Qo Uh4PkEcAgNsKLovOXVl8gFsKZoNOTC3i8Uh8GlgoHILahkaI19Yx4xNFcvE38omkbzWGe74wfknp M+/njMBiu82N7YxkeNf64rEigkBBFuhua4XXV7984O4f/Ps5uVyuH8pZwWcCACv4nLP0wlXX3bzq kbmXDSAUSMFRS0eMxSbLdkTNGnjRxwFRgnHZQOPeT0CQdQ4GYgQGApcJFKQykRkgAPIEgnyZCSia yYwJVAaCMOYDOgpGI51EoGSYAKQ2cp4ZkDe7Bna93ioBQPFkASMCwO0EEgJQlof1CFC1T9QJqOM3 GovC2OaxEIuGePfrKJ7PAcBTPa/xmeHxSueSJruS5w+nfHbUtlNhePDcpwKRxUKHCdu2fABPP/n4 X778/LM/EixwTEE4GgBc7w/d9Y0/e+XyGycuajwjAcUMxj6I48GoTLiw3NUFgQBAJRBcNvAxwxMT OAQAmZiAA8F2iAlUzgRo7HyWGiQJDGhk0gQCBKQH/BgK5HQerIEU/m0jC6AeoOogCkKaRKL5RWHI Y3AW1xmVkodZTAjS3wwLDCxSKZ1jHTyqXFL8vEZQ7gRyxSITgqxl3AEdPa+5sQGam5pG9XzX+DQi 6lg83rOpZEL0MSA4dsm+R9O91/D8Py9ICqiqKTPp7WiHtatXt/7wP/5tCbJA32gsMBoAmPcvXrzk klvuvPmps67MglploEL34w+PlooWxAKmS1toddMFgAsIDxuwOoEiWED2432/yBLwb8YGxAQS0wRe EBAT2EU81QWkur4hsBMZCFJIkKj4LPG0ELmXZQUIADabSGZnjukBE+NLHlMNCz/YtgwGAhjGACTq eDuXBjpN3Aj4UV/gVdfYUC+dajfes8EfljpKrOFDFoWneCwGY8eNw2PxjWh803LPk2t8Tv0llS88 nNvWFhHAEYBwUVFpeO+FpYVMOFqwdctm1AIPfHvNa6/9AkZJC48FgFLsv/0r33jiultOvWD6WSmk ZTqxMRa/TQkphy2U4JSAQD/KYmmLUwKBKUQin8EvcxHo6gIlwABhYxppMybQWUgwRHZAoSCfdfB7 HbwtQrKjH4xUDkMBGt7C1BCvAWQXHQ1BLKBjJqAH0StVZA40eD6TYfPxaEUQHsfRiIIF6FipLkC+ 59M0SfOpTPGT0HNkftIpJPgxFQxSBhAKsvuy2+BJGQLpAQYCfsJIrQcwZZw0aRK7LQrBZ3hjPhnf tITX26yg43gofySRV1aBnvjvJQL3vk0sUGSzkzvbDsOrq1/65Af/+i/LgY8TjMgCxwIA8/7Zs+cv vPmOW9asvErRInVFPFj0frWKTYOmf1S5MiVHAMEWxudAMBkzQClLICDQbzJpbAA/ngOAUkUEgWAD JHTBBFqZCfIypJNF6G3rhmwSEWHITBT6DDQ+XkOsNoCGIgqX8XsdzPutNHqrzcQZGT+bTjqJwZ7M YKpvKJNMpnPFfMYynKJhIapsqiHoPgSA5tMDoVgkEo7X1ERq6+tD1bG4TGmeiQdPqV+0KgqxWBUH AlWMgTONN+4TCKiOMG5iC/ijYWQe4flM5BnsPqN/Qf3OMKE3stePYvjSHVuwAK8dGAiELRs3wK8f ffjGdW+/6a5NYJ0IANy8P3DltV/6p9tvOf9ri08fAoOqZloMqOzm4MnFjEzoaQEASQDCFmHBsQQT 2HxI2BFCyCprAzI0Gd+mUKAGOBPg1UEmMJk4VCE7VITOg70IgoIYUsYTmCdRSKkhAoBlBQqLGcV8 GmOgA8EwFZ1y0NW5f7Cj42BXOpXoxPiYQGOlJVkpqqqC71YsW5YcmZJ9PEA8agWPW0Ux5rMcK6Qp WjxWXdUwccKk5gmTWuLxmrhEBqK6fzwahXhVFYYeRcxWrjQMnQMKG80TJoIeqsLjzpfEnm1agv7t Eb2+QuSNQPcjGd77vM2Mb7BQdnj/Xnjxmd+svu9n994Ix6gLjAQANtoXi8Ua/uBrf7L++ivrxoxv xJNPPa16nHGDo6Cx8Uq3tsxXybBLQECDu4xgURODxXNeql9bvARquGKRsYEQiAgAC9kAMCxYCAKQ kEIxzncf6oN0mip6MuRyGA5y+Fk5XijSUBBqeN9OpEDDH+1HAWDbWae7d0d3b8/+/YVCtl1XtUHZ H8iT0VVZtjC1o7FUh1aXqTAcG0PCXyJZsmPaCnquahh5f9EoVAV8evPkqZMnz503v6m2rlq2MUYF dB1q43GmFbzijKXCjPE4azSPmwQ+fE2xkOfDu2KI130P9/phIu8zGN57IS1AaWs6mYC333wz+6v7 f37Orl27dkK5LjAqAFjV7/zlF19705euuu/i00xEPZ4dXxiDQpDHR2Z8PBaV8mICA79vCyDQ1ZDs UmhgLGDxcWwCAmMEFwglNiAQ+FlIADWIIAhA7+E0ZLIWKyxRP0Gu4GoCAgEKwkGk+75B0E2N9R+m u/cmuns/2WEZ2YO6HhrUg/48pmompmw2errFevrw6zClc5ABKs6fTRzmOKzyj8cpSbYtm46D9w21 mCkE8vlsVPfrE0477bSZixaeVkfdykTf6CgQRUZgxre5CKZQ6LAuHuQ4zEubxk1gmQQ1cziiy6fC 64fF+c9q+BII6TwLEHy67SP49UMPfnf1Sy/8O/Al7Sp6BoYDoJT63fKVP3rwlivnX76oGcUUNT/4 46zExYyv8lfSrU2AUDkgbGIEBooyI5BGMEVoqAACtYcJRmBCkYlEjYUDAsBATxEGMfZLcghPqM6Y Ap0c8giCHP6MZHcChnoSaC0VpKGsnd6/dbeR7d7m8wV7/SE9pyiaQUZHY9uqrDGMySQM2Mk3VQtt LZXWiEOroySn1zsIDgwD+J+EWaah0B3TtlTLMrRsrujPZ9O1TY0Nsy67+IKZdbW1KomuSCQCVcgG zPPZCiE8I6JbMgQVjeqbx/DOHo/XV9L95ze89y2kASQMA12th+Gl557fcs8Pv3cxPjwEw8TgcACw Eb/a5uZxX/3aN9674czqmjEBAz1cB8lfxWI/AYBexW5ZOHCvHBgsPBAIEBhcJxwDCOgNdMsqY6T6 hVi0FQ2Gkjb09WYYG9gIAAfZwHYC+H5kAkuCvu5BSHQk0MMUyBzpzBV2fbRFBXOnHo6kUM0VVFpX RpZtzOlNTVFNw0E6LxYjuXwulslmqvC+Hw2g8GWlWMXQRjhYmA0U/b5AKhIMJ3S/lsIfiBi1FIzd CBhHxZRSweP2DaVSEZ8mTb1g2bLTZ82cEckVihAIhaEqFmcx2BJDuKyUS78XlX51dR3EamqYoOQi b2SBV2n4Ezd6pRvLbHyALrlMCt59803jkYfuP//TrVs/hmFicDgAmPg7+7zzr7n95ut/eWmLg05v M/qXNKRmqquT8VnJyymDQfWAgUIBAQGftzTBDLIbHtDgDAgWT41MzghsQEMIxXzBhvYjA1BAQ7Ps oAQCajYJQTKZhcG+JAJGg75P96dS2z5eryvqfn84mtZUH3o9WgwNj3k62t3RB9OpMYnBRAOmWr5Q uCobjUUTVeHokOb35Xw+nQ4Dj6OgFQuGPzU0FM2mErHBZCqE59CKx+PdkUi0XZPUHAHBMk0N4ze7 zWTSQaOQn3DeeWeffdr802oyhRyEw1Goqoqx1UZdBiiN4iHZNI4Zy9YMsviA/yiG/4zGl8r5CNUY TKJY/F4aKn7yV4/+zYu8MkhisBQGvACg+1TBCF5705d/cMcVZ918Zm0RisjnSqCKl9fcQ2KFdmF8 2QMCccuZQNxXOCAsER4ICDx9tBkjGBa/MkbA89J9JAn9g2lWxTdZ8Ygqh1QvCKMekCDRh/zvC0L3 jkOpznc/fDvoD+z3B8NZn4qxHlkbjV8kyCVSqfF9/X3jAn6/MW7CxNba+poOnxpMKapssAq1XaZ/ /A38h6FKwFxdMwqFSG9/z5i2I0fGoXzw19Y1tuPnH7LIrWTUnpieWEZRy+RygVw6M+7c85YsnTd/ Xm02m4cYAiCMlG+J6p5L7QSIQDAADU1jGCCOovvP6vFSZfHZa1AKTzKmx+0HD8CzTzyxBrOB6/Hh DHAxeBQAGP3jtfqP/9dfv/Glc1umTQ0aGDA0UJD+2eslcXhslS7Pu7xgEOEAVFcoAmcElWsFBgTN BQIXi8QIlDmkE1k82D4o2g4bZCraQhvIPmQEDfp7cvgZYRhoG8odfvWjNxTNtycSiuQkRTZUn2qo EuYCthnpaGubadmWPmXazD1NTQ0HMfXLUbxHb2RFP2QGBT1EtUUIkCkEqDQ9BUxVlVkfBilCw7YC qcHkhKGBvhmBoG6jLNiZzWT7qfhILID0rmXSQ/5sLjNp+bLlF0yeNjlSQKVaW1fHegmY4ONBn50+ Mm9tXQOEMYW0RP7/mQzvMfpopdyiZTAhmBroh7WvrO6/5967z+7v7GyF8vhAxfvJxQOnnDJ7/q1f uWPNF+ZFfTEZTaQEQUGPk8SPKE/JdoHgAQM/vWWNIJcNT59ua26IKIcHAgTLFvCxjr29MJhK8x45 an5krdAcCN29aRSBlAoq9q6X9r0tF+Wt4Vg0IyHVKxrGekktDBUyje2tbbPqG5t6pk+f/rFfD6Rs EbDQYHo2XwgXi2YQj0JnXV28vZflLawhR3IKPkXNIqukVU0RizpiPmDZUdtMz1VBacrlC3u6e/tb CQSkDVDTaLlUOmjZxZkXX3LR8ni8mk0Jaqhv4ANIniYO+hZavLph7Dhh/JMw/Aka3fu8ySqeJESL sHnDBnj4lz+7YeOGDS9DOQxUmI7if3DZsotuuvXWq3+8tEUhVwFFi+KZ0viImWtrt5vGcbtv4Gh2 GAYGljnQreYIVuD3bZZ0AqSG8tB+uJeFB7rSdKgi/QD8iD4MCb19GBYwC9n+es8nmQ7r7Wh1NKn6 9KKiSCZ5fiqbGtPe1nnKtKnT9kxomfQJIh+1gCZj/h0YTA7W4N/hUDBqBcKBbEj3Z9HFUSY7XCmh a8uO5MsZ+WAunQsOpVP4TiUTDkcGVF3KWBijMDtQAj51JorNUwYGk/u7uxMHLJYd2AgEw5dMJCLR WHjJJZesXEgKnzKDeDxWOXwLvIuntrYewrEYi9O/DaMf6zn6LqoJ0ODVzu3b4LEHH/j3F5575v8A DwOsKOQFAMX/8LU33v69m7547q1zmx2Ws2u+GLB1shwoMYA07JYBwrX/SOzgjr26NQQBAgoTxAoU eI509kMqk+FM4ZaX8V/ONKCtA8MC/pj925MDezYOvYBqu0PTtELJ87OZpiNt7afOOnXOJ2PGjtkp 6F5BMVdbNK3q2niNEasK96LYHEIVblDMJw1gsalJ1OKlgfuYqiqYumuRXC5XXyjkfLpPGzAdq9cq YiSiYriuTzdyg/P6+1N7UkOZg5Zk65jeKYZR1BMDA/Vz582+bN6ceY20OGR9YyMrC5frO1wYBvyo BcaMq+js+W0ZffjjBfR+GuM4gjrgmSeeRB1wD1UFKR1kLWPeSE7xP3LXt77zwjWXzV40vpboQwU8 F2VbinjG75PRpaMB4Yj27OHs4H2hVysg7Aq2CYe6u8CkNN2tLbA0UkJBmISB5BBkinnnzd90vmkX Ah+Eo1VZRZNMn6wa2aIZOXxo/8IpU2bsnTi5ZRsZ33Jsra9voDkQDIabm5t6zEK+17AdkxlYlkZl UMzjHQKDKilaMOivtQ2zwTYL2UzBajdMs8hmOVjOqW3tB2ZijvQRklWf6Rg+ZAk1nR4KooCYddHF F14cCoWUQCgINZj6uSzgvdQ3NYM/EOKLXQujnyi1nwgQBAcwBqABrIGebnjphRcP3/eTu89NJBLU KMLSQff9LP7X1tY2/+HXv/XOygvHN8QjlKr4EABhNorD7GcfDQL2mLCt7Axz/BEB4XlS5svA9GRT 0J0YwHRTKocLFZg47Ojtx8ds+OiD7o6tm4eei8bjfX6fWlQkWkpUhsMHDi2MxOPZWXPmrkfaRvPZ WldP39ia6nq9piZ2JJvPJr2Gxzjv0CARqj6JegjpwqasU+Axyh7JgGAVnEA4GvP7fOPS6WSxWDTa DJN1K0J3++ElHe1tNdV19e/7UIcYGAbMoqkNJBKxqVNaLlt4xuktVARqaGzCc6hVlIuJBShdrK5v ZGXhE/Xm0Q0+0nC/I3oMMeinh+DNN94oPPrAg8s//XTrNhBVQffz6FQE5sw5beFNt9/8ytKlNZru dxAVflDVQGnAwwVA6W/HfcwRwKCKmlM2/IiA4OHCZQcJ/zjU3wuZfJ519ZIwJK1ArYRDuQz0p1Js fOE3zxxcWyj6NkWi4bxM1K9oxcHBxKS+xMCEJYvPesMfiKLgK6q9fYkx8arqUHVN1aFsIT+kCaXP DO9ndXtnoC/hpBJ9TjabZQcRDAalcG1cqg1FJUeRUTBa+HIOGANNpGu+qK4pE/v6B7KKJLch8RlG 3ohs2rhueTAc6q6L1+xEQ2J6aGq5XEa3DHPO8gtXrAwGA3IUFX88FvOwgMRCgY+ViMez81J+5rMa 2ym/3juKSK8Ug08Exo2bNsFD9//ypvffe/clEDrAjdBs7H/xknOuuv3Om+9feEaQrbuvYu6toCX4 St1O6QuGA6B032UGSyzcYFc+rtiVgCAg0IER/dMgieSiROGcRMujGE4B9h5JJN7c3Pskek2XT9eL Knoc/ijf3gMHz5g+c9bu8RPGfopphZxM9deBqjWMGzOmNY2qTNP8wviSo+qac+TwYWvnrt2Fvs62 dDozlEZ6LNLWABinfQE9EsYcPTL71FN8TY0NqunQuwQIjLwdqYlVJweHxqeTqT6k9y5y3Y72jhnb P9k6Z/KkyZv8upYqChZIJgZqT5176tUzZ81spEygoaEJ5BHM2dDczJaO9bLD0a8azdiVoaViZNIu 9ygY1CSLqP1o28fw1FNP/u0Lzzx9twBA0QUAE4BXrrruri9cf+Hfn3p6gDUpUPyXJRW89SpX7IPt VHypVxCWmcEDCpZQufc5C9CaOSjgoKu7j7VllRhC4p2u3T39qGAdWP1R69aOvuIrmD9nNUU1UKQV exMDk9OpoaZFZ5y5VvPpuULBCiaGBidOnzollc5kWl3PV/w+DOGOs2nzu8W9O3f1Dya62rqPHBkA roK9F7V6woT4vJkzx8479fTa2jFjfJJjKabplJggEgxP2H9gXywajhzyaWoaT6yOadUKf0AfxLTv E6uIWsBy1GQqEaiqCp+3bPnyJWSA+oYGNnpoezJmCgPVqA/i1bXlmoDH2CWl4jpeychiuMjzWSVb 0IlzmaY02ohpdLHAts/ZuW8vPPrYIz9/5onH/wq4ECyUZvwwAHzhur+/6Y7LvjpllsYWcGACUHTD joTCyoecigOqAAOUQ4QLBKYD8Vf29Q3CYCKJYOCzLkTmCJlUBhID1OZddJ7ZdOQFyadTXl+k2r4t 2fLBQ4cWtUye0jph0qSt1Inf29fXXFMdrwqGgnvzuVxRV32SIvuQmB3nzbVrc3t3fXykdffug1DZ Ku1l39KCF9eu+lJL89Qx4+sbJ1O3iow5vlwwi44/EPAVita0nva2dH1jTZuN6UHr4cOz9+zZPWXK pMkbVVXCpy0Vv99XzOVnLLvw/GsQLEo0WgVVsaqycdgpsiAUjkADikHLNkvGdRtWyX40hBxEhmAj e64DUilSY3uh8M4iBI/Px5ebKuQLrOeAehs5iHgdolgw2MTVfYcPw7MvPPfifT+99ysCAHn3R2Mm DpGb7/jqj6++7pxrJk734YdLoJMArMDfsZqRRnvOg9ZhwCBd1t3RC9lMtpRqCm0Iid4EYE4OHV2p 9NqP2h+rqqo6IuuaxZR/3qw+cuTQnDPPXPJOMBLpw/jq7xsYaJk2eVpiKDfUrrHGLsww/T5Yt2F9 4aOtmw+3fvrpLijPmRu+BKsXACwALb1g5dTmMRMmzjxtfkAuGBTVZGKBaDQ8dt/uffFINHqYWCCX ztas27Bu6diGpl3haKgDswatgFpgaLC/fuHCBde3TGpBQaVBHeb+juP9ShvPr87GB0rGFatCUZ/h Qw/cD0eOtMLECROhp68XgRCA9FAakslBwO+GlkmTYP/+A5BFnUSZBoYe1l5G8T6D6fT5S5fCivNX sMbdYqHA1ltqxVD71HPPv/+zu3/wBfymlAsARQAgetfX//TRS1ctPH/sZAKAjAcY8pjyRGpWx2OK YUMfeEK6jnQjRRVLFnCZpKerD6jxYvuOziOf7B54ojoWH6ThWqL/nv6+qRi/qxcsOP0NzHENpPxa /IGNtXV1BzLZTIZUN1Ku09rebr766iu9ez56/yMoj4UP36TBGQEArM1/9ryz552z9OymSZNnqLlC WqLee/ToUN9gcnJuKNmNAq+HSsIfb9m8DD0x29zU9Al6q0bdRYlEMjS1ZcIX5i+YN42+pAHDgOyy qcABzSBubh7Duncc1kpGM540KCBl33Pv3bB8+XJ4/vnn2flpam6CnTt2ordraOAsAxONOWgIoqGh FORyOQaSefPms+3uzj37HJg2eQr7gTQ0TMvwtg8MwFMvvrTj7u//64UCAFkXAAG8Vn31rm89+4Xr zl7YMJ5CAM28CR7b0PKwv0eEiHPM90usQcJCAHSxgaDy3j1cuHR39bBS6eaNrduPtKafj8ZjWVVS bQSy1dZx5LSqWG16+ikz31eQ6pH+xzY01gdUybdXckw2AImqznnt7ddz2zZu2d7Vuq9NGN8FgDPC wbkgEBIUNNQBDfMXnD1v+bIVQdsqYigA1lEiK+r0w4dbi3W11YcJTHv27FzU1dZeN3HypE2SycYQ lKHBQX9NTdWK884++0wyVmNDI4ZU1dP8wc9BIwpEPzIVxegu9NC3332HGfnQ4UNww3U3wONPPs7A kUoNwexTT4W29jbII9VTvKcQMHH8BNaEuumDTdDT28uofkzzWPT+pTAOwUUXE4FL5upOJuH519Yc +tf/9w/n4p+0CWau1P9HAPjGH//5y1dds3h2XSMCgBZvVAPDZOlIBnWOww0jsICYfkWxqauti/fH 8eZ99jip1u7OXhYP3n5r9zuppP1GKBw2MM+33Pg/ZerMA+MmjPmUmsK7untaJkycUCgahUOIdElF 7y8Ui9aLzz7Tv+XdDZtRUaSP4f3DL8NZwD9r0TkLL1+5qqGmJoIsUCD7OuFAaOK+/QeCtTVVBxEM +Y7WIzM/3bF9xtRJk96n0UjLspVUJq2FA/rZK8456wL6uvq6ejS0t32Mg6ABgREOBlgWdPfPfgpz Zs+Gts4OaKiphTMWL4Yf3nM3RCMROHXWLPjkk09Zt/GypedBOpODZGoQNn/wATQ1NmGIqWV7GsYw 7cTzwWj/thtvQPYwGABIh/ViCHnprXe6/vHv/maxAEC2NAZAAPjmn/7F619Ydeb0mjqatUOTL/1w YtQvflJ5gPX4L5ao47eIGqC7AkIEABrG7OnpZQzw1tu712Qz1juhQNhUFBlFtuPbf/DAotlz52/D +Lm/mM0HEslUS8uUSQOFdLpDlRSJYn9Hd4/x4nPPtu7dvpno37Mw3XEPriQGiQUmz5g/+6KVK1ta WqZrxdwQAsByUHeM2b/3QE00HtmvqVquv6dn4pYPNy1EIbhZU5QMASCbz1GNa/FF5555GU02qa2p g2DQX5rOzc4SAaCuDqLBMKDIhF88+BBcedml8OunngK/7oebrr8OQfEzqEMwXHbpJfDIrx+HsZg6 Ui/iW+vXs3kMU9D7aR7CfATO47/5DTQ3NsK8OXNgG4LlrjtuhVzBYINBBIC+oQy8um5j/3f/+s9P A94qXgmAb3/nf6+96qozp9bVUI8+TcHWT9j4xzyVxwAEUVguiwDo6q58HAGQR/QSAKhW/ubbO17N 5Jx16CUWqlsT3Stw+NDhRfMWLNxc29DQauQLwcTgYMvkyS09uXS6mwDgj4btfbv3mK+//cq+vVu2 bIcy/Z/oIkouC2gTTjll+rLzL5kxd+5cXzaVlgkAgWi04eD+1kY8poM+v5oeTCTGbHp/3ZKJ41u2 BDElJB1QMPKyZRpzLjpr0Rd1XZdqqmtQ9QfB9hwB/b569NyqSJiVbH/x0CNwyYUr4PmXV0NVVRQu XnEB3Pfgg0DvXXnxhfDYE08hY9TBimXL4PU33mCpsoEGrqmthulTpsD6DZugtq4Guru7YcK4sbDq 0otZ651lFll7fF86C6+//2Hib//8O/PBwwCsCojXGAJgzaorl0xtiPvZAk+YX5+8rU/wVWToXK4A nRTrPThhDEAAwHhGZfc1721/JZOz1kWCIUtGBiAAHEQAnHYcAOw/sNd4bc3q/QiAbR4AnCiduVoA ATBnxvJlF0yfM2eOPhIA/GH/UGKgZ9zG9evPLAHARgDkDQzShTkrzp5/re5DANQiAIKhinEBYoD6 OgQAirmiSQB4FC654AJ4/qVXMG2MwkUrlsMvH3iYGfiiFcvg7fUbYCiVgsno9TRpZeGC+bD2rXfh SGsrLF+2FNatfx8mjB8LO3fthqlTJsPVl1/Cm3ANDoB+zKrWvPfR4N/8xXfmDQcAY4BvfecvX7/6 8nOmNVVTDx7Nl9M95+MYl+N2mY98oRpAFkNAZ4kBpBIwSPV2d3NgvPHex6+mssY74WDQJgBgzqzv O3B48Zx587ZSCLCsgr+/e7Bl0tSWRC5vtPswfSEAYGgxXnzx+cOfblm3BU6c/r0/hC+KsWDB3Isu uLwF0y5fXgAgHI0279m7rwaNdED3B7K9HR2TtmzZePrEiVM2+1UlhYZFvZCXNNlevPzc2VcSVdei p5NK92aCDAD19RCJBNhs6F888Cu45gtXwi/vfxQ9vR5WXbUS7r33Aairr4ZLLl4Bq19Zy9rohtJp Fttnz5rG5l7sP3AIrrriEnj4sSdh5ikzII7sceRIO9z1BzcBnhPUVAIAqRy8/u5HA3/3V3++QAAg UwGAr3/7z17+4uXnzxpTG2Zz92k9utIZcUY7VyM/NtrAJo/1BrQhA9CcOHezZgYAqgKiIqaH3tj0 8ZuJZG4tYwBZsim+HjhyaNFUFIETJrd84pi21t3TO2kSisCCZR8kAOj4Woyp1jNPPd2375NN7ycS icxnAACfHXX2ijOuvurqxkgooBTSGYUxQCgycd/eA8Ga2ugBVfcXjhw8MHPnp9tmTW6ZukFV5DwK OgVTMSkQVjGLnH4JfVxdfR2mpq4IlFwNCA2NDcgMOpt3eM/dj6LYmwzbtu9lcxDnzZ0Ba9/ciOJR g1NnzsDHd7EDO++8M9g5o1rntk/2QjKRhFmzpsLuvYcggmEmiiGFei2/dN0VbI1mWh1FkWzoTeRg 9dot3f/3u399xnAAsBBw513ffOaGqy85bbwAgE/TRzgvJwKA0R53AcA7V9u6uljXSnndfYkdfFdX F7PX5q27Pm7t6Hs6EgmbkqI41I1/uK11YXV1XWrm7FkbZEmVevoGxjbUNwZ8irRXwpRCDWqWrgad N9e9k9n8wabt7Ts/PgSfIQQ0TjxlzPxFC+ZfcsHKcL6I3p81aJV72ZGVae2tRwoNtbVHbCSlnTt2 LerpPNIwcdykjQRSpHk5nc7K1XXqxWefOfkcYtNG9GgaACoBgP9YaGxqZGkgNSf1dAzBW2+8x8DA pnfh+Rk3rhFSyQwMJodg/ryZ0N7eDf39A+ztdN4mTGiGhQtPg1dfeQs93WSbVFK/wekLZ0Nzcx17 nUE9ASh/uvrzyCLvt/7z//uH8/DhBAwTgbE//PofP3z1pSvOndpUw/rbNV0fdk5O5nIcsEgSS//a MATQVCYYNkxPQoaqWjv3Hzr46b5DD0eCkbysqtS+bXb39kzHHx9bePqitYqqGdl0uho5pBnTof1Z w0wHdckhAPQm+ozXXnqpZ9O7H2Iq2J+BkfP/kS6sOjp70bkLLrlkZdOYiS16ITsoZQuOFNTUcG8i MaWQGeqOxeO9hmGpH2zcsExyrGJTU9M2mkNM8wpS2SFt6vjo9XNmN82kaUiNTfV86zjRiskmn6qY s49tZEvNkMEpVPh0rdxxB7xW4k5Ixe9ieX4pXLJVQfhCUVQ7cN9F57WYN0s/hjGAbEN7Zw6ee379 rh99/19ojsDRaeDNt9/54+tWXXbFrHENbDYrLUEGR/VPnGyfSvmx4RKcSsHtGOuz2RxflQN4tZtY gFBOFa3e/kTq3S1bfxEJVvXQtGwCQHYoW3+4o3X2WWed+2YkHu8zUAf0dg+0TJs2dTCbK7apqiTp qmZFQyFr1+6duURvV9sDP7+XsoFSN+xxfoQ8bf7iWfNOP71l+VnnBlOZjFJgcwIcpyrkH7tr1+7q eCx+0Bf0ZzKJRO26de8sa2xq2lNdVdVq2Y6KwJXS6XTV4lOr75jUHKtXdB/UonqnNJkGGB0xZoPZ ATSNbTiqs7fyvB3rdoTz7Yz8fKGYY6uXth7OwLPPrtv8kx9//4vDAcAKQTQYdNvN198+Z0ITa8lS fTpUNtAcn+5Hy7OkYe+nzZh6+vuR3pK8eu8CA+8PpYZgIDFANOi8+f6mRy1H2e73+yUUM07RsdTD Bw+dMWnS1IPTZ0z/yLRtpa+/vylaFY/VVlfvSWMeSSygKD7bpwfNZG9nrq+3rf2xh17d2d29Les9 XSP8CP+0xYunnjJ17oTzly9DMWGgQXMyeX/Yr+uJVHJaf0/vUG1dXTvGAutw657ZO3fumDFpYssm v6ZliAHMYoGKWS2XzK6/I4iUEYlFoKq6ip1TGuqkjnRqBw2Fw6gBallfVhkcwhGkkQx+LABIx3ye aixFI8sAsHdPGp57Zt2rv/zZj+/0AqBUCr581Re/fu3Vq/7izJktDKEkAtlKGSdo4GMZunK7xvJ9 WmRhcCjNBjtkby+cyAS6MAxQurP54083tPX0Ph8NhbnysW2rb3BgejqVrl1yztLX/UF/jrFAz8Dk lomTknnTbqVOAMXnszVNszSf3+rrbs9v+XhjYte+I0f2bHqXUo/8MBD4WxYsqIv74+Onzz215ozF S/ySBUo+n1GsYhGVHUAk4J+wa8/uqhr0fvzODDWcvrf+nRWKomaaG5u2sWWmkX7T2axTH1FWrJhZ fwE1tdbVVbM5AawEKRaipPmD1bVxqI1VgSHWHqLt6R1ZAEE+GhDOcZ1x+PMSazkrmFm2nsHOTzLw yIPPPfTcbx7/a/AUgkqDQYvOOufqL9/+5R+dM28GX+pMQXGiKjDa5Whjj4JYqfJvWWQC7V2dPD+u eF6Crp5uNhTa3t3d98G2HT+rCoWTbEofCsG8YYQOHti/eMbM2Z9OmTz5E/QqKZNJ1sqK3lxTU3u4 kM/167oqEQuggZAJAnYymTA+2r612NZ2OJ1NZNKmXSjokt+xZUP3RcLhsc0Tw5hG6WPHNGu5rIXy LovXolwomE4oFK490np4AgrU7ngs1kMzjQ+g+v9069Z5E1umbgn61QHyfmKoVCodnDc9esf0psg4 xcH4X1/L0t4SRQtvH9eAGUBA5+qUcD3M8DS1zg0ZJVAA/5tCM/848fcx2IAWnyyaGfa6jz8Ygice +c0/v/TS8zRDqDQYVBoOPnXBgjNvuem2py488zQl5OMrL9KaMyMZ+2ivPr7BweNyjjgR5O0dnV0Y 7/OMbdx+F/L8ZCrFwgD9vW7j5qfyufxG3R/iiEQW6B9MTE9n002LF5+9JhgOJTFHlFFMjQmFQ1EZ lIMFw0zpulQCge7XHVVXbSNj2n2Dg1Ymn6LWY/CHQlJtLKb4Q7psFky5kC9IFqaT3PiOE/D7ot0D Ay2D/QNDTQ217bKimrmhdHTde2+vCOqRREN97SeywkVMoVCwJcWcec6ZNbcEFFWO+YNQWxUDyRQd UtRqaTusT3ByQyP7nY7ABjO67BocOCNIHBh2iRlcAFSCwv3bZQtBpSikC6jn8mxthfffG4QHfvHA XZs3vkdb11M/QK6iIaSmpmbiH37rj1+54vxzq2sjITZdXhXq0j4u5cAIgnFYZ4AnrrmPU528fyDB DM10gFT+LFK9FAYIJAcPtR7a/unu+6ui4TxjATyLNCkjmUgsitfVDo4dP3md7vehdvUpPrU41heg shscyRfNBB8g0hwUmg4BQdY0R9fEbBV24ePoxUJRJsMjG0lmwWADP8GQL97d0zu+t2+g0FRXf0TT fEXLtuSPt35wVl9nd/2EiRM2ozEzLv0PDWWUcXOCN06fFZslYZBprqmGkIpaqojRi22RA2zRoHgk AuOqqhnzSd5z6fHoEiuUAFFmBw4M8bdSyQaOmPLqsIG1LN4aeFwOrH2ry7j/p/es2rt37wfgaQgp tYThtfqr3/jjp794xaWzJ9TVsFYldbRU8DgGrzS62+viHpz7ETKdeOjs7hQDJeX9QGm8YCCRwIMf YmLmvfWbnsgX8pu9LIBvqUU3nt/Y2LzLF6r+SEWPR8JHpzeb8Tma09+LAbeHZqPLMmaRso8yDn6+ ZD6bwbF5ezwZ3raLeCs7tB61rUj17W3d9ZiNDNXX1nZqiCyimL0Hds/ZsW3HnAkTxm0PBcIdkhAw Bi1wqNnTp10Quy0Y0JSI7ofGeBxUtuwtaiq2URYwNhhXUw9VPj+7r7i9laU2L/fkwFFUXwEIqVIv 2IJRS2xBaaKZRq2FYbQP4IXVezvv/uG/XJLNZjvwE2mEtOBtCg3hNfbF67/0b1+6/tovnDpxHJvB Sw0HkixeJnmKGMcyuKCj4Z7uNXrFD2S3Cqv8pakzSFAi/80S62jhVUEZ2ju6uj/cuu3n4UAk5Z50 yzBsFFjjY9HQ9GA0vtV0pE8RtBJ1BRm2VY3pWJ3u95vRSKRXVeQUnq2iaZu08gPlihwABZMWEUCG UGktCR9NBRsYGqpL9Pf7AgigqmhNn6wQLBznIMb9rdu3zm+srz9UF6/e6/CTQ6VWB79Lr1kQu6Px lNBEFQ3aWF8NYXQghSbY0N5IdEUmCKC4pvivGjQBXTxuc3ZgWb6n2bbiRJVS5WMAQpZKMsNhQtNm AFDxZ+5sc+DJFzdtuO/eH98CvAhEAChWtIUTAM5duuy22+/48ncXnzqdfRLNbJGVshAcYVzPY9gT N7qntxXtr0Iavby7t6e8ZLt4ngBBaeLgYBI0vw4ff7R9fefh1ueC4bDETj5bisaya2qrJ9fXxibb sroD7bmNMgD2EZbtx9StupArRoPBkBWOBHLBQJBKoAbSNquW4MlSkUt8RSMfSg9lAulUBhlEGopF q/rRAfIK8kLBMJTDB/afumP3zlPr4rVHUNjtYs1LvPcUCtmMpdZrK6oXVF9ELXux6iDU11UB3z0B WM8jgQKBBw0YFuKYGso5hwHAZQi6yi4YbA8YKspX7vmRKs6lI86b7RGNbPVxY4itmfveARseffrl +55/8kmaGsZSQBBt4XQppYJTp05d/JWvfeOJFUtOV8J+PytSeIXgSF5eCYwRjO6isuL1suvmfP4g qf6ODsgXcqIRlb+W7tP7ugf6+A5apmW//+57j2eGch8EAroQKGzVTae+vnoCxtapyMQdkh74EDOY JKp1yULfdhxa4cMI5QvZkGlYOk39kd36M00oR9mnqkoh4NOzgUAwjUKvSIY3VdspDmWrdu7YOe9I e9s41/PZbxDebxUKRl61TwnMjt8SiKo+v65A/dgaCPipxcvhC0hLNBPOAb/PB2Om1oNGu6fS4peG xAFAQDBGBoJ0TDC4QBjmXAwAMjpGDg8uCxmMDa/sNOC++x/85pb3mQBMCgCUJoaUMgH0+Kav/+l3 nr/qogvHNVVXs3VvVDrPw3LQymOo9Prhd0cyfEkbCNoiT88gC/T2doO70q+7WxctzU7DpX39/axs OjQ4kH7vrQ0PFIvmQd0DAoPqw1XhOp+qzEim01IoXL0zGo8f1DQ1K/sC6H0FmiSEbG0rNHfQEuNV 1EKG6sCi1I5o3lZ1x6aFJcEMth9sm7R3785TLERRc3P9nqA/0skWCBWeb6FaLNpysz2h/nZ/nVqt yHmobqqCSFUANDK+St3VeKWl7FGVNo6vgXg9er9lc2MzBhBgEH+7IFCEZmBsYPFbt2u61GV9FBjK t1ZhCNmnCIdyCvxmc8/QT3/8/Su6u7t3g2gIBc/UMLoltUc6oPq6G2/+/g3XXXvpKZMmsFW+2KrY kvwZjO4Fy8iGL7EAMFEGPZ2dvEuYbR8us2oh341LhUwmDSnMFkIYlrq6ugfefu/9h6yCc6QEAuCa AA2uo6Cc1NPbMwYZI9fQ1HyoubGpPRCOpjRFKsqKNmI9y7YMuWBYWjGXjXZ2dY7DvH98Np0OV1fH O+O1tQc0WUVJTe17/LST8fH81BfrW27R6qqbJCkN4WoVqup1UNGStIeBKgCgydTEqcPYWfV88yvg JVgW/72GJ0YYBgLGCAIIDAyCFY4NBol1U1n5QfDjizYlNHjs9Y+2/OLeH34Jn6S8mglA8EwO9Q4L x85euvTGm2+5/f+eMW82a1Gmky+zXRphVKMfy9srDC/Sm/LLyhSG+h09vQjdnR2cFRRarVvl6/aL DSQzCABiCh8eT2d3z8C7Gzb/KpvPHwjqfs2lZNviC+0jvKuSycEx/QODdY5jKlXhaDoWq0mEI5EU ZgdZ1a8yDWDmTRVz/2AqnYykUqnq1OBAhBaXCkeq+uKx2g5dUxL8SCW5ZHykfUNSxhTrJtyoxDGh twzwR3wQrg9g6pwFRc0jABAEtKsK2/kUU8KJ9RCtIXDQ4A0HhzoSENxtdYvDQGBVsoIkwOBtp5fc wSa2E8cQC62vtatw/2PP3r3mlRe+D1wAsllBAJXyzR0TiNbX18/4w2/8ybMXLT0nXFMVZUUfXg8Y ngYex/DSsNTvGIbn9/mW2hhBITk4AIm+Pr50Ky3MTPETX6uJ2wEMBai4GTB7BgbSGzZteW4wkfxQ 1wIo5PmggkPT+xAFJBNRJAZQ4MVSQ5l4LpeLFk0LGcJUeDXLYekNClHLp8hGMBwc8geCiYA/kECZ kFNkHh9cw1MVEhnCsvTgTLOh5QtSCPM8Gw0dCEE4Vg0SrTuiZkDWcqBqeTzGIh6/CXEUhLXNMQYI Mr5P7HJCLReqXO5CLWUEIkMgY7MQ4Q0LLiBE5lACQmk2Fv6kQgpfW4DeggzP7shZD/78Z1/aufPT 94DHf2qRN4aZsKQDqB5Qc+uX7/zZNatWnT1l0ng2Lu3DdKZSoVcafWTDuwJvuOHdP0Qdii3Pjt5O BsczQmMQPe2tkEml2KYQKttOnp8gV7clEgkYSCXBxAxiKJe3d2395N221ta1yCJpXVNLbEBAQAlI Kb7DB2EpK7N8eE81TVsBto27bKEkNGVaiFaR2UwtWaKagMfwKDIt2zRMw/Yr0drzCvFxy8EfQF1n gC8YhhAaH8RMHAmtJqHxFY1GObMQjEhQ11zDQwHpAR83PAOBTwBBLQNBgaO9nkKD7MkWXAAMBwK/ j6KY6B8f2N6vwRNv7Np17w/+9Vr82F4QBSAYYYkYtyBEOiC+ZMnZN932B3f+3elzZ7Nqnbs16vAQ 4KX5Cl1QEeM9X+Vu183uy3ysQeYhhl81UAhs6FVd+/ciPedBV2TwjkgQCGhkrS+JqWNikE2Hoh/e 1nqk/fChw2vSg4M7kTqKmo/8bdhYK9t0sVLO0KJd5OlswhLGKtforsdbFioJEzWiLzxVDY1ZLsUa WgyF1jYyQI1GIRCpKhm/9D5muRxougk1Y6OIFROp32QM4Hq+zzW++FvzhAVFeKQXCOwjiRWsoxmh BAaCOWZSTiGNj0nw7gEVHv71cz997aXnvwee/B9ENX84AEpDw7FYrOWub//psxcuXRqrq61h3Sck Bo/y9pMyvOdvNLpE4/vowRLbeVvju3XRBkySgukSfkcmB20H9oLNNkYqfx9bQ8jhC0hR8WgAw0Uh zaeXUVdMe2fnvq6Ozg3JdHI3+n5GowVfqFhPs88EMxzrIvH+NIdWMcSwbqMT+TUtMEWW40t8ofrp ciiMVGHRZGTQ4lUgUav3CIs8UYMHbWtb1YzGDxIMEQwsJAhdoEGJEVzja2InVGIDRQhFdxOKo4CA IGBhwoYSM7hsYeaToKED9ScVWLMpbfzinh/ecPDgQSr/uvn/iMvEgQAeWykEr9VfvO6Gf7rm2uuv mDljKpu4wLZEd8fth8X3Eal+RMMrfCduMjottqzwZdppVUvGMhjwKW+m4VyiIor1B/fvZ7OHCAS2 MH7RcVjXEtGeWSjCYP8A65hlCzWzvsIiNZV09A8kdqRTg3tzRaPLNowsfp8Jo1xoFVFVUgP4W+v9 vuBUTYqdosjR8bRIpU3HjQmHFomAFosCigYoyMQDdoWactisHxkidbXgD1EthbKaAjIpbWtTYLpA Ra3AaN8LAq0MAiJGekyRuVd6gcAM7gidYElsOj5nA3Q+/N0WAgA5FPbs1eC557dsuv/nd38Z30qr grABIBhloUhvGIhNnznzvC/fedd955y5WKLmBbrQ2rcVYeBEDS9EniRXej0BSmY7b2lip21ufJ84 ELqgModDhw6xZlELP6dA/XIk9NnKzHy7FXJcaidPJlOQSQ+x9JXVw2mQBxkkNZQdyGWHuo2CmcgX cj1ospzkrtZKeb3l6D7V34AsFAtogQaf4q9WFJ9cLEiQL9Ly90i7ehj8VXEEQAhMDdiilwWVFr+0 2Jg+cwpq7cLfGK6tBT0YYtO6JHxeUgqI/QIHgkogKCAAbJYRsCzBY/ySOFTLV8WjD/iyZ9zobDkF N020JJb7S3YezJQMW9ZL8MhDj/zV++veeRJGoP9jAcCtCtIKyDVfvvNrD1xx5ZXzJ7dMYieVAMDK 8PLRBamjBR6AmAfG6J7RPtuSRcR7RRWbNSol4+syV6LqsAOjGa97Dh2EVLZAqz0z4zPDi80XqIOF 1cYFEKh1mt5TKOTFXjwO356Fbc3C1+V3xL42bJjbHYwRUtERizjbFh6zFMDjDtJiA2CTDkLXtf0S cNWI36fYfL1DtqqaChE0vuYPlPYC4P5gl0GgFBkIGBAUk9Xqmcd7QoAmNsNkAFCAb47Jfag0a8UF AmcEiS26bBYT+DoHerb54M0XDrb/9O7vXYOZT4eg/+MuFi0sxoeH8RpfsHjxqtvuuPOfFp1+Gvj9 AfYWFFefwet5Tk9KX3EVv8rjvSoMrwvPH258tvUKQRip/vChVhgaTPCmOjKkaYkFGd2tVR2+7x7w nUhpq5hcNsf6DajLyBTLuFrs/eAu4CeKKXzPYEovNUVnXdGSrGMWhFRfQEPTLBsqiJGFdJWxAIGg iMYtohVk1AOBmmoEga/C+JUgoAWwiwwICqWISoHpApWxQdnYbngoaQIRFlShD0oisQQEGjgbolYZ kNIy7H1FhSceevrHa19/+R7gxR+2IAQM2zTiWIP87uAQLRHaeNc3v/2rlZeunDxh4iQmsggAsuxV 88MND2yEj+2zK/M4zzZfdilfsADFe/oibRTjg4BtBs9n3uYLRw60t8FgVyeivciB4Ihl6h2ntO0a rwVxIJDn00xa3jbNr+6+vI5Ihmjar+zIbEUU2g2MHiFQ0dQqtnMJ7XRqAGuXt2hwzKeCgwdNxrdo z6JYGFQUhabYOONYF7ZtDQKAgCALRlAZIxhsWX7FBYFWpn9vOPACQZbdjIGEtwkFe5Cdy9QWDT54 un3gR/d879pMMnlAeH9pbcDjAQCgUgzGFy4847rb7rzz7xYyFgiyd9Eo4fAWrqO9XmWlXE77ZHg+ sigLyqeDJQD4RjE+QTZr8yutHkoreclovOzgAPR3drDVr0oLrDCad7dZ5/ctsTQ7o33J3aHT4Yt1 DF8qQmwx7JY83a37DHdzS8Pd40ABm6pStHVsNAD+eDUAen9BQkEoW0eJwpFBYAg2IHFYFGxAtyYz sKJUagCXCUoMoHj1gYTnic5DHhTULB2/0eDJ+x7/6dq1r/3I4/2U+x8lgI91mBWlYbzWIQs8ctEl K6dNmjyZTd8mFlBkb3YuC3Uvl1W+oH5X7ZP3u/FedYWezJE2UmN0scL45MUmc0PHMNnVxr9TyUG8 DjCKZztxCCZgRrbt0q0l7pe1AFROFvcCQggcsdYzX86+wBmgYDhs21sFw2GoOg5+vFJKyMIAaQEE AGMF6TjLwEokFimpL7JbuQIEBhOHLANwU0Lh+Yo6nA3Q+/F9OSnFBpzymzX49DftfT/60feuy2SS h4Z5/wlvGuWygN9lgQWLzrj85ltv/+eFi0+HUCTGuk11tj0ar+Qxo7sVPSH2mPEF5UusoqewH6UJ o/vkcq47/EJQzdmc+tmi0bQ9KsV7BgDMBtjO2TafMIGAzKD6Tw0lIJvLsflz4NEEtrsVq+2IbdUc fiY8GqACBLbbdMfGVPh6xQWaqUMiF7WBPwxaMIJ3dXAwFNg+CVAmoB7A1xEDyDYDgS0df+0EmaqG JV0ggKAYDAQKAooEneKJ/W6NQPWwQUZOYsBG0AzKkHpBgWd+9cQP1r7Otosj7y+N/MEI7RyjAcBN CQOCBapvuu2Ouy+/atUZ02adyrY/o+3JaIyAjd/L3hRPxHl2X2IpHkthhPFdyh/N+BTvc6W4j4Zn 24sYPM8t8PVwWOx3+Jar9ElUucnlMpAZSrPFEigbIDCwfXklrvrZUu02HBMA7DW2VJrEybaIk0m7 +PF3oLJH6JqWzDa6sPE3On7UAngOMFmgDc04CBSTZQe00KU1atnJBQFPEymxl2UOALkEApOrf29Y 0MS5xDBUkFHgKmnQw/hF632w47k9B+65599uRp3TBeXCzzF3Ej8eAEpLyBILTJw4+fQ7vnrXL846 e4mvdsw41khJ1UFalYrHernk9S7ls3gPAq1wfOPbwvh01DS7iXYrs9m+spz6bQIAhQCxXBrbhsVx KV7QLhqcxi9oI2lKA3P5Alt0gqZRWWzfPntEAJCxKQ1UJA1PrsqyAFrIiSqUtGIK7W1MG1qw3cuI lSSFu6Qfn0dkm4oAAQsHFlv69nh6wAsCYOIQjS9xJqgEgVMCAWMCRv0WJJ0EKAEHfD3oAG858MAD P//Oti1bXoHK2P+Zto51n/dmBNWXXHr5n1x97Q03z128GHwhXhzSiQUECLyUrwjKVwXVax6xdyzj u6LPVfws7hP1k/ejCiMwWGIXDsfxbLtq8503iZncfN/dhpWWYaMswGT765r81t3b1jU+6X7aBdRR uHahLIZNRXV1gMMMz4Qg6QGTl6Id2lWUWEDT2MLXBACrFAoctsGmCc4JgAD4IBKJQ8YE4qoKNlC4 LqA+VlcLJO0kmBj/fZiFRT/0w7vPvPH6E489/JfAq35u18/n2jyaLsxxgdcFYpgjN3/trm8+cP7K SyZOm7+QnWgaJKLxeUb/ouhD8V72KH31OMaH4cZncZ9X+Tj1o/Hx7LOdNh0Qeb/Nt15l266KjZps q7xpE1gCGGUByP4xo5aLPyB69cv3XceUSi0TFHFIBBZFRlAUO59ZkiLqAhqGAs4CrECELGAQC0h8 U4zj6wEXBJYQhwIICgcC0wUKLf1uAfUcpu0Mu2oBCeKtGqTe7Ry4597/uK2/v5/a1dyqX74M8c8O AO8gEQsF06bNOO/Wr9z5H2eef746ZsYstgCBTnpAkXiqB+V4726r7jY+jGZ8N+4z44uNFkEofroS G9gl7+d78DlOWe3TlrC2WwNwbPG4LV7Lt4VwNYDjej9AiQkcrxAEb+81TwdNHokwnHAgmF4W0BWm BWyVdjgphwIGAplvmHUyIJAko8QIslIGAtUKDCcHA9YgyJoNkYwCNdsBHn3ogb/fvHHDb6As/Nwx /9GTkRM4HhB2Y/sJgQgFF196+bdWXXPtzQuXr4BoYwNStA06lXWF8b20fzzjk0Ip2PyIi964bwnq pynQRln4OULZM8O66p6xgVUu99pmKTSAzSt/rCwkSryjAkBUBb0AcPiwA9vinrFAUbCAQ/34bnWQ awKXBcjwlBYyAIg9kuwTPONs/IAV+MvhgBjARp3QZwygAM2DH3/EpAM+WP/C2tVPPPno/yeMT9Tv dvxYx/2eEwSAO0bglohZbeC2L9/5o4uuuGLeaSsuAFoNk+rRusfgbpqnjvLBdJSU5uUFCCjuU37P 1Di5m8njfmnHTSjHfseT77P4b3v0gGOVnxOvKwHANfYwANDFKWUElQBgL7NEUUhcjVJhiPZTpFCg sFDAWEAIQtpSl4PALm2ddyJ6gIPAHqYLTDR+Es9VhpWPJ3fZ0L95z+G77/nBndls9ghw1e+WfE9o QYwTBQBd3KXT2ERSAkFdY+O0W2/78k+WXnRR3fyl57CTSAb3CxAcz/imMH5OGJ82i6JKH4v7lqB+ 0ywJPzftYzRu2R5jlzditoU2sEUIYOMEtud9zkkAoDRIJHSAJwyUAOBlAVJnusoHi1Tec216QgGB wRQ7qp48CExIGBj3LdR1PgMmJNMQ3NWV/fn9P/nmwX37NgOP++5w76jC77MCwAWBGwoIBPEZs2af d9Mtt/3LeSvO1+aeNp99q5vmnYjx3djvxn1H7DDNqF8Y33aFH/AhYFpo2XHBIIxeon+3GuiN/56s wI3ncCwAlNLCcjHoqDAgjM/SQVcMelmAxgkw9rFtyEQoMAUTWCepB+ii4HsGMaUdNNG2mgn1+RRM 6uyBRx5+4B9F3Cfju6rfzflP6ONPFgDe2gD1DJAeiJ2x5Ozrr7vxpj9dumwpzDtlOjPuaMZ3072C AACPpQ4zOKv2sb1k6bbIc3av91tC4LlZQEn8lQeDOEDEiN/nAgAcFQZYUmJ6GMANA8QCMgcBAwBV CGlXNAECywsAoQc8H3vMCxVZB/Po/fki22spbiZhRn8rvPrCcw+vfumFHwOnfTK+2+p9MothnTQA 3PeoUNYDDAQoCv/ositX3XzB8qUwrWXSqMYnfsq7xmeeLwo64uxyEFCt3+Br6R/T+52S93vpvwQQ q7IkzOoCR6l9qKwEjpIJsJe6YUCEAhKFDAA29SlKI7JAiQlow8xSKOCjhqOJQjJ+smDCQNZk4IpY GZg9dADWrVn96lOP//q7w4zvDvac6GKYnxkA7NigrAciLgguv+rqv7j08isuvwhBMHHC+BHf6Bo9 L24NMWrHjE/xn3byKlq8oGMN834R+12Kd4d7verfzQwcjwDkr7Mr4/9JAcC9L8KAFwDi1mRi0KMF fLw+4Ii0kPQA836Z1wZG0wNiUjD3/BzqH+owQvqfkzkA2ze+s/6XDz30N1Ao9AoA/P/dXV1QVdcV XucC93LhQpB/5SdREYhocZAgaDCJ8R+TTB7Mz0s707f0rTOdPnTazvS5fe10OtM+ZGLbtzalxsYm MbGoNWqIGad0QEVBMHL5l8v9O/ec0/23zln3cFDUi0D2zPbAvXC8nO/b31pr77X25uA/kt3PBAFo VTHODwgSvHn8nV8cOdp1cP8re2GjiwTU4xcjn9tOEe+bUltVhg+u9KHjt9jol4Cmy78YV2b6z9Do wZMAZDrYOxRMJwB1BikB+CqhiSqQ7aiAMAWatykwQJGYlvexf6bjOszGDDHy8xn42+dvQd+XPVf+ 8ucTP5ufnx8Dx+On4C99Y+cnJAD+rs+DBOuOv/Xuz189dPjAqy91Qt3mjWng27JvErtvWEr6pfyL MNAy1L66OLLp6Hf8APGaLf+W+D077LNIBPC4BHA5grwhAWwSIAFQBdAXUCTgYaGJvoBPnp2MUYGh zkg0NcwpBJiI6RBJcPCzoDA1D9sY+P+91HP5g/ff/2UikfgWpOxz8B/Z6cskASgJcNUQSfDM62+8 +dODXa8de2lPh9jlkn/SqCk9FF05fRjvi5BPpHap0U+k3z360atHabfjfXvu3wkPwSYCTgFb9hr/ 0gkAC/wAagbQH0ghCSxUAW4KssVkCL+iQ2jYpkCuEyAJeB1Tgm/oHNUhxkwhJ1GxPgfPR24z2e+5 cOLEB79i4Ic9wH8kpy/TBMB7iI2VXSQoPHLs9R8dOHz03Y5dL0BTa4skgS5HoWaqZVw+glMo/yrs U4s4vC2w/Sj1ljwi3UqTfyvN/lMHEJZIAPFt2lyANwEWqEDKUQHTrQLoC2QhAaQpQH+An5UYYZ5k OJZkzrHcSq4yOQ2b7w/ChS8+O/3hh3/7NQMfF3gyBn6mCLAYCfg8QWHny/ve3n/oyHu7OnZl17ft Yu/6IR41IIs9wSxTST8qgG6ITQ1MdMjsWT8VzqGTZ6oRbU8HAwn/XCqBBEAz8jgEeIgZSBE1SGFI aKsAJ4ByCCkBxP4/pkgemUrorCdBF5s7WFCbGIP1s7fh9Mcf/enUyZO/Bzm3f5+Aj+cfPBH4mSSA FwlCSIKm7TtePtrV9eOWjo7ShrY2KKgoheR9HTSmm9k8b96Udh/X9vFYlQW235b9xeXforJPMoRt ApjqqT2IAGnfe/sBmCqWIsBzJRCRrOlEBHaqLydBtuMQcjLE2N81weL7OXYDnS+fW3HYFL8DMDoQ 7f7nP3775fnz3QT8SKbBzzQB3CTAQlOhBlVVNfVdx479pKV99/bG5mZYv2UrmImE6JwAPpR1avs9 Rj+mc1lK/i3LFf7Z5EAzodYA8Bh3JID72Cg3AR7iCMqaASX7Lj/AMB1fAKgK8JwJZgpSIr43YCaZ ksF7lgYhcwKq40Mw2v/N7e7uv/9mYGDgawI+X9wRa2WQAdlfTgLgPTE64CTIVyQoCAQCxYcOHf1h e+fe41ubm7Xn6ptErUEiOi8knGe3yhM2yegnxLCoQ+eSf0EEwMkhaf/dEcDjE4CCr8JB/hIhgH3V lQKIiSEQW7UI4P0ynYcvd3PwY/wgB1EYm4R15giEIrfg4oWzp0+f+vh3MzMz3NPnI34OnEkePdPg LxcBKAlwsghNAidCiJmEzv0H97/3vR07qzfV1UNJRbUYpUbSkFsG8bwCvg5jGHbOPx3V9vSvRYji sv8Ay0sAcQtTrRAa6VGBQUJCsTEGAz7BCBFhDnCcEyNbhoYBbZKBPwQTw32T/zpz5g+Xzp07BXK0 I/BRAv5jh3orQQC8N502pmoQYq3ilX0HftDe2flaXV1DVnXtsxAqKpGnYRoyfV0ogtjtisz786cg loJRGbztP1BykDkAHL0LCEB8gqUSwG0G7GtK1qvwiaF4knn4bNjH+Gs8Y8rvB18gBgU534IvOgQX /3Pusy8+/fSP4XB4SIEeAUfycVl3WcBfbgJQElC/IE8RgStCfuPWba2797z4/eaWnc288qi8shpy 8wr4fj0iA0gWGfkEEdLk3zSVL+CEf07cj9PHJAR8UgIs4gdYphrtuCqY4pXJFsRiBsxFDIjGmadv qlK4XAPy8qbAr43A8I2+62c+P3viau+VfyvAEXw66lPkkywbQE+jIQncamD33S/uPdyyq+2txsam 2uqaWigrWw+BYJ5YDeTp3uKABZ/cTUxTRHig/bfzBtPnAB6dAPjxNZciyIswA6amkkYtmGegR1iP xS0ZFXB3P1uHYGgO/LljEL53K3yx5/xfe3rOdieTSczeQeBx1KPkP/Lc/molAP5fWM/oV0TgvgEq Qh5r615obz+yo6XtjS31DVWV66ugpISXWReIGxiGzA0QN+JEwGpky5D4uQiA8wUZJQCoamJ7YYhX I7ORzmQ+HjVF6niKqYAu3JckZAVnweefhLG7NyZ6v+r96PLFyyenpsbvKcCj4Mg9HfXLJvkrSQDy JG0HkRMBncQ81YOsFe9sbd3XvKP1aF1j45ay8kooZkTIyy+ArGy/IIFYRLJMtbOwZp84YiPKwzDL dPkD4Ozi4kUAIrb85zTb5svIRBSMiEJTSxSciCs/lIk7fimfCgdTLASMMc9/ll0nYfTOzeFvrl47 ffWry5+MjwvgY6pT4JPw4GNtlxWQlWjUQXQTAckg/IWW1raOpu3bDmzeVNeyvromWFRcCqGCQgiw 8NHny5bVv4bhLP3izTUtbZcCbEshgF09ZCg/QgBsyu8NVBINcPt8cUJ3KglJIyIqdO/PhfWhwRvX +q5d++RSb29PMhrF8iwOOEo9Ao/h3VMb9W4gVrJRNaBEQDLg14ENNTXPNtQ37tlcV99eu/G5+vKy Cn+osIjZ1hAjQ64oP9PsiMEi+YC4DQioDeGQBFr6jJ+dLUzCRbtwxKcAl6d/S1+D7yIUYw5eFGL6 HAN90rh7987NG/39l/r7+s4PDg4OgMp4Awd8/BqBf6pyvxgAK92oWcBogfcAOA6jTQT+Xm1t7abG 57e31tbU7qyortpcUlpalJ8fgiAzETmBXLmXEd+IghdtkL2MLeUAmERonXn/hd1JIZehacrUBegJ PQqJ5DxMTU9ExkZHbg0NDX89ePP6lev9/f8DtfINEnwEPaE6Sj0FfsXAx4e/WpqbCJhYjA4j7biF UE4pa5wQZZWVDeWsl5WX16x7priYqUOQn3rm98vaPl6omsXrqTSf899YlvP47fkDUzqbwuHUWUiX EIUvkbnZxP25menpqanR8L2xgZE7w/0jw8PXWfzOkzN01RF42pPkfXdB+oq31UQA+pno/AFVBSQE ksJPXhdmxM8QL62oKF9XVLKhsqJ8Q2FRYXlefmF5YaGoaQ8GQ3n5gZxgIIvZi5ygX+xyoSeSusFC Bp3FZTG+sZBPi0Uj87MTk+PheCwRnpwM32NAj06Oj4dj/Cw7ldYAKrnZoyMZcLRT525VAE8f9mpu qAjYs0nP8ej0/bRNtSCdWJ7+oUdHL8AgnQOKIxoJoJPX8WcMSI/lVxXw9AGvhUZBo3sjIdD06n6N koASwau5gfcCH68p12vY3V7Fqm5rhQBen5kCSkmxYAMt18/Re+DV8riasJAIXl+TIvO1AbrXw1zL zUvafa7rYtLvJgD9Oi1IhHR18Jg6Wpvtu0CAB/1dGiwc7Q/7m60lXr8T7f/+g/MmPQ9PkwAAAABJ RU5ErkJggg== "
       preserveAspectRatio="none"
       height="128"
       width="128" />
    <flowRoot
       style="font-style:normal;font-weight:normal;font-size:40px;line-height:1.25;font-family:sans-serif;letter-spacing:0px;word-spacing:0px;fill:#000000;fill-opacity:1;stroke:none"
       id="flowRoot4487"
       xml:space="preserve"><flowRegion
         id="flowRegion4489"><rect
           y="87.182663"
           x="86.786377"
           height="40.817337"
           width="41.213623"
           id="rect4491" /></flowRegion><flowPara
         id="flowPara4493">###f</flowPara></flowRoot>    <text
       transform="scale(1.0243293,0.97624856)"
       id="text4497"
       y="130.70822"
       x="81.399437"
       style="font-style:normal;font-weight:normal;font-size:57.08370972px;line-height:1.25;font-family:sans-serif;letter-spacing:0px;word-spacing:0px;fill:#3daee9;fill-opacity:1;stroke:none;stroke-width:1.42709279"
       xml:space="preserve"><tspan
         style="stroke-width:1.42709279"
         y="130.70822"
         x="81.399437"
         id="tspan4495"
         sodipodi:role="line">#</tspan></text>
  </g>
</svg>
