<?xml version="1.0" encoding="UTF-8" standalone="no"?>
<svg
   xmlns:dc="http://purl.org/dc/elements/1.1/"
   xmlns:cc="http://creativecommons.org/ns#"
   xmlns:rdf="http://www.w3.org/1999/02/22-rdf-syntax-ns#"
   xmlns:svg="http://www.w3.org/2000/svg"
   xmlns="http://www.w3.org/2000/svg"
   xmlns:sodipodi="http://sodipodi.sourceforge.net/DTD/sodipodi-0.dtd"
   xmlns:inkscape="http://www.inkscape.org/namespaces/inkscape"
   viewBox="0 0 16 16"
   version="1.1"
   id="svg12"
   sodipodi:docname="format-border-set-top.svg"
   inkscape:version="0.92.1 r15371">
  <metadata
     id="metadata16">
    <rdf:RDF>
      <cc:Work
         rdf:about="">
        <dc:format>image/svg+xml</dc:format>
        <dc:type
           rdf:resource="http://purl.org/dc/dcmitype/StillImage" />
      </cc:Work>
    </rdf:RDF>
  </metadata>
  <sodipodi:namedview
     pagecolor="#ffffff"
     bordercolor="#666666"
     borderopacity="1"
     objecttolerance="10"
     gridtolerance="10"
     guidetolerance="10"
     inkscape:pageopacity="0"
     inkscape:pageshadow="2"
     inkscape:window-width="640"
     inkscape:window-height="480"
     id="namedview14"
     showgrid="false"
     inkscape:current-layer="svg12" />
  <defs
     id="defs3051">
    <style
       type="text/css"
       id="current-color-scheme">
      .ColorScheme-Text {
        color:#f2f2f2;
      }
      .ColorScheme-ViewBackground {
        color:#4f575f;
      }
      </style>
  </defs>
  <path
     inkscape:connector-curvature="0"
     id="path4"
     class="ColorScheme-ViewBackground"
     d="m 2,14.00002 v -1 -5 h 1 v 5 h 5 v -5 h 1 v 5 h 5 v -5 h 1 v 5 1 H 14 9 8 3 Z m 0,-7 v -5 h 1 v 5 z m 6,0 v -5 h 1 v 5 z m 6,0 v -5 h 1 v 5 z"
     style="color:#4f575f;fill:currentColor;fill-opacity:1;stroke:none" />
  <path
     inkscape:connector-curvature="0"
     id="path6"
     class="ColorScheme-Text"
     d="m 2,2.00005 h 13 v -1 H 2 Z"
     style="color:#f2f2f2;fill:#3daee9;fill-opacity:1;stroke:none" />
  <path
     inkscape:connector-curvature="0"
     id="path8"
     class="ColorScheme-Text"
     d="m 14,13.00002 v -5 H 9 v 5 z m -6,0 v -5 H 3 v 5 z m 6,-6 v -5 H 9 v 5 z m -6,0 v -5 H 3 v 5 z"
     style="color:#f2f2f2;fill:currentColor;fill-opacity:0.5;stroke:none" />
</svg>
