<?xml version="1.0" encoding="UTF-8" standalone="no"?>
<svg
   xmlns:dc="http://purl.org/dc/elements/1.1/"
   xmlns:cc="http://creativecommons.org/ns#"
   xmlns:rdf="http://www.w3.org/1999/02/22-rdf-syntax-ns#"
   xmlns:svg="http://www.w3.org/2000/svg"
   xmlns="http://www.w3.org/2000/svg"
   xmlns:sodipodi="http://sodipodi.sourceforge.net/DTD/sodipodi-0.dtd"
   xmlns:inkscape="http://www.inkscape.org/namespaces/inkscape"
   viewBox="0 0 16 16"
   version="1.1"
   id="svg6"
   sodipodi:docname="format-text-direction-horizontal.svg"
   inkscape:version="0.92.1 r15371">
  <metadata
     id="metadata10">
    <rdf:RDF>
      <cc:Work
         rdf:about="">
        <dc:format>image/svg+xml</dc:format>
        <dc:type
           rdf:resource="http://purl.org/dc/dcmitype/StillImage" />
      </cc:Work>
    </rdf:RDF>
  </metadata>
  <sodipodi:namedview
     pagecolor="#ffffff"
     bordercolor="#666666"
     borderopacity="1"
     objecttolerance="10"
     gridtolerance="10"
     guidetolerance="10"
     inkscape:pageopacity="0"
     inkscape:pageshadow="2"
     inkscape:window-width="640"
     inkscape:window-height="480"
     id="namedview8"
     showgrid="false"
     inkscape:current-layer="svg6" />
  <defs
     id="defs3051">
    <style
       type="text/css"
       id="current-color-scheme">
      .ColorScheme-Text {
        color:#f2f2f2;
      }
      </style>
  </defs>
  <path
     style="fill:#3daee9;fill-opacity:1;stroke:none"
     d="M 4.6875 3 L 2 10 L 2.84375 10 L 3.6875 7.78125 L 6.46875 7.78125 L 7.28125 10 L 8.125 10 L 5.53125 3 L 4.6875 3 z M 7 3 L 7 4 L 11 4 L 11 3 L 7 3 z M 12 3 L 12 7 L 14 5 L 12 3 z M 5.09375 3.84375 C 5.16302 4.08307 5.52308 5.16349 6.1875 7.09375 L 3.9375 7.09375 L 5.09375 3.84375 z M 8 6 L 8 7 L 11 7 L 11 6 L 8 6 z M 9 9 L 9 10 L 11 10 L 11 9 L 9 9 z M 12 9 L 12 13 L 14 11 L 12 9 z M 2 12 L 2 13 L 11 13 L 11 12 L 2 12 z "
     class="ColorScheme-Text"
     id="path4" />
  <path
     style="opacity:1;fill:#ff0000;fill-opacity:1;fill-rule:nonzero;stroke:#ffffff;stroke-width:0.0495356;stroke-opacity:0.94117647"
     d="M 11.997523,4.9763158 V 3.0077401 l 0.990718,0.9897887 0.990718,0.9897887 -0.97787,0.9787871 c -0.537828,0.5383328 -0.983651,0.978787 -0.990717,0.978787 -0.0071,0 -0.01285,-0.8858591 -0.01285,-1.9685758 z"
     id="path4487"
     inkscape:connector-curvature="0" />
  <path
     style="opacity:1;fill:#ff0000;fill-opacity:1;fill-rule:nonzero;stroke:#ffffff;stroke-width:0.0495356;stroke-opacity:0.94117647"
     d="m 11.997523,11.018731 c 0,-1.0690948 0.01693,-1.9438084 0.03763,-1.9438084 0.0207,0 0.466516,0.4293112 0.990712,0.9540254 l 0.953084,0.954024 -0.990712,0.989784 -0.990712,0.989783 z"
     id="path4489"
     inkscape:connector-curvature="0" />
</svg>
