<?xml version="1.0" encoding="UTF-8" standalone="no"?>
<svg
   xmlns:dc="http://purl.org/dc/elements/1.1/"
   xmlns:cc="http://creativecommons.org/ns#"
   xmlns:rdf="http://www.w3.org/1999/02/22-rdf-syntax-ns#"
   xmlns:svg="http://www.w3.org/2000/svg"
   xmlns="http://www.w3.org/2000/svg"
   xmlns:sodipodi="http://sodipodi.sourceforge.net/DTD/sodipodi-0.dtd"
   xmlns:inkscape="http://www.inkscape.org/namespaces/inkscape"
   viewBox="0 0 16 16"
   version="1.1"
   id="svg6"
   sodipodi:docname="im-icq.svg"
   inkscape:version="0.92.1 r15371">
  <metadata
     id="metadata10">
    <rdf:RDF>
      <cc:Work
         rdf:about="">
        <dc:format>image/svg+xml</dc:format>
        <dc:type
           rdf:resource="http://purl.org/dc/dcmitype/StillImage" />
      </cc:Work>
    </rdf:RDF>
  </metadata>
  <sodipodi:namedview
     pagecolor="#ffffff"
     bordercolor="#666666"
     borderopacity="1"
     objecttolerance="10"
     gridtolerance="10"
     guidetolerance="10"
     inkscape:pageopacity="0"
     inkscape:pageshadow="2"
     inkscape:window-width="640"
     inkscape:window-height="480"
     id="namedview8"
     showgrid="false"
     inkscape:current-layer="svg6" />
  <defs
     id="defs3051">
    <style
       type="text/css"
       id="current-color-scheme">
      .ColorScheme-Text {
        color:#f2f2f2;
      }
      </style>
  </defs>
  <path
     style="fill:#3daee9;fill-opacity:1;stroke:none"
     d="M 8 2 A 1.4999996 2.25 0 0 0 6.5 4.25 A 1.4999996 2.25 0 0 0 6.5039062 4.3886719 A 2.25 1.4999996 45 0 0 6.4082031 4.2890625 A 2.25 1.4999996 45 0 0 3.7578125 3.7578125 A 2.25 1.4999996 45 0 0 4.2871094 6.4101562 A 2.25 1.4999996 45 0 0 4.3867188 6.5039062 A 2.25 1.4999996 0 0 0 4.25 6.5 A 2.25 1.4999996 0 0 0 2 8 A 2.25 1.4999996 0 0 0 4.25 9.5 A 2.25 1.4999996 0 0 0 4.3886719 9.4960938 A 1.4999996 2.25 45 0 0 4.2871094 9.5917969 A 1.4999996 2.25 45 0 0 3.7578125 12.242188 A 1.4999996 2.25 45 0 0 6.4082031 11.712891 A 1.4999996 2.25 45 0 0 6.5039062 11.613281 A 1.4999996 2.25 0 0 0 6.5 11.75 A 1.4999996 2.25 0 0 0 8 14 A 1.4999996 2.25 0 0 0 9.5 11.75 A 1.4999996 2.25 0 0 0 9.4960938 11.611328 A 2.25 1.4999996 45 0 0 9.5917969 11.712891 A 2.25 1.4999996 45 0 0 12.242188 12.242188 A 2.25 1.4999996 45 0 0 11.712891 9.5917969 A 2.25 1.4999996 45 0 0 11.613281 9.4960938 A 2.25 1.4999996 0 0 0 11.75 9.5 A 2.25 1.4999996 0 0 0 14 8 A 2.25 1.4999996 0 0 0 11.75 6.5 A 2.25 1.4999996 0 0 0 11.611328 6.5039062 A 1.4999996 2.25 45 0 0 11.712891 6.4101562 A 1.4999996 2.25 45 0 0 12.242188 3.7578125 A 1.4999996 2.25 45 0 0 9.5917969 4.2890625 A 1.4999996 2.25 45 0 0 9.4960938 4.3886719 A 1.4999996 2.25 0 0 0 9.5 4.25 A 1.4999996 2.25 0 0 0 8 2 z M 8.7460938 6.1972656 A 1.4999996 2.25 45 0 0 9.0605469 6.9394531 A 1.4999996 2.25 45 0 0 9.8007812 7.2539062 A 2.25 1.4999996 0 0 0 9.5 8 A 2.25 1.4999996 0 0 0 9.8027344 8.7460938 A 2.25 1.4999996 45 0 0 9.0605469 9.0605469 A 2.25 1.4999996 45 0 0 8.7460938 9.8007812 A 1.4999996 2.25 0 0 0 8 9.5 A 1.4999996 2.25 0 0 0 7.2539062 9.8007812 A 1.4999996 2.25 45 0 0 6.9394531 9.0605469 A 1.4999996 2.25 45 0 0 6.1992188 8.7460938 A 2.25 1.4999996 0 0 0 6.5 8 A 2.25 1.4999996 0 0 0 6.1992188 7.2539062 A 2.25 1.4999996 45 0 0 6.9394531 6.9394531 A 2.25 1.4999996 45 0 0 7.2539062 6.1992188 A 1.4999996 2.25 0 0 0 8 6.5 A 1.4999996 2.25 0 0 0 8.7460938 6.1972656 z M 8 7.25 C 7.5845 7.25 7.25 7.5845 7.25 8 C 7.25 8.4155 7.5845 8.75 8 8.75 C 8.4155 8.75 8.75 8.4155 8.75 8 C 8.75 7.5845 8.4155 7.25 8 7.25 z "
     class="ColorScheme-Text"
     id="path4" />
</svg>
