<?xml version="1.0" encoding="UTF-8" standalone="no"?>
<svg
   xmlns:dc="http://purl.org/dc/elements/1.1/"
   xmlns:cc="http://creativecommons.org/ns#"
   xmlns:rdf="http://www.w3.org/1999/02/22-rdf-syntax-ns#"
   xmlns:svg="http://www.w3.org/2000/svg"
   xmlns="http://www.w3.org/2000/svg"
   xmlns:sodipodi="http://sodipodi.sourceforge.net/DTD/sodipodi-0.dtd"
   xmlns:inkscape="http://www.inkscape.org/namespaces/inkscape"
   viewBox="0 0 16 16"
   version="1.1"
   id="svg6"
   sodipodi:docname="im-yahoo.svg"
   inkscape:version="0.92.1 r15371">
  <metadata
     id="metadata10">
    <rdf:RDF>
      <cc:Work
         rdf:about="">
        <dc:format>image/svg+xml</dc:format>
        <dc:type
           rdf:resource="http://purl.org/dc/dcmitype/StillImage" />
      </cc:Work>
    </rdf:RDF>
  </metadata>
  <sodipodi:namedview
     pagecolor="#ffffff"
     bordercolor="#666666"
     borderopacity="1"
     objecttolerance="10"
     gridtolerance="10"
     guidetolerance="10"
     inkscape:pageopacity="0"
     inkscape:pageshadow="2"
     inkscape:window-width="640"
     inkscape:window-height="480"
     id="namedview8"
     showgrid="false"
     inkscape:current-layer="svg6" />
  <defs
     id="defs3051">
    <style
       type="text/css"
       id="current-color-scheme">
      .ColorScheme-Text {
        color:#f2f2f2;
      }
      </style>
  </defs>
  <path
     style="fill:#3daee9;fill-opacity:1;stroke:none"
     d="M 1 2 L 1.0117188 2.8710938 L 2.9199219 3.203125 C 3.4425319 3.809965 6.3459725 8.3016581 6.7890625 9.4550781 L 6.8359375 12.671875 C 6.5519175 13.171815 4.8144531 13.068359 4.8144531 13.068359 L 4.6660156 14 C 4.6660156 14 11.175114 13.824791 11.208984 13.925781 C 11.192684 13.809941 11.220703 13.054688 11.220703 13.054688 L 9.1074219 12.980469 C 9.1074219 12.980469 8.9719486 10.686762 9.0742188 9.3515625 C 10.460309 7.3027925 12.933594 4.9882813 12.933594 4.9882812 L 14.611328 4.6074219 L 15 3.7089844 L 9.2792969 3.6621094 L 9.4277344 4.59375 C 9.4277344 4.59375 10.991699 4.7611394 11.162109 4.9433594 C 11.139409 5.3986394 8.4570312 8.2675781 8.4570312 8.2675781 L 5.5214844 2.9921875 L 7.578125 2.7773438 L 8 2 L 1 2 z "
     class="ColorScheme-Text"
     id="path4" />
</svg>
