<?xml version="1.0" encoding="UTF-8" standalone="no"?>
<svg
   xmlns:dc="http://purl.org/dc/elements/1.1/"
   xmlns:cc="http://creativecommons.org/ns#"
   xmlns:rdf="http://www.w3.org/1999/02/22-rdf-syntax-ns#"
   xmlns:svg="http://www.w3.org/2000/svg"
   xmlns="http://www.w3.org/2000/svg"
   xmlns:xlink="http://www.w3.org/1999/xlink"
   xmlns:sodipodi="http://sodipodi.sourceforge.net/DTD/sodipodi-0.dtd"
   xmlns:inkscape="http://www.inkscape.org/namespaces/inkscape"
   viewBox="0 0 16 16"
   version="1.1"
   id="svg10"
   sodipodi:docname="kr_mountman.svg"
   inkscape:version="0.92.1 r15371">
  <metadata
     id="metadata14">
    <rdf:RDF>
      <cc:Work
         rdf:about="">
        <dc:format>image/svg+xml</dc:format>
        <dc:type
           rdf:resource="http://purl.org/dc/dcmitype/StillImage" />
      </cc:Work>
    </rdf:RDF>
  </metadata>
  <sodipodi:namedview
     pagecolor="#ffffff"
     bordercolor="#666666"
     borderopacity="1"
     objecttolerance="10"
     gridtolerance="10"
     guidetolerance="10"
     inkscape:pageopacity="0"
     inkscape:pageshadow="2"
     inkscape:window-width="640"
     inkscape:window-height="480"
     id="namedview12"
     showgrid="false"
     inkscape:current-layer="svg10" />
  <defs
     id="defs3051">
    <style
       type="text/css"
       id="current-color-scheme">
      .ColorScheme-Text {
        color:#f2f2f2;
      }
      .ColorScheme-Highlight {
        color:#3daee9;
      }
      .ColorScheme-PositiveText {
        color:#27ae60;
      }
      </style>
    <linearGradient
       inkscape:collect="always"
       xlink:href="#linearGradient12083"
       id="linearGradient15651"
       gradientUnits="userSpaceOnUse"
       gradientTransform="matrix(0.100167,0,0,0.536489,25.54017,3.573861)"
       x1="58.226566"
       y1="17.318592"
       x2="210.27936"
       y2="17.318592" />
    <linearGradient
       id="linearGradient12083">
      <stop
         style="stop-color:#0000bf;stop-opacity:1;"
         offset="0"
         id="stop12085" />
      <stop
         id="stop14722"
         offset="0.60000002"
         style="stop-color:#00bf80;stop-opacity:1;" />
      <stop
         style="stop-color:#00bf80;stop-opacity:1;"
         offset="1"
         id="stop12087" />
    </linearGradient>
    <linearGradient
       inkscape:collect="always"
       xlink:href="#linearGradient12083"
       id="linearGradient15653"
       gradientUnits="userSpaceOnUse"
       gradientTransform="matrix(0.100167,0,0,0.536489,25.5402,-2.798868)"
       x1="58.226566"
       y1="17.318592"
       x2="210.27936"
       y2="17.318592" />
    <linearGradient
       inkscape:collect="always"
       xlink:href="#linearGradient11184"
       id="linearGradient15655"
       gradientUnits="userSpaceOnUse"
       gradientTransform="matrix(0.305601,0,0,0.527548,-12.17435,-62.09439)"
       x1="58.226566"
       y1="17.318592"
       x2="210.27936"
       y2="17.318592" />
    <linearGradient
       id="linearGradient11184">
      <stop
         id="stop11194"
         offset="0"
         style="stop-color:#bf0000;stop-opacity:1;" />
      <stop
         style="stop-color:#bfbf00;stop-opacity:1;"
         offset="0.36270002"
         id="stop12974" />
      <stop
         style="stop-color:#bfbf00;stop-opacity:1;"
         offset="0.465"
         id="stop12097" />
      <stop
         id="stop12972"
         offset="0.75"
         style="stop-color:#00bf00;stop-opacity:1;" />
      <stop
         style="stop-color:#00bf80;stop-opacity:1;"
         offset="1"
         id="stop12095" />
    </linearGradient>
    <linearGradient
       inkscape:collect="always"
       xlink:href="#linearGradient11184"
       id="linearGradient15657"
       gradientUnits="userSpaceOnUse"
       gradientTransform="matrix(0.305601,0,0,0.527548,-12.17436,-55.65524)"
       x1="58.226566"
       y1="17.318592"
       x2="210.27936"
       y2="17.318592" />
  </defs>
  <path
     style="fill:#3daee9;fill-opacity:1;stroke:none"
     d="m 2,2 0,12 12,0 0,-12 z m 1,1 10,0 0,8 -5,0 0,1 -2,0 0,-1 -3,0 0,-1 z m 1,1 0,6 8,0 0,-6 z m 1,1 1,0 0,2 4,0 0,-2 1,0 0,4 -6,0 z m -2,7 2,0 0,1 -2,0 z m 6,0 3,0 0,1 -3,0 z"
     class="ColorScheme-Text"
     id="path4" />
  <path
     style="opacity:1;fill:#ff0000;fill-opacity:1;fill-rule:nonzero;stroke:#ffffff;stroke-width:0.0495356;stroke-opacity:0.94117647"
     d="M 4.022291,6.9944272 V 4.022291 H 8.0099071 11.997523 V 6.9944272 9.9665635 H 8.0099071 4.022291 Z m 6.98452,-0.00173 V 4.9600018 l -0.50774,0.014117 -0.5077397,0.014117 -0.01341,1.003096 -0.013409,1.0030959 H 7.9841137 6.0037152 V 5.9772145 4.9600017 l -0.50774,0.014117 -0.5077399,0.014117 -0.01294,2.0185758 -0.01294,2.0185759 H 7.9845837 11.006811 V 6.9926943 Z"
     id="path4491"
     inkscape:connector-curvature="0" />
  <g
     id="g15645"
     transform="matrix(0.09046281,0,0,0.10198845,9.8640972,9.8670198)">
    <rect
       transform="matrix(0.516109,0.856523,-1,0,0,0)"
       y="10.356378"
       x="31.372629"
       height="5.0174885"
       width="15.230728"
       id="rect11208"
       style="fill:url(#linearGradient15651);fill-opacity:1;stroke:none;stroke-width:10;stroke-linejoin:miter;stroke-miterlimit:4;stroke-dasharray:none;stroke-opacity:1" />
    <rect
       transform="matrix(0.516109,0.856523,-1,0,0,0)"
       y="3.983655"
       x="31.372641"
       height="5.0174885"
       width="15.230719"
       id="rect14724"
       style="fill:url(#linearGradient15653);fill-opacity:1;stroke:none;stroke-width:10;stroke-linejoin:miter;stroke-miterlimit:4;stroke-dasharray:none;stroke-opacity:1" />
    <rect
       transform="matrix(-0.536293,0.844032,-1,0,0,0)"
       y="-45.477615"
       x="0.82551414"
       height="4.9338641"
       width="46.467571"
       id="rect12091"
       style="fill:url(#linearGradient15655);fill-opacity:1;stroke:none;stroke-width:10;stroke-linejoin:miter;stroke-miterlimit:4;stroke-dasharray:none;stroke-opacity:1" />
    <rect
       transform="matrix(-0.536293,0.844032,-1,0,0,0)"
       y="-39.038486"
       x="0.82550603"
       height="4.9338641"
       width="46.467583"
       id="rect14728"
       style="fill:url(#linearGradient15657);fill-opacity:1;stroke:none;stroke-width:10;stroke-linejoin:miter;stroke-miterlimit:4;stroke-dasharray:none;stroke-opacity:1" />
  </g>
</svg>
