<?xml version="1.0" encoding="UTF-8" standalone="no"?>
<svg
   xmlns:dc="http://purl.org/dc/elements/1.1/"
   xmlns:cc="http://creativecommons.org/ns#"
   xmlns:rdf="http://www.w3.org/1999/02/22-rdf-syntax-ns#"
   xmlns:svg="http://www.w3.org/2000/svg"
   xmlns="http://www.w3.org/2000/svg"
   xmlns:sodipodi="http://sodipodi.sourceforge.net/DTD/sodipodi-0.dtd"
   xmlns:inkscape="http://www.inkscape.org/namespaces/inkscape"
   viewBox="0 0 16 16"
   version="1.1"
   id="svg8"
   sodipodi:docname="layer-lower.svg"
   inkscape:version="0.92.1 r15371">
  <metadata
     id="metadata12">
    <rdf:RDF>
      <cc:Work
         rdf:about="">
        <dc:format>image/svg+xml</dc:format>
        <dc:type
           rdf:resource="http://purl.org/dc/dcmitype/StillImage" />
      </cc:Work>
    </rdf:RDF>
  </metadata>
  <sodipodi:namedview
     pagecolor="#ffffff"
     bordercolor="#666666"
     borderopacity="1"
     objecttolerance="10"
     gridtolerance="10"
     guidetolerance="10"
     inkscape:pageopacity="0"
     inkscape:pageshadow="2"
     inkscape:window-width="640"
     inkscape:window-height="480"
     id="namedview10"
     showgrid="false"
     inkscape:current-layer="svg8" />
  <defs
     id="defs3051">
    <style
       type="text/css"
       id="current-color-scheme">
      .ColorScheme-Text {
        color:#f2f2f2;
      }
      .ColorScheme-Highlight {
        color:#3daee9;
      }
      </style>
  </defs>
  <path
     style="fill:currentColor;fill-opacity:1;stroke:none"
     d="M 3.9980469 3 L 3.9980469 8.0292969 L 2.6542969 6.5917969 L 1.9980469 7.2792969 L 4.3105469 9.7792969 L 4.4980469 9.9980469 L 4.6875 9.7792969 L 7 7.2792969 L 6.34375 6.5917969 L 5 8.0292969 L 4.9980469 8.0292969 L 4.9980469 3 L 3.9980469 3 z M 9 3 L 6 6 L 11 6 L 14 3 L 9 3 z M 5 11 L 2 14 L 11 14 L 14 11 L 5 11 z "
     class="ColorScheme-Text"
     id="path4" />
  <path
     style="fill:currentColor;fill-opacity:1;stroke:none"
     d="m 9,7 -3,3 5,0 3,-3 z"
     class="ColorScheme-Highlight"
     id="path6" />
  <path
     style="opacity:1;fill:#ff0000;fill-opacity:1;fill-rule:nonzero;stroke:#ffffff;stroke-width:0.0495356;stroke-opacity:0.94117647"
     d="M 4.4383402,9.9555463 C 4.4138475,9.9125731 3.8811146,9.3232634 3.2544892,8.6459695 2.6278638,7.9686757 2.0880739,7.3799447 2.0549561,7.3376787 2.0043928,7.2731482 2.0486675,7.2073191 2.3311972,6.9269545 L 2.6676524,6.5930773 3.3202039,7.2880732 3.9727554,7.9830692 V 5.4825562 2.9820433 H 4.4928793 5.0130031 V 5.4925377 8.0030321 L 5.4712074,7.5111499 C 5.7232198,7.2406147 6.0242775,6.9189418 6.1402246,6.7963212 L 6.3510374,6.5733746 6.6706473,6.9201238 C 6.8464327,7.1108359 6.9856228,7.2813218 6.9799584,7.2989814 6.974294,7.3166409 6.4661813,7.8740115 5.8508191,8.5375827 5.2354568,9.2011537 4.6759298,9.8092364 4.6074255,9.8888773 4.5012871,10.01227 4.4762885,10.022127 4.4383402,9.9555463 Z"
     id="path4489"
     inkscape:connector-curvature="0" />
</svg>
