<?xml version="1.0" encoding="UTF-8" standalone="no"?>
<svg
   xmlns:dc="http://purl.org/dc/elements/1.1/"
   xmlns:cc="http://creativecommons.org/ns#"
   xmlns:rdf="http://www.w3.org/1999/02/22-rdf-syntax-ns#"
   xmlns:svg="http://www.w3.org/2000/svg"
   xmlns="http://www.w3.org/2000/svg"
   xmlns:sodipodi="http://sodipodi.sourceforge.net/DTD/sodipodi-0.dtd"
   xmlns:inkscape="http://www.inkscape.org/namespaces/inkscape"
   viewBox="0 0 16 16"
   version="1.1"
   id="svg8"
   sodipodi:docname="layer-raise.svg"
   inkscape:version="0.92.1 r15371">
  <metadata
     id="metadata12">
    <rdf:RDF>
      <cc:Work
         rdf:about="">
        <dc:format>image/svg+xml</dc:format>
        <dc:type
           rdf:resource="http://purl.org/dc/dcmitype/StillImage" />
      </cc:Work>
    </rdf:RDF>
  </metadata>
  <sodipodi:namedview
     pagecolor="#ffffff"
     bordercolor="#666666"
     borderopacity="1"
     objecttolerance="10"
     gridtolerance="10"
     guidetolerance="10"
     inkscape:pageopacity="0"
     inkscape:pageshadow="2"
     inkscape:window-width="640"
     inkscape:window-height="480"
     id="namedview10"
     showgrid="false"
     inkscape:current-layer="svg8" />
  <defs
     id="defs3051">
    <style
       type="text/css"
       id="current-color-scheme">
      .ColorScheme-Text {
        color:#f2f2f2;
      }
      .ColorScheme-Highlight {
        color:#3daee9;
      }
      </style>
  </defs>
  <path
     style="fill:currentColor;fill-opacity:1;stroke:none"
     d="m 5,3 -3,3 9,0 3,-3 z m 6.498047,4.0019531 -0.1875,0.21875 -2.3125001,2.5 0.65625,0.6874999 1.3437501,-1.4374999 0,5.0292969 1,0 0,-5.0292969 0.002,0 1.34375,1.4374999 L 14,9.7207031 l -2.3125,-2.5 z M 5,11 l -3,3 5,0 3,-3 z"
     class="ColorScheme-Text"
     id="path4" />
  <path
     style="fill:currentColor;fill-opacity:1;stroke:none"
     d="m 5,7 -3,3 5,0 3,-3 z"
     class="ColorScheme-Highlight"
     id="path6" />
  <path
     style="opacity:1;fill:#00ff00;fill-opacity:1;fill-rule:nonzero;stroke:#ffffff;stroke-width:0.0495356;stroke-opacity:0.94117647"
     d="M 11.004678,11.514551 11.002545,9.0006192 10.3214,9.7128659 9.6402548,10.425113 9.3328209,10.089603 C 9.1637322,9.9050724 9.025387,9.7362544 9.025387,9.7144517 9.025387,9.692649 9.3318885,9.3444756 9.7065015,8.9407331 10.081115,8.5369907 10.637749,7.9354416 10.943468,7.6039576 l 0.555851,-0.6026983 1.241176,1.3423454 c 0.682646,0.73829 1.234989,1.3594135 1.22743,1.3802744 -0.0076,0.020861 -0.146559,0.1879317 -0.308887,0.3712689 l -0.295141,0.333339 -0.681638,-0.7139339 -0.681638,-0.7139339 -0.0015,2.5139318 -0.0015,2.513932 h -0.495356 -0.495356 l -0.0021,-2.513932 z"
     id="path4489"
     inkscape:connector-curvature="0" />
</svg>
