<?xml version="1.0" encoding="UTF-8" standalone="no"?>
<svg
   xmlns:dc="http://purl.org/dc/elements/1.1/"
   xmlns:cc="http://creativecommons.org/ns#"
   xmlns:rdf="http://www.w3.org/1999/02/22-rdf-syntax-ns#"
   xmlns:svg="http://www.w3.org/2000/svg"
   xmlns="http://www.w3.org/2000/svg"
   xmlns:xlink="http://www.w3.org/1999/xlink"
   xmlns:sodipodi="http://sodipodi.sourceforge.net/DTD/sodipodi-0.dtd"
   xmlns:inkscape="http://www.inkscape.org/namespaces/inkscape"
   viewBox="0 0 16 16"
   height="16"
   width="16"
   id="svg2"
   version="1.1"
   sodipodi:docname="list-remove-user.svg.svg"
   inkscape:version="0.92.1 r15371">
  <sodipodi:namedview
     pagecolor="#ffffff"
     bordercolor="#666666"
     borderopacity="1"
     objecttolerance="10"
     gridtolerance="10"
     guidetolerance="10"
     inkscape:pageopacity="0"
     inkscape:pageshadow="2"
     inkscape:window-width="640"
     inkscape:window-height="480"
     id="namedview6"
     showgrid="false"
     inkscape:current-layer="svg2" />
  <metadata
     id="metadata8">
    <rdf:RDF>
      <cc:Work
         rdf:about="">
        <dc:format>image/svg+xml</dc:format>
        <dc:type
           rdf:resource="http://purl.org/dc/dcmitype/StillImage" />
        <dc:title></dc:title>
      </cc:Work>
    </rdf:RDF>
  </metadata>
  <defs
     id="defs6" />
  <image
     y="0"
     x="0"
     id="image10"
     xlink:href="data:image/png;base64,iVBORw0KGgoAAAANSUhEUgAAADAAAAAwCAYAAABXAvmHAAAAAXNSR0IArs4c6QAAAAZiS0dEAP8A /wD/oL2nkwAAAAlwSFlzAAALEwAACxMBAJqcGAAAAAd0SU1FB9oFCw06BT2LJD0AAAt7SURBVGje 7ZlLjB1XWsd/p86pW3Wf7dvX7b632/2I7XicAcU2MxiJEEXCY5KZGCQQQhBFAjKzABagARFYBDIS IMGC3bAAsmEDihIQZCSCAkiRQjADyTivibFjO7Y7dj/v+1HvOixu1Z1y48TttqPMYo5UqlbrVp3/ /3zn+3//7xT8YPxg3NUQn/J7ReZKh85cZO7fNwQEYGQumdzTueLkijL3XRMRnwJ4Ccjf/I2nfjWv rF+7ev3G0YLS7J+fY7E+R7fb/f0LH155+y//9u/PAAEQZsjcMQn5Kay8+vqvf/Wb04X8HzZbrXqr tUV93xz9fpdev4edM79k5syfa/aGL2xuNb3dAk+HcY8jIH/2K48ttVutr202N1GxS+j0aW6tMlXM YylBu9ulOxgWTvzIsXeAEpAHzN1iuZcEDED2/dC8sdXBjANOHD7Mw4cPMOh1ePV/3uTKRzcgDhmN +mitAcqADajdYlH3eguNRiNzsT7Njx87Rui7VMtFfqg+jYhjiAMEPjmpiMd4S4CbXH5CIvpMCXj9 trTrU1gG+IMBhrTYWyry4Bx81BnQ2WrRdCLW++FzQC6z+p95BAAMS8fGgblZel7A5RurFCxJMV+g kc+ztDSPE5u88OrrzlvvX/52BrTYbSLf6yTm0upGuzbTOI+hWOv0ubSySm844tvnLuNEJtV9DWxf n+/2B51ERqO7kdF7HQHWm22/Vik28wi+eORzmPkCBbuItAvMNhpM1xd5+ey7f5HseT9D4jMnoFMQ /cEImdPklEnRtrHyRT534POYeXDCAMADnEzyhsmzn1kOiEwhI1fZS+w2Gbp92pvrFCsVypU9mPkK nsqTgPYyEQg/ywhkwctqtbpPFMvHWivn2NjYxB861IKIWPsU6vv4539/9W8SwOHd2oi7TWKR8T7m 0tJS9cSJE2cajcYb1dl6wRE5pGVhCAPTVNiFAiPfoDo9/cvLy8sHb+FWxW68mbFbvU+A5wALKDzw wAPf2draOtzv9wH4wmM/jyxNAxAaGlmsUzt0hOeff55arfZsuVyuJRYil9xVxrXumIjcJXDVaDT2 HThw4InFxcX/KJVKv3f9+vVyEAT4vk+1WuVHf+wEM8sHuba2TqiKfOkXnqDd7/Piiy8SRZE5Ozv7 S41G47H5+flwdXX13LaI7NgtG3cIXgHWgw8++HelUunN4XD4zdXVVXrdLlEYEgQBWmteeeUVHMdB IvBvbKJdn3ylguu6hGGI67oMBgNardbB4XD4p8ePH//ver1+PGPurIzB+8SIyDsBf/jw4S8vLS29 0+t2HhgOR6V0xYVhEMVjFYzjmH6/z+LiItrxiC5cJr90CLu2j82NVV5++eXJi8MgwPM8XNet2Lb9 K8vLy79Yr9f9tbW1928h0bsiMAF/6NChU1EUvdBut5Xn+cRxTBRFxHFMHMcYhkEcf0/Kr169yg8v LkKrycyRo1TqM7z7zlnOnDmDEAIhBLHWk/f4vo/rOFNhGD66vLz8+bW1tX/ZSetp7DDRlRDiW6Ph 0ArDcAI0vWutiaJo8reUkpWVFb779lnQGst1EULQbDa/R1SPiYdhCFoTBAFBGOI4Dv1+//TRo0d/ eluvIHZDIJVJy/d9gjBEaz0BnIIxDGMCPiWmtebt97/LcNhjeP0qgeuxsbFBGIbj34vxM1LKydKm CxKGIaPRqAAUknyQH0dA7ZCASoGnINMJt4MXYjyPUoq13pAgChm11mm3xombjZiRbKP0uZSA53kM h0M7aXjSYqcTPNmip40d5oB5U0bp2xfNKIroeS4fuQGeO2LUWqPb7d70mxR8dnGiKCKKIpaXl/MJ gWISiXymf5B3EgEDkEqpyWRCCAzDIAzDm1YumwNaa6I45j+vXuFwtUZr9QppkdNaYwhBkGzDyWRC kM/n2b9/P6dOnXr2mWeeeVZrTT6fp1gs8vDDD+9NPFSQRCHaqRcypByTNgyDgwcPcvLkSd544w3e e+89XNedAEjzIo7j8TbqdGg5I/rnL0wiYCSymwUPMDU1xdNPP025XMZ1Xa5du4bWmvvvvx/P80ii ITLOd0cEJsmTgms0GiilOHnyJKdOfZn19Y84d+5/Wb2xSqvdYjgc3hSR81trdNdWcV1nkjumaaLj mCAMqVQqPPLIIzz55JMIIVhdW5usulIKKSVvvfXWHwOVBHhqBD9xC2VdpuF5HkIIpJRMTU3hOA6b m5sYhoHWMcePH+fRn3qUnJVjbW2838+e/Q7vvvseFzY2mSqUiePxPk+1Px1PPfUUp0+fptls0u/3 GQ6HKCkxDIOpqSmklHS73VySB6OsKqkd1ABjYWHh34IgQErJ448/zv6FBVzHoVKZIpcziaIIz/M4 f+E8hUKB+fl5FhYWeOihh7h48SKXLl0iDEOOFgrU63VmZmYAeO2111haWuL06dM4bohpmoxGI5Q0 kFJSKBSoVCp4nuevr6062wzfbZPYAOTi4uKjYRjOe56HUoqDBw9iWTaVchlhSKzcWKBs20YphSEA YSCEwHEcDt9/iCNHjuD7PkEQTKT3vvvu48SJExPFMhU4jsbzPHKmSRSPxSKXy9Futzf+6q+fe+dW vkjdTn36/f5XpJS5MTjB+vo6hw4dQhgm6HFhy+VyKDnOD2FIBJpSuUyxWARhomMf27YxTRMhBEEQ UCqViOMY3/dJq3scBQRBwMaVa+hBi7laDWvqIcrFYvZU+6YG6HYRUHnbfkLrGIRBbe8MCwvL5PP5 pIpaSClRSqG1ZjgcEhBgGAaW7+P7Pu12m2q1ilKKwWCAlJJGozHxPwB+EKGkoNtp8/6Z19HtFZRh YHn76V25SLhnhiRp/W1d3McSSA+alOO62LZNrVbjG3/yR8zX51j58DJBGBKGIZ7nYZomnU6HbreL ZVlUq1WkYdDr91lZWcEwDGZmZgiTZ1LbrbWmUCjgui5xLGg3m2gDyvkSttRMFYus9zq4mDcy+n9H EZBCCMIwRIcB62/+Fxf7Q+TsHHumayilaDabDAYDlFITGxFFIb7vUygUWFxcpFQq3aQ6WmtM0ySO 4wR84oE0FGfnqdgH8HotmF/k0trmK9/43T94LnOCEeyEwEQ+pZTNKIpqnu8TS8meaomVC2/z4cAl ypcoVms05uYnEjveThBFMZZtMz09jRACpRS+74+LWBShlKLT6WCaJpZlATA7O8v+/ftpt9tsbZX5 6m/9zteBNjDMHMNkvdHH9gMi7b6UUq6U8iddz+XCpcvYRkxva5NBr0tv1CcybKxEgYQQWJaFYRjk rByp/chWaCkltm0jpZwUtNSWlMtlgiCg0+mQz+d56aWX/gnoAp3kPkiIBLfLgTTrw16v9w+1Wu0x rfmJ65tNnv/X1ynaOQypOPaFLzI3P480xuBd1yX1LrlcDsuyEEKMq27ioaIoIgxDbNtGa41Saqxe iadqtVoIISgUCiRgh8k1yuRBfLt+IJWrEHCbzeZva63/UUpJrDV9x2PguPR6Per1OpWpMkqpm1bc T1QoiiKCIJj0DxMzZxjkcrnJ71MDWCgUmJmZSYudn2yb7CneTUl8OwJB8uCg3W7/+ebm5s/s3bt3 1bIsL45jtra2MAwD0zQplUoopTBNc1zQDAPf9/FcbywCWqMTgzfpZ6Ukl8thmuakh9izZw/lcjn9 Xwre2/Y9bUcdWZw85AD9JJnaH3zwwdd83/+zcrmM53kUC0VGo9HYvyiV5MC4mAVBgOu5OI5DFEX/ r6lN+4pJl5aQSnMms/JZCc32yZ947jI5dUtMVCFpMMqJK0wbjdytPMpdjDABPkiSdytZvEFGhXbc Ukbb/o4y+7KY6ZLMu/nKcgsCXibyzrbV33FPnPag0bYP1EEywTDzgU5x7z6WxBnbkKqQvxsC2bOY KNMFpS83t51p3ksC6TxB5kPIXX1P/r4d/weo1de/wUtnLgAAAABJRU5ErkJggg== "
     preserveAspectRatio="none"
     height="16"
     width="16" />
  <path
     style="color:#da4453;fill:currentColor;fill-opacity:1;stroke:none;stroke-width:0.33333334"
     class="ColorScheme-NegativeText"
     d="m 13.96904,11.96904 c -1.104667,0 -2,0.895333 -2,2 0,1.104667 0.895333,2 2,2 1.104667,0 2,-0.895333 2,-2 0,-1.104667 -0.895333,-2 -2,-2 m 0,0.333333 c 0.920333,0 1.666667,0.746334 1.666667,1.666667 0,0.4 -0.150667,0.754333 -0.385334,1.041667 l -2.323,-2.323 c 0.287334,-0.234667 0.641667,-0.385334 1.041667,-0.385334 m -1.281333,0.625 2.323,2.323 c -0.287334,0.234667 -0.641667,0.385334 -1.041667,0.385334 -0.920333,0 -1.666667,-0.746334 -1.666667,-1.666667 0,-0.4 0.150667,-0.754333 0.385334,-1.041667"
     id="path4"
     inkscape:connector-curvature="0" />
</svg>
