<?xml version="1.0" encoding="UTF-8" standalone="no"?>
<svg
   xmlns:dc="http://purl.org/dc/elements/1.1/"
   xmlns:cc="http://creativecommons.org/ns#"
   xmlns:rdf="http://www.w3.org/1999/02/22-rdf-syntax-ns#"
   xmlns:svg="http://www.w3.org/2000/svg"
   xmlns="http://www.w3.org/2000/svg"
   xmlns:xlink="http://www.w3.org/1999/xlink"
   xmlns:sodipodi="http://sodipodi.sourceforge.net/DTD/sodipodi-0.dtd"
   xmlns:inkscape="http://www.inkscape.org/namespaces/inkscape"
   viewBox="0 0 16 16"
   height="16"
   width="16"
   id="svg2"
   version="1.1"
   sodipodi:docname="mail-forward-custom.svg"
   inkscape:version="0.92.1 r15371">
  <sodipodi:namedview
     pagecolor="#ffffff"
     bordercolor="#666666"
     borderopacity="1"
     objecttolerance="10"
     gridtolerance="10"
     guidetolerance="10"
     inkscape:pageopacity="0"
     inkscape:pageshadow="2"
     inkscape:window-width="640"
     inkscape:window-height="480"
     id="namedview6"
     showgrid="false"
     inkscape:current-layer="svg2" />
  <metadata
     id="metadata8">
    <rdf:RDF>
      <cc:Work
         rdf:about="">
        <dc:format>image/svg+xml</dc:format>
        <dc:type
           rdf:resource="http://purl.org/dc/dcmitype/StillImage" />
        <dc:title></dc:title>
      </cc:Work>
    </rdf:RDF>
  </metadata>
  <defs
     id="defs6" />
  <image
     y="0"
     x="0"
     id="image10"
     xlink:href="data:image/png;base64,iVBORw0KGgoAAAANSUhEUgAAADAAAAAwCAYAAABXAvmHAAAACXBIWXMAAAsTAAALEwEAmpwYAAAA FXpUWHRBdXRob3IAAAiZKylPTcwGAAaBAh3BFP3WAAAMJ0lEQVRoBe1YWWxcZxU+986dzWs8ju2M 97VpltImBKNULUVqEBIIqFqeKuhDkWiFqJAoSH3oCy+EhyJQK9FKpVFJUkJKQU1L4iQ0zja2Yyeu HTte490ztmPPjD37cje+c+0xk9RL4qaJQD3y73vn3v+e/3znfOf8516iL+U+eyAUCpncbvdjIyNj mffZlA0tL2ZlZakZGRkv6Lp6bnx8/LnR0dGsDWm6Tw+JAiQej7c5nc49gUDggNlsPj85OfmT4eHh /wkgIhxnPXToUI/Vao0UFhYK09PTj4ii+Gf8bgKQF0ZGRjbdJ+fe9rL2zZs3b5ubm7uqQ0Aj9eLF iwkYr8/Ozuoej6cX5y/hev5ta7yHEzkCitfrXYCB7bxueXm5sGXLFmlwcFCORCKqyWTahmi8brFY mqempl4eGxsruIf2rbuUAQCzYq0QDYJzoba2VigqKpKuX79OAKEkEgkdqfIAQLwGMJdAs1cQFee6 2u/BBAagY8iHDx++BmNvLK0pbN++nfLz80VEQgAAVVEUPRaLEfKj2maz7QeYlpmZmVcBpuQe2Lnq EsLSHSuOzqGhobdqamq+nZrNAWlrayO/36/V1dXpKLcMmAsXoVoRQFAymXTj2ruY+zaoN5F69l4d 2SAWGSPc09Nzyfi19A/epj179hAbDjqJiJAG4zXkOsmyTNFolNGUglavSpJ0CYVgPxK/Jl3HF32e AsDcTzY0NLRjTwjxomwkDxhGe/fuJSSzwCCwczPlcGvxfgoIrjntdvsrmNeCiL0GIHWs54uWFIV4 HTs8WTUyMnq4uNi5S1XV5bU5EuztM2fOMCC9urpaxw5ucIn5BOFzzg8DMPQQ8saPa++BWm+iTPct K7vLJ6kIsFquNv6x8bHL/CPlYT4yGHiXHn/8ca5KAtoNjoQRBtxnWZ6PZE9Ry2G1Wl4C4CZE5E2f z/cQ673bkg6AXR5vcrlauepwAqcPNiw7O5ueeOIbnNSE/UAIBoMC5ixTKjWfAS0CiTGwPIB/EdRq wvx35ufnd99NEOkAOA/kI0eO9KIn8mDBmwCwcWxUXp7DiAQ4LkxMTBggkAccBZ3n4HDT4GcQNbY5 G1Xreei9AP0HMervBpB0AKxP7ujomEJ9v8qcTnk0/YiySdjkjMTGZkZoxSkcDgsMAs+sCYTzCBMy kSM/Rr6cxXPvLSws7P08QG4FwDSKdHV1tbCh6YanztnDXHnKysqovr6ekA8CQAgMAtRjOhkRSJ+f igpf43ziDRHXMhCRZ5Ej5xChvyOnntgIkJUAJI8fP94BvgZZIS+40mCAtTW19PAjjxA2QEKfJMDD AoxDJEiTRNLNJiILhgmrLJY7fdkprHMpIsBh+SGodRpAjmE8iXKeXh3XxLXSRDsUVnR2dv4FjV09 vLqmAt4n2tvbCZsgbd36AJWXleqtI2GtZdokVuRZhLJNElXmW2nLJivlZJjJZpGMksuQdAwuAUxX zjkuv4iuAnqdQrTegFNOoy8zorqaEdIKN2R4dx7UuAya1LOneIHVhAHuQhTccwvU29tL8Dwda4+L jeMWKnbmkaJbSVBClGfTqDRXpIo8E9UV2aim0E4leTYqyLWSHaDMIqKjJMgkiBIc+N14IvGdkpKS TxDR19Etn4Qtyko2rASA8yDR3NzctmvXrp/CM2bm7lqiKElqDZVRLBShxKfdQs9MNVkAZGHOR0VO dN/ZBeSNqTTrV+jKrEJ6b5IkClOuRaWCDKKqfImqC2xUW2Sn6qJMKsy1kSPbJlhtGd8iXd1XWuo8 p2vy6yRIJ+DMZLotq7k2s6qqavuJhoaj+Q5HFSftaiJCQyAq0/OHPCTnlJMz2EZXpixEokS6phqj oMhBNkcJhWOYbPzxstggl5JahX7D+1qCrIICUDoVI1p1hTZ6oDiLHixzUDFT0G52ZWXa3oCSYwBi cJs1rSSwgIoaGxv/uHPnzqfRH61KI8kkUPvIAv3q4whJ+ZVktQiUmBsh35zXYDk2BxQBhRyOHNpU XE2hJFRzRI2VP7s8z1cwXwEoVY6TjoHGhLLNKlVuzqCKAjvZxGQ7WPfSb56tb1mJQgyI+Rbh7hRt 9NOpMsg30oWvS8iPrklQR7STGb+TCY3s+WWUp8g07/MZdpowx++dJznRS4WVWymqZRtG4otCurrF c/RTJsmMhLbjdw7KLccKnMbcgVhI6eudumoJTRy1xdwefmA1AMaufPLkyc59+/b50U47OJlXkoSs U6c7TpIlz6ALLxdNCJRZUE6anKDAwoLxGJfSUCBM8sBVKq59kJLWQlSc1QsEG458RnNoIpOCxmt+ uD107V+Nk41vt0bDoREoDWAg/quLDbfKXC7XuxUVFY+uVE7Zgd5ggn529AaFMyqNxQx1htcEyjDL FHAPUDjIHfpii6GhtZAkgUprt5KQWwmwXEwxlizRSUSuWuBZmaS4bzLpudI86zrQ4uk4MwYlrIj3 J+/SiK4WAdw3aBRAOW0tLS19dKUImIF/cDpM/rhEVjv6ICbekiUwlyJJkXKc1YhEP0XCEeMWGAJ+ KzTe100lVRHKcu4ACBO8bULew+NqNEnB6z3hvpMXPWfe6gjMumehlZspNpzDyccoBiexthYAo5zi Xb9t9+7dSZRTC3M+XXSUoKsTYVKEDLKg4mgCJ+fNQY1oZsopriFtso9i0ZiREyJx06fR5PV+KopF KK/ma6BTwq9OdV/2XXrv4vjZg4PwBVOEDWejeYQxYhhcEpcNuXk13LlFMrCZbP3ggw/exwt+bXo5 NTSgYrz8/jj1xwoJNdswXhDgYgPEomoGzd61w3H+8T5KxuE4voVnNYDgbjw/xzQYunTgD1M9LZyY bDRThY1OgWBvs0OXDce5IVhtTVHwYWsO3emnvBvzhpaqSMzb6fkYjc+rxHuBis1MQ/njkqnzWNoD cIIan6SYnkF5pTUG/3EBpsAeDAlbt2/40/MwvhuWTGAMYwxhTGIw1xkQk/MzxuMaMmZt4QejaBFa EskkbP9vM2aCvoGpEAXicCgbi7Kpw1BdRf0GAAaTGgyGN6uwlqPnl1bpJqPr1ggHEtR4TJsbOI91 2OBRjCkM9j40g2vryHoAjHJ66tSpq2iXfRyFRRCLFaVzPIgV8OKjsuGLEdAYyC1RYJroAnqg3Jj+ 3LaYXp4rANNiCRWVWH/oelMX7PRjMHVu4vg69q8bAX5evnDhwuTC/HwPd54MAO8tFInL1DsVMejD nlfheSMKhufRGuA3R0AXUCfUaOjRTRN9rz4mi/WlkvjVikyOEtcA0qOzTXIyMYd1mOcr0oSNWE3W iwA/xzQK4PWxjY1nMWFljz9Kbn8S+YhWgakDz3MkjIFz7nM4ly3hkY7Y+d/t/+S3z+wfGuj7yFHo 1L75lWIx24alQZ/kTI8LKpkuvM4dC1431hW22oRPIzaU0+8jCtgcBXL1zlLjQJjM+DrHNd/wHecI TtEQk1mLeGnszOHJIz8/uDDRNxyOy8EPjx3r3rFjZ/Kxr+/e0TMZkkbd072B1kNvI1KcrDd1meta tTThdgDwVBOqkf7UU0/tw5eJAq4sf3ON0pAPvRBeRMArTAEM3vpFXZUCQ+eD537/J4/rry5F1WZw kxOTjUycOHFipKayfKGqbtvDrraO48FB10lcZ+6vm7CY8xlZayNLn6zgs6F35saNK84tW7b50Pf3 e4Lgv92gDOkS3qhgvOwbUwbOvu8+d6AZ1vigILXls4GMko/KL37564+eee7FOUfU3Y+vyRumD3St 2szxvXRhfsZ6rl1rfWjH9h9NzIYEjx9fqq2gj27mviUqzPY3+Jrf+Tji9XA5nMfgFoDLIe+eKe+y HqOy/ePgWw0457ZgQ8mL5wy53QjwovzttOvpH3xvrmdivjCGYpeJds8Uv9EVHzx91N/9707MYcO5 orD3eeu/9U2I9aRKJffLfJ8jsGG5XQC8gHL58mXPnNfb3eMOPymJik+fafvQ2/rX03I8yt5mo/nI 2/9aXmUQ3Iyx4YvJg5ONyh0BwCKhs5c6m8bHIrZExz+PBDy9g7jGNEl5nQ3jnuV2hIF8bkGlviPZ ZM/OrVNjQUdS0ZkivHuy8czlDZVBPPe55E4B8EuOAyMTg5sspkt6kuLnvZU7BcDz+YWfd3BOwA3t nnjuS/m/8cB/AA+PRFzqWklJAAAAAElFTkSuQmCC "
     preserveAspectRatio="none"
     height="16"
     width="16" />
  <path
     inkscape:connector-curvature="0"
     style="fill:#00ff00;fill-opacity:1;stroke:none;stroke-width:0.7317158"
     d="m 12.236421,10.170732 v 0 2.159609 H 7.0301227 v 1.43974 h 5.2062983 v 2.159609 0 l 3.718784,-2.879479 z"
     class="ColorScheme-Text"
     id="path4" />
  <image
     y="0"
     x="10"
     id="image10-3"
     xlink:href="data:image/png;base64,iVBORw0KGgoAAAANSUhEUgAAAIAAAACACAYAAADDPmHLAAAAAXNSR0IArs4c6QAAAAZiS0dEAP8A /wD/oL2nkwAAAAlwSFlzAAA3XQAAN10BGYBGXQAAAAd0SU1FB+EDHgwbAqiIaykAACAASURBVHja 7L15vGVXWef9XWvvfeZz57FuzamqzAMkQAJhjEAwNGCLiIqtooCIiqKt9qSAtiM02mi3virYdr+C or6CIDZDSEzIjBkqqUqqUuOd53vmYa+1nvePtc+9596qygzB7tr57Ox7Tt17zt77mX/P71kbzm/n t/Pb+e38dn47v53fzm/nt/Pb+e38dn47v53fzm/nt/Pb//mb+r/kGuVpXrM8wd+fV4Dz13JWRTl/ 0/4FnL/6JgpXzivAt8f5qm+BAsj/KQqh/g84R3WO1+pZXLM8yfvyNIUt5xXg2SVv6gnO/WwCVwCv /9mfDd/1tg/s59TJXW5+fpubnx7tbVUHM1r1Zvv788M7xzPpYiGyGnHNpjGtVnO52qot1U1prWWX m6h5k0pPh0M9px554CuPf+xjHzNbhClPohhsuQY5rwDP7vy2CnmT8H/4Dz/Xf12QuWSsvLR/f3Ph gn2p2o5m3g23q+WBWKTXOtUTFHvyanR7Vk/s05mRnQRBgCgQ5xDXom3arm2lYaGmtC4HpEppHS0v VRpLjx85fXp1cfm4y+eOTu7sf+Tfv+4Va1uEL09g9XLeAzx7wZ8h9A/+978em9DF/a8azh4o5Lms ZSoXs3B6X3HuxM6BxjIETTBN6O2B8e2w73LYcxkM7ICg0BFM1/fFG7J0DtogLctqtcVqqYpbmTud Ky8cdavlw48tVh8+GfQcDfp7jrzzB984fw5l+LZWBPUvxNp193u7918V/tK7PrBnpNC/98pLd7yy Qutlu5pr1/U0FtGtBVg7BXOnEBOLyhYUoxOw63LYcQHsuhjSQ4koBJTakIuoTd+6RTP8y5VJeOxh anNrTJOj3j9yp9PR7bfd8dCtpVrr+F1H7z7xxb/8H7ZL0O7b2Suob1Ml3GrxClBvf+u7sj/+1n/V P75//9XVpvsBVam+/gUDKke0BKcehFNHRdZWUNYosnkY2wF7r4D9l8H4C7aIUp7R5UttBZanRdXq kM4oMkWmlls8+NhMTWn9pdLy0v/7jXv/+b5Z51b/4k9/u9HlDZ5KnvB/lQI8ZcG/8nVviUZmH1Pv +40//K7L9u5+3+DE8EvoCaF2ErnzS8Kh+1G1siKMIFeA3n4Y3w37r4Kd13bd5m6LfyawT/L3tgHl JaRUQYWhMDgK2aKqzC5w9y33Mj29dFeqkP39X/7Au//uwOvfKP/wd5+Kv10VQX2bCP+sgu/sf/Op L73pxnTz/bmXvvCFMjqRUTSF1aOKB+5EZk8JOFSYVqRS0DsAF1wBO18Akt38Tc9aATq5vP9BcCiJ hbgNqZz/4NVlWTn0sHrk3gebB0+tfWPs+lf83nd/z3d8bosCfNvkCOrbyOr1VsF/8jNf3pe/5fZf eOOY/c7sW2/oZ/81mqDg5eAaQjyjqJagVoZGDbJZGNgP+e0bgpbkfqrn4lIlUQJ1xnsS11BzM0Kt qly1TGNmmoXjJ9zR04urR6PxLxx4w2t+63WvecmxLQrgnm9voL7Fgpdz1O+dXQPqxf/+Vwr/ZWj7 971k5chPNi7bPlG45qq82n45ku5DoQTxB7AgDqwFZ0FrCNKggmcV559WOOiqHuS+21Anj0KtJq7Z UPV6jbU2LAbZ2n1HF6fV3ss+PhlV/+LDP/dztUT45/IGsuWefdO24HkCdLqtftP+U+/9zb2/ONTz gSuLjXenr967O/2S16bUjv1I2CMKpRBR/hMVKO2FrSMIUv6odJdw1DP08U/h387wKAFq8nHk2COo mVOKpXl0eU2CKFTR+EQqt3PXoK2Xr5RVO3zBZa88ds99N5e2KP9W45BvhZEG30IPoM7h8jvCD373 PR988ZsuHX7/gX09by9euGNIrr5eVN92IEIJCroE+4SIv3qG7r37c22yGyBM/u0sCtIdYmprqFNH YeYUqrQCpRXlKiWRQg+Fy69E5fM9Qat2abqyPHL5vqvmbz94z8xZhL7VM/6L9gDqHOjdJuHvuvDC 6Lbf+Pjr9u/q/fmd+4fe1HfFBRk5cKWo1KC3eFAo9RzF8Sc4VWXAtcDUoF2GVhlMHcK89yxn07ru 81ICJx5FTh5BVdagVkHWlpVr1JQdHFeZvfuFQjqd689fbuYXdr3oohcurtI6NT8//2SQt/qXqADq HBeybvFA8I0H7vveH3rDm94+ahrv2n7p2EtyV+xXMrBPlMqrdVeuvlWpSgyuCe0KVFdgdRFqdegb SvKKJ/E8YQCH70cdfgDWlqHZQJoNXHkNZ2Ls4JgKJnZJuV5TmcrqnvL03BUvvOTqmfFL9p1+8MEH 3ZO4fPUvSQHOZvXrCrB9+/bgrrvveOfP/9uf+/t4tbI0fOLUWwdfuPOC4MJ9SHpMlKS63P23ahOQ EHQGwrR3/42mTy77h0GlzhTB1kRQAQ/fAw/dBUuz0GxCq4mrVrErC1gd4IbGVWZ8h+SKORWWF0eO 3/vAS1/04msfm7j88ul77r7LPIV7+W2tAOoJjuvWf+MbXjd07bUv+Up9pfSn2x49/vbhl18wFuze h4RDoiT0Gb56HipU1SnzIkj1Qu8Y5COIG0AqEbrrUuct56g0PP4QPHAXTE1BvQmtNjaOseUKbmkO l85gx3YoN7pd0sW86m8u9hz50s2vuvhF196fGxuePXjwoH2aMPm3jQKos6TR6myu/5FHDsUX79mb G5taefOFr9k3rnftUERDQOjTO/U8g5TrMR2fF9z+v+GeL8OJB6G8AKFAvuAVZestmD4O/3wnHJuD GkgLbJxUquUKVtrYoXHsyHZcNq9IheSXJ3OH7njgpRPju+65+cH7Zp7BfX7eFeBcpd5Z4/6/+653 X/bSbdvfed3VY5cFF0wo8rsRlRK1Xt8/jwBlt1WLg9VpuOXv4ZF74PAD8I3b4I6vwH23wrGDsDgJ tZXklB1MnUAeugd1dBoqYNpgDRjrj05b7NAwdnSHstmCSCandD6rMtOP9a2uNA5sG9r1wMGZE4vf Khwn/CaGgLMK//0/8h8ufOMN1/z0VRcNXhtuL0LffkSlk/RK+LZqUJoY5k/D4gysLEF5FaplqDV8 1zjKQW8OinmfJwztBBWgwgi3pw8zvUa86rvRToFoYH4RdfwQ6sBVqJ4+pXN50bsvUv1XvoDGzV+5 Ljt84Kf73vdrH/2DP/iPj3adiTsbIP3t5gHUObL9deHfeOM7hj/wC+999yVXX/oD+YnxUIojQphD qS6pP9/uvzu5i1tw6E545BuwugT1qt+rdViNYaEOp0twZAl55BTqscegtgaXXAGveSNceSV21zhx McJkLTZoYRFs4HC9A7iR7dhsXlm0uFSK1NqCap86fqDX1ttv+MDPHvzHL3yh8c3OA8Ln0OrPmvED QaGXsFpC//Iv/Ny7d27f/rbCcG/awy5GUZ+HdBqC3i3u95sM5T6VHKC5Cqce972Gdhti4/dOt98C daCZmGSpheQWYGw7+s0/TKA0wdwUwWMPYSaPw+wULMxBvQ6ry6iZUxBEaJRicJTwxa+Q3rXVdCto /cDSP35l7r0/8eN/ft211xZ37tpR7O3t7cnn8wNf/erN//DeH39fi+eIahY+x8JfV4L+7QSrU6je fh2UVp1+6ODB/9abGjpQKOZGAVFiFOXjsHgaij2QG4dUAaIIdMqXXU9Wd39TvUAbVifh9HGo1ZIA 7rx3kC23PxGBAKbaQIug+0cglUYPjRNs30dQLuHWljFz0zB5HJYXkblJWJqDXBFVHMAOjav8NddK 49avDV/70+/892+48MLfFEAn6Ge73eLG19+4fP+D9132giuvWXgulOC5zgH0tgPoqIU+dQrV0x+F +/YfSP/1X/39rcuza0v9FxcvyhQib9y1FTj+MDTqUC5BYQWKvV4ZMv0QDIDKPB+S9/ez1YS5aVhZ 9NYvSRjWanNg05tvv7QMUilBo4ak0kgcI6kM9AVIJo/0DsHEHmT6FO7ef0Ju/QdEB7B9L2rbBRhR 9I0OcuR/fCLa84GfF60DFWiFDgK00rRa7YHhoaGZY8eOXnvBBfvvfT5DwFld/8yRDff/4Q/92vhb 3vLWu+bnZt2ll101mC/kcgKiWquKuYd9XE0noItJgBdRYB3kgXDb8yZ/2i1vne1WcoUB6AB0CIGB yEGE32Og3ZUIiQMnOMA5hzUxYgzOGh9ecgVkaBwZHMVWStgTp5BHH0b6h5CefhVms6JMKttYWol7 xkcipTRKKZRStOOWmltYlNGR4buXluZ/dGho9JPPxgs8aw8wvzD7UyJyA0hGRLJATsRlnXMZEdkz PTdN0AonQ6W3+7OMFeVpOPk42DaEoY+lHSBFBx6JC/PPT1GwHv/rPl4bA0EAQejPNUxByvj6LgYy Xn9FQMUJeVEczhrEWJxziAjWWkTE79YiQYDrH8KM7SI+cgpTiZHSLCo7ix0aUr2Xvpjy1GzYMzoi OkTp5LwymQyDA0Pq5OmTpQfuf+h1wJ89HzmAApibm/nhVtz6vVqlinOW2FrEGowzWGuw1mKsrb7g ihf3p/MZT+xcmoLD34DSiidwdOJq56gV6BzQ+zyWAW0oTcPyor/UIILQQpSClPMeyjifF8jmVkKQ 6I8Vh3UO17Vba7HWKwUoyPUi23YTp/4JU/NpBwpUqQIrC0TlBRW32y4MsyoINL09PZyemq586tOf Vs5JbyoV/e4NbwnVC640fORDz6w81M/0Fk3PTt7gnP1EtVwR6yzWGXAGJw6FJF1babcqqXoqnckD SFwSZh+DmdPetVq7QeYQ8XsYQSqz0V17PrZmw7v/8pq3/lTan1M6D5kcpHP+mE1BFsiCyiYMtGIK Cr1ImMKJ6xI46x7AWYsFXL6AjG7DZrMY6QKLmi1YmhM9N4mpNxVa4cSCwv3d5z5bXCuX8qI4/eu/ +lvfKAyM6Nu+jvqxX35mvvIZKcBaaeVKrfSXK9WKqG7gVoFSsh4MjZG5q666fCAKAw2gZk4ojj0M lTXvWk0b4tiXViZh9wQFXxI+Z6WubKToT3Vr1H3yF8c+5ocRRBlIZyGT98TTfBHyechnIK+gAKoA ko1wSuNMjEuE37F8EVl/7ZyDKEL19iOFHowobHILsCCVkpL5aSqPP6b8m0Kluqbf+553ohSq3a78 l+/7qaFUkGrri67arf7kw88sDDwTIEiNjo38d0Ft33fBXhQqdGLEWKMEh0P8VYilUooWLr98/7DW GonLoh68zSvAGXE18q8zWSiOQ7rvOYr/spGfKgNSgvYKNNagsQLVJd/2tXVIhb70BJg/Bo89AHNT 3kN1Qxs6yVO07koMFaIEpR3092CvuBZz8QsxUQprDMYk4bDraKzFGkNcLtF89EHiqRXEiv/YMNkz WZGefhWNbyeTzyFKQAl7d+3kP/zRv/3+yw4Udai0rJXqbnBblu/9/iZ33PrNU4D1Oj9fyJ+85957 f+LOu2531plG/0B/PDw8LEoRtNsthQiCSCG7o2d8vE8rpZQ6dp/iodthaT7h7oUbx44y9PRCzxhE hecABEr+fr1SrkG8CJV5WJnxGP7cCZg94fOS1cTl11ehmQA/zoEVcJIIPKn/1IYiiPbnrpRCAsEN jWKvuBZ74ZWYIMLE8SbhryuAsVhrMI06rRNHiY9PQezW9UtFCpWKlMoXqef7pG9iXCntEBy9Pb18 1w031e+4/1MP5Io5ckUtA/05d/hgjZNH3NOikgXPJPk7fOjRmcsvv/T7s7nscLvdSi0uzqV7e3t0 KpXSsWnhcPQV+9SuHXuDVDpQyrWEr39e8fhB71aDaMOKgsDvYQQj49A37nvyz5XwFT49d6tQL8Fa GVZXYHkZlha9Qs7OwImjMPW4915ju2HHARiegIFh7+6LvZDOJNJJQE6tUTpEBQGoABdGmOEJzGUv xuy5GKs0Jo4TgW/scRxjbKIEcUw8cxrz2GOopvW6lTgjFYWQK4retktNV+uMjg2htODESi7b++qV 1ZW/ml86UVNoG7djVy2H8tI3Nzn49fWb8JxVAZuyy1d9p1JW3Ifjdut/xnGbfD7P9h3b9dLSAkop Aq1FuXSr2BNlAOT0g0qdOgxrq5BKebSv3SX4MIJcHrJ9Pgd4xsbfEXwXRYuO8NegXIZqBRqNBNq1 0DYef2g1fMsliKB3GHpGYWQPXHY9LE/5pHBuEuanYXEOlheQtRVUrQKVMk6nsHEb2zeAyeZ8FbAl B+hYv3POJ4LO4YIQ3dOHTvlkaj2FcoIYg2rVlauWyA2N06zHzWwxzCgtykpbXvfyd/7+pz73mbdc feVoKsgqu/eqovvTD626c8nt2XiATc0eawjv/vqjD19+5SU/F4ZB+OY3v1nFJkacQRAK+aJaXSiF Ezt2+D948FZ45F6olhImb9J2DXQCGWno6YHxS70SPCP3LxvETX8HgQa4Fe/W11ahVIJKGao1D+/W ax7xazW9mx8c82Nko7s8y7hzGrkeGNoGuw/4f997MTK2A9XbD4UeJJXBpjLYVBYzOIbdcxF2dAIr irgrBJwRBqzFtBrYxQXk8H3oskGrxPrTCpWOkFwBNThCuG2Co6dOhjt3jYnHhJQKwnDikn2XPHL0 5J0nlMKuTLfc8AVFOX249pRvYPg0Yj8AfcOo2OlgbA/ZZrP28ZGRA784NDTA8spGCzuTKa696Nor +taL48mTHu5tt70CBB33nyhDEEGU9cdnvTlfx1MHW4Vq1VcdpTKUK4nwq36QpFWHVstXISLe1Q9M +J7EWXVMQ5SH0QIMboM9lyLVNdzqMm5+FjdzCmm3cIBdXsJE6XVusTN2kyfoeAHnBJfJEWQCJEru dpAAUoJXzrUVbL1B4ArELVNO58JepRyKQPbuuPKD//BP85+/6VVjYf+2IO6therAL6I+8VtPrU8Q PC0FSKELWULrwpxY1XPfXY+e/O2P/PpbtSLrxCJAKkrJ6SMnl3bvHO+VICVMHULd+b8Vs5O+v95N p+rE0kwWLroKRvf6wY5nspKLKFBNoAK2DM2qt/ZyR/AlrwzVqi/zGnUfClotj0mIg4l9sPsSb/Fb baiLoCqA0gGSySKFXmxxADs4ghkaw7Ra2BNHMEcPEs/PYKoVTKvprd4JRgTjHLF1xNZiTIyUluDg vVBuooKkD5bWqHQalc5CT78wtp1UsUdNLp1amNg21qsUCTyoel929RX3H5r82+O9+V4nGXHHHg7l Nd+peMXrjbr71icOAU8LCczl0a2YVBBITsQN3vCGl1yyY8f2gdXVJRTe9eZyOZW+944eysdR23Yq 0mmY2ONv8vy0t7p27Huo0kUbGJqAVP4ZhP1OvHcQr3lGb7vlwZxaLenh1xLB17zQGw1otqAVe6/U akIq65G+IOjKH84cBBERVOdnlAdwggCTzWNFYYOQePYU8eRx7wEyeUwmR5wrekXpHcTkith0Fhel cNb6649S67RDQlBBUmkAErcUjQbpwYBTp02viIAWFI4wCmTb8MV/9OPf9dm/szb+wm2P/cYXPvGh b9RvBblVhnn/BxfVBercSvB0FEAFikCjUyKSbzZd30+/7wPfW6/X/M3SgBWk2lgYPPTgCKsPw96L 4fVvhRu+D1pVWDgJc6c8yFJa3gCEsjlI9fkb8XTDf+d341WornoMv9X2SV2j7oXfqPkefKORxPyW F3xnt0C+D4p9PiE9RxXVLXzn3Bl1vTFtTKOGqVQwa2u+zLMWax0W5XGBdA6byWFzPbj+YVz/kE9M C31QXPXGESalgE5CZNyGRhUtQkCud35hbmFiYmxERNBKVH9/sWja8o445gdvvOIjvPZOOaRV+Hm5 S3/+guuuv+3ZeID1uxBlUVqhldYR4jKtGuE111zzHfV6ef2XAq2Y+cZDazuqyyOU00K7rRjbA7kB /ws7L4TqWkKrKvuf12Y8wTLbt/kbn8okb/fv1Ev+Rjab3gO0mt4LNJobFt9sJcKP/R4nuwpgYARG d3ik76xftVn4WxM7Yyym2SAul7DNBjZpANm4jWm3Ma021sReIZxgdIjNF6FvCMn3wMQeVN+g75E0 6x6D6OAjxkC1gjOxZLKROnby8ZVtE6MjKAtKPIKeilQqkyIgjTFySbsVX2KM+YWv33kLOtB/fN2L X/HuZ+UBRsZQzgTKicJYzU/+zA/u01qlBI9OKQStQ6mfeNz2Bg6ijGJgBHJ9XRVaCoojfl9voJSg NAcr0x5uzRcg2+OFci5hd7tlEd9Fqde8sNttL+RNe7tL4CaBoTu7hXQyVj4w5s9hi+D9V222/O7d J3YGU6tiS6uYRs0rgFJYHWCCABuGGOewSe3v4jquvIYszqFGJ+BlN0L/kDeM0kpSoTTAxKgwBc4h cVvlc2lWqtY6Z9DaDxiLdkkbWmEFFCHpTJqMy6ELAXML0+/69Ff/13vefsM75BkpwEvfhK4vQbuR lXZsXK3ebL3tbW+/pt1qJMmqoIAoFSjmZ6Ji4HzzZHTCJ+V6a0ztGrOOeqE9CQ9+3TeFxnfC2B4o jPq4mM4kDKEnoIvVF7zVdChbnb1tfOIZ2w1hW7txtNZ/VioDuaKvRLqUbVO8Txo5ZxN+HMdYE2Mr JUx5FduoJ0mfbxoa0RiUB4Z0gA0inICYGGWTc+vpg137EK0Tpa37aqVeQbXbkEojzTppbbF1HVnn 0GGn6nGIUjjxGIhSGsT5+XMrRFGKYTv8I8AnnpEC3PE55OVv7NMHH1lzayeofPW2v/3O3bv2/Ctj 2z75SqxEa01UKmfRFkmlUcMTXUFEnRufmJuCU8d8aJg6Bf2HYXAExrb7ZV7y4wl6qBOYbMucXrXq hW09EcO3l20C5SYCtZ3dbewivhQt9kFPv3e3iWfZKvytbn+T8K0lbrex5RK2WvYufz3rd97lA0ap xCuoBEJOcIsg8viVDlDpjFfIQhH6BsEYxFpo1FAr80TGous2tzE45TwM7SxIgMIh4q+tc5dzuaJU a9V3PV0F2ORv/+gjX9nb0zP4/jAMf8xKOzJxU1AuqYzEr5aBEJQqeUKLitLQO8hTGnWbn/Lx2xgf v6sVL8h6HeZm/c0o9kHfAPSPQqbPj3F1vEIQenQxNkkrbb2Y3oAGNq3N0VESPODTNwQDoxBGG+jx FuGbLU2dM5Sg2cKUVomrVUy7TWwMBnwC6JK47wQrvnpAd8bYNaSiDeXrnBsKFaaQMOVfxwYqZYJ6 iaCZyTtrUQRecURQSnDivCJYjzaK04hDRJQKguDar995a+Fl172y+pQ9wB9/5j8Gb7z+J96jtPop cBc6MVgX45xBlEuGN6VrpEoR1qs5crG/sEzuSdRLPGAzOwmlNT9cGUagGz4HUIG/eBP75K605hUi k/UKMTgGuWEY2gf9VV9ZrCx6/r4xbF5cTJ2JF6H8Z/UP+c+KUmfE/27k7gk9QKuBWV3EVNYw7Zbv AjqHseJhYWMQ67yDorsu0xtweHKOSp1lBF082SaIDarRzBvbApXHSTJKpQKWFudlamqpgaTaNlbO WQJnJQMqCLR2hWLxGuCWJ1WAUnk1aDVbnwV1Uwf7cInFOPEWr9bH4mXdCyCOoF1LEcV+EY8nQ/ac g7nTnhvYqoNNJe4wKX8kYd3Exid3URpSNU/QiNsesMkluURYgP4s9E6AafhW79wMLM6CW/Tcg6ZO vEHiCpSGbB5yvZDOeRfcZfXdbv8JlcAYbL2GXV7ElEuYVpPYOYwI1jpv+c5hnEOcJC7aJWlMxy0F m7CGMyhqIkm+0KbdaIfGJZ5OJXaIJpXKqE996v/L9fUM59KpHNlUhkwuSzaTlWw2841f/g/vueUp hQBjzW5Bbspm0v4mOKuU6xqbkg3yh/h1O0CBFYNSMbRbKOuefIkL57yAqmVfsoVJ790l2VOnTGu1 kiZS2rvKVHpDUbpdig690YeRB3YKo7DrElidh4Upz/JdmIXleV8VKPEuNpNDab0u/G7Idmsjp3Nc x/itxcYGUy0TL80nHqC57vI7SmBdwgd0SdxOlACV9ucQ6jMtv2P9HUWI2xC3EYnX8tmeAUgMUXxO pFSAqIDOcgqSFEkKpdbK5e8uFAqqWq3KkyqAJtiutetySZ1drcdH1VmzQSDpTvgbkk5DbQniFsrY J+naOd9Zq1ah3oDIeBdjjRd8u+VLoSjj3XOU8kJOZ6DQ6+P+ubABHUEmShg8RY/d765BaQnmppHZ 06iVJVQm63sAgHPisXvnMNbitjRwtlr/+r+ZmLiyhllewFTKmFYrsXrB4I9OBEkSVCVdCUmigISp s1rKeq3jLBJ75LKtm7OBCgZETLJcUpL5o7FxAjwZhwu90jUa9Y997KO/t5zI29I1ahae3TDthE7q cC9s7Wt95b8MpVGSECSUQ4lCK4WIQ8YmMI+eRDkhSLT3DHCvM/AhzltkreI9gEmGL+I2RC0IG17I Udofw8grQDbnuQNR+tys3m5lCCLI9/p9aBzZthe1ugzzk8jsaViY9Tetfxjb0+/ROqWxLsngnY/h NmHxrHsC62t602xglhYwCQZg2u2k/PN/7zpuXWTD4/vgjaRB5XIQhV6Y5+p2GINq+ba16ZFVpTu3 1dfZIlCt1X2BYy3WCtY6cc7V/uvv/v4fAH1A1WPwG6Mt4TlQrx1BEKCUToi6PscHjSJA43B4rfO/ 472FIBSveiHNg7cSiCbbAVHOVQC0GzA/47P+VtNbvo0TllCYsHE7nLzQW7XWUOjxOUGYemoU70QZ BO+pVLYA2QJOa2TqFPaR+3ym3jvoR7f7h7D5Hg/ZZgvYdNbX8R133gkHxvj4X61i5mYw5TVMq4lp G4wojBOf9CXOVHUvDtfBR5z1HiBhFW0tk9evwBikVYdWg8LenVZpv1waon1S6YR6pe7zNAcOhw61 uuvrd38c2AvMsjHQ1jmeXQEymcx2SRKUINAYayqtVstUa+Vsq9UgjhvtbD6bLRZzkeAS4EFQaNJX XUHjTyyRMaRjs56Hd9fV63pdK/kcoFL2mX6HHRR0uHbBBhwaBBtzYQ0SlQAAIABJREFUAzr0dy8I nwQp7vrOJHxJRxmadezaCnZxHnPyKFIte8QulcFm89hCr1eIgRFs/wi22IdJ57DpDDYIsSppBMUx plrGzk0Sl1axTYOxYJyP9wmfc0P4dDlhDcoYJJVdV4AzHnCUYBLeM8aouM2OSy8b1VpjRTwXUcCJ pVKrNJYWZ0+XV9da4oK6s27tgX9+oARsx6921QBayc8OX0yfuX30Yx+dnpmaqZSrZaOUKhR68sX+ 3l56e3so9BYo5HOZXbu2c9GFF6GVQ0hORAns2UWpOESx3SJux6QSIait3TRnveBXln3HzrnNNDGt EtJlEmqSzhhh5Ov2bAFU+gmFrs6SVQtg223s6jJu8gRm5hSuXMLFLSwa02h4xWDKhwEdeA9Q7MP2 jWCGRnF9g9h8LyZfxAjY1UXM4gymVsbEybhABx+zm3EIkYSrYjvNeO2vRYdbYGfVzWkGZ1BxmxWp n7xkzxUXWTz5BvHWbg1Mnjo5e/LEkUdtS8WNlrTF0gBGEoGXgBWg3M0GP5sCqF/5Tx/6ze/53u/+ SWBbPp9X6ShDEIYoHaCTjLNUqhIGkY/7CR7gOQFCdMNNtKaO045bBMYQRNGZQrHO06maNZ/lO3em sJVKFCF5X5yP+8J60+aMVSk6FrNFKTrZvRPBxQlqd/oY7vFHsKuLWK1xUdpbtw6wAsYarG1hS2vY uWkMh7FRynf18j3YwTFssRfTbmMrFYwKsEkRQ6IEym44XU/t77JwBUQa1T8AUQrZUgWISIJ6W2j7 5tbS/qGT2Uxut9D2H6zweRmWx48dKUWhFhfjAo2z1jeO8Y3mdLKH3RON4Vmis9ZapZaXlt8+NDx0 W6fRYU2H2+ZwRqhUq1gLSoUoLSiX1LU45KbvJP7d36HV8goQKkUYBGjdVbaJ84lfp8a3bqP9ea7E QZxPAJU+Z9duczLrztxFcO0YW6ti56ZxUyewjRo2ncUaiwtT2DDy1u873JggxIqP+bbVxMRtrDmN OXbYh4oLLsVceR123+WwMA1Tx5HZGShbPz5mzjGtEIDu6fONqCg8e7ks4pPjSgnqJfa8/t/s1KE3 NnAJFueT3cOHDy4GgaqiqSslDRQthFqS/LUTX7QJFQvPMiiSck7yN3/1lqk3vummz0ZB9OZO4uOV wEObKUmxtLTM8PBgouqhrzsR7LZtyKtfT7taRZdKpHMZXJQiiCJ0GBEohTJmg6QZJ9n/1jVCRDam cgFxNiERJSijJPlHl5WfTfDr1u+cp2u1kqXbVpcwqys40/aUrbTDRBYXGu8JUH4X8Qs7oDy8i8JY 5yuATB7XM4Ddd5m34kYNKa3A0ixqbtpjD7MzMLeAWt3IAS0gOiToGybM5NbBL3WWLqS0mrCyyPEB e8fr9171UiFGMAmgpBERSqW19uPHJ+dTqWg1aLklpakkMb+RKMAyUEtGWc9aBnYA9ExSMox//nNf +Iu3ff/bbrLWBNZatV4PGw9pzi/MMzoyiigPbGjlT8gpR3j9q6h+4QvEh+6nPbGT1Mg2oqFRor5B XL6AajbRSV2rEg6+0qprGkw2MqgOcGeBlCBRFskWklJqQ8jro1dns/yO9ZsYtzSPOX0MNz+Nq5V9 ySQJDmAttqMAKsRp7YWeoHnWiY/7SvukMd+LDAz7yiSVgUIPanAEduxF6lWorEJpFbUwA7NzyMw0 dvoEZilGCsDgKGEqva4AG+HLBwvlnP+cxWnG3/49fToF1sUeGk6IsM62OXT4ocnevqARN9VClFKT JlbLNpaqdbSSxK/m+XI0uyqBMxRAJwrQC4wBO+6/7/7PvuaGV363UpowDEilUgRBSLPRaD/yyMHW 5ZddWdA6UIJDnENp5ynNxSyumKP0mU8SDY+RGd1GenQbqfHtpMZ3EOYLBEtzvpTUgVcAa1FuY4xL daG20imdojRS7IdsIXnOz4YCdCtCN5S7/loE125iF+dwjz+COXEEV3E4DZaGVwDjsFEKG4Y4Hfl+ vgLrEk+Q9PSNE2w6g/QPexcehIlzTZLYKI3KFWBgGDEG2XcZqlZCrSwSzJyGuWlMo4ERhTz+CMHo dnRPPyqTRUfJ3ATadwLrVR4vlv/p9Ze/7BVO2ggxonwrW6GxTnjggbunw0jVnVUrmYyaFafmbKwq zkhbfBAySRhoP5EChEmiUEi8wMDRI0cX2+3WVxqNpi2XSnGz2XLrFFGICvn8JW+66S3jFuuFKRql fEsy9R3fwdoffYTg1DFMLke72EN6YIj06Dip4TGiVAq992LU8ARqdRG1PIeqlKAdo5JCRdjInlFA Jov09CNRsvhC19h1t8vvdvvdCmCbLdzqMnbqJG5yGlsHF4FDsNLEWfEATxjhtPHMHZWEggQltNZ/ lkQppH8IsnlUJ79Z7+Z1klLtE9d0Bop9qJHtBHsuRi0vEB/6Z+r3/BP20HHC0X6isTHC4VHCwSHC viFUoQ8lQrs0tXDZD/3olTpwCLEPQkmCKAhaBfKjP/Izr0in+mc/89efvaeYSZWCMFgxxlVMi9jK eh3iuvYzWMGdbLEIDAKjQD+QL62VWrVarWmMbQOiNSqMCFJZwgcO3lv/yZ/4ue3WJqElaQ37PndA tG0PtX/8omflNCq4tWVkdsq3gMMU8vI34C69BhnfiesbxvUN4np6sakoUVPfTeu09u22cdxVL8Xs v8wLZQtUu3UMaxN8ax22WsIcO4S9/y7s0VmMAav87s3EeUsXR2yFOBG4SZA/Y61f6AGF9A7Avkth ZAIVRmfF8ju1vS8NkhI1DLH1Ks3DB6ne9g0asyu0Tk7TnjyKOX0Ke+o0MjMJq3Poaom1ve1/vvTy 6/ajWkrEJmFCENEJByBSoc7IlZe/5LLrXnx9/o//n89+dttEqqIjVzMNidvxejHqtlLEw3Mgj13k eqIkbpB0MbUosigKWiGnTiypO+66de2qq67uVUorRCeeQBDliF7xSorveCf1v/gEsQCxRbXqKBOj djZxuy9Gbd+FituoahlVLcHKPEyeQJ06AnOTyOoSlFaQZgPpGYQog7RjRJS38E4SmHTa3JawsB4G rPXWPzuJXVzCtf3ybdYl/JG4M9ffwlmH0Q6rNUZrRGnWo5MIkglRhR6PSXS1cjeheGdr6yqFtGPi pVmap04St5MiQcCsOszqEjFLxDxKdhDmv/eqW171sg+/SohxztIxZkkgdUWynrYopVXEnt0Hbrz9 tq/8w+e++OlX//Vf/slatb5pibkn5QQms1TUkqxRdQEHLmGhaOUXcBkRh2RzRL/66//u+D987rYX NpoW0RacTtAOjVNC/n0/RXz6OOauWwiUYDXEyYxdKA6tIygWUL2DPgk0MVxWh8oqanEOmZ+GmZPI 3JTPAdptZG4ayRaQVAoJI++SN9X8bl0ZRCSJ/y3s6hJ2bhK3suSXJYiS9R6MVwYHGAHnYqyyOO3B IEmaLZIsYqEyeWRkAtU34N2/Ojt9cSunUABpNzGLc7Tnp9cXR+l+xFgHOlje1//AS3/kl16lQ8FK nMDZkoyQaQSNOA3OK4GzoAgIw3DPd930gyffdOP33Xj9S2/40hONioVbhN+BC1eTX64kHkB13IfW hEpTUIoGilArsvff/2j5a7d+aeW6l1zfr9BKaU9NUs76jq2Dvg/9Fqs/8y7sYw/7fxOB2OKqVVSj jnIOrfUGkJPKeJJm75BfQOmSF+JWlpAjB+HoI8jkCWRkGzI64dfWyeSQlOfaS/IZrisxtM7hmk3c 6gpucR5XrXvX33Xh1vrCwiXIq9MOqxxoz7mjU6XoNFLohZEJSGcTsKYjdeFc3HZJylpXWiWePk28 VO4eYN9EXGruTPPCj370wkIhJ05aCuWSZxQprwKi/e4CRAJwOkk/kvYsWoIg9b/vvvfrv/eSF73s Z7bo2VNSgGaSEOpuRFIHpJSmV2tEQRGhN52h8Ev/8b3H7/jakWvEWEQcWgWIBu2cxwcyWfp+/fdZ +6X3Yo8c8lTCZhNTKRO0236FTcXZe+JRxvf3gwg58hA89qD3CtksrtCH6xtChsaQbXuQid1I/yAu 5bEHCSKsCnwu0agj5TVcpYIxHojpKIFjQ/A2wak6MyvSWSDaJueWS8HAEGpw2Hcptyxpr85FZ1cK iWPi5Xni2Xmod1zrZvNsT6R5wcd/Q4YGhjJWYoVyyS/ppImoEReAJMK32vcRk+CddB8T2pF7/133 3P7aVqvxile+/LXLT6YANqkZk8nKdWLdugKogLTWxMrnAfMOxrRhYGam3J6Zn24PDg6mNAFWCTpR RqcELRrpH6L/t/+E0q+8n/bhh9CtJkG1jInbqISNswkt3ARRBUhsoNVCKmVkcd7Xwso3cCSbRYp9 SO8g0jeEGxj2SjE0ih0YR3IF3NoSbmkeV6v6tmmQuH3dBc50EvkO1yHRDo83JcBqvsePjvcO+BK2 My62RfhbiaVohTQbmLlJzNxsUsZtKIEC4v25x6/9w4+NjIxNFJ20leAgsXqVsH6dS9aokwAlwXoo kISlJ84l5bMnpYRhdEk2m/9h4KNPJQfo6lWd8W+6bTH5gBCh5BRrzrFYaTBw5+23vWx0ZCIlYvx6 Ck5wyboxWuPbyQ7oGaD/d/6M0kf+E7VDDxAuL6DrNZQKNsgmZ7MgrZFWC2kmbWOtEeMHLMX4JVzd yiKijuNSGSRfxOV7kUIBNzCCGxzHRRFuYRpnDC6VCF66iMRbyAsiW54gI0BaQ18fDI95GlmHrtUF 4qgOTWvrdViHWVkinjqBXV3ZhMlqoPmy4Ttf+7E/eFEulwucxEkTfj3Jw6EJVUQqXaDVanmKmfXc SbE+NewcQSW9BCEMg/hFV1/30ac6GLL1kWabLoEIIk2zLdTEUWlUWL733juuv+CCA3lwOPEno5Sg xT9bzyFolXiDhLJV/IXfJPjb/8XqwhxBtYoK05saRmfcvIQvL60WYj2VSzodNOcQa32WbAwSV3D1 Km5xDkHhUmmk2IfduR83sg259EW44W24tRWolnCVZGDUyEb71nH2Z5zl8j72D42uj5F1hC/rirA5 CVTJMKy025j5KeKZOVxtS2b2zqu/9saf+rVX69DiJPZEG/BWjY/3WkIGB3ZSyA44UdBoVPXK6jL1 RjNRko0GEuJZwqkoIgijDz2VJPCpbTWsGiF2NRrNGksPPHjfb+7atWc00DpZ6U381LfDL5aEpeM9 XTI/2PF7+X/9DvTRx1is15BmHh0EmxSgu6untPbW3469tQYpH6BEPBoY2MT1OcQ6xBmcsThxuGod ace4sZ3I2E5kdDuuVvXcwLVFX2auLiXjask0cb1BwuHeyI4iYHAYxndBz4DvVHb1IDaEL11UPrVe QdvyKmb6OHZhGUkaRK4nmB/77Z88/oLr3/hqK02P8ScQr0jCvJIAJSH5fB/GOvPf/+TjenR4m77i shfIrl17RClRK2srqlSqSNu0VGdwRpyQSqV44ZXX/OenkgQ+9UW02thmjdWjRx/9xPDwyMVhGOGc b3BrLRvwrfblinIOpwXtFGivmb5K1GQPXMhE27CyWqJUrpyRCK7HUKU8KwZ87zyMkmy4Q7bslH0W CRxiQ5zuYAHW5weFZAB0aBSGxv3TxJsNzzssr0FlDbW8APPTyMoCqpGsDl5rQLUJ2RBGJpDhcVQq vTk2dgn/rC612SCePk77+OPYVT9P2X79nttf/sGPXJLP5681roWI9QtBCeuzDS7J8MMgTaPRNl/4 /BeZmpzVq8tlpian1bZtE2r/vgtl3wX73fDAKLValaXVZVWrViWKQqVQH3vOxsM7pWpzjcbs7NSf ZjLZV6fTKaz1rs/POgQ4USitCJJAIsqhcb4qEIeygS+vOhTUVMTgcD/ZXI6FhXna7faZCqC1d/Uq 8CzaoKMAPkuXIAGCXOIJtPOK4Kz/28FRGBrxS7058WMH6WTNPwUyOJoQUZtQr6KqZaS0ilqa85NL C1Me7x8c8eRUEyft6/W2TeL2t+QC+KTMrizSevRB4lNTNAcyR/f8t19cvujqV1/ftnWMayfjXUki Iirp8gWIaEmFGbW8vNheXikH99x9v+7r7cdaITaWhYVFarW6OnnqBNu371C7d+11u3fudXHclpWV xfBXPvirv5UgvOZsYf0ZeYDl5cXfV1p/XyaTxbmECdTJZUV7HgeCSOiJIhqc61S6AWhH4DS+svVU cK0Ccvk0O3ftpFyqMjs7hbWyOQdo+rV9xLp1tpDnV3oP4MfUQzrEOLECzvj1+PqGYHgCKfRuUMDX QRVfZZAOkHQWVeyDIQtxC2k1oO7Hspg6Ca0m6sSjSL3iJ5/SaT9bEGW61hZgcybZbGBPH6Nx6pGF 3Hveeuhlb3n3q6xr7GvGdVTS9HBJriDSqT0DcFpSUYapqanYmSB181dvNVpHvjNpE7ArQTobjYY6 PXmK5eUlPTw8zNjYNiYnJz/5N5/5mwg/PdFMQD77rBSgXFn7NRvb9+Vy+UT4ifZ7R+gnVZ1CCFDJ 6JhOkEErXklUoD2o4UAnFFO0QksAytLbl6en9yLWVsrMzE1i4qQOiw0JCyXpvnWha0FCt5YuHkHg /I1MZ/3wZU+fb8o8wdh5Z2ZHBQEEOSSd9d0+HcCRg/DwvX5yt7ffj5T3DcHEbti22ytENuvnIoMI 0RpxhubKqWl2ZY6+7I8/+3LjWq9sx01EGZWAq+uLTfgEVCOi0QSko4wcfvRRZ00QLS4u2tWlahiE 2hNXrMOZhHXsZBPvoVQuycLS0tQ73v5v/hqYABYTSlhty5Dc01eAWr3+pmKhB61VkugkCYvyaJin kCceQIMWweCo1avullu+rK666mo1Pr4TrTUGA04ntuI6AQGnHco5evsL9A1cRLlUZ2FpgVpljY3F GjuLTemNmyhdPAKXLNwYBF3Cz21Y6dZx1XMphYinrE2dgMcPwuklqIMKmpCah4yGwtehr9/zAgZH YXgbjE5Q6dMPDuzYXbnw1W+6vtmubWu0Gkopg2B9lpwkahuMJ1/ypVNZWq2WveeBb6hAp4IwdPGn /u437h7IX753oGf7Nk8SsmKdU90rjzrrEBFx4tw7/82P/SVwAJhJ5Ky6GkLmGSvAFS940cvvvO2W xYltE6HWwcYTHcSDKh1IRGtNux1jjHE33/JV98/33x8U8kX1xS/9urvpDTepN970FmWb1pNAXMcv ecXUKEQFBIHFOUWhmKNQ3E1rbIxKKmR+9jh2djoRptrEpPHWrxO/7pIl6Hr8+r3ppNSU9XbKkysA 4uf1H38YZle8DRmQWFAN62lfSzEEDVSwQGvb6dP6u288vvfVrx1L53uvbDTrVOslT9yTBBXtfJVL FHhdB0Ip5gscOXrUnDh2OszliugI96d/8Yu3VdYqdm7qjoONGg/u2XnJ9ksuvmpvsVjIO2fFJYog CFEUqQ//yn/+arvd7u+CGDoAX4cVbJ/uMnHrW71SaZ2Ynnnota959fdlsznZ9LwfAR0onLFineWO O++wf/4//1wtLi4G6VRaBYGW3p4ee/PNXw8eeOBe85KXvFiiKK2V7lpruGMNSV7R4ViAf2hCdmyM 4Ve9gb4rriEzOEK7ntTx6+NLHc+AL9OiyLvqid0wMIw6ywDo2crO9a1Zh6MPo+67BabXkNbGSnQd lW3uHz0U/tD3PLLzQ79Tnfih9+7PH7hqVyxuOI5bPkFFkgeN+P5Eh+AgHchZFJlUnkBrd+vXbpPZ mcUwHWVB2fhTf//B25YXq7ZZ9wuQ2RgzP7e4fN+9Bw9PTZ6cLRR7wrGxsb4oCkmn0/zjF7906Gs3 3zrTheJ2hF9JQkCzOyF8xstxvu0dP/ipT/zh739PKpXRIqKSDpxYG6vDjx42n/7LT9NsNsNMJi2p VEpFUUQQBKTTaR597FBcqzYjY2P33f/6zfEbbrwpjGMXiE2WWJfNFC8RP1TpEqDbicM52eiL1+u0 Tx6jdvIoa0ceojU95aeJER//d10Il77Ql29htME0Qs7k33cXzM54Xt8tf4/ccTtq0SLZTFldvv9E +vprV/tfdkOmd+8l+1txc7DVqmPFJjMSZ8fWpIMwSeL+xZFOpykUCu7uu++2Dz98OMznimQyOeVo VD//td++o7aGbtSQZh3TbtKK2zRNTMvExNagrB+9iF5/43dcfODAgaGP/9f/dm/i2U3CBVwAjgNH gJNJPtBRgmekADr5gux73ve+Qx/7nd8aD8MUzWZdLS4uxJ/8H38mx44dSxUKBUmlUiqViogiv4dh SBCE0o4b9tAjj4Vaa9LpNL19+fjtb3+ruejAC7Ltdkucc6qDZ3crA+KSho0PZR0l6GYECUKgA8/t X1igXV6j7iz1QoE4THtsxyVVi2xYvj/6frsoOyPKLYW2Vcs0a+2CCsmO7cllB8fGDLKj3W5Jy7SU c3adlHrmOhhn4wJs5F9KQU9vL6dOP9b4xy/eHClSYS6bIZPJU2/PzN16758/0KoRNutIo4aJWzTj FhUTUzKGqrW0xKCcI+0ggyOblHuZrvZCFZgDjgFHgdPJbMB6GFDPVPhAb7637/p/90u/+Mmffu97 wk/8+Z/FX/7yl1O9vb0qlUqtCz2KIlKpiDCMiKKQMAgllyuohw7eU280JJdKReRyWYnClNq5Z7z9 ute+VibG9qTbcVskiW0OSR7BsuUo3VzAJK6vv9chh8i6C9ZKJSWgWqdwdf5vnUkKCJfw/mJPCrH+ uHm08SzLzz/pnZRNixM455gY3+Y++OFf1/lcRtKZLNlsUS2V73304GP/dDJuEq5bfouGbVMyhmVr WHCWFWOoO7+8fM45CgmTq5CUfOnkC6tJEng82WeSUNDunNDTXS08Sj68FxiNW83M/Q8e5M6777h4 dnYmHaUipbUmSGYANu+KKIgQnL393s88/Ojk1x7pyQ4W01FfIQhD0ulIxW2rHzt8NJycfrw5MNxj +nqGoo7gupcFUp3Er/OzVujuubpkoFVrD0h10oMOKOOkM+sQE9uY2LQwJsbYGGNinPUPvpCEwqUC 7T9Hd743GeVOcodO3qK62zuyVeyqq/pcn6tUcWyYm1sgCEM5Of+5e46ffmix1SRsVpFWk9i0aJiY krUsimNahNMiTIkwh7DioIRQSYSdPMSOehLvV4H5RPCLifBb5+IEPpnwg0T4PQlfcDuws1mv2aaV /p3bx0cQP1XilWBD+EEQSCaTUYcfe/D4X/3dn9xbKs83tCaotk7Piy5VevO7R4IgVFEUqiiVwloJ Tp+ajaZnj7cLxYIMDg4RhWmltRZxPt+gW/hd41TrSqE6IkmUozPSrtVGs6nzN3iB6o5AVddrrZOj f19rtf5aq66f9db3tP/b7j0Zpu0YhLXC2Ng4t97+98unVv72juWVUtysoVp1bKtJHLeoG8Oas8yL MIXjNIopFTCvHSuiKNuYSiLYarJ3Xq8BS0kOsJi8bnQzgp+OAnRcfz4hjG4DdibH4fLq6qoKU8Nj o8M9ncWiOoJPpVJqbW1t5dN/9cmvHTr8yGQQJOsW+G6bbplSa6X+wMl8bjBdyI4Vw1BJEIQqlYoQ p/XC4kJwavKE1YGNh4YGpNjTH0RRJNZa5ZzbsERUl1WyScjr/+kNZVgXtlZd/YetyqDXj93vbSiF Th4foNHKA1Na602K0L37z+g8ASxARBgb3cbnbv7Ve5YXW6pVg2YD02rSNm2qxrDqLHMiTKGY1Jop rVnUirVcgVq5QgNHc4vVVxMa31riAZaTY71rOohnogCpJMYMJ+jStuTnHiC7+P+3d20xdl1n+fvX Ze8zZ+4Xj2c8vsWOJ6mVNrFLCBBaQZ1WqkRLQPAAohJSXxCqoFIBIUHFCxIqpSlURFRF6gulJYUo TWhCGlISkjh2bKeOk/E4ju1x7JkzF8+c25zrPnuv9fOw156zZzKh+DaOxSxpy0dnzsw+3v+3/vv/ rYWF2aHh4dGurs6MEPEMARHMSy+9+PJzz/7XUWPCqpBoCFrxQJkZxHHnmMgvX1isBOcWt/SND2b8 Ti2lZKUkKaWghBaVak3lZmdlpZZv7RjbJYgEtcJW+9zG5GCQNQBYdblPp4WavoRY/dm1WoVIrLzP BEiS6Mx2Y2R4BMNbhlFv1NlElpKd3r7a5kKk7yfdvCN38JEjhwthE1ErQDNqoWoiFKzFHFvMAJgW hJwUWJIZlIe2oDldR4TllXAucmneJNavp4BQTQn/PYwdVwMA7TTAgBP8Fjc7kHE/E5cuvnt53137 7sh2ZOTUhYuTTzz+5DOLS/k5rVEiQp4ECoJQBSFghkk4E6wbLGo269HF+WOXhAzD4YG9/Vr7QkrJ UgqSUkJrjUYjEHt27RXGRAijVmqXt3MI7xW+WK0VHJdBMlgRI0dAICV8QSsdSlIKaHd/z/Pg+z76 uvowNDRos9lM1AxqFgxs3TJCpXIx5nJfc3/hdr9ImwYSYDB27xzPPvqtb59RAs0oRNnGjt4sA9MM TEuJWSmxJDtRGetGMOnB4NzKTuY1Gb4ECMmVbDhzveVg4/5Q8kebKVStdFO98PyL/2mtaVQq1UUh UGVGiRkFZiyD0WKGtha9ZDAUAUPM6DMRumyEDmOgVQR5+u3Ds2cuHJ756Ic/tfPg/s/uASguLFoL pRQJpYAAkELEG8jV35OmSE7mCR2TKDHAHKvnTEYZqSUL0pINk0n6CVxdw2VMmTk0kQ1to1HnWjVQ YVQLGw2jjQlMGEXEbJmt0kSklVKYnJwIP3Xo07Rzxy4xnbv8PoOeSY9JUj+M3+ztGfJ/5t575MTp iTm2WGKLeQbmCZgjgUXpoQRCffcAgguDsHhu3WYdm/qX1gk9+HrKwTaVUVp2dqXXhRyqTXOFqFwu LyVOiGXkhUCeGXkQKkKiRRJaEHqYUbIGFddePsAWPcYiq0P4JoRWHuSxnzyXO/Hmc9Mff+BXd91/ 78O7BWWlkooFCQIQN57KNvkSUxzjM8iBIh5SSRp7Ojoy+Ksy7M1cAAAMEklEQVS//nIwdW4hSwLs eSrq7M7Yrq5O1vEIOxGkIGjp+57y/QwymQx834PvZ6TLaQhPe6Q9HbO7KQXfz+D48RM0m1sSf/yl L9ktA1vEUnHpPYQv7UBl9WHpzaCOz/32743+4Re/8Irn4woY80SYFxJFJVHWWTTHxxC+MQZT+M5P PQom3Zb8U4+NudpUMK9pY1OpruFmChxzAHIAppkxKxUWtMCS7sCy9lAlgQYITWcKWnA0PK6NP67l RACb2D+Yzp1dfuX4k+/WmrO17dv2ZffffcAPHAc/qD2Ctcr+rzIFgJACl6cvhm+emlTGsPB8n4RQ AiwlWCqwUAQttfZFnMDKIM5nKCiloJSElBJSShIuLIx9HYViaTE6dfK0qlYrKBSL+MWPfQxB0IQ1 hoRzGBPVT6LteySOJDNj1447hv7ukW8+msliTkrMKY289lDOZtHc/xGEL5Rga0/jhh+keC3Hxhms Pj87mSJaduHGLIAZB4B5AEvWoKz7URvpRJOyaGmFgAlNcGxK2KLJjIATZtV4At0a4xhQ4zlIMTt3 udGMSvWHP/350UazAWa74uGvAAFrncAYHBk/g39/5ilbqzZVtVKhdN9hO2oREEJCyvi1UsK9VqvC uUT4CQAmTk/Y/GJRKK1QLpWglMKBew+gWqvCgkk6e59caecwiQq01nL7rqHnj7z236c8H0Xpo7Jr EEHffTA//h6MncZNWdeiAdIsN8nEac2lGJOkw7yLQUvuZ0FYR0g/B/PgXtjlWuysiPh3GwQ0GGiA YyDAxjyLCVubNTE5adQCDt778d6HfvnXh4OgvqoVm9KJGMKKpXVhHc/kLkbHj7+h2TJVKxWmVPkv TlwlVzp2j9+TSkJJyVJq0tqDpzPwvCwst6LF/PnisWMn2Pe6vI6ODvJ9n/L5JQwPb8WOHTtRr1fj GEK0tdKKVkhAEFs07LnjTvv1r37rn4dG0Ni9D9EUwUw++b+Pdl3vUtcAgGR4JAFC3UUCnJpDr63p QLEAkH8WeBwwP/8HsGNvgy/MIbItBGiigQgVZpSNQd4SBokxyBYD1qDPGvSIFrIWyAz0bhslx44t iGATzl3Hvxc7geRKL3H+XStNzz3/YxJSsuDIAlISdJs9zCoQaQjSEMKDEh4IbI2ttxpBOawHrVYQ LTdqjaV6uTrXyJdyjcWlYiMMYrgpIfX9+3/3Qe35nMl4JIjo8KsvY3h4mAf6B1EqFd4vV8wuYoiW K8thtb58EUBz5D7Ylx+7JsFf9dnB19QTmPSGOuE2Uo5gohHCNfRIq9aRb8Sf/ehnYTkHmxcIjUEQ BaiDUGaLIjPyDPTDYNBa9APoNQY9gwOje9m1mRsSMUkVp5pDkwuuRxDM8ws5c/adKTU6Morc0stn Z+qn5mWcw5FEJBEIoGqS3tKkmZgQk4sTM8iRopNx9SJjQTYm8rb10DTfOvvCT37pwd88KKWA73to tVp47dgReugTn+SObBcFzUa68shCCKo1aiaXy0WVyrLo6OhoPvyZ3/gyDQBHH7tmW79hx8enx9jC lCNo328Meb31+lOw/b8GHrewUQ5RvoIgMmiELVTZoGQM8sxY5HhMfbDZQP/I1u0PsOU4hhYWsBKW bGp+idqaQMatmj948ofwtI8wbJmJ06fmPA8yYZaJGZjMqoNKmCFSZXvLrsXQdZzHpNxxScEaG5un 84Wp5Tt2nu39yD3371UqLnuXSgW8dfotHLj3AOcLiwjDiJSn+dLFd6MLUxdQq1VVd2+P6u7uxtNP P/M7AGW5wNF6CZubsfuvBwDpKSJzPSgsPgF+DTD7/wj27hxs7k1EVQ9B0ERdhKhEFiUY5C0j36hg cHRkjJKMnxTC8eTF+QCbTHM45iwGuFTM21dePSa3j43i/NTrU0EDURQgdEcO8AofYztyTpQHXO0o 6eNYKRQ6UCQHgEU2dlbp8cd/8NLd4x8e7OkZ7lVakud5mJ/PYWZoC3p6esyRI0cxMfEWpFa6p6uL s52dRACmzk89/4/f/PZFl22V6Zatmyn86wUArvWm663JvwFPAmbXb8EORTBiCuFCDYGM0AgDVG2A Ghi10ZGxDBHBuDqAlDIu+ZKNJ2Rdt0es/A1997F/Y8/TBCacPPnqGVIIJaFFIj7ggNKZmRgSqyfN AePeMy5KCRmImBEyo8UWEccteUordH7tka/8699+/dHPK6WgPU1aa8rNTvPXHnkMSmnV093NSntx 4kQKRGEU/Omf/NkTLqtaXI/I6WYuiQ/YKk8Ac5Pg2RHwYB/s9h5Ey1VEQRMcNCGWl4v3nzt/bndu NmeNMez7vlVaCeuYGeOqnIQgQhDU7Z//xV9Sd3cnFYpzUzMzl8+CUbSMAlsUrEHRWBRNbG5KxqBk LUpsUTIm/owxyBuDJWuxyAZXLHCFLa6wxQLijN0CMxZNhLIxaAZNE83OzeUPHXroHqUUPM/D5Jkz 0eVL0zqT8aGURmdnliqVSuXZ//jR63//jX94OsXJUHm/os3N2P03QgPcvHUSPAXwFGD7dwKWEXga 0ZGjrz29XKn+CjOjo6MDnZ1ZbN26NdyzZw9t2zaGoaFB6unu5e7uHvWd737fChlzyE+89fqJKESe GFesQlFK1KWM57B4zRGRiGs9ya43cCe+MCESQMiEUBBCC4QERI4iMWMtBpjRPHr4hDn8yuHdhz75 iZ/1tMevHj4iYnIticuXp+f+5Xvff2dudq7ghNzpimzd7nXGgeD/agauSwt/cAGQ9hMuOwdTgCcn 3p7Y/6H9FRLULWXMWmZMpBcW5rhardD0TAc6OrPo7+0Lf/jMswIgLuSvzBWW6rlMBgshcFkLXCGJ KsVj7rzOYABTAgLHLcUEIxxZmIjpAq0kRIbBoQTQQoYtGmxhiSC/+pVHnjpw8L5d8/MLg2AW5985 d/bEiZPnmTlKZVGTicOME34n2myetBHP9rYAwIpoLASAjvn5+RdHt41+ZjURVNw+hpVeYuihoYGw Uq3Ji1MXjhOwHEWYl4RZZbBAWVRVBi3PDeKs1IEIQAS2CswCTM3YV4gUWMnY85cCrBnWeuAM4nnS lkTTMCIT+6ESgP7C73/xn3bu3HHwjZOn5l0bXZpvIc3WlVRbPScTmWrn3gRASjQCgDp58tSxru7u g0qprVIKBVAsmdRR7WEYYveuneLs2QuVpYWls0KiYCMsErBkFQoaqHd3I9J+PEAUp4SRnLTBkYwV cddWWKmAvhY48IDsdvBsGdh3B/j4PHDqEoBJAPUVYcmkda6QL/iFfIEBDLn30jY7yZnUXS5lPbtP wI3P/9+uGsDRYkDWqrXg2Wd+9ASAPq11/77xO4fGx/cNjo/f2T9+1/iA7/skhMDYthHMz84cB9Cw FkUIFNmgLELU0Y/grkMwYtxxMqaNagSIfcD+DwF7zwGf+4X3CuHo+rmRlnPkJNoEzTq185OR4nQK veIKaHlXTwk2YuffzhpApmyoDsMwnDx9ZmHy9JmFRK32D/R1PfDAA7179+3tKS4tngJQAqNgDcow aDRChDMnYWZO3tDdleRFEhAoBwLtXltXPodLkycdO0VXR1l09ZNqKgzkjXiwt8PSzkseAbAPwN2I exL70SaySjOuWPcQy640fQHxYMQ02gRY5iZqqmQiN+mfHEPM2591363mvlvJXWUHhkrKHJiNAIC6 TXY/sLrtKel9S4pQag0IbKowVUL7oITGBiRZEvA13L0TZ67ivm+UUv3L7nXSzr22w2rTBGA1Z1HL qchi6mF2rFG1yVRM3e2svAPAe5iybzIIEhvP7nUpFfolAG6sUzyzG/lw1QbtYL4BIIicUAtO2AHi juQkeZKciJG4dLWUXS2lkisb9YATECQFs0pKOyXNmxGuonh2uwKAbwAIbEp1CvfwSk74He7KuMtz 92ui3aRS3sDdvx4I0ufYYo3Qb4ngb5UTeD1AWPH8U7vdS4Vb6X8TkFRTjlbdvccfgOd8S4X+QYgC rhUIiaMn03kBBwyVAgildl/Swh5uZHx9+6RXb/29+Tp+V6zJEYjUe0B7luGW2tlNANx8JxFr8gC0 JoLApvA3wbi5Ntfm2lyba9MkbK5NIGyu2/ThfmATKpsAuD2+/9V8/mrBxZsA+P/3f7ntNdD/AJqe 0m1Ei2lMAAAAAElFTkSuQmCC "
     preserveAspectRatio="none"
     height="6"
     width="6" />
</svg>
