<?xml version="1.0" encoding="UTF-8" standalone="no"?>
<!-- Created with Inkscape (http://www.inkscape.org/) -->

<svg
   xmlns:dc="http://purl.org/dc/elements/1.1/"
   xmlns:cc="http://creativecommons.org/ns#"
   xmlns:rdf="http://www.w3.org/1999/02/22-rdf-syntax-ns#"
   xmlns:svg="http://www.w3.org/2000/svg"
   xmlns="http://www.w3.org/2000/svg"
   xmlns:xlink="http://www.w3.org/1999/xlink"
   xmlns:sodipodi="http://sodipodi.sourceforge.net/DTD/sodipodi-0.dtd"
   xmlns:inkscape="http://www.inkscape.org/namespaces/inkscape"
   version="1.1"
   id="svg2"
   width="16"
   height="16"
   viewBox="0 0 16 16"
   sodipodi:docname="mail-forward-attachment.svg"
   inkscape:version="0.92.1 r15371">
  <metadata
     id="metadata8">
    <rdf:RDF>
      <cc:Work
         rdf:about="">
        <dc:format>image/svg+xml</dc:format>
        <dc:type
           rdf:resource="http://purl.org/dc/dcmitype/StillImage" />
        <dc:title></dc:title>
      </cc:Work>
    </rdf:RDF>
  </metadata>
  <defs
     id="defs6" />
  <sodipodi:namedview
     pagecolor="#ffffff"
     bordercolor="#666666"
     borderopacity="1"
     objecttolerance="10"
     gridtolerance="10"
     guidetolerance="10"
     inkscape:pageopacity="0"
     inkscape:pageshadow="2"
     inkscape:window-width="640"
     inkscape:window-height="480"
     id="namedview4"
     showgrid="false"
     inkscape:current-layer="svg2" />
  <image
     width="16"
     height="16"
     preserveAspectRatio="none"
     xlink:href="data:image/png;base64,iVBORw0KGgoAAAANSUhEUgAAAIAAAACACAQAAABpN6lAAAAAAXNSR0IArs4c6QAAIABJREFUeNrl nWd0XOd553/3Tp/BzKAMeu8ACygWkaJEipIoqssqlmRbidexZXuTOLZcJNlxspuyu2dPPuzZZHfj syXZbLJJNu4irWJbsiV2AiA6iN4xgykYTO/l3v0wVxAtiyAKCTG7l194gMHc+/zf/9Of972CzPUv gY/gElAezYpm9YcSMiGyG/yqtWRUc6tdAiAgIdsoKK9pKag0NuiqBTMSIEr+zIJ7Jja/NOEPeD8A 1CZvdwsx4D3Rsaqq9zQdLr+3aJe1QafRoUGLCsiQJkGCRDQ65e1dfH32gtvpWwcI8j8TAFTISLaS ow9WPldxpCDfhAk9+eRjwIAWLRIJUvjx48VPgMCk53XX3w/1zG5BBW4NAAQERDL5ZXd88rYXSncV YSafEsoovOafRJhlEifB8Mr3xv/83HBwDR7c6gAIqMhiOPLcXV+r7ijCQjE1lK7rT930Mk3IO/mf e/58KITw4dLeygAIiIhkq/c+8oetTxZThI1WLB/4UIy4IoSIEf0HfuvhPDP4zne+3Hkx8qEQ3LoA CKhQI9756Qf+dVVFKTZariJ9kiXcBAmTJIGkmAk9eswUUkIp2tXPDnEBX7Dv29//zoeZxFsVAAE1 omD7+Lfv+J1yoZQG6pVfpFlkkWWCBFhOOEOBRCgRSyELotmQpy01lZsL1AVYKaOcauVvwryOnYE/ +/4fJZMfhODWBEBAg9pQ8/xf7H2ggkoOICqCzOHEg4v50LhzzOnxJ2MkyZJFQIOIGmOeqdq2q7y9 uFJjw0YFTcpXvsE4A3/9j19KfwCCWxEAATXq4p3P/2XrwWqaaVVWfgw3Hhbo9QxMTy7KXqLESZMm TQYRLRq06DBhwmS2Hao9VN2gLaWQSmoA+AWDDPzVP/xeJnlrM0BAi8rc+vn/2XZbHTupBGAGJyss 0ud/Z2hmkhWC+PATJUGWFFlENKjRYqCAQgopwGwtObHjcEU1JZjZiQ54hwF6/vLvv0rmfRbcagAI qNFra37rv+27q4H9FAIphgmxxKj07uj5y/ICATys4CVEgiQSWWRAhYgG3WqYUEEBBXuan9jRrK1G Sz1lwM+4wsVv/eDP1gfA9ucCAmr0lDzzpx131XEXRsDDNAkm6Yq8eX5pEDcOlvESIkKCDBLyqgwC Iir8eFnGg5cKKgYirsDzBzPGBuZIUsuDhJD+eG748uuIivO4hRggIGLCfP8rj3+lgWOYgXkcxBjk tOtnbyXHcODATpAYKdJIq6LLVz2KiAodJgoppY4qKvLrP3ukw9SAhmqqSPKPzI7/98fcUzkW3EoM ENGhr3/g3i+WcQdmYAoPcS7z1twv32AKO/Ms41dWXrpGUJdFIkuKJBHiRJACmb/hc3drDPXYsaHn ELHWh/7V336e7HU0YJsBENFi0O78+LfL9fuwAdMsk6STn86ePckYcyywTIzkVSt/rfA+B0KCBCFS xAPSd7V5R4yacq6wnx3MkPiNvT/sO4V46wAgosJA8RNfb2jaSRMwzzJpevml6+wpxphkAS8xstcV /z0QcvYhg0gGtUP1U2v+vjzMzFPLATyqe18eOpcJrp0si9tq/vSY9n/q8GO1HASWcSExwqXouVMM M8Ucy0RJKxZ/fZdEighuZpnC2dV3ecmBhBsoo4rqIwcev54JE7dRfA36kjse/XI5R4AUc4gscFm+ 8Gayi2lmWSZGZsP1HYk0YVzMMY/z7f7ZjA+JGaCeAm7/HNbr0XL7xDdQ/eQ3awsOYAFGgWW66Tq3 9FNmmcdLgvSmylsyaaJ4mMflmeqadZNlBWikiJq76u9AFoSPGgABNQasj/5ex/42moBJksTpoXdm 6LtMM4eXOJlNf3+WDEGcLOK5fMWeCZJlBREbBar9j6BGvDYE2wWADmPjY0d/s5Y7AS9+JEbojXb+ E+PYFfFlhKv+bVQRkgRYwu2dG3MFACdgI4/GeynnI2aAiAa9YcfTL9dqDgMycwgs0CVf/km8Bw9+ koruy1f926gaZInhw4NneMpHggRQhIX8lvqWtQBVb4v2myh/8vdbazooAoaRCdBJz0X7mzjxECal 0phrmprLd1IjWABZSOOIjQyMRuei0XUWv7OkCOKmxDHvTjVr9cQowEieuvL22TMfJQAiOgyHn7/j eBM7gBnipOlhYGnwVZy4CJfW772v+UTZHcZSo2hEhxqZDEliPBAJ9oydnvzBwNC6GCGRIkzY714J xW0WwhjRYULfiPraOYF6G8Q3Vd790O9WcwQI4EVgjN545/cZw1nZePcr7Y8XVJowY0GHFg1qIEOK FLG88LH6Y7e/eOgHZ78z2ntdHsikiRDE7w3GbAJRwICW5tq3rXgFQZa3HwABDTpV5RPfarAcRAVM I+Cgk863I5dNhhNfuf0ZS0E+xRRSgA3Lr5gkCT/L+PBYi19ofqr/Oyf/QyRwHQiyJIkS9fnTQELB X10gGORrgqe+qeKrMZH/4IsdHbuoBEaQiHKJnpGFMzv3PvZ0aZ2VGqqowfih5CmiCFhhlrlC/R9W P/D6l4YuX6v0vRoUxYmnkllkskoBQVUoGrMfSS4gokXX/sSxTzVyG2AngkQf3SuD5x986J5jRnUt bUox7L3nDxAhDYAOE/kIQBFFNDCI7uAnf1L59TP/JyasaQeyZETk1XRCjaARtKiu1VFV37TVF9Ci y+t44uV61Z1ADCcC05xPjg0+e2R/u5E9HFgtbMdw4iNEkpTyEy1ajOgpogoVhdxDGd1l9/+d1nrq vyKu4ShlZDkrXMX4jCDrUCu4biMDVBiwPfFya/kBjMAE4ONdye58tL21rIgjq7XcAPME8eDGj0+K xtMpNSZtvq5EbaWIKE4KaEBDG8X8Qn3Xf0qKP/vO2kmuqNKgRlAIkRUFLSqEDzeD6psmvh7jkRcO H2+lHpgkTYqzBNNHi20mG/dQq1itEQK4mGYxu+iZsnsDgXg6jaDRWg3lhfuq24qqhQqgHxv1FPEU r2ru+Yts5O2/W6PcJRRZdIiIyGTJkoytNVCgvkn016Gtue/hLzVwGHDjR6CPGbldq9dVskcR346d IMPMSlMLA2OuRaKkkREQ03h1Xv3QZH3N/W178usowkuYNrQ8y3fVR/6je2yo65oQiBaLGQEDadKk iPuyUSTk7XODAhoM6vrHv9VougOQWERklm6qBB0VtLIbgBECLDDE1PLFy4vTrOAjqKREAupc5Xc2 9FeuB3bf19hMOWmGqKOIT/DXhQ/9heNh34c1Q0UEXZ7NYgV0pMiQwOeRg9euMahv0vobH/nK3vY9 FABDyEQ4gwkLRbQout9HjCuMMjh85mLGhRcXHgIkyJLrGeaRTwVVcvxnUW/0yZ1pVQ1aZklRzlP8 7R1HXzz5J79mCQRUiOXlRRY9EgaiSMRwu0lc22Kob4LzM6Df9dyxTzXTBsyQIsN5AjSRxw5KKQAu E6OXycy504MXcOLEzQoB4qsrJaDFiAsntdT0xGKx5w9qxEq0OBAo4wi+3+v5nn30AxCo0GMsqy9W 6Ymjw0+WFdILsH2hsIAGTeFtT77cpLob8LGCwCij1KGjlXwagB7iXGY88Yu3pzuZZxE3fqIkf4Wo uWmYGHGSyKP8xGjo0FOMBjs6bmfYtucL9q//SpIjoEKLtWWHDR0Z1ESJ4U8tTq0VPKlv8OqrMVL2 +O+3lxwCYBYBNxcoxkA1NtqAXpJcZiz+1sm5ThzM4CKktD9/NaTJkCVFLNch6NJWWM21eYhomGE/ D3Hp2cL/4pu7yuELaNDbmmqbSpDII0YKP56FoIsMkizf/HqAgIge/ZHP3XlPB6XAMBJxzijRXBVV aBghySBjqbdOzl1glikc+ImR/hBXJZMhThAncyzgebN3OuHODYsxRDk7q5ruQVqVQMj1HNoPVRiK SGLBTwYPc1dYXqvMKt5g8Y01Dz32O83sAhaIAz3YqURHHQWUYyfENIPS6dfm3mWcURbxk7jmA8pk SeLHzhSLybkLU15iyKhI4mYHRY9iWi12iGgwqmtvO1KGHhEVQWI4sPcRJ3VtGyDeWOenbXr6m63G u4EwbgRm6aESHfXk00GSRTz00HVu/DR25nATWuvhVrP8IG7sLPdNONNhJECNAwulHcaSq9plOvQd RxuqqkmTR5gsbhYd9iur9aabCoCACiMFj764v+UAKmASCHAaC2aKKaYRGCJGF0PDPT9ngXm8xNZR B5aRSOLHgTPqmHbHyCIjIJPGVlrSyHvzhWoMmrq7nqigmCw6/GRYZLJbXiKxVrn1RgGgQod+z7PH n9lBFTCKRIbzRCkhj3pKKWGcFP2MuH/5QyaZw01knV0AmQwxVvCw7FhOKNVTFWl0edlqpYSqwoDp 0BMN9TUI6IiSwsVMbOw0EZJrhcLiDbL+OvSFBz/+Yhv7ACdRZIaZoAodjVhoJ4aPCa6kLpyUR5nD SXgDXYBc5T9A0L8SWdUYDVpBKkCFmCu7Fu675xOVlCIDITJMMNwVmSBG6to+4MYAIKDBKFR//Fu7 io8ASRzAEhcoQU8NRXQAoywzwMAv3J3YcRLaYBNEztV65Hh6NaoRUKMxoFEmDoof+Z3qgkb0RPGT wcFkcuiXrBBZu9+gvkH0N93/u0cP7UMHjAFRTqOmABsVVKBnjDDdjE/0/hQHTgLXNX2/luOTIUmC rHAV7kkENSJqNBiOfHrvsXpKSJAiQ5wr9F8MXyFEfK31vxEMENGja374kd9spxYYJ0WGbpapwEQD +dTjwscgc6GzP2IWOz7i6+z/ftAYZvVaPYLy0DJZomlEtOgbTzz4xSpqUBMni8QoQ76Bt1gmQHJt qNVbpr8WvXbn06/s0h8A3IQQmKKPavQ0ksdtZFlgjjE634gMsIiH2Ib6v1ffC6ulGLUS/KVIIqbR IeqaH/l2pbkRKzFSyDjpofMnmRG8RK9naNVbFF+NjpJPvnKg7g5yA44iHs5SQB4VFNECDLFCD6Pd k2dxK4+0OaYJ6GtKrBjIIiCQIphKhTFhfOobrS0NlJIlQpYInQxctp9T1j97va/dmu83YDn0mXsf 3kseuY5vgvOkKKGAWoqxMUWISyw63/0xszgU7Zc3dS+NsaSytgCVogBRApFEDMvB3zjweC01aAmT Jksv/e6uk+v1NOIWrb+2+M5nfnsHjUrHV6KPWarQ04SJNvx4GWAxffYk4yyxcv0VWaPEqm9rK9MV kEYAsvjw+2P+krse+e0yGskjQgKZKXrSXafkMVz4SV0fanFL9Deo6j7xzT2Wg4CXAALzdFOKgQbM 7ERmmnlGGXzXdZElPNfXyDVUVU9Bx8EyTKuBgQf3rMr2zJcrrC0UkiRClhW66HnHexHnehvu4hbE N1LwyNeO7c0lvnMIBDmLjgLKKKEKI8P46WR+oudN7CwR3OQARC7RMVTsbmyrVOynRBi7tDh7/yfa WhqoQCBEmgSd9IyPvc6iQn/p5jFARI+h7fHHP7EHCzAIpLmIj3Ks1GOlhnnCXGQlcubHzOMmuEHf /wGuUXj4wQpVNTEkQMbDxHJt1T0nKqlHR5AEMkP0Brp+xCxL+K/n/rYGgIAGvWnv8y/tUjUrZS+Z UUaoxEQTBvYQwsMgi3LX65F+FlnelO9/v8NkKt7fcXcNJuKIyCQZkyPh43eWiy1YiBJFZoEuqfv1 VD8Olomu19WKm1wRPSWfeulg5WHAz4pS9ynCTB1WmoFJ7Awy0z32S5ZwESGz6fVXYaTo3mcqdY0k SSGQxc10ek9xvbWVUtKEyBLgEj2dS2dxs7wRW7OZOECFnryjLxy/dy8A04hEOEuWYsopw0YRI4S4 wIrrzKvMs3T9eOw6ymZsvHfv0VqKcStpQS8FmhptMzVAkBRpeui1D55iYaN3EzdFSEPlvc99oYMS YAhI08siVViow0QrDkJ0sZw6/3pmHCe+1R0vm2SbUP3Q58qFFjJEEcgyg5NSoZZm9ISIITPG5UTX j5jEgW9jYIubWH8D1b/x4r68HcACSWTm6KEcE80YaCOKk3GmGH3HcQmXMvspb5r+Boz3/YvWtmaK 8CORJUIvVkrYQT5RIki4uUTPz8PdODZQZdgkACJazI0HDu8pB6K4EfBzDhMF1FBANSYmWaYL52TX a8yztOHE94N1Bl3Nvceer6SBNGFAopcIFbRRSoYgGWJcon945g3sq85vQwHGxlPfgn17qtReZCKI JOgkSAM2qsijmnGinCcQPneSGRz4SWza+guo0WvqPvZKpaEFCy4yyCwwQhWNlKNhhSQSA/R5e37E PA4CJDd6r40zwIBVW6BVQo8sY4xRST5N6GnDSZg+luS+nwcHcOG9qtezyUzjY19ta2uiljgRZMKc w0QDFeQTIQrM0JntfDUzhJOVzbhacYMPJaLF7M5CmhRZXJzL5kv51GKgAQknCwwy3zf6cxy4CG86 9M1Zf/3upw88V0UzKpaVRCdEMzUUIRAgi49L9J7znmEJ9+YC7Y0CAKA+vTS2YkVNhu95px3lchnt 1FLIBCHOEfCcO4kd14aqfh8GtN604+GvlYttFOIjgcwsw9TRQD5W/KRJcZne2dE3cePZqPHbHABy buYgHfr9852eUf+/GXl98pAtX7WbdqqYJMklljMXTqWuYGd5i/Q3UvTEt2oqW6giho8sQS6STytF 2JTYb4SeWM8PmGBRMQebuJt6wwCkCOKfmfxcEAPibx2tNjazH3ARZowJJs44LuLCs/5g9EMB0KE7 +Ik9J+poQYWbNGkuE+MQFRShYhmJJS7R+Wa0Fxe+TQ3ab8oLZIixhJYkfqz33Lez2MZRIIUdP124 p7peYwEHofXk4tfM/XUYig8+8NVy2rDgJIbMNGO0UYcFM16yRLhAX4/9LWXMZNOudqMASCTwIZIi UHf8eIeFoxiBETJcwBO9cEppeKU3HfvlQm3bx16qLGilkjB+JPxcopR2rJQQIk6WPgY8/adw4iG0 BVO7YQBy46gCsrHsmcesmtuoBsbIMMgMg28EurFvqfCRizRNx7644656mgE3GdJcIs1uiikhQwSZ KS6nu17NDmNnZQu2ZgvpsO6xz1RU1XMQWCGMi37mesfewrHBns+vW38d+upj932+jDYseIgjMcYs O6imACMrZFjhIn3v+s5v3vltHgDlEQ89e/tDxdwPSjXgIksr3SdZwLmFwocyGKOpffybpXk7qCCA D4lluqmijTwKWSFFkkv0j4++xhJOgltStk0BoMVQfPCBL5mFO9EDgwj0M5fuPBW/ggufMua02fU3 kHfiS027Gmkki4cscS6iogMLJUo0OEx/sOf7zG4xzd5kIKRGT+WTrxQX7qYBmCGJnX6unHGdwbGF psdq7Nf2scOfqqQdE0vEkbiCi92UY0NNAJlFOuXLr8X7lBZLZmunCG0MgNwMiOn+z7YdrOFOIIyX OBeZmx34CUu4t6D9ymi9ofnhF0u17ZThI4SEg34aaMaMBR9pglxioNv+jlL3yW5V/I15AQEdhrrj xz5fzH0AjCHQz0Ts0o+ZwM7KluivwkD+o1+tq2+mkSQuskTpxMxu8ighTJwMPQwt9b6KHRfBTUca m2SAiBq9qunJbxbrD2BWakHz9NH/00g/ni2Jn8v8NfufO/BkNe3ocJIkSy9B9lBICVnCSIzRk7z4 Q6Zx3Qjt3xgAuc0Ptse+Ud/eTjswT5wY3Qz2z73BIs4thSMqtBist5/4Wqmwg2KWCSIzyyTtVJOP AR8ZPHTR/3bwPPM4lTxz2xiQy860Oz925xPV3A1EcQI9DPkHT+LYovbn1r/4qa9XFbdQR4xlsgS4 jI02zBThI0WMLgauTLyNZ+u+fzMAaDCY9z3+Uql4TNF+FVP0Sr0nM30s4t5S5qfGhOXoC7vvq6MN NU5SpLlMhr2YKSFBlCyD9Pu7f8A0i0puzLYBIAio0FPw4JdrSnMnfowgEaSb4W73u3jwEtt02Uup +5UdPf75UtopwE0YiQns7KKEQlQEkJmnJ3vptfQIri0V2TYDgCDktr03P7DvgVp2kdv7k2GA0eXh H7O4pcKH0vZS1z31UoW1jRrCeJHwMEgNjeQphQ8/l+g54zmDHdeN8P0bY4CAhjxq7vtCiep+IIUT ETuDUt+p7IjijqQtmD8j+Sf+5Y7bGmhBxkmKGD0Y2I2JYsLESNHD4NzQe02P1I0U/7oACLnY39T+ YH3HbWiBYUTi9NPf6XkXDytbiv0ENOjL7rzvMzbK0eImgsQoAXaTTxFZQsAofbGLP1SaHjeU/usL hNQYKdv/eAn7gXFkZKYZCY6+hgPPlq2/lkK/pn9C2zahtD3tjNNMJWZMuJFw0E33G9FenHjXmCq+ aQAIaDCU3NbQ0QHECCMS5gpTZ9NXcG943O1D479k9h9em4mf2B1U1yPRTyEtGLERIEWUbvp7Zn/O klJjlmAbARByAap515Fy9X5gEjUZZpjzT7yDFz/xLcR+uStLkgTRiz3zwaf2Z8xB0uzHTHHudBz6 GF7uyWl/aItgb5IBaoxUNR1sBEKkURNnmtmLqQm8hEnDligpkcTHPFqEpez/CD28t6O6jWKsqPAh M0V/+vyPMyMsbTHQ3hwAgoCIGkNxQ0nl7cAsaiScOBLT5/Ft0fq/V2DLEMQBZMimcNY/VF2PCSte MqzQzeV3vF1Kg1W60dq/HgYI6DCW7yzT5pMihZYsdvzjgWG8m21E/BoAcVbIkCFd1/x0ewMGbERI kKKbwfErrzGLneCNSn026gZFNOSV1tcB82iQieDB3rOJYee11CBFDJ9Z9+z9LWozhUgEkRliMHzx VeaVzE/mJl3q69b/8ovLG4AQajIECCUWOgluet7zWjBbnvrC7rIqqpHxIGOnT+p8Mz6AA+8Wpou2 zAA1Oizm4rLVJfASdnlnidwA/X//HnoM9332jrurqMWMnzRhuujpWjjNEh4iN4xrGwNAyO3D0JNn zrOyhAjIRIjOb3QI5TqhsA5940MnXqikDisuYkj0csVx+X3ndxPFX5sBIhoM5GmFDFFUQIoUK0tK KfpGPJaABr1xx1Ov1BjrKcdHEIFxBpPnXmUM+xYD7S0DIKBCY7Do1D7lWIMMMpHADfPIuRpz0WMv tTU2UEucZSQ8dNP7lr+LpRtT9d2qF1DH02kpSlbZmgWZIGmyN0QFVOjQH/70kUeqqUOLmxRJuhka Hn6dxe2g/3rSYQHS8tLqFl0RtfYG1WMENOgq73noy+U0UoibKDKDDPk7X1WaHomb5fs3AoCMFI0F Vw22SL7phhQjBTToNc3P/kGtpYlKAqwgM09f5tJr8RFcmx6sv8EASEgkVwIhRWY1JioaMG75lFVl /PnRr7fsqqeONB4kAnTTd97+jjLrm7n59L8eALmduzGnL0VaiYsKMLfprKv7ljYrvoAe/f5PHX2m mmYMuEmQoYfh+cuvK5vqUttB/zUBkGUk0iSIulwBJRYRKKKqvHkPmS1xQECHoeSuR75aJrRShJcg MMpQ9MKPmbyZmd/GVSBDnOT84nIyQhYQyaNUve8pVJs48e998bXoVI3P/lFtUStVRPEi46KX3p8H csOu0e0Tf20AJCSSxOIrU87cKSQiaspperR676Y5IKBBT8nTf7Czo5EGZFykidLFYP/o27g3ea7o TWNAliQRAqMzuZAMBGpoNx9/Gd2mOKAccvHoK0ceraUZE26iSAwwutx9igUc+LfL+q/XCyQIExmb mYv5lX37Mntpf+r4Z5XNexsTX0SL6cSL936uhhZK8OEHphhKnTsZf6/uI8GtBECKIL6089KEhxhp RFIUsl+469/uv/+q4yvWv/rmh1968Gu1QhNVSui7Qg+977rOrs56y7cMALKsbFv3E+4emYh5lKML /BylqfDhv27ZTxZxnSwQUSNqip78d/e/VEszdcgskSRJD6MTvW8oVd/0dq//9SPBLFFWcKcd7wwt ESKDihAZHqa65pM/ufNhJMWvX2/tNagKd3/2f933QiMtNKJRzhgY4kro3PeZVE6WzcItBYAsI5PA jwtP31CXe1Fx0AvYeIi68se/+8g31Nc5vBwBFaDf/ckvfH/f8SYaqEeDmwASs/RnL50MDyjbHCU+ gkv1x2v++k9ylkCFHsNCtr7WpDajJkWGGoqI6EoeaNwfGvM630ucPhDviQjIqMr2ffzfn/iDhoIG qqlHixsvWTyc5cKZkVPMb2lT5TquP950VRhZFrIk8GKnMDj7gx7LnVqhEjXL6KhBywDGRyvvHv3b zr8ZH/gAgXPnBJsbOvZ/evcnS61llFBOGeDCSxYf5zjf25sbrN+WxPcaBL3efQUBAROltLKb2oOH n9vTRDlqRKqwEWacBbz4E85fTvxs7tKkPaclslY0tTcVHtpxvOZIocZGIQVUkk8SNz5k3Jzj9NDF /80Ykxvf6LTRa4svWREENJipppVW6o4ceGJ3I2VoUVFKOTIL2FkhRIxwKrSSckgJQVaZ1TVWi1lt xIoFCzaKURPFSRiJec7zTu/g9xhlHsfNt/5bfMWGLAsZorgQEVCdy8ayH+9IiRUYcBKnmlpKcbNC mIQ2WZ4pT+deIoQBHXpM5FOAnjTLeEgSZ4Qu6dLZ0TcYV84Ry3xU9F8nAORmxMM4UaFG7hXD8af3 xvRVWPERpRwbtVQRJLJ6KJiACh0G8jCiJksQDxFS2BnkSqDz9NIZ5q46S+gjBGD9b5kR0WKligba qbDWPbznYFklJRgRsCgNzZzLSCMjolL+LhdJBYmzzDgz8uhYz+nYBFNMb3m2bLtU4FdY4EJEixyU /ik00nysqSWvjHxSBNFjJQ89KlTKh9MkiREmhB83LtzMOvr6FkdYxK68TiPDR35t7D1DIloslFNN HTUUqgr3Nt5e22C1kY8JNVq0iGgQkJGIEyFCIPfOrKTdMTg2N84SLuZxsbyuc8RuDS/wKxGOiBYz NsqppRIbFiwN5a0VDUXFBpvayHtHOCdzh6Pjl6Nxj39qaWY+uIQIIu5sAAAA8ElEQVSXZRZx4yak NDz+GQLw3ttCzBRTRikl5JOHEXNJQZE1P6/AmKcXRYFsNp4IRAORcNixkl4hRBAvHtwsE1Is5TYa vhv9sjUxt20CC/kUUUARVixo0aFHp9jCDEnipEgQJ0CAFVYIEiROShH+nzEAwmqGp8OAGQtmrBgx YVIAkHPlVBLEiBIiTJgoKZJIN7PVvV0AXM0ENRp0ytobMKJFTe5A1AQx0iRJESdF+gNvjft/AoD3 cz4RFSo0aFAjKuXUDGmyyhvBpO0m/fYB8D4MICIq/8u9J+Z9sT/CSG97APiwD37EQq8XAJH/z6// CxhaE42snbGtAAAAAElFTkSuQmCC "
     id="image10"
     x="0"
     y="0" />
  <path
     inkscape:connector-curvature="0"
     style="fill:#00ff00;fill-opacity:1;stroke:none;stroke-width:0.7317158"
     d="m 12.285553,10.148384 v 0 2.159609 H 7.079255 v 1.43974 h 5.206298 v 2.159609 0 l 3.718784,-2.879479 z"
     class="ColorScheme-Text"
     id="path4" />
</svg>
