<?xml version="1.0" encoding="UTF-8" standalone="no"?>
<svg
   xmlns:dc="http://purl.org/dc/elements/1.1/"
   xmlns:cc="http://creativecommons.org/ns#"
   xmlns:rdf="http://www.w3.org/1999/02/22-rdf-syntax-ns#"
   xmlns:svg="http://www.w3.org/2000/svg"
   xmlns="http://www.w3.org/2000/svg"
   xmlns:xlink="http://www.w3.org/1999/xlink"
   xmlns:sodipodi="http://sodipodi.sourceforge.net/DTD/sodipodi-0.dtd"
   xmlns:inkscape="http://www.inkscape.org/namespaces/inkscape"
   viewBox="0 0 16 16"
   height="16"
   width="16"
   id="svg2"
   version="1.1"
   sodipodi:docname="mail-receive.svg"
   inkscape:version="0.92.1 r15371">
  <sodipodi:namedview
     pagecolor="#ffffff"
     bordercolor="#666666"
     borderopacity="1"
     objecttolerance="10"
     gridtolerance="10"
     guidetolerance="10"
     inkscape:pageopacity="0"
     inkscape:pageshadow="2"
     inkscape:window-width="640"
     inkscape:window-height="480"
     id="namedview6"
     showgrid="false"
     inkscape:current-layer="svg2" />
  <metadata
     id="metadata8">
    <rdf:RDF>
      <cc:Work
         rdf:about="">
        <dc:format>image/svg+xml</dc:format>
        <dc:type
           rdf:resource="http://purl.org/dc/dcmitype/StillImage" />
        <dc:title></dc:title>
      </cc:Work>
    </rdf:RDF>
  </metadata>
  <defs
     id="defs6" />
  <image
     y="0"
     x="0"
     id="image10"
     xlink:href="data:image/png;base64,iVBORw0KGgoAAAANSUhEUgAAAIAAAACACAYAAADDPmHLAAAACXBIWXMAAAsTAAALEwEAmpwYAAAA IGNIUk0AAHolAACAgwAA+f8AAIDoAABSCAABFVgAADqXAAAXb9daH5AAAEReSURBVHja7L15vGVX Ve/7HXOutXZzTjVJVaXSkYQESCD0faNAQIQrKHLt6Ozwft59PlTAj97ru3rtLoj36lPxgvgEuYKi IiAiEiB0SidNgASSkIR0laYqlapK1Wn33mvNOcf7Y87V7H32qVRCbk7ex+z6rJyTvc/u5hxzNL8x xm+IqvLA7d/uzTywBA8IwAO3BwTggdsDAvDA7QEBeOD2b++WfacvICLHfVxVF/7ks7efc+W3bznt yLG17cFZyfOCgAOF+J+NryFGQNMlId3ZfWETn2rSYwp1RCMiTEU3Mv2riNCNfawaFAj1+9zVrfNe OvMWOvP71GMCovG7qRoEjXcAqlAvZfu7YjQw6NvyYeedddsPX3Tm1ecWsn4X63339u87DQM3E4DP 7bt14Y//7isvXth52vdn+cKjR6WcV1baU28xYtD0b5NXjQugEpdPtFnO+HllZpl1w2dqv1f9u276 mU0SAJWNr9Vu4ebrVG/s7KbXr2bq39PGCgJJCCV9tiBg0pNDLSiA4MkzyDJzU2b8pXfevu+Lj921 9v/+xv/50tX7rQD83Ns/d/ahFXlLyLc9O4hdcFKgUoBYJO563F+Ny6QiaSGaR9JKSmdx09/NHpdG DDT9XXrOzHFsNkg2bqmoAQlTG8mc71W/pgqohlbA0uvX79u8due9VeIjUn97CVMypUkAQqP0FFFR EZWynNDrF/hynUFBNVk9et0Os/LSv3jt93zjficA/8dbP7P38Ar/YhfPPL+SAWAIBtQIEjyoTytS 74ZBJSCYdHcAYzBJOIJo3KB4Nogf1ySzoK0bo8dR390TKhKFJSSNYgSjNglYAAzSNTvN+Q3Neylh SjupBqRjZ1QlaSGPimDUgEAIAcEiIohVggYMBlVF8QgWRQkSMGoagbN5n0lZIVZUxEuOJ3fLK6v7 vvTEi//Hq679TgTgXnUC3/qZI6Z02Qfswmnnl5qrIngB5zxZCGhVgvOIByMWKxkigsE06k/Eglc0 xAUixEtU06nQ9vegSIinxShkkmElw4rBIBhs/KkgmKiBUIwKIhliDKY+w/XprVWvKoT2kmSuRcGq RVQQNZhgsGTpveKVmQwjBmstmRiMCAaJn6u28yFtsgoGyE0RN0MVq4IVQcgAofITjI1HxYQAaqnM tsXi7O/6ly13Ars3H/TH1vzwaa7oK2RijSBeyDIll5Id2+LCjEuHCx6oOppWGp0tRtv/N4Kon1L1 4BuNELVCsrZaIWKm9L9oqwGi+vczrlnonIP6tSW+bkfDSFfbCAgZqgGDNqZDTdxAVZe0e2h9WIna UmotIlGriAqKEMIErGAkmjANHlB8UDxQqmLEYMQQQsBkuZAVJ7/kD7/0Wx943VN+434hAFd9++af quwimEw0KOo9IXhyU3HG3m0s9jKu//Z1rK2XUaWlBQIwHVMiIrW31OylSHQM4yJqx+NurblIVNfR 3MYoQVCMNUkDSLLd8/x0nWveVHXKoWzExPmNT5GkgpODpxria/gApv3U9ctp0iyhUd2mUePGCEYs Xi3bd+8F6ROSc1z7HBiKLOs9+X6jAe44uvqUbOepVOlLGpPhvWNhOCBMJlzy8Y+wfPQoi9tPxuQ5 oiFt1rQvYU08KUprW+vHjam3Ky60qU+2RLWpnb+1tbfdRAGzG70xeFO0uVfSadN60YNGvZB2QZK7 rihGDQElaDJd2mqsOnLpRj21YNXCFTSqkBACqBJCxXg8YWllnWe+6CKufeiHePjBH2HtyM7m83nv Wez17z9AkPdSGpM3EuxDVHG+Uq664ltc+oUvot7HjQ8h2dRov02Il23se8CqkhHIkqRmBIwGjCom KJnGL2C1fZ4JHvEek3wHfIUlkGHIDWQCGRIv0Xhhmt8LJP6NgCVgo7In04CV+Lx4f7yMeqwGRH3z eyFCYQy5KIVALgYrkj5n/M7dn40fgsMKFJmhX2SIloRynW9e+CYue8JvcdnD3oKGgLW20U7OV5n+ +j3fx3tVAxDCboNiE8Dh1TNcXCCTwP5bD+IrxQUhWINXH0+oghFFxCSQRpuzKBpPXFQSBkSjh55U YagNb/LYpQZVQki/p8giuGjrAzPROSkcM1MmodY6KgENJr4PIYWt6bR6jWYmaYDalqkq0WURFJ9A o6SFjKT7BdRF208b4qoaXAh4T/QtVOAJB7nyke8GC3aSY4zBmBg5WGuxXvP/PvyVHvzuaMsFIIQg RgwWwacPuLa6ymD7IjbrQZZTugofQnTfVKPaFokbL4IJAvhGjccoITpncUMUI7b1ETTafDUBa9o4 ndA6j8YKplbLtUemMexT1SbknHYM42YG8ajWzqdOxe2EWn2DaGjNkhhCABWbQsboKAbvCbUwNJ8j CoHzLvowyZSIKm7bhDt+7H1oBnjlaf55HDI2mhnvyXqWwhb5wfLkPjDaUhOgqgM76OFR1MfwSFXp 9/v4EHDVJJ5qBO8cGtICByWEQAgB7z2VcziveK94Dz7dH7yPEAI2ngyViJrUSJ8H76LWVx/3UBNk G7ziQsARqAJUQXHqY4QXwKnitP6Zfg9QBQg+XuoV9SFdoK5+LHlxGDQIoX79ENJ3i8rC+5Dsu4Pg CB68S9/NOSyCOk/A4UOFGs9tL7sE/5A7Gn/FrG/HYFEMWdGDoGjwxfK4P9hyEzBBFxAhSO3AaTzV qk1Q1XV+vHNkqqiJYY9JF5iE1UujoX1CAgXF2qw5qTEyaE+tmOnYoEHiJHQw9m60QfLIdS6+2+L9 2mDztYmZhplbACYQhbpxKpsIIjl96WWChgYeVlLE5KNJU2D9hZ9k7cmfAGdBYDDZxcqRHQ1Kqg1U bDLtLfS2XABuOHB0GDdHwWjj3asqYgQfPGmH4ikl4DV68V4DlhouDTEkTLCvSXY2wZYE376OSOsP xJg6rUpC3sTohr0VmRfy6eaJlRSK1nuuqoja9N1CE9ZNC0AtXDolIKoxSohroDH8S+ZIJJpN9YG1 776cW1/wHigFrvPwMDh9/Dj86smIIQlYek0hDybbegG4/cjydmtNhFEkgSN1uCRCCIoYSwiKqwKS maiCfVxZByAeUYMYxXRPOZp+1k5i6PgIuuFUt7jAvCyja2zvCfg0c+8TSfG9ysZNlujbNLH+jAC0 gmKa8FQRjI22v/fgo1z/wndDofBhhb1ADy448EKCN4goBk1BsgGVXLFbLwDLK2sDazN8AnVUJKFd cSO8d6j3lGWFGU3Iez2safJknVSoJ5MsetBEwTGiGGMIGn/G2F8T8BORPFVtNAJJYOr72jRxOrUq SdXqjBnZqAG6YFD376ZOobbqvfZrmE1JN38LoYsJBEENjMdj7N5jfOvlf4Q7ZQm+oHAt8HSQieWc O5/HHQnSTLnLmEdACzV2632A9XF1srVZMk7xagEVJVTRsxqPJ3hZw62vkYlgrMRwxhqsFUQMLngk 5oSwBoKYiA2geOebnL6IYIxJ+iNtFtqkmwWZIwA1ohhmQKCNdQktOqeNDW8FovUBpgQgYc91bsp7 32iSEHwMg0PAO8V5jw/xudmuEYdf9mf4s4/ANQofAx4P7IL+1y7AHT0VZNJGRsagQSFIhtwPNMC4 9D0kR4xpTkcMkxQD+FCBeqpyQhBwXpmoNvY7GtsYk1tro1NoknBIjH3FgDUmbqyJi9CYCCMJTg6Y pEGMsTMpwZDst7bmydDBEqR1ADsCoJ2wkClHLjqEIYSk9iMKGHyIGxsCLnjUx8e9c4QaHkaSAygM thsmP30J/uH74WaFfwQK4DECq3D+5T/GZLvELGkS1ij2ihrJ1d5zOPBeE4CVcbkouhBj4JTrNrWb reBcBRLw1ToaSsqqiqpcO8n62inqhOtR60lHQCKuLiadZCySIghr2lqB+Fh0Bo1Ikyeg8SWkLStI n1On3EJJgmwa/RBCmBKCJsxM99eePSrpM4eoEYK0OEIIsSIovWjeE9xPfZGVx30Njgh8FFgCHg2c rOzcdx7l5ecSvgtMSlWr+vRdHECuUmy9BgiqQxFDW9cRT6ZKPN/eOXAOt7xOZgSdlB3vWZvkTW06 lDqxoxFbTNFE412nWgGwER5tooGOT5+8+GgmZmw7bcKmQf9kNkcgU6FiN4xsi0OSD6MtsihdBzNp ERGNGb6mLCggFvyrLmf8nGtgVeAShTuBHcDDY2Jy8OlHc+zwOKakO061SMocBnKwW68BvA9DSSo4 quGoqiuj0Sx4B9UEHS0R1KGrKzG+n6mMoT6RTdprBrfS0D7eccp8XR/S7lgjDb5xNmfzQdL+vXTq tuqMYaiSw5gMevAb0MIkxbMFgzOhpYn3mSb1GR//L7fDD90Ga8CnFA6lHTkHOA34dp/1D+2ltzCG 4BFrU1FJclyjoOUYs/UC4DyLxto2FEs63Kog6tDJGNaXkfFRwtqdGK0SXOeny69my71mC0G7Kdyp ui7p1GTJ9AZ732qZRuXT3hdTkBgTnVFJ9/V6OYXNGQwG9Ho9er0eeR7x+CyPf5/nGdZmFEURC0Cs JStyrDFkmSXLcrIsxyZ/xhiwmeWGZ17HxY9/e5SjzwO3xXAPCzwi+rVPve77+dLVB9h5wdkQAjbP 8cbHPEgIdeYyF2O23gS4yvWkyeGnnZGAsRbxil9bZ1AIP/qSF/P4R55LJi7urYnPMZ3kvzEmhjim LcQQEYKATUkjn06trWvyjMHabCqHUP+eZVm7512ACZIjCdZmZNZisyw5ofH5mbHY3JDZDCM21SrE bKcmfwSRWJkks2WqPpq4IFP3fmTxQ/yp/Fk8AF8G9gELwAR4MHAynL16Hj+79xe4ds87qEarhKrC 9AZJxut/FhBr7f0gCnBOt5NKnqN9DQTvyE2GDQqjEbK2xFlnnsyjHn0ek3ItlmsZg7EGa2wqgjCY zKZNSsWSaeFVZjKDEp0tMQZC6CgDmUL9YmGGjfvQtTS1D1Ine5qkTxcIivV6Kq7O/cRcg68hZ014 Ql3MEVK4WGuYGlaO/3/xwod5ffhVQhHgq8ANwCBZlEWQ8wUtlZev/RR7B7spCKytr+NdTGtLSrUn qUe9QUx+PzABQXrWxgyciotOis1jPZ46NDisgcIqo/XlqB2MATFTnrwxWcriRTDJNGBPLO+KDl2L BNKciI0mo9ZEagSDn/ob1ehmGmvSHfVzpS3mMLbNLnZMk6mrfGuUL1XxahOVSFNYEoj1DkHhA8Xf 89/8r6KZwjfS5vfT+1bAQ0EXlQtWL+RZ4+cwGBQMxHLnuESDj4dDo7Z0wWMyiYlUm289EOTJthsr iPNJpdu4AUZRFyi9Z2AsRZ5T5AWIJzOCzRIIJNFmmjrml+g81qq8W6UThabG6c30vs9D9USmSsem gj25Z9+3iwpuqDWagxz+DX/Lb05+Fc0Vvgnc3Nl8B+wBHgSD9SG/5l9PnwG9LCMXCGVJ8D7B3k0a CiOx6sFm2dZrAFXtayrzlqbsm9ZhcQ4jkOc5vaIAPMZAXkTbm1uLMQZrTRO2dYsf6vuiqpWm+MOY bE4pdF0gYptQMnpXzBSChhPe5BN9bDY7CPD28u381vqvx4/wLeAWIO9ITQFyXjRxr9L/yHnVufgs kGWWotdDfYkPFUYEmwCv0Pi7BmttX9UbERu2TADKoEMVE30AK6irzZQ0BZDWWvIipygKVEuMFXpF QW4zsiyVUWfZFNzZbnw3Nm/x/tpB7AI50gBLZo4AzCsKvfsCMHvC5z0WQuD3l36P3xv99/j21wAH EspXP9UBZ4LuUM5eOYdXLPwEWZaDerLM0O/1UMb44DG2LYiNB8NjjJBh+u///NUZUG6dALiw2Cya tji8NdJApTbLKPK8qZrJsnjys8yQ5zl5lmFM7ZnbJtQ3Znbz20YRY7I2Rz5n4zYqfjOzyXoPTcBm klG3kQTecPt/44/Gb4of4jrgjpnN98D2GPPbccYbdr6RbdUilY3V1FmW0S+KWDkcYpo8Oq4+HjRj IAhGGBw4NtlaAZiUk4GVuuYtRI9eY0NEXfGTFRl5kWNtdJYKY7E2+gVZlpFnGWLAGIuIiRXAnXCu 3VjTnOqu9w2yUQDmZOVa0Qh32dx6T7TDOIx53b7X8S73rigNNwGHO2q/Vj4WOCPK5Mv7r+Ap5ilM bIgFskgyATmqgeBcuxZNT2ldpCqDlfUy31IfoHK6KEk1RYelxVtCCLETxhiKLMMam6IEGwETm5Nl JtbuGUOWZY3dbzN+80K8bketmXtKa8z/nlTEHW+Tu7UCXSFbY52fveVned/kvfGE3wYc65x87Zz+ k6MG2DPawy+e8jpkYrACwaSOIRt9IvUO72MUICZmRkkmIPUc9ssyZFsqAGLynhEwqXw6JFjW5hml j9WxRV5Q5AW1oFhryfIckxlsFlG0aAIEEdsIQNe2zuL6zVYa2dQ+dx+7t261f2KMYTKZkOc5+93t /MS1r+Qz489E236AWKpZbFA88b49wBh+8/Q3sIfdhEwJPuDEpqxnxnA4SKX0muonQGydGzFJjWT9 dbfFAkCWWUFUFLEp8xaLOizexyRI4+QZmWoJkxSm1d0/EY61G4o16v+fp9LvqSr/TtS/97F6udfr cYO/iR/45vdztf9WjOkPJYucz8LZSfGcHH8+o/9sfnj7v8dNSiRUqeIn9kuiYLMMNFZDR4PaaTmW VGAi9CuZCnO2QANgU1SSoFYDlXMYY/DegUYsuyjyFN/H02wlxfpGOtBsJ9c/p2Jns82+L4Wg/nyq ypfWL+VHL/thbjO3wjipfJc2f575WYjX4MiAdz3nf2FHBl/XOZr2IEAULgw459pDYFJbWV1253Uo wRb36HvcSxiAybJMRFpMTjuhXFXFD5/lOXlRpC8au2brwo7aJHQX9/541Z/NOYeq8tHVT/D8L38P t+mtMat3LKn4LK2u7VwmJXy2Re3wa7v/K2cVD0rpaZNwi9T+JrEXYmFhAOpwzsX76pRJjUrGkLjv vd9SDTCwNjf1FyCVghuJdr2qYlo1S4mW+oOLMa3Ed0zA3GLOu6ai2bQ3/q6eeyKvPfs3pZa84frf 5X8ceCNePKwTL0mrOqv269tiFJCXbnsZv/y4X2ZtZT1FPSGtSwbi0xVY3DaE4KhclZKbEXe01jZ1 k6j0vdet8wGuPsTAWiOhLrmu0942hgJlWYIRbJ6T2SzFstPg/WWTK/jEoX/hR3f/ABfkD9lU/d/T TZz3+PHAnM2eKyLcWt7Gf7j0Z7hk7ZIWxy/TKd/s5UI6/QKPzh/D/3zUH1NOYt8/aijLbiFNW3K+ fdsiqMaKqlT61lQ9pX+q2ld/z/byXjEBB5dGCyJiVELs8UvVKl1nCTGxCcRo8vLblXF4fv+mP+IN V/0qL7r0+/jyytfmbsA83+BEVXZXO8xqirvzeh889GEu+sKzuWT1kniyy2Tvs46an71qrZDBYG3A Ox79DoZhmLz4SKDRYPwNgUT8WfTyqbDT1Btv2uog0IGi+ZYJwB1Hl3o264mEulEy+rHqPZm1jMoJ VCW9fo+sl+M1TFXqGiMs5H3I4BZ/C6/42sv4yvLXN5zUuv6uq/Lv6qrr9eaVd9c/a6Cqe9XPDSHg nGPVrfHab7yOl3zu+7l+fH1sDa9TCvmMrZ+9MpBMYASvf8QbeGT/wuj8alOLEi+bp76DiJEIlkFR gAFf+tSuXoFVNFSx8UUMQbJBhdk6DVCWug1jrEmNnMHE1G6WpDn42KRpJTEhSU3aExIsLJyenRZV qYObxzfz0i/9MF9c+uoGDdCt978712yRyPE0QFdLOOe4fOkyfvAr/5433fBHMZsHqNFp527W2ete AXSkPO+0H+LV57y6zW+w0WTUSF9dnhZL7cF7lxphIxwcNW3TWN5PfDJbIwCTqsqNsbEhO3HiiMSQ xgC+rCBILKdKNC1NqjetwWnZaVGVCogVbilv4eVf+hE+dfizG9T2fRXuiQhvu/5tvOBf/h2fPHhJ 3Nw8XbVql5nfZUYYQhTqM+wZ/MUj34KtSaGMtNU90obAdcGBmFiVbIsYS1ZuEilpkom1zToLQCZm CzXAxFVDsUawCc6V0Kh2MVBWExClKPL4BVJPYDdXv7d3aqymDaB9jUIwvoUf+cIP8tYb3nafbXqt Xa5ZuZaf+fp/5Oev+nkOm8PRhg86wI65i6ve/Alkyxnv/a73s7fYzZy6lY1arv4nUPQKSGEnGshM hIsjM1mqehYQMVsXBZRV6FlTGJNOb0gEB3W2rZxMQH0SgJoHcNoRe8z2CzlDTufW8jYYgm5XWIWl 0RI//8Wf5Uh1jJ855yc5vb/3eNu3KUx1orclt8xf3PJu3vj13+JQdShCtv20+SeaOKyLPFajAPzO E9/Ik3c8cW672jxThLamrtfvQRZb6gXFJuaVWC6nGDEqIjLs58Mt0wBVCEPJjNS1cLYp74qm3lcT QCiyrEH8Zhfswf2zeeTpz4pIWu1Vb4+gifaU3/jKr/DdlzydP7j2T1h2K5tsvsxchrti+WwzeBMu PngJF3302fziF36OQ/4QsiiwKyF3J3LqTScUXI6b/8K9L+R15792Lo3trFbr+jYJTqHIClClclVi PolHyxpTmwMBGBR2ccsEwIfQFxFjjImAdCTvSxW0ITmBgU3yOEnhGZ57+vNbQKXGzBeB3cAOuHHt Rn7pX3+O7/n49/I3N/89h8s7Z8I7GhqXulxfdVoDzFbsLPsV/u62f+D7PvkiXnTxC7h85fK44btA T9ZW5dsTuGohOAaswSOLR/L2p/555A00ZsPGzwOvEhdKp6JZICi+8rHv0YZGSCwSuZZEKHI7nOia bIkJqMqyZ/JMciuoTW3gifVKxLC2vgZG6feKWE5NZOic2hRVXnrSc3nrjvO4Yfn6uAknJW0wTNcq cBQuPfQlXnHJD/Ow3Y/kolOezfMe/HyeefJT2S7byfOMLutsCLNdvQEvnkuPfp2P33AJHz50MZfu /1Lc6G3AziR05m6o/G5+/yiwBCf7k/nHF/wTpw73NlnMbkjaxSlCIn6qG1utNYTgUQLDvsHkQlVW Ef/PwBrFGhsbVwzQKyh6bvEr1x2UZzzkwXqfCwBiFsSIMSGlgQ2J6yc1VqpDCGS5Oa4COjk/id9+ 3Bt45SdfGhdyR/qE9VfakTZpKV7XLl/BtUeu4G1XvpVzt5/HUx703Tx+12M5d+EcTh3uZTHbTpZ4 epYmx7hheR/fWvkWl1z7Ya5Zv5Ylfyy9cdr4bUyXCh6n6mcD1JsDK8BBsBPLm777j3nwwtnHVfXd xFJVVS1bSQJ4jAi5MWQiaGixEwSsxE4jTUJuYPHYmt51oeP/DgEQNYU1VoxILINO6UDBYhKMaQUG vf50Cfec2/ef+X08cfeTuPToV2IVzempeKIWAptMwskp174OYclz3fq1XHfFtbw7/W0vH7CY7SBL reKHJwcJLsTnDxIsu5j8jAW6XeDHP/3zygltQgRviZ/n9U/9HV55wStOKNqYrXfQGdOY5zlZnkVe JU0lcMnUmMQyJmJBdXF5dbQ1JsDDUERMZPQidc1EpktUKcsSa2A4HET0KnH7zrsVkvMHz/hjvvc9 FzG+fQzbBHbZxNgUpnPq29K1JzpcrKefY5i4EZMwas/DtnRKi7TxCx0fMcz4kCfkPdkmZseFWOa9 As8/8/n8p8f80j1LL9d1f0aQIAQN5FlOYS3BVRACuc2o8GhIRLbGQjQjCyurY7MlAhBC6ImISAxL EtAXiZGDC/jKYcWwOBzGVq67SMI8dfcT+PVn/jb/5fP/CW5S2JHBsAeVgzCJdGDd/kuTfISFmaqb 0FGIWSc2VzY+/0RsfCzCh6yITxIDug7XBzgC5w/O513Pe1fTdnZ3AKcNDS/1x85jrWRVOiQoWSZ4 NQkUSu2OWY46XRitT+62Brh3wkDPMBhMQ+yQaFstcQ6ADyUG6Pd6d5m6rW+ve9RreNbuZ8FRkKs8 mQ4phieR9/eQDXcjvUGKNeeoZe147gVtPV6YUeV2TuS4WSRpBTPYQd7fTZbvICt2IBlws4P9sKPc wQd/8B85ZXDKCX3HjYWuTNHc1PfnWSyYrYkoBIkFt4YmqopsIWFhUlVbIwCB0K+z+iZtvBFFTFRT wcUPm+Um0cXJXTrYmWS898V/z2MXH4vur+DyJQbSY9gfslDsZNvC6QwXz8T2d8RMiszE4mYOXDuL 25sTCO0EJO+zsHAm2wZ7GBRDFvMFsp6i+1fgOrBrlrc8/0942M6HxsznnDqFeXxB3cLWNjydXtks j+Xz6kPNSIngEQkpqypR06rfXgXdGhOAoS+ZEQmxexdVAgFrIq1bWVUUGdjcEjSQGUmCULNtaIdU uf3yJ/d2cMnLPsFz//o5fPPGbzDuLbP7SWfg8zhzgHwB5WScjlmvVimrYzg/iWSMbGLT5QRUffNT GPR2s613ClYyAh6LpbKOpVtvhSsVjsHv/bv/h1c8/OV475uCl26msQsAzWYmYwQckoNn0cR3RCLW yoshuTWoi8STJrOIG5NZE1mQJPINe3ToVGWLBMAMUS/JGwWiVMZ4NtK6iEQBqImVap6NWZ7GLkgi Iuzqn8SnX/lpnvvOZ3H5lVcwzhfY/aQH4bOqofY3LHBysZsQlJGOmLgl1qo1JmGV4Eet7j+RCDkt oc2G7B4+mB35SbH8msRTnBtuPnQVeukYjsArvvsXeM3jf35u6nqz5JXOEkqwOXehSGxg1crHCSNG Yid1JEKMFHPq8LAQ7g7mfa+GgWIL6q7YxA0UJNb9Oe9QH3sC+nmO0dAQiU0ZZZ1frAFwUrGTD//U p/mud3wXN112DT2bcfpTH0KVV6jXhuTDWGFRBpjebjyKCyVOK0Z+zJpfw+uEoBM0+BlVW9PPWIwZ kkmP3cVuhqaPU5/GuRjyrOD61WuZfPEo3AFP3/t03vaM322HOBgz9zvclb/TVf9NaVwnN9Dr54R1 Rwi+LbYh0dkT+Y+MsHBPWl3vFQHIbZY3km5a3j9rDM5FkgQjhl7RS182NL1zdU++zlDJdk+RMYbT i138w8s+yIv/9Pns+/p15GXGOc94BNWgAjeNzNQEr4ZhKqVutpmWTm7mtM1MmQvpX3JbKUyPfdVN HPvcTbAPLtx1IR/88Q8yyAdTdr/bu7DZxneLWjac+rqZJU1CMQgL/UHiSnbRrZliVPF1O/o21S3y AbLMWk1t3d6Hpj8+soKVzfyALE8dPzWF7AmGS7VAPGr7Q/nwqy7mx//6lXz9K1/HjC0XPPMxhN3g yir1fYa5qI3chXaUKfOvTX2FIvSkx0FzhJs/eyVcrexwO3jvS9/P7sHutoInYf3dqqVZ219/F2tt 01OwaY9Dh362VxQEt5JocqNzjU81FW1fxaJulQmwNs9cUkWRUCE0DB5aD10yQmbtJkildjb6+O91 wa7z+dzPfZ7XXPyLvP2zf0q1POJxz34a2889iYmfIH6zZbg7a9Oq5MIUrOXrXPXFLxK+PCEf5bz9 le/g4bvObzbWpk6djcyk045fSxjZ1QC1VjJTtLfa6SEzRlDv0NoEIDSd2NrQ3Szck6juOxaAL33k z4tPi8mCSYF2Mx8vYBB86cGHOPXKSqR/U5+qXi10hi3ERZF5YwGn8uUD+vzpi97Mo/Y8kl/++1/k M8sf5anPfA5nPeHBjLNxtJU1dxDzRkuemBAYDGIsn736nxldchRG8Kc/8me85IIXb9jwun6wW4Q6 rwZxVhtIpy5MOuNqTFLvSCDLYhTgXK1dbawYSq9tDBjJ+sb07nsNcPV4d98s2DxyBCb1hEE15qu1 CuADRc+Q57YzIVM7lKvacQI3xm7zcHMrll942qs5/+SH8DPv+Bk+9sEP8LTDz+KxT3sS+faCCZPj TCY9sduAIf988FMc/NB1sASvfuqr+cnH/PiGDW0qdufY/s3U/PR9U3Rnsa/CxINiTIjr5gXnIsIa p6vEx+vawdhbcPcLg79jARiFrBCRbCqRUTO4Kag6wJPnlqIXES3d6IJ17gt3C6N6/vnP57LfvJyX /+Ur+PiHP8a+b9/As5/7vZzz8HOZUOGpNizxidwWWOCra5dx+fs+B/vhBee/gN//wd9v0rfzUL27 8v5PBAGNXEmmYUQXhX7RQ72PNQHaDqrsHAgVRHZtX1gkptDuOyTQaZ6JiG0o4mao230I4D1FLyPP 8zhR67ih0d0/tbsHu7j4P/wTf/iSNzG+aYn3/MWf88n3fwQOO05hNzvYzpA+iwxZYMgCg+NcQ/aw i0PVET753n+CqwNPPftp/N1Pvxfb6b/sqvFuKfns/3f/phsFbOYwStMr2fY/xIPj8G5ScwMlJ7ub OBT6Rbb9PtcApadvxeQiFlHXDlKQOH2rmsRRMf1+EdGrEJBseiHlBOPl40UJViyvefbP82NP+lF+ 6m0/ySUfu4QrrvoaT3/Wc/nupzyb3b3djBlRUSGbOIWKUlAwYswHL/kbqsuWOdWeyvt/+v0Ms0Ez 1mZej8Fman62IWXzELCjTaZmECtF0YMQk2omEY66kMbcdrKJ1ui2+zwXEAK5pKZA7cCvNffuZFIC geGgR2a7NK7NH06TNN9NIehuQgiBvcNT+MhrP8KHfvFitu9f4ON/9QH+8M1v5FNf/jhMYC972cFO BunfsPNvG9tYYBvv/fx7OPjRm1ksF3n/a/6eUxb2EEIgz/MNn69b5TNv42cbVeYVhHRzADWPMR2f pz/og/dUVTmtLWo12/zYCgFQKTQFzaIdzr7U9lKWYzARzTImFdyEMA3Uq2wKm55IKnVDcgXhhee/ gG/+/hX88g/836xfdpQP/Plf8btv/k0+dOkHccFxOqezm5Mbtb/AkL3s5WPXfIRvvP8L2LHlPa9+ D08568kp1LVMJhNs4uudqwHm2PhNG111NkSVZkSNNj5UjGOKLIcQcL6KdPNKnJ1IZ5pK5GbecZ8L gLVFrqjVlOTJErGBMbF6tTAKkzV27dkdadKDwzQnIo32Ci0DuIY23q3n6hlrca6MdXIaNrR+dRMu 3QU/abCT3/2+1/PV3/sqr3jmT7J0zWH+4S/fza/94S/x7sv+kqVymdM4jV3s4nRO4ytHvsI//NVf wzF480+8medf8PwNsf2szZ71XkKyzd22NFJVkvcO7ytCcPiE9MWDGzDNePOEFWgcq2NUKGwG4nDV ONHFZTEaIKDeJSZSi1fdeZ8LwNg5I0aMCLgyslpbid6+kcDe03bFnoDBImWwrJcwUcu6F9a9YbUS VqrAagVrThl7wUvGaFw2TZOuqhq+35YTSI/b5NndoEfsfQTvfOmf87n//Hmed9bzWLvjGB98x1/z K3/0Wt7yqTdz5+oh9h27kbe94y1wxPPjz/oJXvXUV20I9bqZvumYvtODmLRgV2C8q9JgKLBZjmQ9 guRM1DD2MFZDZXNKyRiTU0rBRAqc9Cglo78whPVVxCq5TfT4NscYJStyKh/Iix7eh6P3uRNokcoI LjPg8ywOPZRIbLS2vso5553Dc17yYk4993QOjSFUfe6shMGwIHeWvBLyXMgLoZdbetYwLB07Fwco nmpS0ctzUIPzZeIRlOM2WdTwbL1ZNUDzhLMfzwf/rw/yoc9/iHde8U4+eeCTXPyP7+OfP/8xClNw 7NgRLrrgIv7wB/6AzGZTGH9XEGrYtx5BEyF433HyYjGCcxWZjaNnXVXiVPGmj0coTUbpM8ZlSKNj HM4JpYvn0vkcp3Hw9Xp/gb3PeDIPe/j5zRg+7yucAEYbJnLv8ivudiLvnnre9e2Nf/Wx8wdnPOZ9 62b4yF6RU1UelQLFYyXQywuoShgvI2GCEW1GykTos+4oVqyARTl525CdCwUPOmUHp+7osWAFX43o D/JkIM0Gp7FVx+1gh24yqd7MOlnjnOOzX/ksf3v53/LpfZ/mdnc7F550Ie986Ts57+zzGrx+s7i+ O1FcO5nNmiQ1TkkjDpqUgEpOScahVcfNh5Y5sjJibRIYV4HKuTgPuJ5BlCpY6iHVpreNsRsw2DZk ZW0VazImwVEMekyqip5AUR5BtNr92ueee+Q+1QDry8vl4oPEZyYSQYjJmxk7wRiOrq6xbWEBGZzE ZDKOajTlb60YVDT+fe1YIdy55ijWHDcdPczDTtvOQ07pc8q2AZUrowrc0EGjnU2okcjpGNx7T55H pMx7jzGGi552Ec988jO5/fDtLK8uc8aeMxgOh3Eoc+LlO14lj3YHQ4TagYv5D5N4fIIIagfcOYYr b7qDW5cqlipDJX3U9iC3mMIgGiJFnLaFijEkjIOlimHBymg99gOIYm0qGMHRQzGhPBbKdb3PTUCm brJ07Gg13LONSgOZNeDjF9KqYjjoU1ZlPLm2QK2lclWsftHI76cm0sOhcVS0mBw1wmoYc93hEQdu P8AjzzqJC88+Be+1cZimIdd6IljLKlqbgm4I5xJxVdeEnH7K6ew5aU/DTzhrWo7X0TM9GTSSPeTW YEQZTyaYwSL7lyZcdcsxbl9T1vyAUAwwtkAxBB9Q0w6prAVWiFT4IShZZhhXZcyiGsH7CA9PJuss ZMKufsb6qPqnI3fePoJH3bdO4LBH+Y2vfd2NVldYHPTwwaUvAHkqZtTg0+QvIQQfGUFj3VA7yVNr GFTJrMF5jxRD8h17uG3J8b/e9zGuO7AEtjNWtsMirl0QorP5Xb+gqqpm9HqtCeoFz7KsiShmN38W 7JmN8Rs4u6Z1E6WalPQGPY6tlXzkM5dy7W1HyRZPQbMBziXwCsVqZ9x9QlIzA5kIWWoDDy4OxvZp JoK1QjleZ7GXsXdnn3NP24aO16//13/+lLvPo4BnP/1xk/233eQ++6lPsHL4MIvWsG2hlwoZ46m0 tkjbEuPVOoVKUpdWTUN94jUOXo68uMpk7Bjs2MvtS453vf9jTJohD4HSTdIQiDoenn86m166Ttq2 G851/3/e5tez/1S18QtmAaA6rA2uwjlH5ZXKW6647mY+8a+XkQ134INLWVEw9QRqiVrTiCBeIwto mh8cqLN9lkwy+nkBwZNpYNe2RfbsGHDmqQNuvHEfV135raXbbtl/37OFP+kRF1SFEXfs0B1c8dWv IkWfk/acyd7TT6fX7yHBoFbaZs3Yy85kUtLLIkWsJjLkLMtZyA1BA95PsFbJDKyWFcVgB9fduI/b Dqxx3qkDEB9pVLWBwqdO7+yp7WLz8zJ1m414rTXGbAawTgq1oFBLTRuCYvOCSoUvXXo5pfYJpohD XkxOnicNYCySGcqJm3JsN8DcVnAu+jfWWoIrOXpomTvW7+SyL9xBGK1w6PDhpWpSbQld/MRXrsqL AcE5Dh64ma9+7UrWJiX94QJZlnfoXVt6d6Ed8aIhUPQKtm/fwfbt23joQ87inLP2sNhfZPtCTrnW I7OGyaRi/20HOGvXWVgbsGJRU0/tDFOQ6uwJv6savdmwcTb06wpVHUVMD42QiFsQkbpxNaIMnn03 34rqdsal56RswGRtlWNLK9x5dIkD+w9w9OgxVlaWKSdlGpUXi0Ba4utasGPDjXeeqlyjwHPSYo8L zj0bG8ZUXlav+Je/Ufjr+1YARESf+RO/7fEB42PrUmYM6gMryyuxPUxs4gWQJkcQhyxqYxoADhy4 A/XKld+8gt0nLXLhIx7C0572KHbv3sXOnSex/7qSldEaa6MR/dzQ79vGefK+G5/LpqHbZvZ89r6u IMwWc9QJodo0RFKnjF6vwFohOA82ZzIKjCYeyQoqp1x77fV8/RtXceO+W1gfjyknVaySkpYrkdnx lRL9pthoqwRfoa7kpIUB/d4ikGnwIiGwdo+c+HujJMy7yhurhOA7LJcxzBNjMSaPnVQd582lQlCj 7WTPPFcIhnJScsfBJQ7e8UW+8Y0reOqTn8Dpu3axeNJOltfWGY8rhr0Yrvmg5GkSeY2dz8vXb6zH 17m5/M2EoP7/Gg3ME8V97Uyura1xbGWJldVVbj9wgJtvPsC+g3dyZGmV/lnn87XLruLaa65maWUV awtMUVBgyUSoQsBY0+mXlE6zSMDaLI6bDw6bF4llNU5i9ypCCFTej7dOAIL3qhHQSFNjoq3yNWVs aEAOaSP1tAGxzy0E1yyyyQ1Bc4z0OHyk4qMf/wKPefg5bF/Ywer6iMrF2byWgIZYiGqknffb3ezZ kzzrGFZVtWE6SVdw6o12zjGZTFhfX2c0GnH06FEOHjzIDTfcwI033siBAwdYWlpiNBlTlY7V0YSR 9tjz0KcwqZRvX38t4/V18rwfzUpZYqzF2IysSZKGmexgHa1EoCio4H2FOofvWSS3BHE4P2G9XC+3 TAAQUR9coxprWjOngglmqlQqoKjGSeGqQnAO7QyGColcqiwriqyHmJyxG3PlNTdw/oO2AZbgHePx mCxfxGaxIjjL0oQvlbk5+XnUckAD/NRh4mg0YjKZUFUVq6urLC0tcfjwYfbv38/BgwdZWVlhNBo1 uYE8z+n3+zzsYQ9jMBiQFTllOSGQceco47ojgW/tP8Dy8hr9XjGlSbz3jMpRo0lSIx2z08wb+DmE ZshpnWNQDfgQJs65rROAhWxwbM1DFWJjkxGbNroewixpZI9pHSZNJBImm6JAtwrqPYW1aKhi4aMR 1kZjbru9ZFRWRJq5aDZ85eIMouRM0mkxq0ke6w12zlGWJaPRiPX1dcqyZP/+/aytrbG6uoqqUhQF WZZNDa7KsowzzjiDhzzkIRRF0Vx1hGDTwKsQAmVZsba6xJ2rY24+Frhs/7WsLK+SZ+3EiG44mec2 ZTilya60/e+pONXkKTFmkJRzKFJ3kMHiSr86GZVbJwDDXn9ptF55F7wN9ZBEjeGc1BsSmvqBBJhH fhtk2vHRZmy4n6rlE2sIYjh85E727dvHrp07GC5ugypOIi9T/O2cawAe7z3ee8bjcWteOpPIVJUd O3awc+dO8jyOiB0Oh42dn1f2Vb/mZDJhPB6zurrKaDSiqirKsmI0GnPnkTs4tLTOHeWQw0fWCWFA IKBimiOw0fHs5JRlto45oEFQCZEhDAha4xGKd7rqq7CFArA4OHJ4vfK+8jbUg5p9zPWrCXHcuZqp 9i/VSH40m1fX+nST/kYh2Dh/KLjA9dffyI7ydnaftJPFbYv08pi1M7bd1PrU1ie0Pq31Se1etY8Q QmBlZYWlpaUpytjZCKCLJ9RmozYHvV6kfC+rHYzUcuSo4IPinUeKXpymGu6qFlLnlkXW1dMhxOmh dc1ACAHn/VpVbqEGWFzoH9Rw1HlfFSoFph7NXpsBbevbatMm8woqmnGoKUCUZLu9RRQq7zlyZJnb sxWsCJWr6Pd6WAt5VjRZRZ2zad33qjVE177OK/CYrTbqXrWW6J5i7z3lpGS0PmJ1dczySsB7RZOQ qQmxsFS1Ga59YnVvCQ/Q2Ra2yB3kvV91fgt9gOGwdygE50LwEcrsjlXtdP1EqZAm6TGLx9TNpTWz V9y4eqZ0nSyIaVKxkX3ch4AYYeLKCCsTH5utvq3t+WZs4t26wvr3WRRwXlawqxG891SuYjKZMBqN GK0HjPSwNsdpzA62083uRuIuLafOSUz54PHer/nIJ79FGmBb/44QnAuuAsmbCWEaOxkIpp0kqiHN Be7kzjeDQA0R6PEJMwg+MFqfsLYmrK6uIgacsfQGeSylUoM1GeLdhs2RNLfgePH/rJ8wmUyaSSbd EHFexhAisfS4nDCeRJ+jdIFRWTKZZGjejz6+akP42KrD0IA+c1HKuhU8hDhAspPz8D7gQ1gty8nW aYAdCwt3BnXeaUDqRVfQ1AbkNSTaOCEgDSnExt2PJ8OkGrpGTafC0UCcNJ7nhqIoWFhYIDc2tk8H FwctJYqv2fLt7uZ2T/Y89V6/73A4nAsdbyB3Tn/jnMOMLKPxmHwiGFs2I+1VNfVE1JrGTUU/m883 TNPJ6XyXlMcLGkk4Qwir3o+2TgDOO++MJeecFxcwWYIs0SitxmJVCU0hbAt4hg1wQlR1PvgpMyIY gkZBKl3FaBKoxiNGKwUuz6nKMoaGIh3wxE8la7oqv7up3YhgM2KH2frDrqDU4V8NDa+P1lNkULE2 KinLPiFkeAmR9x+fPqKdPuOb0tKlz6btCF4SNYwPSukqyrJazoyfbJkAPP2Jj1gOwQVfa4BaBLSb lKlHvMbN7TaEzC+bngmVUuSgCtZY8qKgPygo8j5ZZgjBJUzdNOXZsz7AvIzf8Ro1ZjOI3ed3I4gN xI9Iau9KOEjtFIcOA6WGuTHAfA0AQqTbDSHEKqOkUVQDXsPq0nUf3ToNcPqCXfXeB5zD5FHNaYDg NcLAIpHkaMbZ26x5s8ur2x6EENcs0c5UVcVkEhlCXBanaIYELRvmN2nMOnPzppPPPj6v3HxefqEJ J1UZTxxZWWKNb1C7Sh3GhGbc/WbJqeOKQQr7aOsa1DknlXNrh29b0i0TABHRhz7/1UGdwziX6vfT KfMx2VNzV8zjAJiFakPQDacNBeeVsSsZrTvW1kYYE4dOx1nEiknTNWY3u3vKN0sUdTdkNl8wD1Zu qqJTgQsmPm9tfZ2l5VWW1jyraxNGZR+vOWpMIvnaPDU9vymmLT2veyc6z5OyrJiMytE9Lunj3rop wXuP847ECxVh3Br27EQ+G6Vd7sK7jhXGaAR4iiJnMBiybdsO8txGRm0NiNi54dnx2LnrZNCsEHYF 57hcvxqjE4zgXEWeRUSx5xw28zEVLjYiedEFBr17LNQikTUUTQyhocUwytJRluX6lguAaljXEOJi hCjpGmgKNSKyO68FrO6FauFP3QgQoAG8KuPSMVp3rK+tk2VxFG2WC4rDYBtqle6mz1K1d734eae/ mweYNQmzlUEAmnUFq6SqKirnKSuHcykvIp3IR02y6RIR0jRhZVPlX2sunR5qpUFx6irv/drWawD0 SPyg4DWVRxNS21JCs5AGratVZkwFhKZzRrsnrJmPFx1A7+OsHd904kS8wdRj60OiqJuD7M1Tr10U cB7yN2su5vH6dN9LVTHWkmeW3HocgpoMV4U4A8CAwWykidNuOfgsBBjXLYTYdaQhaSdNSLoPZQjV 1msAYzniQsAFJWhkBA14pO6cCc3MU7SJAaVlCGF6mGQ9/MGI4AlYFBegUo/XQMA3oV/wHmPi4qMy Nw3cvW8ezj9PWDYDjbrC04SWChNXMRlXjNZXqcrA2voIzyIhTf9S9U1EExptGGgGaM/rQ0jxYSwW BaNRY4bkE2UhTIKrtl4DDIb9Q+NRbPAI9akO8QvEL5USQsgJt4CH0GoKbRRCrDgxJo6cr1G6uIA2 KZP5vDxdAKgbxnVNQ9szIGn4hE/CqJtGK8YYvAaqyjEZV1gJhKzEmAm+Cgmtc5E+V2AjH71u+h6z YWhEWOL7elU0+JonfWsFYPvC8Mjh1RHqy1gCJjHu1cR+1R57s+FkHsevIARpKojqtfDBNzF1zPwl AmWJ3ESzAtDtBZjnzM2Ge5GDt24S8U3y6HjNqNbYNCzLI2oIQZrUsSCxFlxd5zVOIBlUh8pp/aIj GBo/x3mPVFUZvN96AVhYHBwJ+1cQHwkWG2RLtYkGWonW48a+Gzar5tMljk9zVZVKx33EF2ycUjrx VVLxMhe167aJzWYJ5w2njBqgLsrc2HRaU7zXAuNcYDQqGY/HlGXFpCzxichJOjBuXdRxVwkhITGB 0T6fbo2C96hz4xD86pYLQL8/uB0foq0y8xB+7fx2fOLGWYClfg7aYvlZr6A/6NPv98kLg5ClcCnO lZh14GZfc16//6wQts2h+RSdG9CWcTUmQhAJlFVAjGkqnq3NwKWspbSgjjRz4Nn0MGidVK/pgLRN DUuChb3XiYb7gQboF8WBEELK9rbEB03Dw8ycnYBuwL+PO1evUf+B0WTM2toaK0WGr6DfL4AqzivW ll2n7UJOT+80cHQzzJtuwAx7eYSiN+cGqlxgUjomZclkMsE530wda6aCS+It1eO9V9cZ7nAope6n 1F2Rpu/qRP39wAk8aaF3ByndmdW5dGPSotU98+lrmYjXy3FUf/SVYvuIpOeoxhCzrDyj9RHV4pDQ q3BeEjlk8pbFxhRrgh+DegjxhIYUdxMUH4gzDVRi1VI6mUbS4MMmFastH4+2k8/raa11R5C1QpZ5 LLBaZbjqDmzPIl6bjWcTItNN/SGZZjqOJBMZAYN3HvWhpDy29RrgjN2LhzUNjWpOobRlYJIKABos PHHgzRuerFNUoW2FT0j575B0TEMzk1StaGw3Dz563hpczL93bWdyLuvYW5rQdCPNTJ7laO251zTt Mh9DMJKBUdS5VMOYJY0tEALWZPikikRbHqANyOIGrSfN5neRQZW4FkaZFEev3HoB+KGLHnvsTX/3 +WnvFeUe8BdPa4FOeGQ1ICr4UjHSZ1AsMuwtMBj0MYVJnLnzJ4bPY+uahYzrFHT9nDiv1yQH1HWq leIElAhOpaZRF6uBnIuO3/JoDScGxaIpQ0minUemPaATIcbS2QOiYIIiyOTWm/dVWy4AD3/4haM9 z/pZVFUVL3eV5DxRHHxmmgSVh337D1P0DJX37N25jcEwjyZCwgzpaksPX9vTyLlvpqQszTudTiCp T6wdBjFx+IWRDJO6OGJ+Q2KVMyBBGFUl4/GEY8sr3Hjz7ayNKgaLBmsEh7sXVrk1RXU62IhOvpNX vBehYFD1LoSQBfGIbBJ7i04ROd+1GujYcrGMxTCaeIbLE7RYwQVh+6Qg7xUdNR9axdlAzImCndBR rbWGiGnkLtlACNpM8+wmscREc5EmJDWVS94FxpVnZb3kzqVlrrv1CM5vTzyIaUyefOdHgilOBE/w ful+JAB6WNWfqmqRqYqXbgzT1oae2Iu2ncUGsPmA3o699HadyYox3LTkkWMlJq9ZNbRh2zSdk9+J R9tIoxOO1oIwPcLGT5WmteBtLHapIeC6DqCsFE9GUexBixGGIXVRmxgTq6LuAam/zmQQOxGIV62O 3W8EgOAPEfRULJ1uV7peYBvHblABOpUaTupi6rEY9ViKhV1s231OjCZ8oKwq1NqYheyof6UdTtG+ bGpBq4EYPc4pk3aap0o77DJ0o5m61kBMEopYpFocLjHHSlzpo8PaZPLlhDe9gR7C9Np0eiA9Gu4/ GkA0HIZoF4NCZgzOhabCN4SANSYVeXbLwutWKEnxdid1mxrInXpC6bGu4rTdJ5FnOXnRQ7EYH7BZ S+NaA4FNMbKEdvOkZjRt8lFISLiBBCQ1sKhJPXxEMxBfIyJ/da6jaUgFjBpCqLDW0Mssg+07MWt3 4kKFzQcETV3AJBLI4zh+zfRa7SaklIBrmFhDCHjVYO5PAlBYe7hMalulnXhRb263aLOLxNQZQWl+ n4MkplTrKXtOZ8eCpV/02LZjG6NKyIIycSWZPR5ffjiO6ZITg6TTzapPGiROR2tGvQcbB2QHpRhu 58JHnskVV18Xy8vzomnwnEInpxSdbNSGurkvoKjX4JbvNwKQF/mhCXHKFhpHmrTUJ9pQxMyCHO1C hynIVQktdqAWj3Lq6Q/i6U94OEcO3MK4HOODJ+8PEZfsv3bVbHf18uMIxRzzw+bJKsXG5E+YyW2Y ON5F8oyHPuJCxmPP16+4BlP0EBNp3UwKA6e+t3S9HJ3+5MKUKRUTS+01apOA6v1HA2SZPeQnke9O bELUpoyaTP3ezO5SmVn71kGY5gCCa799PQ8953Qe+7gnsry6zMGjKxy68ygDm3fe73j+BBv9ku68 +OZI1jQt9UT2rpmK1TgNt3/bvgQog+Eiy8trfPlLn8FkRSR8TP2D6ruF8d0T3h0f030sMaqkx+Js ZpNyEMEH5+5HAlBkh8K6Q3NN820tRlyytWneXeN9QwuIz1TcGhOzXw3tW2yZNhZWRyMu/ugnuPqa q3nwg89Fs5zRJNAfWFyVCCrUJ2evNkVRO+g8xTB1ylMBi7SdC+3zQus7SE12E5rBDaHyeAKT8Zib v/ZNbrvtdtTF0S95luO867igphU6oTO/YGY9pM0j1LUQcVJYoz28D/cjASh6xZ2IS6WvGkNrEwkP pS7968Sxonbe/s/MxdNEOZNei5yV8YQrr7+NK67fj8HGZhTnkMwmYQsp4jRTS6ozh7+rFKYzlp1T qZL+LoWM2pZoUyd2pCZvSDwEIeYeFofbGE/GsXvH+ZYa7wRqITYIaFo70yKbqhrUaLj/+ACD3Hy7 kLqvN9U7JrLDFqIlCsTxIqJOuq5OB7ez9ISsN8BFfhyKLKcal3FO8cSnruLOqFiZk3ev8YB6bYOZ wZ6TEBmJj9WvUWMSU7MJE8TbTP3OyEyGLQpW10b0+wVlOaHoFbFgVo7TBTS3IqD9TNpxOEW9WPxR u7p/33cWuX2HZNGzkrzrSa/8h2z7qS/22YKWHllfGxNUyIsiqbHEGKohgkVCHH+aPOKQun3rgSgm Pa51+rhG+zrz9aSZnGWOm38InUc3m9ZrZmoXJM0sgJbfJGxU5NOFotJ+3tqu1zmEWqDrwXamo3u6 2940R2kgBE8IHpspvdwyKHLN3Eh0vPRf93/2ra+/67TyfQUEAbt29N90dHTsRQsnL9gsFOrLIKPS 4QOYrAAjVD7V4qdliAMVEjZgJDGIx2LQ0KjAAMGkvrhUXVvn6NPxaCGXpAW6Rr9bha7TXjbeND5X 6MAwKiESXaZ0cGQ3SdC0jfhM+15RHLpmR4n5iShZ8ZMFbZ3PZsAE063ymr5HzFPEdndrBV9NsP1c C6viJqObq+V9//M79tvubQEosmOfGWaD/zw+etvvZAt7in4vQ2yOUxsdsgQDSiKHjicitKFR/cUb FS3t+BTThomKp50G3OnwrbtnpqDGOSZgOrDvJp6bGsZA6Lxnqz6kRhaTOatNhIg2E01mw7wG/k6Y h9GQegVqx3f6w9WBhZXIEmoVXVhYkGGBlGtHri3Xj/zk0csvXvpO9+teNwEAF1z0g1nFSa+cVPxq SfYQkw1Rm+MxiiLOe7zzM8pYmpBserhz3RqdSqS1o747AyiRCMOKtqXUnRU/weTztMvYjHYVZoZd dTc4nd6kszVBt9EDnu7srSvjpdsXKW3CSppClNgib43BWqNZJiLBo64KwVd/U46Xf+/ol//q8k3y MVsvAACvfM1vm4v/+Ws7d5+8/SWTSflD40n5tMq5napQlR7vQhoj29b7NW1Q0GTaSHPyahveEE53 TrbUy6kbYrzmMWmKVLrVuImISs00GiedDe52LanpPNate4ger2+IrWSa/EpNjetGP8hs/IwuhMiw agQxETrP8owiE4yV5V6/93axxd+urq5dcefX3js6TkLu/iEAs7dTHvcDUlWxLNpVHle19e2QOl6k Pf2Caeyj7QqACLNVpyJ1hY/MQL6meRWZ8uBlyi2cEoCOaxeduY6rV7dx1YUZ3QXvCsCGNUkCkJpe WwFozZ5LeRKSAIhEDsLCCsYqhy770Alt1H0uAA/c/v99Mw8swQMC8MDt3/Dt/xsAT9wicoVzV+MA AAAASUVORK5CYII= "
     preserveAspectRatio="none"
     height="16"
     width="16" />
</svg>
