<?xml version="1.0" encoding="UTF-8" standalone="no"?>
<svg
   xmlns:dc="http://purl.org/dc/elements/1.1/"
   xmlns:cc="http://creativecommons.org/ns#"
   xmlns:rdf="http://www.w3.org/1999/02/22-rdf-syntax-ns#"
   xmlns:svg="http://www.w3.org/2000/svg"
   xmlns="http://www.w3.org/2000/svg"
   xmlns:sodipodi="http://sodipodi.sourceforge.net/DTD/sodipodi-0.dtd"
   xmlns:inkscape="http://www.inkscape.org/namespaces/inkscape"
   viewBox="0 0 16 16"
   version="1.1"
   id="svg6"
   sodipodi:docname="media-album-repeat-amarok.svg"
   inkscape:version="0.92.1 r15371">
  <metadata
     id="metadata10">
    <rdf:RDF>
      <cc:Work
         rdf:about="">
        <dc:format>image/svg+xml</dc:format>
        <dc:type
           rdf:resource="http://purl.org/dc/dcmitype/StillImage" />
        <dc:title></dc:title>
      </cc:Work>
    </rdf:RDF>
  </metadata>
  <sodipodi:namedview
     pagecolor="#ffffff"
     bordercolor="#666666"
     borderopacity="1"
     objecttolerance="10"
     gridtolerance="10"
     guidetolerance="10"
     inkscape:pageopacity="0"
     inkscape:pageshadow="2"
     inkscape:window-width="640"
     inkscape:window-height="480"
     id="namedview8"
     showgrid="false"
     inkscape:current-layer="svg6" />
  <defs
     id="defs3051">
    <style
       type="text/css"
       id="current-color-scheme">
      .ColorScheme-Text {
        color:#f2f2f2;
      }
      </style>
  </defs>
  <path
     style="fill:#3daee9;fill-opacity:1;stroke:none"
     d="M 1 2 L 1 14 L 4 14 L 4 13 L 3 13 L 3 3 L 13 3 L 13 6 L 14 6 L 14 2 L 1 2 z M 12 7 L 12 8 L 7 8 C 5.892 8 5 8.892 5 10 L 6 10 C 6 9.446 6.446 9 7 9 L 12 9 L 12 10 L 14 8.5 L 12 7 z M 7 11 L 5 12.5 L 7 14 L 7 13 L 12 13 C 13.108 13 14 12.108 14 11 L 13 11 C 13 11.554 12.554 12 12 12 L 7 12 L 7 11 z "
     class="ColorScheme-Text"
     id="path4" />
  <path
     style="opacity:1;fill:#f2f2f2;fill-opacity:1;fill-rule:nonzero;stroke:#3daee9;stroke-width:0.0495356;stroke-opacity:1"
     d="M 1.0006192,8.0099071 V 2.0408669 H 7.4897833 13.978947 V 4.022291 6.0037152 H 13.508359 13.037771 V 4.4928793 2.9820433 H 8.0099071 2.9820433 v 5.0278638 5.0278639 h 0.4953561 0.495356 v 0.470588 0.470588 H 2.4866873 1.0006192 Z"
     id="path4487"
     inkscape:connector-curvature="0" />
</svg>
