<?xml version="1.0" encoding="UTF-8" standalone="no"?>
<svg
   xmlns:dc="http://purl.org/dc/elements/1.1/"
   xmlns:cc="http://creativecommons.org/ns#"
   xmlns:rdf="http://www.w3.org/1999/02/22-rdf-syntax-ns#"
   xmlns:svg="http://www.w3.org/2000/svg"
   xmlns="http://www.w3.org/2000/svg"
   xmlns:sodipodi="http://sodipodi.sourceforge.net/DTD/sodipodi-0.dtd"
   xmlns:inkscape="http://www.inkscape.org/namespaces/inkscape"
   viewBox="0 0 16 16"
   version="1.1"
   id="svg6"
   sodipodi:docname="object-order-front.svg"
   inkscape:version="0.92.1 r15371">
  <metadata
     id="metadata10">
    <rdf:RDF>
      <cc:Work
         rdf:about="">
        <dc:format>image/svg+xml</dc:format>
        <dc:type
           rdf:resource="http://purl.org/dc/dcmitype/StillImage" />
      </cc:Work>
    </rdf:RDF>
  </metadata>
  <sodipodi:namedview
     pagecolor="#ffffff"
     bordercolor="#666666"
     borderopacity="1"
     objecttolerance="10"
     gridtolerance="10"
     guidetolerance="10"
     inkscape:pageopacity="0"
     inkscape:pageshadow="2"
     inkscape:window-width="640"
     inkscape:window-height="480"
     id="namedview8"
     showgrid="false"
     inkscape:current-layer="svg6" />
  <defs
     id="defs3051">
    <style
       type="text/css"
       id="current-color-scheme">
      .ColorScheme-Text {
        color:#f2f2f2;
      }
      </style>
  </defs>
  <path
     style="fill:currentColor;fill-opacity:1;stroke:none"
     d="M 2 2 L 2 3 L 14 3 L 14 2 L 2 2 z M 7 4 L 7 5 L 14 5 L 14 4 L 7 4 z M 4.5019531 4.0019531 L 4.3125 4.2207031 L 2 6.7207031 L 2.65625 7.4082031 L 4 5.9707031 L 4 14 L 5.0019531 14 L 5.0019531 5.9707031 L 6.3457031 7.4082031 L 7.0019531 6.7207031 L 4.6894531 4.2207031 L 4.5019531 4.0019531 z M 9 6 L 9 7 L 14 7 L 14 6 L 9 6 z M 8 8 L 8 9 L 14 9 L 14 8 L 8 8 z M 9 10 L 9 11 L 14 11 L 14 10 L 9 10 z M 7 12 L 7 13 L 14 13 L 14 12 L 7 12 z "
     class="ColorScheme-Text"
     id="path4" />
  <path
     style="opacity:1;fill:#3daee9;fill-opacity:1;fill-rule:nonzero;stroke:#ffffff;stroke-width:0.0495356;stroke-opacity:0.94117647"
     d="m 4.0057792,13.995459 c -0.018163,-0.01816 -0.03343,-1.818163 -0.033926,-3.9999999 L 3.9709519,6.028483 3.307635,6.7219814 2.644318,7.4154799 2.3240292,7.0687307 2.0037404,6.7219814 2.1550755,6.5486068 C 2.6253726,6.0098189 4.4909393,4.0222223 4.5156843,4.0335867 4.531818,4.0409964 5.0974087,4.643687 5.7725526,5.3728993 L 7.0000867,6.6987398 6.9022128,6.8341996 C 6.8483824,6.9087025 6.7010807,7.069969 6.5748761,7.1925697 L 6.3454131,7.4154799 6.0878769,7.1430036 C 5.9462319,6.9931417 5.6464396,6.6740135 5.4216718,6.4338297 L 5.0130031,5.997132 v 4.015675 4.015676 H 4.525903 c -0.2679051,0 -0.5019608,-0.01486 -0.5201238,-0.03302 z"
     id="path4487"
     inkscape:connector-curvature="0" />
</svg>
