<?xml version="1.0" encoding="UTF-8" standalone="no"?>
<svg
   xmlns:dc="http://purl.org/dc/elements/1.1/"
   xmlns:cc="http://creativecommons.org/ns#"
   xmlns:rdf="http://www.w3.org/1999/02/22-rdf-syntax-ns#"
   xmlns:svg="http://www.w3.org/2000/svg"
   xmlns="http://www.w3.org/2000/svg"
   xmlns:xlink="http://www.w3.org/1999/xlink"
   version="1.1"
   id="svg2"
   width="16"
   height="16"
   viewBox="0 0 16 16">
  <metadata
     id="metadata8">
    <rdf:RDF>
      <cc:Work
         rdf:about="">
        <dc:format>image/svg+xml</dc:format>
        <dc:type
           rdf:resource="http://purl.org/dc/dcmitype/StillImage" />
        <dc:title></dc:title>
      </cc:Work>
    </rdf:RDF>
  </metadata>
  <defs
     id="defs6" />
  <image
     width="16"
     height="16"
     preserveAspectRatio="none"
     xlink:href="data:image/png;base64,iVBORw0KGgoAAAANSUhEUgAAAEYAAAA+CAYAAACWX20oAAAABmJLR0QA/wD/AP+gvaeTAAAACXBI WXMAAAsTAAALEwEAmpwYAAAAB3RJTUUH4QYCASgWnM4uYAAAIABJREFUeNrVnHmQXNd13n/33vde 79tMzwbMABisBAYrAZIAKQKyuIHaTFk2RdtSSraViu2KUkolclKu2HHssqssmZYdp8rxElu2LJm2 rCUmKS4iKRHcRIAgiZUAAcw+GMy+d0/3e/fe/PG6e3oGA4q0HFeCqq5BD7pev3vud77zne+eB/Hw w7/Pv+QfpRyUUhhrwVqCwF/1c1IqyqWCmJ8vOolUyo/FYkgBxhiMMVhrsdb+X7tP518iGEJIXNfF GMPg0CBXB/v3+aWFg/l885mt23e9qLW+7vPWBrz0vW//V6HkB1OZ5peQ0dPgXcjmGnobGxuH05k0 nudhrcUYjTEWa83/H4FRysFxHObm5jh//tzagf5Lh/3FsYdu3tVx/8F969wvf+35i9lc46HmtvYp XYccx/W4cPb4AX/x2ue++Jufzrhe7Jb+wSlOvNmjB4cvjr49XDqLTDwrnHiPF0lcasw39eZyDVPJ ZBIlBdaaZcj6fyIwQkpcJ0TH1atXoz09Vw6OXrv0wUxc/9zR923J79+zj6gb4DmGe46s3/boc8/+ pw//xKf+sxACay1SSooLM+rc6R/8x0/9xJ6M1BMUZw1r8h4PfWSTEirRFli3rVAo33PuQj9nL1zz hwa6r/W+bV50vMxLyk10J1K5nny+qTubzZZjsSgC+55TUPxzcYxSCsdxmZ+b53L35e2D/ZfeX5wb +IUdW/I333nrRpFNu0gJRgcoJfFciesq/vjLr8wlm/ff1bXr0AnfL+F5EY6/8txR5V964vO/9H7K fkC4Dlv5aZBSopRDJBIlFk9jiFLyLVevjnH6XB9X+qaKw6PTF3wdfcGLZU9HopkL2Vx+oLGxcTCV ThvPc7GmHlXmnxcxQggcxwEkYyOjzT1XLh0e6Dv78WSi+MDhA+ujN208gOspymWfQiEIP68E1mhs YBEo7jvSmfryN176gw2dG4+m0m1zE+MjseGBc7/1q589hBAAArCAqLxXWAtBEOD788zPzyEEKOnQ nPP46H3bcdxkLDBy38zM3L6Llwa4cHlU9w5cmem9UDirvOx3I/FcdyLVcLGhMd+fyzWMJRJhCpbL pR8NMVJKXNejVCypvp6eg4O9l+6bnbry8+s7omtvv3UdzY1pLOD7AaayGdZaBCCFRimLq0CgiUQk X3/iAtdm2x7cf8ud3zpx/PiDzfHBr376EzeD4xKLRvBcB4zFVF6rp4KtfQ9YpAwRHI0miCUyWDwW Sz5DQyOcv9jP5Z5xf2h4YmSuYN9IZtqea8ivPb9pS9d3lVLWWvvuAyOEQDkOUkgmxia29PVcOTw6 eOHTUk4eumVPq9qxrZVY1MMPqhBdgn9IhhaBwXOh5JcYGp+ib2iSyeF5RobLzOl8X1tn5+jC/My+ SDDtCN8nVlwgk4+xbVcL+XVZmlsyNKWTRFwPrcMgvfOfShCtRVTSz/OiJJI5lBvD9w2+Fpw8eZrf /R9Pn/zYJ375YDqdCrTWPzyVpJQ4rkdQ9nO9l3ved7Xv8semJi491LHWjX3s/g6amzYihMD3DYul YPlt2XAfpRQoaZkuFLh4cYyek6NkBgusK8CBssfGRAO5rLfeuVZaP33zEUaO3Eb8xJukvvTfWfSH mHxykHMtOU60echO6DzQwfbNHbQ3N4GFcjm40XYihAizEdA6oFCYp7AwixACqRyaWzcwNzdHS/uO r+Xz+cAPAtD6BogRlVIrHaYnp3b39nTfNzp08d/o4Nqm/btb2Lm9jUTUw9e2Ql5cFxAhwFESXwd0 X52gu2eUhbPjdAwajsoU27wYKSEQiwv4pRKlpizze/cyd8+9lPbvRi4UiZ46S+L7x0g9/yJibIoF HE6jOJUrMbxF0XD7Orp2baVrYytaW4JAv2s6sNYSiSYIAsNvf+npk21bjx6an53aHZRmNuw7cMc3 lgWmWmq1NpnBgYG7Bnsu/fTU2NsfbWnGO7S/gzWtWZSU+L4JlesNMt2REj/wudw3xsnX+5m9MMGt OsqH3BztTgw36qIs4C/ir+ugdPc9LB6+A7+1BeuXscUCFomJRTDGIi9cIfntx4k9c4zk4DgKGEXx ZGSBJ9b77P7wdo7evp3mxhylss+7kS6Oo2hqauOb//g8X/zTN57dtXvXiZ1bm355cWHCsZH1t1UC I3A9j8LcbGdPT/fRa4OXPlsqDG7fuyPP3p1rSCajaG3R2rzjl1oLkYjDyMgU33riJP3np/gAGd4f i9MeCJJSEY9GiSQTOCZAv+9OSp/9t9DShCkU0aVFdBBgramlIYDxXAIhEX2DeN/5HrFHv0v0rW5i GAal4M9TM1zaGeHjnzjILTs31Xhu1YCoUCZMTAe8+sYAX/vGcQ4eOsjdR/Zx+tzbPPXs8edvOXjf L4qHf/9LOJjMwOVzv3729PGfz6ZN9tDN7axf14DjKvxA3xAdK1PHcxWnzvbz7afOoyJrOLy1i52b tpHJ52ko+DSeP0vSlUTGphA7uxCf+ywqlcAsFELCtgZdp1aNtVhdEWWAdR18JbEj4zhPv4D394+R eP0CUePzBDP8dafh0IP7+ODdexGA1kvBcR2J4yj6h6Z45bVu+oZLdG7YQDaXZ3R0nEf+/jGKQfLR n/3UZ35u3br2CfEHf/CHTE9ORr759b/+s10bY5/6qQ/uJ7ABVhiQFiGq+qGyg0tctlSGhUQp+P5L F3n8+yMcOPhj7OjqIplOk85laW5upqm5mWwqRSKTwZtdQEmF25RDeh42CLC+v0yZWhOW3bBEVwJm dPhTSQLXxZ8rYL/5HcRTxzA376K3KcXfvPxV2vNFfvanDiOFQEiBoySXe8d5+UQ3g9dK7N3bxbYt m3jpldM8+eTTjI/N09C27m8/9uBnPtPY0Fgol0uoe++9D2OtFm7sqZdOnPhQZ2dja0NDHIQFWQmB sKwIR7iDFpSSYDVPPnOGV89rjtz1UTo61uK4DolojEwySS6VJh2LEU+niXkekb5B1DceRbx+CmVA ZdI4mTSOF8GRoqKiHaRSOI6qdeSOUighkVIilAMz88hXTmAWi4z9widwN3bS2bGNV189SV9vN7u7 NtDTN863nzzNiVNjbN/RxR13HOTsuW7++E++wpWLZ7C6TK5t85c/9uBnPp3N5cp+uRwq+bvuugsd +BSLc62nTp2+7/KVoU4lNLNzBWJRl1jMw/MUshIkW9EmxhqkFJRLZR57+g3O90e5/fD9pNMJHNcl kUiQTqfIpjOk0ikSuRzxxUXcR76F8/jTOPNzuFOzyDfPY18/i7w2gcqkUU2NKCVRUqKUQikVijUp EVIhYlEEAo79AOe3/xDv8Wdx33obOTdP4eYukulGNm3Zy+Pf+R7/+ORrXBkosG/vHg4dupXjr73F //yTrzDYc541eSgUDZHctr984MHP/OtUMml8f6mRFV/4whcYGOhvfvnYU/9w657WO+cKZcbGFxif mCHwF8g3xFnblmZta4a25jSNuTjxmIcFisUSjz71Oj0jaQ7f9VGiERfP9UgkYqTSabKZDNlslmxz Myk/IP71bxIbGCba3IqKRBFWonwNCyWYnsUmk4ifPIq8905QErSu9TRWKbRS6J4B9N98neCbj6Fn ZjCui10s4kzNMvrQAzx7YAevv/Q80sywc2sbbW3NfP/YKzz//RdIRgLyDRLXcRgc8XGSnV996JO/ 9K+8SNSs9IXU3XffQyQSKc8vlArnz57aGxVTDZs7W9h+00ba17YSaIeJGcul3ll+cLKXN0730t03 SqGwyOXuIV47O8s99/8UTU1NZDI5Mpk0yWSSZCJJPB4nns0SKS7ifON/4w2P4rS1oeIxpOMhHQ+h HITjIBNxZKmE+MGbcG0MNnYgUgmQEuE4UPbh+y/Dn/41HH8NYwOEI4hhKBt4YX6Kb558kVEmOHLv Xrpu2sDLr5zgK195hKmRbtpbBOmkw2JZ0D0YMD7nXn3wZ37hgVxD40I9UuoQ80WMMQgBZ8+e7zrx 8pN/mVQjtyRjgIzhReOsbe+gqbmNRDLN3PwCI2OzlEolhoZGGBubACwta9azZdtuNmzoZEPnJlpa O0hlszjzC3iPP4E3PEq8tYVYNIHnRvFUqGWktgijEX6AKAeIsg8zc9g1zYiHPoLdfRN2ZBy+9TT6 zDn0wgxmfgY1NcX45CQvjl3jhWCeyM2d3HlkPzqX5VvPPs9rx0/QkDLk0i5CwELRMjFrmZw1JKKQ b8iff+CTn9/reZ6/Wml3wqojMMawc+eOc5ls5ujLx55+OLB9n26IB/j+FH2XJ7hy8U0cJ0o0lqCz cwNrN23gyO27EVLS23+VgaEJLr/1A46/9BRKKdZv2sG2m3axeXSSzbPzdLRvIhpP4nkxlHLASqyu uG5CIJVCuCAcCfEIYn4RHnkUjMU2ZGBsDJWI47mCkblpnrk2wAtzo2QPbOTokQMUYjH+5olnOHfq TfJJ2LzWBeEwVzRMTBvmCpa2vMOBHXEa05KXz0ZsEBjpeTdoJn7v9x6u2INhLkspmZ6e8Y4de/a/ 2MKVX1mbK0eMLmItaGux2uL7AX4AQkVwvSgd69ezoXML6UyOaCzO+MQUl68McPXqOONjk9jFIh2R DFsb19K1Zh07mjvoSDeQ99JYY9BBGWkN0gIGCAJIJuDwAeyBXZBMYC92U3rk2zz24vd4ZugirbvX cvDQXsYRPPLoU3RfPE8+BZmkwkrBTMEyMW0plCwdLS43bYjQmncxRjM9W+L1txvPffRnPrs/Ho+W boiY0GiSNeTkctny/fd/5NdffvFY39u9r/1hS8om0nEZWgWugIhXCZTBmAUGu89w5cJprHCRjkdL 6xpu2rGLfbu3kW3IUQ4Ml/sG6Ou9yomhN5k//RzNKsrO7Hru27Sbw53bwQRhQHwfNrZj7z8CG9qr rRti20b+3vX5h7ETfO7ffZLegubhbzzGcO9lmtKwaY3CWMFUwTI+oyn50LnGY9uGKPmcYnHRZ2K6 iBCVrlzYH25thrZiqF6VklhriEYiHHn/7f/rr7786mdPXzF7mnKCqAuea0nHIR4ReI5AOALPlSTi hG2DKTE5cpln+y5hhULKCI1NLey9eT9333kzjfk8XjTKyPg4b545z6989x/49Pht/OL+D4QhuPMA 9q5DkIgvk9U/ePU4f/e9r/Hxh+7kK8eO88qxF1jbAJvaFL4VjM9ZJmY1xgg2tkfYti5CJqUoFH3G JkqARUmBFEutxrvyfKvIqZgNICxBoN31HS08cM8hHn/iGda2xFgoGibmNWMzFtBEHIhHIRoBRwmU kkSlIhat+jBlijO9PPedHrSVOF6EhsY8u/cd5NDurWSdCX73rx4nozx++ld+FQ7trXl22FB5Dw4O 8sXf+vccPbyJl06PcPbkS2zrcPADuDYbBkQKydZ1UTZ3REjGJfMLZcYmFivWiVhan60ZCO/dDBci DJSQQkyMTYjNR/dz2y176L1yliP7M/i+peTDxEzA0JjPzJxmesGgtamZUVFPEHElygHHccjlbGX3 fXRxiGce/zp/8Vfw4/ft5ZOf2MfvPPZdGscf4l721pAihGBmZob/9mufY8/2JG/3zHD2jR+Qzzpc m9KMzxginmTnxjib1nlEXZibLzM6rpfWIKhraQQCi6hhRry7wAgB1tb2CykEvq859+bLfOjeo/zR n1zlrZ45tnfGkUqyISHZ1O7hG0EQWKbmDIMjZSamA+aLmql5QxAYXAfiUUksIolFBJ7jsLYVclnN E8+d4sgdXXz4/i38+m/8B9INDRy84/0IEXqwv/ObnycXG2N2Icrzzx8j6lre7jckYor92xN0trso YZmdLzE3q2voF9dbTBVrBdD2h6aTc0PvtHI56ShmpscZGTjNgx+/hz/7i79jTZMhlVBUm1dHChxP 0N6sWNfsoA0ExjK3YOkfLjM6VWZ2XjM/rSn7od+bjEtyKcWmtZJnj53j1v3bOLQnx2/82uf4oz/+ Klu2dfGlL/waxckzuNEMf/v1Z4g4Giftcmh3nHVt4RHN3NwifmAqfnKIBVHt7USdly5ZQo8QSIF9 J7ZxVrXvVoDMcSP0XD7Pnluaef/738fJV1/gA7c11H1JCFmLxSCQClylyOegpdFBmxhaW+aLmr6r PiMTZaZmNQOjIaIinuL5ly6wZ1cnLbkIv/Ubn+fA/pu5cOY5vGiKr371GTrXCLo2pWhvdgm0Zmam QKDDAEhRXb2tWJkhYqxYyoQwTmEyvecDtyX3vRLiulApx+Hts69y58EPcelSHxd7rrF7Wwo/CN1/ IWX4s3pjlUsZKxAIHGXJpSX5rIe1MfzAMF8wDFwrc3XMJxkvc/psD50b2sikL/Dww8/xwAf389pr J/jInXE6Wl0WSwGT00W0MQjE8oJhq+RY97ZSaUO0VMuRXSKdd8sxS7i7vlJJKSkWi/RfepWf/NgR /vTPv87aljINWS+8vK16N5U9ESKMrV1+6UCHn5NCkU0IGrZG2bnJIxLNMzYtePLFq8TcJta1CC6d e5UPHEizuBgwPllAG4usIOQ670wuX0Y1i0R9JaqLzQ89BFiNX2qRFNW0CquN6zoMX+1DlHo5ev/d vHpmrhKQJUe+ipowLqJa3UIUyYqXUl2cEPjakkxl0LKRc1eK3NKV5ugdWfZsSeMIzeR0gdmFMqZq DwmWB0XUzgMqaFiBhRVUU00l+94Cs0LLVPlGhIEBi+s4XLn4Ojs3RWnv7OL027O4ihVKUiwFp/JS Yon8qsGSQtLYkGdsPsF3X+xl4xrY0hElGo2gKwQR6rsbMEPdomu/ssuDUv8PQtglxFjxjuGRqx2s 1RW3SkraykUMQoLRhu63XuKB+w8wMptmZLKE66z4IlHHepVXuEBRE125fBMXBwUn3ujl1q4oa5o8 gsAAEmMqinzZ9oplAVm5ippuqf/WGvGK5UHDviPHyBsKPLlKhoXWHVJKpqYnWRg/w49/+G6On1sk 0KaOk+xyiVm5niDkBs9zyOSaOX52np7eIW7fnSSTVBgdnhgKWSm78nqk2HoEVN+tSK1le7usDtVz 03tAjKjHoBV17y1S2NqpnhDgOR79vedpb5xj5+7bOHluFtexS0GpmsJ1KzJGE4t5uNE8z706RmF2 gkO7ksSiior7UAmurF1jxSVWlRar6djV/m7qXvzTOaZO0whb2SFTEdaVoiMU3ReP84H3baJg2xgc WcRRy8Fai5M1pFIJSjbL0y8OkvIWuHlHCqlE5URA1BAiAGtEbefrFy7qlZao+yFudPs2vOu6gypr /0mptMqHhUVYW5fbFkt4bLJYXGRi8AQf+8hhTl22+NpWjPN6xBnSmSwjszG+93IfW9oNN21MhDdo qxVLLOWBqEix2trtqrdZkyVc/0IsX5ytW5p9F22k/OFjDkuZUdUpNQ0pBcp1uXa1n7Qa4rbbj3Di 7CyeE+rv8HgFsrk8F/vh5Kk+9m93WdMcxVixYmOXkFiTmLKe9K6DDKIiFYRc4hyxMgB2Bb/YCte9 t1RaJZNroZZ18lpUjpwkWIHjePRdOcX+7QmcxGb6rhVwFbiuIp7Oc/zcAgMDVzm4M0426YUoseEQ 4lINr08ZW6eP6sl8OeGICppveIq+IlsqTUNthuY9BkZcrxWEDbVMBeKIJVUcokhijGW0/zU+eO8B zve6GCNwIo0cOzFBqTDBLTuTxKIO1X0VlfwXAmwViasSxY1nX5Z/NBSMS9Rz3ZHpKlXmPTWRqwEo LKFhpZI1yS9ElZgFQjpMT02Ryl7i/qN3cebks8wUhsinAzZ3JOvyYsW1q9VPiJDcragd6Auxel6L Wk229YoLu3K5tspF4npF/KNxjF1CTE3eV/WFrct9CRakchgbvkw+Nc+c30QqUmLLukQlmKKW31Qa yxrq7NIG1Npis9QCiJVpLpb7AOG92OuZQ6yYYLLXyRLxLhFTn5S27kIyHEqufZ9cov6KojTCkE4l GZ/xOPnki8zMCPxIOGXg67oGp2IU1TFozVmrNqJUFa+o73Gqv7BLPHTd5q+8d7Hceqj6eEsF1rmR 2ntH8rX1IRbLJOxSc4gAachkMvSNRnnt7Cgb1jgcPdxMSUe4MlistAvV3RUgZc1QWm3zqgKsKomW c6VY0efapVJlV0PLag2WDcc/sTkgXgmQvEFgqoOEdVez19tXsq5mWhsa4OlMnjNXBJcuX+W2rggN GZeIE3D4trW8eaHI7Hy5NhRQ0x1ihSlm6wwmu7QpdmV/Y0O0WFaqOltXpuuKRJ0coCIBKouOaGN2 aG3WGWMyxhjPWquqH5erTzpWhnfqW/ranEy468ZYop4imsjzyukC05OjHNwdIxaVaCuYnVsgn/LZ 1bWWV07NVkg6XLCo8Iqt23273Hhe8meXIbaKEJbplZWwELYu1epYRNYqLAghYuVS+ccWFxdvKZVK G33fbwiCIKa1ltZasQrH2OtwaKsWhKgKN0siEUWrHN9/bYJcrMju7XGstWhd/WLJ1PQMe7c209Of 4K0rC3RtTlDWLO+naqRcQaywy6a0RCW1lsw5UccVluv6htU6Z0HNAqkGVEgRnZ2bPVQuu41CiJTj OFHXdftc1x13HKfs2ArhhWlkl8HSLmNxgTVgpSGTTjJVTHHyzDU2rTG0t8bCsS4rwrF4G7YFWhsK 81PcdftavvXkJVryLg0Zl0CL0BuxdTAX1cbR1kmxSoZZe/3sUp19eT1uxBKR15mJ4bVr8sBZmF/o 9MsqJqX0XNdVkUhEG2PKwJRTG+1amqcPN8Jqa4yp53IElkw2x+C4x/m3h9i71SWX9PB9U9uJcHJC gDEIKVkoFMk3Rrh1Xzsvvt7Hhw43VI6CqRhHogIeE5Z8sXTyU00lsWKaaznrXB8xUedDiSVOwRK2 KAKBksiyX05bK6WUMjDGzAshJqWUU47jFBxjTGUaUwsbHipVy48NAt9FKKyxKClJZBs436sZHbnK bTtjRFxBOTC13glra9NpJvQZEAKmpmbo2thKz0CWNy7Mc0tXirJheRdoK9exSz0NqxrYNxJodllx E5UuUtYeAhE4DhQXNd1DZbvoo4WwjrE2hjFpY0zOGJMBYoByyuUyWmu01sJa44DwrDUxY6wTBItx EMr1PJLZFo6fnUOXprl1ZxysxffDHZdLCg1jl9SwFOGWaQwzM+N84FAbjzx2iTVNi7Q1RUO3ro7O TKVFMHZ5ybTi3StWVlgUUoKrYK4YMDCgzfBUshhJbTWbu7qsklICJSnlpFJq2HGcacdxAqWUdUql EkEQSK0DZYyNA3mtdYvWJqt1KaGU6xonwYsnJ0lFi2zdlqDs22UANyyJrmrVCWG8ZGUWCiUaY/Mc vnUdx165woePuLiqgpCatVEnVO07yXK7ii6risQQNkqBK2FmPmBwTJtrM+n5VENnsPPADhWJJiPG 6EAIMSqlvOR53iuRSORkLBYb8jxvWinlO+VyGd/3RVjHTc4Yu0lrfZPWut1YPxloGTlxapjbdsZp yiUolkyt9IUZZ2qEWdVAYUmUIXrQNb9lanKajWub6enI8+qZaQ7fnCEw1UiET6bVnD8rEEqs4tPV /cZWm9k6TS4tjoLpuYChMW1GZzNz2abO8u5bd8hINBm31vpgRxzH6XUc56zneacikcj5SCRyNRKJ FB3HKSqlyo7WWlRerrU2o7XuMMbcpLXeCCaRSriqM6fIN3gEgURWHq0Lh5IrMr6qJq1dqizSYA0Y KUJZaMIuempykiO3tPLIo7N0DxbZ2B7FD1bqqBVNpF1hTlWFnlgKnJQgpGV6JmBw1Jjxhdx8vm3j 4r6u7bhePGqMKYHtd13nquu6bzmO87rneec9zxt1XbfgOE5JKeVLKctCiKB+DMSa8DkXaa2NWktS CNnQ2LS5dGHg8ty12bLTkFhw0wnj5LMuyVj4iI42BqPDZwvCcmbCCqZNbWVShpVPSEm5VEaXprnr jvU8/twlmhvcUBQarjOZhFjt/Gh506JkyGnjUz6DY9ZMLTYutKzZXNy/ZyuOF1XW2Hkh6ItEvAHX dbs9z7vsed7bFc0yo5QKpJRaSqmFEAGgAeu4rgtgtNYlIcSE1rrHWpuz1jrGWJ1taG9KZdcslErl 6OzsdKG7fzCu+uZsa3ZRJCNlJ5PQbkNKEYuFqWMNtWeEjLCVxqdiTVSq2/T0LG0tEXZsbeWlN0e5 91AGs9SZYUyIACtWsRGoDjiF3zM6GXB1QpRmSk2ltvbNpY3tm6XrRoy1dkYKMag857Lneb2RSGQg EokMua476jjOhFJqQUoZVFxJUwlIrVY6sVjMuq6L7/uBMWbG9/1LSqlF3/cHjTFrjDHtQqhNTjy6 MZlY09C2pn2x7PuqWFgMRucmSheuDKYjYla15hZFzC062YRVjRlFxFO1LjnUSLKy6LDyjI9PcHDP Gv5ucIa3eops74zhB2FAq0/DLaOV6sSXDK9xbdxnaEKVC7ql0L7+prnNreujjhMpWWvGpRS9juNe 8TyvOxKJDHqeN+Z53rTjOLNKqTkp5aKoPyy77swHnEgkguu61vM8o7X2gyCYCYLAD4Jg2Pd9xxgT M8a0GmM2GWM6rLX5iOdkPDfZkMkmG9e2ry+WSuVssbjI0MSwfWv4WizuzMqGxIKbifmyMSNELusS jbh1vbPC9zXF+UnuvbODbzzxNi2NLtmkqok2KUBYUUsppSDwLYNjPlcnnHJZri2s27BjurG53XEc twS2T0rR7brRSxWEDLuuO+l53rxSaqGCkLIQorwi5Gb1x3YcB2stjuNYY4yvtbbGmLIxZkZrbYMg wBhzRWv9mjEmrrVOGGOSxpic1joPrFMyujkei3bmG3PNgd6WWlwsxwqFed09NuSeHhqJp7x52ZQu eJmEFi2NHrmUS8RzKRbnaWqKc+u+tbxwcogP3ZlFKhE+7VLhDlfBYskwOOIzPBkpG2f9woYtO0Zz TW1GSndaCHtNKdXjed4V13X7Pc8b9TxvxnWBAXS3AAAB0ElEQVTdglJqUSlVFEL4QohlqfLDvE1n yfnHSim1UspYa4PKiKuw1gprrTDGlLTWc8YYqbXGWiu11soYEzXGNGqj1xht1jlGrfNcd00qGWtt aWlpCPwgu7hYik1Njav+4f70ye6pWDY2F2nNLopsCmbnhtm/fT0DQ3HOXCpwoCsBCDwXykXD0GjA tZn4ohPfONLZddNItqFlQUo1CXbAcZxu13UHPM+75nnelOd5C47jLCqlylJKXwgRVPjDvLsZhxuO mgkquaettUIphbVWWmsrPZiV1lpbeXwmMMaUrbVFa+2MMabfGPOmMSahtU4HQZDTWjcb12mJRr3m bDbd2Nm5MbtYWmwqFhej42PD2cu9/e364kym/eIAUU+r81dmaM07tLYF9F8tMjKZWIjn1l/dumdH XyrTMC6FvCalGFZKDbuuO+x53kgFHUXHcXyllC+E8KWUegVnvOfH9d/tU7TV0YcagpZmjayslPjq s0bCGKMqyHK11l4QBNEgCOIVQ6jBWhqlFGmt/VSxWMzMzhUiM1PjmfGxoa3l+dFtLU2RBF7Hmbb2 LYPxROqalGJUCMYcxxlzXXfcdd1J13VnHMdZcBynXKc/6tHxI/2PGP8HJ+1grzaGASYAAAAASUVO RK5CYII= "
     id="image10"
     x="0"
     y="0" />
  <image
     y="8"
     x="8"
     id="image10-3"
     xlink:href="data:image/png;base64,iVBORw0KGgoAAAANSUhEUgAAADAAAAAwCAYAAABXAvmHAAAAAXNSR0IArs4c6QAAAAZiS0dEAP8A /wD/oL2nkwAAAAlwSFlzAAALEwAACxMBAJqcGAAAAAd0SU1FB9oFCw06IHaP8HoAAAzZSURBVGje 1ZlrcFTnfcZ/5z2XvemKWAkJkIQQuhibUMylYLBFbRxsjO3xuE46GScldmNm6pk2M/1QpulMZ9oM bT800ylJO5nYxuDGxHaJA7ZjTCEYJDC0tiEYcRFggSR0Q+i6Wu3ued+3H/asdBASBoUOk6M5c45W u9rn+d//z4Hf88O4U/9oS/cWfTvvfzn6su3dat+J73pLh3UnDXHobH0nWqG0RmkNSqO0QmmFlhqt FUppGnY2FAEhD6z0TuVdjdshYd1JdyqlQCuk0uCBVVqhlUYphdbpq3fkAi6QApLeiUfi7nhAKYlW ijR+hVJqlID27qUaNW6BBzoOxLzXEp4n9F0hIKX0rJwGPEbC84BSyDEPFHngBzMO9DxyFz0g02C1 kunw8QhkQidD0OeBIZ/lRwDzdgvLHc0BKaXP0pmkHbN8xjO+HMiAdzwst10V73gIKQ9oOh80Uvlf U/4kDnk5EPBwCO+8ex5wXYnScrTqKKnGwsi7+pLY9r7fD5675QEvhFyf1TUqE1J6Qg/ckWNKBCbr uq4r02B9lr8+B8YIbOne8k8TdOeoh0ndanee0iiR90LeagT7/2Dtos5RwFqhpQf0OhLpqiQzvUCN DyvNtXPXilIXUxti+2J7vcqU8HVndacJGIDI/U7uasMx9t738H1dyg/QI6P89xmCmerkK7N9TX2F iROJv44fix8Aer2+MOwleKYv6MlITDUHxI/X/Phcu9vGD/dtLlz80P1IrVE6bTSpdbr2GzJ9b6h0 cqPRhkai0ULRcraFx8OPcaT7k74v+TLXB9Zv/Zt6wJyC9c2dO3cW5+RkXV5a84fU5teydd/rFJfO QON1YfRo+KC0N0polNSjSd1yppU6XccMUUwoHHjizJmzDb7Qkd6MJO8kAQMQ+/fvn+E4VkvVnBpS rkt+II+K7LnsOLSDwpIoUmbiO90LpJJILdM9wgut1rNtrEytpJBCDMOgMFrErNkzn2hsbNwHDHhd OemRcO8EAQMQ9fX1Ra6bbKuZe89o2UwlXZobL1FIlANNB8guyCaVSpJyU6SSKVzXxU2NnR0XOqjt rMXuc8jJycayLGzHpqR4FnMqyp4+fvzEe14uxD0Sv7MHRsEnkyNt98y7F8NI575WmqPHjrJgwQLK CsqYac9kz6k9TCsu8D5pjP4DA4OOix2sTK2kNFBKXm4uOTk5GEIQCgYJhYKUzi6jcl7FN48d+5+3 PBL+MJoSgevA11bOv+6PR44eYcniJSjSFSjPyaPEKmFv416yC7LT1cZrYu3n21npriJKIaYpsGwL IUymR6fjWDZZWdmEQyHKyiqorq7c0NBw+OdeOMmpemBS8IZhcOSTIyxftgJhGulabKSv+U4+JVYJ +8/uJ5KfjVaKjgsd1Ok6ohQiDIFt2wQDQSKRMIFAgJKSYkzTJhwO4Tg2s2eVUVVd+dLBg4fe9Eqq mqyhmVOx/OEjh3lgxQoPeDo8DIx0yBiQb+VRbM3g4wsfM9Q7xNedtRQZhQhhpMEHA4QjYbKzssnK zsa2bEpmluBKF0uYKK0omj6DeVUVG+vrG9728kFP1A/MqYBfsXyFzxwabYAwMh8WGAbk2fkUW8VU 2VUUW8UYhoFpmjiOQzgUJhyJEIlkEQmHCQaDuCmXoqJCyueUUVgUJVo4ncrKKsrKZn9v//7fvOt5 IkNATdbIDMCYDDwwBj5jB0MgDI1pWQQCAZRUSOniSskCtYD+vgEGhwaJW8NIV+IEHUKBEKFwiEhW hIATRAgDrRVfW/g18qfljxUJrZkenU5ZWfnh55//9krggq8quYCeqBOLycBPeGg9WmUsy8IJOIR0 CFdKlJLeTOSSm59Dfn4eYDA4OIBtW0SyIjiOQzyWoKfnKs2XvgQUlh3g2NGj/PbECRwnwNy5c/n+ 9/+i/kc/+td5vhFjUg+YALl5uZkASTeljLqgFVox2qQys7+pBFKZCEsgTIFhGAjTwJUpyivKSaYS HD5cT9P5JoLBMLU19xAbHiboBDAtm+OfH+fkiRPMq6oklZI0njpNtDCKMASxWAwpJUCWrz+4gJyU gHTlqBvVuClSKY2UEind0V03TUiRSqWbV2IkQTw+zL333UdHZzvXejrJCgXJzcujbGY5AoGhBIkR l0QixuxZJTywYimRrAgf/PojcvNzcaWLYzsMDg35CQz4lqDJCfhDJBPwerKx0EhXIK01GGl9yJUp KisrOXnqJN1dbTz19LMYhsnbv3yb3uY2RN40XEOiUQzHYyy8fxHTi4poab3MnMpyau1sFi5aSMAJ sHv3bnr7ruLbnUcxiq8csT1wYx0VDEOD4SOVkVK0RrqSRGKEqupqYsMxtm/fiu3YWJZNbm4uJeWl JD/5GNd1SaZGGHKTrFv3GHV1awiFp1FeXs2qlY/y4EMPU1pWwZUr7bS2tGZgmeMNPGEV+l2UOcu2 qJ1fy+fH/5ftb2ylqrKalpYO3tj+GgUlMxg8c4YViRhXfvEG/evXs/aljdTMmE3zpUskkkN0dnZQ NqeWvoF+tm5/jYvnzhGNRjM2NH2Lv3HTfeBQ/SFfEmf0Hj2qcyrGdB4pJa4rka6LFoqlYhkNB/dh YAGazvZuWto7yDl0kOe62pjzR6sJ7NpN62/2Et345xw78Vv2vPdL+vp6CAbCLF06zKEDB2hvbwNh 4LouufnZ46NY35RAXV3d5AS863UEUi6JRIKOznZeee2nBE2TugdXY1oO8XickZER3OISrm79gvDe PVQ9uR7z1x/S8Mx6Tq55jJMXLhFAIWU3J0+dZnZxMdU1tWTlZJEVyaLp/Fm8ynPddDqplCFdmT6T EjcpcZMuqWSKVCJFMpkkMZIgEU8wEh8hPjzCcGyYWCyGKSweX7OeZcsewrbTHTYt+oIbjHDsme/w YV8uPR99QOVT65lpaWb9Yiv5Aga1oFtpQnn5CFMQG44xODhEf/8Apmky0YIzJS3mhkQxNIYwvHFB YFkmgYBDMBQkHA4TCUcIR8L0paaxl/XseeF13uoppmvbDkoffpD7y0tZ9d+7mX6tk/lCUxAK4DgO gUCAgO3g2DaWZU3oga/ciV8seHL0/icd7zDtbzelA0tD+w/+7roJVQgx2o211ghhIi2JZVp09wsa 2grIuzdKd2sc89FHuPD+Txl5ZRuzv7uBJbk5ZB/5hOZFy7kYjRJwAmkCgQC2bSOEYKIF/5aW+gMH DqRvajK/f4xGU/ODjEfSP8IQmMLCsQLgGAiRwhUubX2aj86HCNRU0nX8Ao+XfE4yJ8aur/8lS+t3 EH91G9UbX2R+djb2+x8ghuNcXbIcy7KwLBPbtjIE1Pjl5isJ/Ozar1D3jilr1/5+M/O1Sqtu7pgS rgFhCixtpRPfUyZau13e/wxU2TxiZ5p5puIspk4RkzbdZWvZU7IUtjwHW35G7cYN1Dz3DdQ7/0VO fw9dTzwLoRB6zOA3EBifA/rG9e3G1mBMsF0YRtoDmbFZiPR9w6kEsrSKwQuXeXJeMzlhF1OYtMQq CAQFLb2CS3WP0jMcp+knr5BXOIP53/1Tiq52UbJjG6qvFzfpZhS9G8qoMYFOFNy0aVOpbZunptrQ MqW1VxZwTq/Cslzy2/eSbbUipaJfLETXrKa96TIzB3ZCqp/iqx0s/fRT5oRCzN34PeJCcfrNHXT2 DtC0dh2bt/38eeA00OXNQ8NAyphgQ3OAMJAN5HnXkE8GvyURoLByRUn1g3/2x7JkyQPJT99p+GzP P/xKKVcsXr95XfUjT606deJSX+NbL/57cqhtJKNSr3PEvG+hnphTXBgqf2EDCcui5aO9XGlsHPxG 19A3gXagG+j3plLXnKRCGr5wSnk6TcyT/QZucg4Cg9HypaGKRc/Wla185MnexrNXLp967007XBZc 9if/8q05K1Yt/uLz5u6mXX/1w5H+C63e5/qAgSapW6Qp2mcnhmrF5RZnxuIlCMOgvbFRvzOc+k+f 5UcmW2gyoJO+pBm5DQ1fAGZu7befC9Ys33DxiysD7U17/rnj9Pvn12w6vC2nOJrX9NnJU+d2/c3m eM/pa+MkRBNw3k2qrixDDD/d2fmS2Lo1cuVqz0jDUPw/fDuA60/BiUJC+h79uL7nVrfS9ARg5hTk JHqbWw5fPb3rH698+uoVwBnWdt6Zd/e82rL/5de978g8Yk35vtMBwm8k1DXHdPuXN196qlFx8N9G 9IfjhC55M3XamCCcblXJFt6TF8c7gxPM8MqnfSbHrYiml28Rb3kJ+Iw55AvTuPf5CXfiKT3y93lJ j1MPUr4RWPjEW3cC/dP0wCY8kI73GdcL5bhvnLjjj5j8wKXP3e44T2rf6+64+cYvqaf8q6P3vkTG 8v8vz8jGNcLMvRjnJT/Q8dOlf9ZxfYXD//6vlNx/r47/A/05jgtUues7AAAAAElFTkSuQmCC "
     preserveAspectRatio="none"
     height="8"
     width="8" />
</svg>
