<?xml version="1.0" encoding="UTF-8" standalone="no"?>
<svg
   xmlns:dc="http://purl.org/dc/elements/1.1/"
   xmlns:cc="http://creativecommons.org/ns#"
   xmlns:rdf="http://www.w3.org/1999/02/22-rdf-syntax-ns#"
   xmlns:svg="http://www.w3.org/2000/svg"
   xmlns="http://www.w3.org/2000/svg"
   xmlns:xlink="http://www.w3.org/1999/xlink"
   xmlns:sodipodi="http://sodipodi.sourceforge.net/DTD/sodipodi-0.dtd"
   xmlns:inkscape="http://www.inkscape.org/namespaces/inkscape"
   viewBox="0 0 16 16"
   height="16"
   width="16"
   id="svg2"
   version="1.1"
   sodipodi:docname="resource-group-new.svg"
   inkscape:version="0.92.1 r15371">
  <sodipodi:namedview
     pagecolor="#ffffff"
     bordercolor="#666666"
     borderopacity="1"
     objecttolerance="10"
     gridtolerance="10"
     guidetolerance="10"
     inkscape:pageopacity="0"
     inkscape:pageshadow="2"
     inkscape:window-width="640"
     inkscape:window-height="480"
     id="namedview6"
     showgrid="false"
     inkscape:current-layer="svg2" />
  <metadata
     id="metadata8">
    <rdf:RDF>
      <cc:Work
         rdf:about="">
        <dc:format>image/svg+xml</dc:format>
        <dc:type
           rdf:resource="http://purl.org/dc/dcmitype/StillImage" />
        <dc:title></dc:title>
      </cc:Work>
    </rdf:RDF>
  </metadata>
  <defs
     id="defs6" />
  <image
     y="0"
     x="0"
     id="image10"
     xlink:href="data:image/png;base64,iVBORw0KGgoAAAANSUhEUgAAADAAAAAwCAYAAABXAvmHAAAAAXNSR0IArs4c6QAAAAZiS0dEAP8A /wD/oL2nkwAAAAlwSFlzAAALEwAACxMBAJqcGAAAAAd0SU1FB9oFCw07Arr0gN8AAA5ySURBVGje 5ZprjCTXVcd/99atqu7qx+xMz+50z/TM7npnx8aOdmfs2AY/ZEebxXa8JgEHPiBjhGOJxwdQsLAQ EkkkgsQXGySCRIJFlEgBmQDCQQLJBMXYTkzi1zp+7nrX+5jdnWe/H/Wu4kNXl3vGj3iNF4Eo6apG PdV1z/+e8z/nf+5t+D9+if+B98uRoSX34bxRMsKRO0D8vwGASAzWfvu37vu1rDJ/48z5CwctFVOd mWauPE2r1fr946dOv/TVv/mHZwAfCEbAfCAQ2iVeefX53/zcVyas7Bdq9Xq5Xt+kvGuaTqdFu9Mm Y+if1A39F2rt3rc3NmvuxRg+vOQl9ID285+6fXejXr9/o7aBihwCu0Ntc4WxXBZTCRqtFq1uz7ru 6sUfA3kgC+gXY5f8CFZajMS3SoYBGI2+Y57faKBCj+sWFrh54TK67SZPPPs8p89dgCig3+8QxzFA Acgk3//AdqlLRFAF6M1m09q/Z5qfPnCAKPDYkbe4qjyBiCKIfAQehqaIBvbmAScZXvKu8FIB+IkE XVtf/+LR195o6KGHFoe47TZCGpRyFgemJznX7NLcrFOzQ9Y6wSOJ19TIgnCpSPyBCJq3sp8oFPKf MDWhslmL02fPEsUeViZLMWexd7bMxMQunn39uP3iK2884npeE+gmHnCT1Y8vFQc+EEHbvX6m4Usc P+R8vcWJsyu0en1++Ppb2KHO+K4KGS8+1up0m0kaDS82jX6YEJKA1vECvbfZ5KqZHVy9sMC0qfjR qWWeOHeOfTMVqlO7BgSVWWQQcdXePRTGxhjLj6Fnc0xVKkyU5/jXF1/+iyTmvREQlxSAAGS/39fn yhPcsLhI4DmMF3LvSdBOr0lG6GR0HdPMsn/vT5HJSuzAJwkXe4S8QQLgkqVRAUi309AyhJgSom4X qZlM5nMcmJ4kE0Y0N+ts1uuEYbTmhzFdp8P5U6dYXT6JY7chBldlSYx2RzwQXGoPAEgzjuRl01O0 XZ+3LqxgmRq5rEUlm2X37hnsSOfvvve0u1C5bLzVWCdwHLQwRAqBpoUUpsv8y78/8Y3E4ODDyIj/ ViE7ubLeKO2sHEMqVpsdTi6v0N5GUM2NzYldU0agGSjTREkNQ9fJWDn6nmR8YuJX9+zZs29bURwd lw7AWq3hlYq5WkHpfPyKy7nh+huYv/wgVy7sY6pSoTw9xwtnz6OU4mM3HkYvjCOEINRiVL5Maf4K Hn30UUql0hcLhUIpkRBGclcjRVF81ADiZIh2pyc8r4uhdPKZDNlsjssvu5Jc1sAOfIIg4NixY0zs muS6Oz6NPrePXmaSq+/4OYIYXNel0WhYe/fu/c7i4uJ3rrnmml8Z0UTmiC56TyDywxYxQFP5CRkh 6Tkdzr11gtXlE9sJygsvvEAYhphKJ1itgetjjY3hOA5BEOA4Dt1ul3q9vq/X6/3J0tLSj8rl8tIH BaI+pPFmtVr9TJzNXV+/cJz19Q28nk3JDwfVtryLv/z6N4njmI2NDY4ePcpllRkmQ4kxWeXUmRXa 7TZxHBMEAZ7nEQYBLd+n1+tVLcv63tLS0nIcx3929OjRbyZZarRfuCgPiBGBZpbL5clrr7322WKx +NCu6iy2MNBMEykkuq7IWBZ9T3JwcZF8Pk8cxzz22GO0VlfQdMnkZIU4jjlz5swgHuOYMAyJkrvr unS7XdbX1mZbrdZDi4uLXwdyiSdUIn/EBwEwKpON5AX5gwcP/rBWq810Oh0Arrn9s2j5CQACGaPl 3iZopVJB13VWVlZ47eWXCMMQ1e8TxzGbm5sIIYiiCOKIKIoIggDiGN/38YMA27bpdDpHDh48eNe2 XuF9AYwarlcqlakDBw7cf+2113YWFhbWXn311bLjODiOw5NPPslYaZyf+fQvoc3N0zVLWwjaarWo VqtUq1VeX16m0W7QPHuSfqfL6uoqQRAghCBO7NE0LS0AUTQoxkEQ0O/3LcBKFvF9PbAlzg8cOPC3 +Xz++V6v95WVlRXarRZhEOD7PnEc8/jjj2PbNhoC78IGseORLRbfQdBOp0PL8/mPeoPTy2+xutKg 3W5vCSGR/A287RnSTJVJGh4raXqGqXYLiVPjFxYWbs/n8//UbNTp2066EpqmEYZhukLnzp3j6aef Zma8RCkQaD+ZoHy70WCm+ecEYUAcx6nRUXIf/Ww41549e7Kbm5uFRG4MSewCgdhu/Pz8/OEoiv7e tm0zDEPiOCaKBjEqhEDTNKIoSieZnZ3l1z/7i/ivvc7kDZ+kunglTz/5XR5++GGklCiltjwPoCuF YZrous7Gxga6UgRhiJQynU8IQT6fp1qtcvjwYZaWlojjmGw2Sy6X4+abb54EampbRlJCiH/u93qE yaSj7kzdLQRxHKOUYnl5mVdfepEFZWI6DkIIarUaUsotBA3DEKVp+EEwWN0oQkpJsVik2+0ixNY6 NTY2xoMPPkihUMBxHM6ePUscx+zfvx/XdUkyUwpg2CKanufhD8mVrIaUkiAIUEptdXsC8qXXXmVm 3zy982fwnY+xvr6ePo+QQPQOgg7f6fs+QggEEIQhxWKRW2+9lXvuuQchBCurq+mqK6XQNI2jR49+ GSiOcmAIQA0NHHX5cEK2EQ1AKcVqu4cfBvTrazTqA+KOekwKkcb4doJ6npd6Oo5j7r33Xu666y4a jQa9Xo9ut4uuFFJKxsbG0DSNVqtlJGl1CwCZsPtt0ZO8+P2uMAxpuw7nHJ8xp0+/vkqr1dryzPsR 9O6776ZYLPLGG2+wd+9eDh06RKfrIKWk2+2iNImmaViWRbFYxHVdb211xd6ehdLcr5TaYvzQ1aMr N/y/pmmDVY4ifnDmNAvjJeorpxkWuTiOkULgJwRN050QZLNZqtUq09PTLC0tcdNNN5HNZtE0Dc+z cb1BITMNfaAchcAwDBqNxvrX/uqRHw9rwXYtJDVtsFEhpWTfvn0cOnSI5557jldeeQXHcVIDhiSN omgQRs0mdbtP59jx1ANSypSsF0PQYRp2XZfNs6eQdovpUglz7EYKudyoIn5HHUgnjqKISqWCUopD hw5x+PAdrK2d4/XX32Dlwgr1Rp1er7fFI8c2V2mtruA4dsodXdeJowg/CCgWi9xyyy3vS9DVtXXC wMfu93jtmR8gOytkdIXpVmmfPkGwYyeJqPPeLYSk67ppvh8bG8O2bTY2NpIcHbG0tMRtP3sbhmmw ujqI9xdffIGXX36F4+sbjFkFoihOM9gw1gHuu+8+jhw5Qq1Wo9Pp0Ov1UJq2haCO3ScIAmobm4Qi YiybI29IxnI51tpNHPQLI+o0BSABOTs7+13f99E0jTvvvJPq7CyObVMsjmEYeqoWjx0/hmVZzMzM MDs7y4033siJEyc4efIkQRBw0LIol8vs3LkTgKeeeordu3dz5MgRbCdA13X6/f67EZRer4uUGn4U Ye2sUCjkiewOzMxxcnXj8S/93h8+MrKDkQLQ5ubmbguCYMZ1XZRS7Nu3D9PMUCwUEFLDNAYJKpPJ oJRCCkBIhBDYts3C/nmuuOIKPM/D9/009e7du5frrrsuzTy6AtsexLeh64RRnBK01WrR7fYolUqU SiXm5+exbZt2u83nfueBzwMNoDeyDfM2gE6n8ylN04yBcYK1tTXm5+cRUod4oFsMw0BpA34IqSGI yRcK5HI5EDpx5JHJZNB1HSEEvu+Tz+eJogjP8wiCYED80Mf3fdZPnyXu1lOC5nO5VKrs2rULgHa7 zY4dO0gM7iWjn4RRCkBlM5lfjuMIhKQ0uZPZ2T1ks9lE5ppompZW4l6vh4+PlBLT8/A8j0ajwfj4 OEoput0umqZRqVQIwxDP8wDw/BClCVrNBq89833ixjJKypSgYamMrusYhoGUkkajgZQSy7JIVv29 AdiOQyaToVQq8aU//iNmytMsn3oLPwgIggDXddF1nWazSavVwjRNxsfH0aSk3emwvLyMlJKdO3cS JN8Zyu44jrEsC8dxiCJBo1YjllDI5slocUpQae3AMAwMw0AIQS6XI5vNUiwWhxtgzrZdvLdDSAhB EATEgc/a8//JiU4PbWqaHRMllFLUarVBZVQqrc5hOJDLlmUxNzdHPp/fknXiOEbXdaIoSoxPmpQY clMzFDOX4bbrMDNHB43+2lrqxUwmQzabxTAMdF1nxPjR/vjtLKRpWi0Mw5LreUSaxo7xPMvHX+JU 1yHM5smNl6hMz6QpdhBOEIYRZibDxMQEQgiUUnieNyhiYYhSimazia7rmKYJwNTUFNVqlUajweZm gWPn18jn85RKpdR4TdPQkhSbFEJ7ZOt9uAmcAohd1/1TXde/3Gi1+Nq3HuXmxSvw2i1s18PRdZxI YOXyFIvFFEQcxwgptgi/YWs41Pae56WAATzPY2pqina7jed57NixgwceeOBbydnAcPRGTmt6QCe5 jxq/pRIH7Xb7H0ul0u1xzE3nN2o8+m/fJ5cxkJpi8ZqPMz0zgyYH4eM4TtpcGIaBaZoIIQZVN9FQ YRgSBAGZTCbtHYaNShRF1Ot1hBBDgtaBVjK6I8a6CYh+AsJ+TwCAU6vVfnd8fPwPlFKfCYKAju2i aQHtdptyuUwQBGmXNdREXpKFRj8bSpE4jpFSYhjGlo7O930sy6IwTMGwDmwmeb49kmWCxGBvJAt5 7wbAT5B2G43GQ8Bf79+//6udTmfC8zxzc3MTKSW6rpPNZtNmRSU6fdD3hhimMeBGIvBGQ2roAd/3 UUoNczuJeNxIQNRHAHgjp/ejQLzRHexRAPbISSNvvvnm/RMTE9cXCoUvuK5LzsqxvrGeqk/TNJFJ MfN9Hx+fMAqxLCvtsLb3FUMPhmGYFqyEoGeAVaA2AsC/mJ8aqKSZySZbF4VkFJPe09p2ivhR/EQh SBatCzRHQmh40BdczAHH6H7j8KBtWDhyCTBjZGdMfkQAhsdL70rQ/xfXfwFhDPxVjBoI0AAAAABJ RU5ErkJggg== "
     preserveAspectRatio="none"
     height="16"
     width="16" />
  <image
     y="12"
     x="12"
     id="image10-3"
     xlink:href="data:image/png;base64,iVBORw0KGgoAAAANSUhEUgAAAIAAAACACAYAAADDPmHLAAAAAXNSR0IArs4c6QAAAAZiS0dEAP8A /wD/oL2nkwAAAAlwSFlzAAA3XQAAN10BGYBGXQAAAAd0SU1FB+EDHgwbAqiIaykAAAAZdEVYdENv bW1lbnQAQ3JlYXRlZCB3aXRoIEdJTVBXgQ4XAAAgAElEQVR42u19abBl13XWt/be505v6H79eu6W 1JrasiQrGh0pjuMAwsYMSSCGKkMgqYQ5UBTFD1IFRVHFFH5Q/IAiQAEpSIIpxw5gyuXYDsQQx3I8 arDattRqDT2p537Tvfecvfda/Nj7DPe8c++790mvu+3ovjp177vjOXutvYZvTcA7t3du79x+/97o nWsde5PfD4tifh8RdyeYXd6RALfmudMUj6clrExJcHmHAW7OOdcJXPy/62hH3fNThx+yLr1XFO5a mJ8/ysL7WHiPd37OgxMA6LY7VoANAFfBuCQsZyByKh1kLz/7S288j3VwjdCTmELeYYC3//xkzE4m AHT4iWVN85Is3720q73H/BFK+GlW8n6t9BElgECghJBlFkQKgIYmAsWvYfYACKLCTxEBAENpDdIE InVWQL/jUvtbg0vD31w9t7KydnbDXn3W+RpD1BmDbnWmoO/BnZ7vcnr0b91zv5PsgU6v+wfBeL/W 6rhRCeCAJGkjMS2Z787R4vwiep0e9i3vR6Jb6LW76HW66LS70NrAWovhcIDVjTWsra9iY7COgR1i dW0Fg7QvK+trNMwGUIpAbY+huv4SEf2OFvN/rpy9+uJL/2H1RIUR5HtJMtAtTvxNRFcPoffABw// VHeu/VHvcZcmc4icIEGCXnce82YX9s0fwh233YnbjhzFHUeP4fD8ISS6BSgFTSp8IStAFCAAEcDC YHgwO1h4sHj07QbOXjiDk6+dxOtnXseFi2/iWnYN6+1ruLZ+FYky6Hba5zXoFKf8Mf1m91f/3398 rj+BGeQdBphttysA6Cwnau9DC91DT+3+h61e6y8TUy8dpOianizNLdH+pYO48+idOH73u3DbvmO4 feluzNMCLBwynyEbWmQDi167B8UKSgxUVABKKRAUAIEnBghg5cHkwcSAATqmDQHj8toVnL16Gl94 8Xdx5sJpXL12ASurV2Rt/ToJMiiNPrP8+wvfWPuHl15YGwwv2dx24FtVKtAtRvwRwgNQT/zCbU9p 3fspZ91fbKkEShIs9Zbk4NIhuuvw3Xj43Y/iziN3oaO7aJs22rqHdOji8oavURS/UgQEFZSzSO1n paAGkVSsvvx5gVIE1gSfeKwMVnHuwmm89MoJfPvUt3D+6mm5NrxKfbsGbyysz/5Df33jV1/619ee qTAAz+hZfN8zQJMFTwDU/X/lwA+YJfnnC93dj8pGe1ebDPbvOSj33HEvPXTfwzh++3EcWDyMBAk4 9cj6Hi3VQqvVQuZkx66MCVBGI3Mpkl4CbQRvrp7DaxdO4avPPYNvnXxOrqxfokyGsJyuJEZ/49ql 63/3O//uynORAWQKT+L7mgGoZiFXd70CoB7523f8i+5i76+KUsqvshyZu43ec99DePyRJ3DvsePY 3d4NLS0M+wMor0GOoGGQqASkNTKfQXbqyoTAHjBtAycOme/DzGl0Wgmu2kt45fXv4tkTz+LZb30d l69dFjUH6qs1zlL3b7/2T1/9O5EJuEEaSGVtvm8ZYJy4JyiYx37+wEfai71/rHXndu8SLO85LO8+ fD+9774fwgP3vQeL3UUMNvpgC7RUAoUEmhU0gkHHXuDFgpOqQH97b1oUjLSj0eggxIDxYOMhysO0 NVY3ruL0udP45vPfwFdOfEVOu1fJyhDk6Q0M8fef/bdvfMIOnIvEvqlq4WYxQCHqAah7fnzxyL77 d/2iNvonsxSqp3fJQ/c/Se974g/g+KF34WjvCGxqsbHRh1EJ2kkb8ALhwDkk4V4rBVGMTOyOXZli gvIJjDZwnCF1KVotjXavjfXhOkxCYPZQCWHQ7+O1q6/hM899Gr/33O+K5SEZw9zf2PikXDW/8M1f fuNsRRrIzfAW6CYRX8V7/d6fv/eDZgmfEPZGoUUHFw/L+x75AP3IE09j38IhcJ9AmYYihSzLYIyB MQbOOQCEltYQEXgnUKSAZCfXTwBRIK+gFUEQJI73DGaPbrcD6zJYm4IIUMbAtzwu85t45rnfxRe+ 9Hm5vH6WdIclzfpu/VL6kRf+3eXPAfAVaXBDmYBuwq4nAPrAkwu9o+/f+3Nzi4u/yFZpcgYP3PUQ PvRDH8R9R9+FebUAbQFrAag2JPrrhWgnqdnppWlBO7x0WqkKfUqwj70HiOJFCkgIXnmwEfgkxcnz 38ZnvvAbePbkV2HmBGv9NW/78guXfi/9j2eeud6vMMINkwb6Joh8vfxHse/gU/P/tTs391eGG6KW ugflqYd+lH7sD/wk3n30QXS5h/RaH2QFiUngCRAChBhCAiYBiOO9QJSHkITXg1IA0c4cIIFXHkIO TAwGQ4QhEAhJZEcpKEiskLgWjGjsX96Hu++6C8YYnD5zWqxzSnfMB5Mj6vGlY3s/f/mF64MbvUn1 DRT5CoC+/2f2Hd3/UPczWrXeq1wbhxdvlz/05IfpQ0/+UexOljG8MoAfMObaXRAIQzsEjIk7Piw4 gSFgULHgYccJASQMErVjFxWI7gpsICe8gAFGfCwAc/BERCHxBoY0rl25ivm5Xbj9tmPYtbBE585e kGGWkem07vK9wYd33z3/6SvPra9PMJi/JxiAxun7d330wLHFOzr/o2169ydZB3uS/fhTT3+Enn7i abRtCzQE2rqNJDFw4mE1oFoawgwIRyBHAJZg+IkCCZUHB1EhIIjIjhxA/ttR1cTfhhBEUB7hTKMw d9gY9DG/sAiwBrHBffc+iMWFZTp79k2k2RCe7D61yz29+86Fz115bn11TACMbnUGqJ9wvvPNo3/9 jkeTw/zJXm/Xcb7eksOLd9Cf/vCfwcPHHgKtC1pOA9YDIlAdA2eAARwYAhUXOperKhJAQYF4lAmA qC92xgSMjCaR6BIuj3Omq2lwAUQcnAyQdFpI0wycAYnqwqcKe5cPYM/yHrxy6iSYUkl9f39nKflj c/sXnrl6Yu3ijbDb9A4TXwMwD/30sePmAH8i6SXH3ArJ8eWH6E/+4Y/gkeOPQGcayhE6pg1A4OAh hpCyRwoLozQ0IxKXo7CPLhlRvsrFzzOCLRC36dt+kAQJlNtmUqU6b6I+RDE8WXj20CaBtQJrBd12 FxsbA9x29Aj2HtyHV0+dJBIIsyy1dnWeNsvJ51e+u359p5lA76DO1wD0kR/fdWDhXeaTpNS9ievi 9vm76Cd++CN47N2PIV3PIJ7Q7s5hI83gFUE0wTODBGiJBpgB8RARMEVjC8EY9MLhAMOTh4eHwIf3 CO/MkRt9FB/Hg+M5jfxFu4UiXsEsgCZACQZuCN3RcN5j/94D2Le4H6e/e54MJchaq7uTve5HOsvJ p65/Z9D/XjACG4l/70/s37f4SPt/QOE92iayr3eInn78Q3jivh8EMcFZD+c9BAqkdaE/KbpyuTsl ki9m/ksy8Q87fASiT/ubqEgLAhPBk4AVYF0G5y2ct1jes4yF3jxeOfUKstaGrNuV/XtuX/xRleBT q68Md8w70DtAfAXAHHhgaW75A51fJ40n2ujInCzSU+95P55+6kMga9Df2IBWCtoYRJJDWDZ/rcQF FlRE7s29zXwOwtEwlODoS3Bpnc9AmuBchna3heW9y8j8AK+fO0XaKLHWHVw42nkvrSa/sfZm3zVg AnSzGaCR+ADM8b+w/286nf2FhblFzGGB3n34AXz4/X8CHd+FzTxIqaDRlYJnQWYtoDVYZAQXZeTJ GhL/L+8bDyr36I4dMtv7heP1SPhscGcFSgHOO2gNbPT70Fpj//69eOPMG3DWUZAQ/ra5o631819e +coYYIhuNgNUXT0DwDz4s0c/YJbp3yRtrbRvYYF24w899iH8wB0PY/XKBrQxUEqBmUGKYEwLoOi6 Vb6ao4FVfT73v8fHzYp37NwxowTICc+EeC0ChgcpQpYNYJIEighpmqLT7mDf8l5868VvwVoL3SZY yt6/fHzhy5e+ufZGLXJ4U1VAPYyrASR3ffDAHbvfM/9ZMr5tdCJ2henJ+9+HDzzyNAYXU3STHlgx WARKazALvI/7Okfboh9N0cpnMGKmZvxlmkggUjQKPL/NR86QMzFM/jkKxizAIV6gFbxzaLUTuMyD SKHX6mA4SHHuwlmwEUl6WnMn+4nlA3t+/dKJlbUGA2PbzGDeAuE3QbwAzOLDnX85sOu9VqeFhNu0 d3EPHn334/B9jxZ6YA/4KMiZORI5/6r8fyqcvbBIgDBPBYoTAGa+pWyD8nmBcEAsWTw8+yIanPYz aDIQCyi08dh7nsSJk9/G+eEbRC2FQdbvmbuTfwngz9Sih/X8CrkREqBOeA2g9QN//dhH27v1X3Ow 1EvmiNeB9z34ATx23xPQtoVEtTG0KcTEHVGcMUUrv9zZiIwAwsy2/Y6rgAk7ffz55Awckk8R3cjS uEWRwgYodHsdrA/X8NrpV4GWgDoiMHTHwvHW6atfH5wYQ2i5URKAakxgABi9iL9HLZg5mgOGhIML h/H4A49DcxKMPJOBEsAxF/xKFbEP4eK5QgoIIuY/wwkS3VISII9eivjIyj5SPCe8hsQMZYAADSSm g4cfeATfPPF1XLcX0Z3r0oZbN729+u8B+PWKFOCaVN5xCVCEdHO9D6D11N+9759J1/+oaJE5M0eq b/Do8ffi8Xe/F9curUEZhfW0j6Tbgnd+ZLEK/Jzrz1V876mxeoz877wDM2/rEA5qioUDO24zfuAL L4bjcyF/IEgMAnuBYgIY8AJ4eAyzARYXFnD56iVcvHYBqaTwKhPLdvHw43uX3nxm9bffjrCx2Ybu p5rhZx7+8/c8MKD1v2RaWpSAJGMszx3APYfvgaQa3jLQBVKdgbJ1JNKK+zti6lHkk1A0mGLNTh5b n8XqJhQVPxtpH1/+9tdg1PR8Lgip4kYptFstKDIAAY/f+zDY8/ZsAMpf47j7fflrLIBoeGZADJgY qY9JJaqFd915H06e+y4ytwGrDDEG0lnSf+nODy3/6qufvfJCzR7gWSWBegviv2CA5Db6RTGASz2M tIHMYPfcMpZ378P66gaSpIVBlmLX0iIyzmJIVeJyBOyeIQEhK/x5Ltyl/Lnq654C6MsR/PUNPrpA YLRAm+mPTkdjYa4NlRAspxjadWSuH/O2Np/DNI9zScZRknEVxxABs4ClLE5JfYZWp4VBf4B9y/ux 0F7AQncX2qqL+d4ivHjs+4Fdvxg3sK644TNHDM2Mu78O9yb3/NTB93PiH5xr74JiRW3ugpzCsdvv A5I2BjZYtyQagyt9aGVglYVilSfsQwlBoABSIAagKMLBVEDAJGWQLzwmEI3CARSjdfkT3ns49ltu hZQADQISBViL1TSFEJBQuFChBF4cnDiwlBKJKzto5LE0PWZ4FujCYIxnTpTjg4HhJeQUpDYDEYNE cPftd+Pyty7CqB6cJmJYcMs+eN+f2//+7/zaxf+L5rzCqTKMZ1UBI6Jf96iVHMJHxdCCsEBxAnIK HTOP+bkFOOZYc6OghUCioeKFevgQWiUFny8hSyjeLNL6cwhYNgm1MvGqJvMIISMoftSjVAlNN4sQ 5XNgwLo8zFi+BoXFtoKXqh1f/mpV5jY/Fngp6eJEKpdCIXEkxzZzj4cA7x0SRRBm7Nm1hLZuo88Z tPiAixi70DlAHzVdesYNxGM0n5CnVQHb8QIKBtj32OKB7q72R0gUvBO0lYJnxvzCApaWdsM7H4np 4wc3+/JEDCJdieNzrOClijXPU1v7wVgLe855h3SYwms/UecLucb1Ui2NXrsLBYL3Nvrt24gFEMfo sGz6fP1xOB+B9x5to5E5xv79+9Gbm8O1tTWAQgo8QSGZ0x858PD8Pzn7zNqZyOs8drG2yQBNUb5C /B94fNfPa0oAznPmFIQFe/Yso9vtwQ9d2OXx3JhM3Jnhj4hCqRZ7KFJRLCooFXRlYIxmBqBY3l0n RlAd4fstOzi2kC3XRBq/X7zH6soa+noAvl3gtssAEeDKAar880Q04r1AJEQLYcHegzmghPO75rF7 1xLOrr0JIoIiBRYNIoVDjy39/Nln1v4BABeZoGnR5O2SALn7ZxQoaS3on7bWIlEdJLoViKgIy8vL EGF4ERCrKEgViBxESdDzkbeIAiOE3aWiyxekgIifKMnG+fu5jvbsMfQMMzFDiCFKNv+OEFQazr2l VCQIFy7p9LZWWfcxKgEq9YhSvs4U3EACYG0G5z2c81haWgLOEBQMiGKfA9JoLeifVqT/EYu3FSkw kzifBfUrdv97fu6On/HOJW3dEggVDKCIsLAwD2tttHg5Wrex/FoYkvvAhU8cYgMj/3OehBEBlBmO mCISfgs+ZhOPOwSQrOFIwWwhbMN98f35eU17PsHiYan6LBXfRfzo68JgH+IE1lp45zAcDjE3Px9w kgIkU4CQkEby8M8e+5mIx+gKnabyCMyMmL/OUb/5/d0/ez29gqTTJa000uEQrfYi5hbm0et0CxAF EgihSEGpYOA5CEjlqF/poyvSJU9KqbeVUtNK7pEXrLewwwFEmyl2aYM90bLh3gMZ+0IFjPtJkVrQ qrh5FFKey/c0Pebo+lorUOJBREjTIfbt24/5hUWsZNehlAFpASlFfjhE54D5swB+OdLGF7bvFB6B mUEC5MifvufDhx9kcXvn5+ahoUDQRdJmTiz2HmAGiyqs8IKDCZAo8olyRlBgqRuv20E4K4UaIvAs IDXhszKeqJTG8nLDBXo3GQhCAfHWVcBIUks1WJUni0Q4tACNovRDxAmEBVqbsNZggHTMOVQQkr1H //DSg2c+f+0bFTrxNK6g2Y74nz/UfoS1LLdbnVCIIRpCQc8bMoUFTl5D4EI+HHGJ+xf6O7f4VYn3 j+hrFTaI+OlxTgoZugDg2CIVh8kAnkBhjK2RnwszvHfw3m03SlB2GdjCE2AOCoKEIWyDBNUAeyBJ EtBQQSkN8aH2gJSCRbrcO2IeAfBCNAZVYVBtwQRmRhtAJ/O6Y3bpJ5RWGA5TdFo9kFJQKmgmrRUg BGt9qYxIhRz+SPzQlYOKHUgUJAiNmCQxC1hmD+4EUAmw3sH54eTLFIAybtSW1KIiJO38FipgglEq Fe9sEgPk914AYoaSUA/BCAmvraQdvBxSIYYgAq01rGRYODD3RGv+2sezdZe9HTZAPeKnC9h3Qfek xY96JYALFrxWOlbqAiri7tZZmAjKEYUyCYroXXDxqLZoVIN1aNvRvRw99N7DDxxI0wTuHi8eaBAY UhuGZw/vt8MAAlDFBpiAASDPGmKAxAc1KR5ePDx5JEkCEEGRhpAPeIfWIa+iLY8mi6qXraPfoAbG 6tFZVIAGoBdv6+1Luvp262ww9gTBL40iWysDIcB5htJBlxEJlAowJ4GgCRAmkAp+MCHHdJtD3LO4 3UIh4h5QN4cMHjxhI1BeaFIpMc1XSlP4pEMo+d5kA9TMrDKwVTe/Kuhf7u1QWd+a2wc5EMQIELCK 72VheGYYY0IFdIydiAi00qEIVfj2+UPdfRvnsmsN8QF5KzaAqkiB5MD9e36YoKCNEaU1BRTQoaW7 8CLo2xR9mwbcjy00DLQQVMz+IRCcCgWc4oN81RQXP0b/JN4r6Hih4SS4ckWcQ7715yt8zt7Dsw1G oGAMIETQlGz+fgmBKgJgRODEh7BufDE/hzx9feLjyILV7RjsvFDuxnl8I/4eOxtPzUWfwIHBcGka PAMBWAnIANY5tKUjSdKiPe+SH77w9ZVXAWQV2vGsKqCxnDtXAZ3draeEPbRW5L1HokzQ3TEM60Xg nAMhicU0HODLHKAhFWD/PP1LBBI9gxAbCM8REZhc3BkUFr7m1EjTzq7wOguDxYOZxiPKBHht4Sc4 wcV15QWgIthE0UmPx9CgjgwWCKHEqmcIHEUPBA7CDMXhdYpL6QF0pEOeBZ09yVMAPlahl6tJgU3S wExB/KoHoE1PP27FItEJ2DJIB/BHhOO9IM0ytI2Bl+iOSthLJnoDULGOXoomfWH3q7C7lAo1AqSo Eg+SzUTeQjV49vCWQRNyBIliz8AJX8Zx93ve7NJN11W4GWdg4TIeEfQjSDiIfkTdDx+rnhycc8HN Jo6xEg0SD20MsmyI9nzr8QrxVUOYeBMTTKsCNACdtE0HWpZD5q0qU5w0QbwU2PZgOITutmEElXgc gZQPGHaD4UREhQ6VeE8xNiDbLPb0nuEzBpnJ6Kimya97CQbgVkbghG9oZDDvS9yj2P15TCAS30kW iM8W1looraN3SiClAE/B7hKGTvRy0jEdO3SDmh2wbSRwJPx725P77mNmmJaGIQ020a2L6d2kowRI h+i1eyHZQxgS4SKS0NyByoZ8pchRZe/eKl4QULTm69gqKOOcg/WuCBOP8ya28u5FeTjvYluaWb0S nqgCqoZhNUIqHCSAFQ8nFqzC7xNR7Dsg0KTBQsFWUYEGd/zwoftO/tbprzZIgW25gSNSoLu/dbcT i3bSAhCACfFBE3thQAXcPnM2JjfklbsuxP1juNdX9H+xmFKE4WMfACqSQ3msHSNb7DsPD5uXE2Ik FbmaQrYFQb2U4hhb5BeMCTiP+V6uXEUBE8JET8ZHGN0zx1IyDzKqCJerGBpmZiil4KzD4qG5uwF8 o0b4sd7AVgygqlJAz+nbRAPO2bBjiWB0AuttQKcAOG8xGG4EHAACFhWybUiBKWT+CBityERVw0PF go8yGST8p8Ys+FaagSDwqYUyUbwmzUbjVl4mKwSgi8rvnSmEGm2kutTKv08BYdPEqGDmHLRSsOww TAfQbY0LFy9CGQ1RAi+ANgaeGUobsGQgo6FZkCXZbbXdPxEUMjOkf2nVxkEohpCuhDHDd2utoLWG 94LMWQxtirYhaImXGI1EkCBpdfDx//Xx2HNHRZ+boOPjyac0y8IDWhuwC4EW4u0Vlg7TAf7rf/+1 GXd+5TzaHBpMZlLy9QjGIfjJP/6TyDIbOiSwgxAFiaMFXhz66TAYxdABPRUVMRYq6ECKQQkdrBmC NAa5mMoGGJUCLVkKWLvEF+L3a4LSGkoTWBGcdej3+9A9HSx6IjgRGDCAJHJu9OIjOhhyudQUgcnZ hK/Law1ywGmbN1LbraEJWb/wocKJKwGjXCpABJ6DyBcEzEF8QKjIaAzSAdI0DQW1MVcCpKBAYCiI qBj2JugES9Pu/mlVQCEFlMGiEANKF0mbFAcsBEILlCZ4thgM+mibFkxLB9ffM4QISjMoGjhUIiVF cGiyObL9m4CK37rRN3KIyS2jdouPEkmYQ9IpO4AYztvY25pBCugPBnDeQ5myHDNPpKU8vyrGTJTB Ym33z6wCxkoA0egghlZZha6ZkYoh9OodlGpBQcF5h8xm6CbdAMjEqRyIXMwcAVoqEzyde/t2f9PX 0A3vxJvbNuG3c4KjaCZVpph5H6BmAcOyh1EE50Iruv6gD6VURDIrErMG85NSgELnrUoAGucFCMEo KV00KcBYgvWBwCqhwiD0PlixJCHlK6R5BWybbXAboXPYVEJugIzzRt+G203qLcFaYhcxKuP8QCx/ D82lcms/D4uTCh1UrLMYpkMkiUHm0qJiOthPEVLn4HHpQBfToP9pnCdgtiD+CJKkJHjuuW0upAK+ xwqkDLQy0ZJneLEY2D50qpGYJJyo0vBQMKJj3psqKoCQ68ZKVdA0EbubcVMzAlPiVRGHEHBRKl66 iLm/7wARWO/ANmRYD4eDAJaCoSLOQkqiTROg4ZYKvYaUAOy5qXZzLBNMkxJWqAHy5EjKKl5QMPAU GWgYEJny+yN8mfkUUAKjk2A7sAcZhgNDCQotFuPE4VAVr0Fu4tylprTz2Ktw6lL1eF0hlhGQP5Zq u9sQ83fwcPBFxhRLSEKx3gEqFsj62KcwDrUKgTOGkfhfAJRcAwA0lQqgLQxBEpZh3os3pw01QLpF 0kfUY1ppJKYFYQ5Nvzi4QxxCbuEzKm+zFnc8lR1Cdq75/xY7fYwWmdabLPuYciwDjATMjb94zexQ JMDmHoJzDlmWRVspwL7jkGiWgKGEglYMm2iHMYHsmSqDxNJ63iGTImpFVCN+JapHCCflKynVyNul +JDOVCxSJXAZwrfBnijKe26G7jbNu1rslLapAEgA8XkhbCB0YQsqjruWN3Ujdc7Be18kz0yCvYUk 1kgAcLQ+i+U8S2EISSrXS/tiM9pF0aIPgEVZ9++9D63edRKSP2O9HgkjNNhWIx5gCHUKXBawBrkJ KoBAUNn4350mSYUA+Cx6SShdvpFYhkiRGxBS4QHmgPuLSOil5PPQ8YTEFhUS6tjieoMRv20GGPE3 XF8ud5hK+TFFV1alguVvbYCLjaLigiXiqwUgUgVxfYwDVFTDjbwJBKRV4672M5wPKSlK1epxfxEu JClXAkLOuaJ9jlIBRLLWwRjVnLsqPqSJiYAHcnkWAGWmyiC7yufbpoUhW5h2AvjAoaN9fkruzjti KQrv8d6D4GBMnu7MMb5NZcCGyswYlHbTzLbbtGlkkwJBPIbQeoYcNWEUJesjlkFIgQoFIdWmFCJF 6ln1sTEGRQ8lGV3jPIrmLMOuuPOzrJWZUpMJAKydHZw5QsuAHYbkBGiYCdQpMmcq4V3msuMHUdlR myqmSa7zqDLetc7LIs1Epm1MixibzdvwA1SgSrPjDtVmUQU6WdQEVDubbP6M1irmDzRIWa1iqFhj /Xx6Zssw5BaGbtMlCAA59+yl18AEllC3xsxjQ7UjxuFWaMw20d6IhYwciGnTSk13TDKwGgdGvJV4 QvU8J0ieukc1MVotAGkF7z2MMTjzjUuvYYbWMbOoAAGArG8vt3qtvaK3OrPNF/NWF3AaWG8ri3lW NXBj4IZaQnxe+czx3IQmnqNzLmAHKV+eFTQxtRWlBtE/0oNmeHV4Ym6x+yNiEEu6x9G0DPIU0LGU PJPHAihe8Igc4fJ0ytLp6QgXkDLaZIRO1tMycYFz+LrIWBLMZJcwU8UG4BGEABB057qbvjDkSMYh GJOSVhSHBpMA+leHJ7C5Z1DT2Xo3h3oAABarSURBVE6FBFZFSNGCZOXMxvOd21o/orQWUqDNFnyV BdTIBSkVMIQss/jxH/+TpWgtXMcKYQWNxuU0Ozd/fm1tDZ/7359FkpgiWlbn9FCXgNiUunlefavV xo/98R+DtRYQhByHKW0AUVUGCD5/aez6oho6y7Kxm7fw8ccpVBJhz3T99PrzdXptJRHMGINvM7vG L37zhesv7ntyN7zNKFEERdXfikWLmxS8jk0QKaaIcxytporGEkRqpDNYeKgLFE1JGc3N+wWFRNLR 57nSJdY7G8OYZR4dKlKoeJy3p1Xl7i4ex2ietxbe2vAbsygqio3AUMb/i5YwlfL3aju8UlVWvSoq AkdVRgjYz5CUKFx6YfXFJpqNoe1YCdDUdDP2N4NPr2drbsOdbe0yR7x3MKYTyr9jmyRC2ehRpGJn kg7Bn8LCRxnVys2JWB8YDCUVZwfoUB5ClaaGFKeFxPWpPl9lPx2HSSqq1P3QOJir4f/8eyiMp1GY LZ+gLBLhiHdE/hcuXUFwJTDkQwcY3zxMvRC2MorwCjFcX86m1+0ayvLwugRoVFxqCvevOuuW3dBn gyvpy4nWkNjIIM5HK33TRiO0RLLqxmBeUq5q8/gKjKHRGkeRODp2xFvU75LPHNqyC/SYxxVbZavf m2SY5tdZ3eG5x5Lvgmnc2LxJRZ7QaMjArvLLbuizOr22cgfNFMSvSgBmJ9ngvP2uO+o/0Gon5Fmg iIu0pPCVXPa9JWzhYmHT4pQSRKCqWMCM1jspAmk1sTh0qp2sVZEEux3Xr1oM2/RaVeyLUNFUqha3 CbOQOI6oQ2WKmdcyvDj8LjvJqrTawhCcygisSwAPwF8/1T+19/6FtU67syjOQ5Kytr/Qa6qifkgm 7IjRngHV4EcRWSRq6C42hQuqCGTobWCArXd5YVBW3xN7/lFh10hB5CpjFK5r8fnRXIFgrMTAUaXM PHyGIEO9du2l/qma+J9KAqgtHOwR/Q/AAvCXv3P9tPGtK+wEZWyDa5h+TQUQo1ohU2/7UmUKqfcE GOMGbTnps1Zosu1poVOom9LVHY3qFZdP1IBc1s5vU1KsbLk/CYAa6isXX7x+ukqjBjsAs9gAY3c/ Yjuyq99Z/+1QUweRiGEXDVqFyzJo4ZH0iXr4uHAPQaMQMFFE60q4dFpibZYUby2YRDVVNu536wjj JttF1d9PjfGTIhxVtI8pw8VKh56Fcb3FW8G1bw9+u0qbWaTAVgzQJAUcAHfiM69+UXmdeucpT/Is GyLn49VCF6zC6q24PqOLqUZTwKi6yGosqjhpQENxRCPwLR2bdnazPZITvpRA0bCLz6sGaHdUZYwS PzzlwOJCf4J4DwA+hIzJDW164tOnvpjTZQsvYKZYgNR2v6scFoC79sr65xDj1/nbubrjSRpbojQH XWRiMCZH9Igmdw4pJUcoVGl1EihFUEq2fRCh6HI2tmNZE45fkz4iTQEt2RQoqlr51WF1SilYmxWe gDYKa6+nn6vSpMYIjC3axk4TDKrbAMVx4nOvfkGTtgSKdfhS9MbjoqdeCXTkLmJjn3+ZbEpvRwWI CFzq8n6w2z6o5v9PrX7i3/jYdHW+wagKiAIeIqEvgIgv3ORQJk7QpOzJz7/xhTpdJtgAWzJAE3DQ ZANYALZ/dbBy7fX1L5e6nkfDmiMXWHVdRi+WaOs0y/oijxvOsCNj42sG4KRhFSPnSVv58zWdX81D qOj9fN2ybBgyhCQUUFx6+eqX+1eGKxXCN9kAMik6OA4JbPJFRogPIBNG9uazl5+Zu6P1mFLtHkQq 5U6bw0t5okdVlEs1MaTRRo5VR3X3DlOEUyMOoPRbm44XmmCokcDSNDkEBAowskjdpcdoP0PeJP6L kXkICSXhPkgCay006f75r195BowMoSVMExPIVqHhaVWA1FRA8aPnv3nlVHY9PeVh43BlQLwNRQqe wWLhycGRhVMWniyEgmEjCD1wQrPISicx5CmtoS0i8tnNeRmKlEkkTQfiAKZiojhTqQYaH8vEaVBU Wb78vMbjiaHaQVXK3okIKqaT54Enqm5O4tD1C6GzqkEKwza21AU8ARYMaTGsZBD2sBfdqYvPrpyq 06OiAmQ7KmCSO9hkB6QAshOfeOPjShGcTSHsoEgAcWC28LHDhSWLjCwsWTBs6I+b98yVcOGh6jWE XfOagXyvqJg4nHf1iu0lNx9xLgFxuAeH8e7g0E1j8+MI2LNsBlErQlSJFL15FFHjb2tSMW4QAlCq YJbY9EooxAWYY3zAB8CMuOgXDGTQcS4AxXz/jASZdhjKEKnrY6Ezhxd+/ZWPR6KnW+j/bTGATFAB rvLDGYBs/czw0uVn1z4LT6G5cTZA5lN4yoqxKGBAOQrdw1mCBKgaivm49cJo5KIXD8kWaEZNb+Ti mgqsXUORDvfVx6ShNLY8gpe6dQaRSHVqaSULWMrHUhHt1ebYZQNqFQdHSWgNIw5gC4gDeUZbJTj3 zcufXb2wcamy83NauAkqQLYjAZqkQFUNpACGALLnP/bKb/pVuSAsYeiRsnAUOnQI+7DjPMVKWR6R qQIf/PVGA2nWQc0YGc4wyWAs5/1hxApvMu6mcWUb31+xdaqAcNFJPHZOD1PEGI49nAAZM5wwRDKI ZCC2IQ9hQ1147uOv/GZc/2GF+FUJMNXun1UFVBmgynn5kb36xTc/o2Bc0kowdANYZHBwEPYgFmhH ARHOGyDGjuIi1QBHdaHLkbKzJt4VaGJEGpuPUHeg8veNOxqymyZjGhgZAlFKOV+AZWGARD7SzhXj 6RiCjAUWEmYUcQpwBrEZuO/cyd8+85mmta8wgZ82DjCrBPA1O6DOBMPXvnTuubXzgxeL/ndgCDuw eJAHyBPgJebAV/rpF2KxDGTVEcNp3KnSQi+rlFAdI9zo3lWKWppiAHm1Eya7oVWiV/v/5bgHqAqJ l4zPxfyB8pqDHJfQG1AcxGVIHLD+ev/FV3/nwnOVnd9E/Lr437YEkDFMULUDhhU1kAJIv/6r3/mN 9csbK0nSiuXhUvTIEV9MiKwQ3VegT9nsO8t4NLHJ99/sX6MoYt2sAqoADBoxhabdPQ0INJLLWCCi HgJX6HyOMHkxZC5KgYxDX0LrbGgYnXlgg1ee/8Qbv1HdcFUVXNP/ginNplltgCY1MKwe/WuD69/9 5Jlf5jXO4AHvHNh7WJ8h5SGsDz1wgujLsXqp6MEYP4h9enOcoIw1YKyOLlrNSj05taxJGD0QJ5rI pmPS1qli/nXsYfMQqPz8fehbGPsNenZF+9pwjQ7McW1UmFdniGCHGVqcZF/72Ku/3L+eXq+v91sR /9MyQJ0ZmryB6gmll0+unHn9dy58WlsjZAlZOgTDAdrDUxrHo/jCE8h1YEHs/B5upGJ2HOpWF700 YnSNVpDUgzWEar7+hB2NyaK+yqSjUoZHvZ1c1IMLxiglQj6YwmEw2IAhBTd08uqXLn76wsvXzzSt 9ZjdP/XNTEFwVHK68vX1FRwgiUercm9e+uzrX91/5/LxpWOLD7ACvGaQTkGsR7p1eagQBycXksYi YbhIBkGcOjKK9OW1c1UmoFhSnuOGoTKZoSjU3TePleexUlLiOWitywbUte8Y0fc1xmBmgKQkcLSH 8nIwLzZIBraFdGAInM3gM4v1/gb8NTrxwmde+2qF6IN4VO2A6u6fyQuY1ryu9wsykdBtAD0AcwAW ASwA2BUfzydts/jkzz305xfumLuHOhpIgAQdtLgFrTS0NtA6gVEJFDSSWD2sC189tEdXosfG3zfH CQgEU/TduXj5IpRWm1zDUgb68enYeTNLpXBw38HGOEb1O/NOoiOSigSZT0NYl/Pmj0EiZD6FF1dM I2Hv4SGw4gCf4crJyye/+p++/Ss29asA1gGsAlgBsBYfbwDo1yQB7xQDALWxsZEBOpEJ5iMDLFaY YV4nav4H/8ZDP7twbO52bzw6ag5d14MiFRnARAYwSHQCpcI8PKNMGI4EgkFStJOrMkE1flAdQy9i Rt47+cqmW6v6Tq9KoWJKeOzgkJd5I85FztygwPd91PUgIHVDsDh49nDOBglAHplLsXpu5Y1n/vXz /8lnvB6JnxN9NT5ej8QfNkiBqSeKzxIlqdd10RjpUB0uqYSFrr26+tr++5bvMl09771AKRP7/Sso GGgOI2U0oqhVAlEeQh6gUF1cWCyEoiY9L6mikQLBfBBVvM+bJ4wd8lofuj2Fb5+XtNNoTJ9z74a4 SH4BOxDboJY47H4XUb7UhzmKThwsp3CSgb1Desm++Y1f+c7Hhqvp9UjkfiT4RmXXD2o732MGwHS7 DFBnhnozoioj5HMGVLZh7dWXVk8duOfAMTOXLKQqjd0vCEYSkFcgR9ChuStYObCy8CYsHLHORysX 2dpC+ZhVKubtCunoSebdtipRo8LVZDQXz0wbtgV87BLEscFjPhsRKkY3JFj5nh3AGRJ2IPah43ds AJ2CMXApMrGwkmHo+nA+Rf9C//zzv3byY9fPr1yKRK4Tf6NiD9ha8sfM0OlbiZM2lVE0MYECQNl6 5s587c1vH7h/z51JD4uE0NZMCaAppF2LQhwtT0XzCGKCylPMKxHDoriknj6dRyTlreUBbm7mUGUA Hhl8me96jokbuWXP+YBMJngBrEhkAAeGDapALAb9NSgRpFeGZ575Vy/8l/Wr/frO71eInxuBWYUB +EYywKQS34kSgR3zhRcuvXzo3l1H5xc6uw2pIrzH5MK8z6IBkQ7Wv6hQIBmHThSTRFEJ6xZincrs oiLANCEWsMVRd+s4jsMV9hFHiLV94oosqCrxg4XP8ELIRGDZI5UszABgC/YZxFl0VILVc6uvf/mX Xvxvtu9WKzt/o3ZURX9992/r9tYyJZp70dAkZvAZ+/PPXXlpcW+3N7/UPqQMxXwBF4JHxHGfR8Jz bBhfZBhVMo8pB5C5En/j/B1FZ44i0kCCWf685CKdi6imIIj30AvRBTUQmcBHNy+I/3gvjAEUMnHI JIPzKbxP4TlFQkC2PsDl765846v/+cT/zDbsahTt1d2/Xtv9w0rgZ1zWz45LgFnthKp6IG+Fz75w 5TXX58vLxxbv8cprCwuYkphhnnOcnkXVWEGZsKQUlb32qmsglSwS8Oi9TMj8GEnBjJk6VEl3i5At i41MmHc/C5CuLwCt4NszMzwxUjhYSeFkAM9DiM8Az8hW+/aV//3m/3z2Uy99yWV+o7Lzm/R+vxb5 a8r7oxspAWgM0beSErEGCrh6evXq6oXh6aW7Fu8WI23SYYdpAjSFsWkQH1vgRJ1fSc+hSufysu0K I3+27MWLonZxsxfAjaBQCFHzSAFnGdHztQAOg8mBvSsHWEeE05NDRhkYGZgzwKeA9eB1v/b8J1/5 +KmvnH0ZUgA8udivE3/QgPkzZugEspMqYFO22yyfX7+0sX7um5dfXNy7iO6SOaIgxD4DvINC6Bbq JG+0xEXxSTGVXOKscPHle1jKAAvKXeyjG8ZxEgdLzErKH0fxzXE3h46d5WRvH2MVXoJoDx2+A6Ln 2cJ5G9w8Dv9bZ5H5FKwyZNk64CwoEz779Ytf/sqvvPipK6dXLsRdXdf5VdFfJb4dE/CRm2kDTJII TdnGm97jUu/OPXvxjfXzgzf2HJ4/3Ou25oxS0KjV11f+Asgi5VhWyqd5cTQMRytrqgmXI5j8yGtS DIkus3G5lrUjcEijQWjjRDEf8xulYKLADEFdsE+hPaN/cXDp+U+c/O8v/Z83nnWp36hAu1vp/LrY nyrf70YwQBPBZUyK+aT3AADWLw7WX/3i+efnds1had/CPlGU2CxM/uRa2jlXCSZlwwUvDPEYSTSp RhwnWfz1gI4vLHouHlvO4HJjz0cx7wOmn6bD0itAkCriHezKYHD265d/70v//oVPrV3sX60EdQa1 XV/X+U0Bn6m7f7xVg267qqAYMVOLGXQAdGPcoFe778bXO3lQafHg3PIDH7rnvXuPLx2nNuYCRExh hHrM89PKFOVjSuWdRgxU6GDVnNwxJo18ZLx7A+bPwnG2X4hS5i5g6S5GaUJlq9eNlY2NK69cf+mV 3zr9lWvn1q5UwujDGgP0a/eDBuL77UC9N4oBpmGCVoUJepUjZ4ScCdrxSAAkuw4vLN3xQwcfvO3x Az+ktCatFYg0lFIwplUyAHTsM6SgpDXSZ0CprRmgJHjFoGzKDySGl2xEXbD4Aphy3sJlmZz+2oUv nfri2W+tnd+4VsuiTmuif6OiAvo1sb+jxN8pBhjHBEmFuE2M0K0cnQrTJPHz+uE/9e4fPPyeAw8n Pd3TidHKxC7jJFDGhBYxoqGlVTSoKiOGKg67HFNmDlT0fi4JfDHZI2cOhoNTtkhzE5GQ0e7g+yuD /rnnzj/7wqde/j2MFtJUk2cGlaOJ8GkD0DNVqffNZoBxTKBqTFBXCd0xDFBlglb8vCEic/dTt99z 4IG9d3b3JYc7e5O9oj1Eh8ibIYM5mgsFIZQ3pYop4krHsXV5zV+e4RNbyXDF2IPECd6lGwgATjkM VBaxCoP00vDy+vn03MUTV149+buvn4SMFGhmDZlTdQYYNIj8Osq3I8TfCQYYxwTUwAStisjvNjBA tyIx2hVJkB96bm9vvrfUnjvyyP57lu9ZvGvuQPcgQWDEFFNNkJeRUWAALkOKEAq9yI3So7h+bjT6 wAyhG1n0KMBYvTJ889IrV06de/biyf6V4cbG5cE6miuoq5m7gwYGGNTy+ppcvR0j/k4xwDiboDqF PKkZiO3azm9igpGMI5SzcfKDAKhjP3jkrkP3L9+xdGTxSGtXa4lARGF0HYWJNzGATJXmjcx5CZeQ hCG3RCTiPADIxvXBteunV85efPnq669++cwpjJbLNRXNVOsm6sSvSoK0ZuhNcvUEO7xbd5oJxqmE pMYIndrRrtzX7YKkxgS6HntYum3XroX9c7vm9nTnO7s6vaSbdExbt5TRRilSAgF7x2zhbGqztG+H di3rb1wbrK++ub6ycnZtBZsbLnlsTpOv6/t65m49l69e0OEmJHXKThPoRjIBVZJGTEUi1BmhPYYB 2rUcxCZpsCkcXYlHTLpuaUgUrCcQNO16WyFmOoYB0jGE9xX/fqqK3rfzZm4AA9T1VzV+O6n/QL6T WnHRWjUp0KowTp0RVAMjECZP0mjqjVA/P24gfL1iulqrN6z9P66M+4aJ/JvBAHXiC6pdI5ubUVUX N4kL2ET8OhPomjRQDWqhiQnGNcaQGuGrjZjqxB/HBLZm3DW1cOEbuetvtArYKnagamqhih2YGoGT CcQ3DUxQlwRqjCqoi36esPPrOr+JCeotW5oaOFV3PXbS0r+VGKAaOaQGRlA1Q1HX7AQz5r7uIpoG e0CNkQIYs/vHtchzDSrAjbmf1LqNG6TPDR9ue3MnJYxPIGlihDpDmDFENw2fqRuE4yqiGM0tcn2D CnANh2/Q7eNE/U3Z8bcaA0xSC01SoYkhJh11G0BNaQPwBBtgmoPH7PabKu5vVQZoOo8mt03VYgw0 Rs+PI7ya0QvgCYzQZB8Imps0jyP8TSf+rcQAk7ADYHw/qCb9XjUqqSZNZmUA1BigCRdoEu3jfHm5 VRf6VmYCzMAMGOP3b4UBbIUFyATG2IrouFWJf6szQF1HTypLwwRCT0pbH0f8JmbABELLFqCXfK/s su+FG03hSUzz2laglUxAMycZcfK9vJjfL+dOUzzeigG2eozvZcJ/PzDArNcx67XK2/SeW/qm8c7t +5a479zeub1ze+c2+fb/AUAU4W5Bk8L0AAAAAElFTkSuQmCC "
     preserveAspectRatio="none"
     height="4"
     width="4" />
</svg>
