<?xml version="1.0" encoding="UTF-8" standalone="no"?>
<svg
   xmlns:dc="http://purl.org/dc/elements/1.1/"
   xmlns:cc="http://creativecommons.org/ns#"
   xmlns:rdf="http://www.w3.org/1999/02/22-rdf-syntax-ns#"
   xmlns:svg="http://www.w3.org/2000/svg"
   xmlns="http://www.w3.org/2000/svg"
   xmlns:sodipodi="http://sodipodi.sourceforge.net/DTD/sodipodi-0.dtd"
   xmlns:inkscape="http://www.inkscape.org/namespaces/inkscape"
   viewBox="0 0 16 16"
   version="1.1"
   id="svg6"
   sodipodi:docname="run-build-clean.svg"
   inkscape:version="0.92.1 r15371">
  <metadata
     id="metadata10">
    <rdf:RDF>
      <cc:Work
         rdf:about="">
        <dc:format>image/svg+xml</dc:format>
        <dc:type
           rdf:resource="http://purl.org/dc/dcmitype/StillImage" />
      </cc:Work>
    </rdf:RDF>
  </metadata>
  <sodipodi:namedview
     pagecolor="#ffffff"
     bordercolor="#666666"
     borderopacity="1"
     objecttolerance="10"
     gridtolerance="10"
     guidetolerance="10"
     inkscape:pageopacity="0"
     inkscape:pageshadow="2"
     inkscape:window-width="640"
     inkscape:window-height="480"
     id="namedview8"
     showgrid="false"
     inkscape:current-layer="svg6" />
  <defs
     id="defs3051">
    <style
       type="text/css"
       id="current-color-scheme">
      .ColorScheme-Text {
        color:#f2f2f2;
      }
      </style>
  </defs>
  <path
     style="fill:#3daee9;fill-opacity:1;stroke:none"
     d="M 7 2 L 7 3.1015625 C 6.374 3.2305625 5.7790937 3.4790312 5.2460938 3.8320312 L 4.4648438 3.0507812 L 3.0507812 4.4648438 L 3.8320312 5.2460938 C 3.4800313 5.7790937 3.2334687 6.374 3.1054688 7 L 2 7 L 2 9 L 3.1015625 9 C 3.2305625 9.626 3.4790312 10.220906 3.8320312 10.753906 L 3.0507812 11.535156 L 4.4648438 12.949219 L 5.2460938 12.167969 C 5.7790938 12.519969 6.374 12.766531 7 12.894531 L 7 11.867188 C 6.29 11.685187 5.6428594 11.311109 5.1308594 10.787109 C 4.4058594 10.040109 4 9.0429531 4 8.0019531 C 4 6.9209531 4.4378906 5.8858125 5.2128906 5.1328125 C 5.9598906 4.4078125 6.959 4.0019531 8 4.0019531 C 9.081 4.0019531 10.116141 4.4398437 10.869141 5.2148438 C 11.594141 5.9618437 12 6.9609531 12 8.0019531 C 11.998 8.3399531 11.953188 8.6759531 11.867188 9.0019531 L 14 9.0019531 L 14 7.0019531 L 12.898438 7.0019531 C 12.769438 6.3759531 12.520969 5.7790938 12.167969 5.2460938 L 12.949219 4.4667969 L 11.535156 3.0527344 L 10.753906 3.8320312 C 10.220906 3.4800312 9.626 3.2334688 9 3.1054688 L 9 2.0019531 L 7 2 z M 7 6 L 7 10 L 10 8 L 7 6 z M 10 10 L 8 12 L 10 14 L 14 14 L 14 10 L 10 10 z M 10.599609 11 L 13 11 L 13 13 L 10.599609 13 L 9.5996094 12 L 10.599609 11 z "
     class="ColorScheme-Text"
     id="path4" />
  <path
     style="opacity:1;fill:#00ff00;fill-opacity:1;fill-rule:nonzero;stroke:#ffffff;stroke-width:0.0495356;stroke-opacity:0.94117647"
     d="M 7.0439628,7.985048 V 6.0530681 L 8.5053809,7.0271954 9.966799,8.0013227 8.5305317,8.9591753 c -0.789947,0.5268189 -1.4475852,0.9578526 -1.4614181,0.9578526 -0.013833,0 -0.025151,-0.869391 -0.025151,-1.9319799 z"
     id="path4487"
     inkscape:connector-curvature="0" />
  <path
     style="opacity:1;fill:#ffff00;fill-opacity:1;fill-rule:nonzero;stroke:#ffffff;stroke-width:0.0495356;stroke-opacity:0.94117647"
     d="M 9.0006192,12.988235 8.0108361,11.997523 9.0006192,11.006811 9.9904023,10.016099 h 1.9942727 1.994272 v 1.981424 1.981424 H 11.984675 9.9904023 Z m 4.0123838,-0.990712 v -1.01548 l -1.187121,-0.01331 -1.187121,-0.01331 -0.526208,0.524577 -0.526209,0.524577 0.51186,0.517474 0.511861,0.517473 1.201469,-0.01327 1.201469,-0.01327 z"
     id="path4489"
     inkscape:connector-curvature="0" />
</svg>
