<?xml version="1.0" encoding="UTF-8" standalone="no"?>
<svg
   xmlns:dc="http://purl.org/dc/elements/1.1/"
   xmlns:cc="http://creativecommons.org/ns#"
   xmlns:rdf="http://www.w3.org/1999/02/22-rdf-syntax-ns#"
   xmlns:svg="http://www.w3.org/2000/svg"
   xmlns="http://www.w3.org/2000/svg"
   xmlns:sodipodi="http://sodipodi.sourceforge.net/DTD/sodipodi-0.dtd"
   xmlns:inkscape="http://www.inkscape.org/namespaces/inkscape"
   viewBox="0 0 16 16"
   version="1.1"
   id="svg6"
   sodipodi:docname="tool-tweak.svg"
   inkscape:version="0.92.1 r15371">
  <metadata
     id="metadata10">
    <rdf:RDF>
      <cc:Work
         rdf:about="">
        <dc:format>image/svg+xml</dc:format>
        <dc:type
           rdf:resource="http://purl.org/dc/dcmitype/StillImage" />
      </cc:Work>
    </rdf:RDF>
  </metadata>
  <sodipodi:namedview
     pagecolor="#ffffff"
     bordercolor="#666666"
     borderopacity="1"
     objecttolerance="10"
     gridtolerance="10"
     guidetolerance="10"
     inkscape:pageopacity="0"
     inkscape:pageshadow="2"
     inkscape:window-width="640"
     inkscape:window-height="480"
     id="namedview8"
     showgrid="false"
     inkscape:current-layer="svg6" />
  <defs
     id="defs3051">
    <style
       type="text/css"
       id="current-color-scheme">
      .ColorScheme-Text {
        color:#f2f2f2;
      }
      </style>
  </defs>
  <path
     style="fill:#3daee9;fill-opacity:1;stroke:none"
     d="M 9.0078125 2.0019531 C 7.3410425 1.9616531 6.1895594 2.7637875 5.5371094 3.8984375 C 4.8846694 5.0330975 4.6432856 6.4629313 4.4785156 7.8632812 C 4.3137456 9.2636214 4.2315862 10.646281 4.0039062 11.619141 C 3.8900663 12.105561 3.7368325 12.480966 3.5703125 12.697266 C 3.4037825 12.913566 3.2675544 12.99459 2.9902344 13 L 2.6171875 13 L 2 13 L 2 14 L 2.6171875 14 L 3 14 L 3.0039062 14 L 3.0097656 14 C 3.5655456 13.9891 4.0521981 13.708171 4.3613281 13.306641 C 4.6704681 12.905101 4.8456825 12.406876 4.9765625 11.847656 C 5.2383125 10.729216 5.3107231 9.3381256 5.4707031 7.9785156 C 5.6306731 6.6189056 5.8846069 5.3022375 6.4042969 4.3984375 C 6.9239925 3.4946475 7.619535 2.96704 8.984375 3 L 8.9902344 3 L 8.9960938 3 C 11.314413 2.99958 12.197416 4.06974 12.648438 5.1875 C 12.978127 6.00457 12.91055 6.45444 12.90625 6.84375 C 11.41986 6.38851 10.178014 6.3239656 9.3085938 6.7597656 C 8.2796336 7.2755456 7.7867794 8.3255081 7.7558594 9.3925781 C 7.7249594 10.459658 8.1105606 11.584463 8.8378906 12.470703 C 9.5652206 13.356943 10.66494 14.00053 12 14 C 13.030591 14.0099 13.453486 14.0033 14 14 L 14 13 C 13.456391 13.0033 13.03106 13.0099 12.003906 13 L 12.001953 13 L 12 13 C 10.98049 13.00041 10.181248 12.530375 9.6113281 11.835938 C 9.0414081 11.141496 8.7307962 10.217772 8.7539062 9.4199219 C 9.1458325 6.7112067 12.37145 7.5538379 14 8 L 13.998047 7.546875 C 13.998047 7.546875 14.133812 6.19451 13.576172 4.8125 C 13.019452 3.43279 11.652462 2.0062531 9.0078125 2.0019531 z "
     class="ColorScheme-Text"
     id="path4" />
</svg>
