<?xml version="1.0" encoding="UTF-8" standalone="no"?>
<svg
   xmlns:dc="http://purl.org/dc/elements/1.1/"
   xmlns:cc="http://creativecommons.org/ns#"
   xmlns:rdf="http://www.w3.org/1999/02/22-rdf-syntax-ns#"
   xmlns:svg="http://www.w3.org/2000/svg"
   xmlns="http://www.w3.org/2000/svg"
   xmlns:sodipodi="http://sodipodi.sourceforge.net/DTD/sodipodi-0.dtd"
   xmlns:inkscape="http://www.inkscape.org/namespaces/inkscape"
   viewBox="0 0 16 16"
   version="1.1"
   id="svg6"
   sodipodi:docname="transform-shear-left.svg"
   inkscape:version="0.92.1 r15371">
  <metadata
     id="metadata10">
    <rdf:RDF>
      <cc:Work
         rdf:about="">
        <dc:format>image/svg+xml</dc:format>
        <dc:type
           rdf:resource="http://purl.org/dc/dcmitype/StillImage" />
      </cc:Work>
    </rdf:RDF>
  </metadata>
  <sodipodi:namedview
     pagecolor="#ffffff"
     bordercolor="#666666"
     borderopacity="1"
     objecttolerance="10"
     gridtolerance="10"
     guidetolerance="10"
     inkscape:pageopacity="0"
     inkscape:pageshadow="2"
     inkscape:window-width="640"
     inkscape:window-height="480"
     id="namedview8"
     showgrid="false"
     inkscape:current-layer="svg6" />
  <defs
     id="defs3051">
    <style
       type="text/css"
       id="current-color-scheme">
      .ColorScheme-Text {
        color:#f2f2f2;
      }
      </style>
  </defs>
  <path
     style="fill:#3daee9;fill-opacity:1;stroke:none"
     d="M 2 2 L 2 10 L 4 10 L 4 9 L 3 9 L 3 3 L 10 3 L 10 5 L 11 5 L 11 2 L 2 2 z M 4 6 L 6 14 L 14 14 L 12 6 L 4 6 z M 5.5 7 L 11 7 L 12.5 13 L 7 13 L 5.5 7 z "
     class="ColorScheme-Text"
     id="path4" />
  <path
     style="opacity:1;fill:#f2f2f2;fill-opacity:1;fill-rule:nonzero;stroke:#ffffff;stroke-width:0.0495356;stroke-opacity:0.94117647"
     d="M 2.0408669,6.0037152 V 2.0408669 H 6.4990712 10.957276 V 3.5021672 4.9634675 H 10.486687 10.016099 V 3.9727554 2.9820433 H 6.4990712 2.9820433 V 6.0037152 9.025387 h 0.4953561 0.495356 V 9.4959752 9.9665635 H 3.0068111 2.0408669 Z"
     id="path4483"
     inkscape:connector-curvature="0" />
</svg>
