<?xml version="1.0" encoding="UTF-8" standalone="no"?>
<svg
   xmlns:dc="http://purl.org/dc/elements/1.1/"
   xmlns:cc="http://creativecommons.org/ns#"
   xmlns:rdf="http://www.w3.org/1999/02/22-rdf-syntax-ns#"
   xmlns:svg="http://www.w3.org/2000/svg"
   xmlns="http://www.w3.org/2000/svg"
   xmlns:sodipodi="http://sodipodi.sourceforge.net/DTD/sodipodi-0.dtd"
   xmlns:inkscape="http://www.inkscape.org/namespaces/inkscape"
   viewBox="0 0 16 16"
   version="1.1"
   id="svg6"
   sodipodi:docname="view-restore.svg"
   inkscape:version="0.92.1 r15371">
  <metadata
     id="metadata10">
    <rdf:RDF>
      <cc:Work
         rdf:about="">
        <dc:format>image/svg+xml</dc:format>
        <dc:type
           rdf:resource="http://purl.org/dc/dcmitype/StillImage" />
      </cc:Work>
    </rdf:RDF>
  </metadata>
  <sodipodi:namedview
     pagecolor="#ffffff"
     bordercolor="#666666"
     borderopacity="1"
     objecttolerance="10"
     gridtolerance="10"
     guidetolerance="10"
     inkscape:pageopacity="0"
     inkscape:pageshadow="2"
     inkscape:window-width="640"
     inkscape:window-height="480"
     id="namedview8"
     showgrid="false"
     inkscape:current-layer="svg6" />
  <defs
     id="defs3051">
    <style
       type="text/css"
       id="current-color-scheme">
      .ColorScheme-Text {
        color:#f2f2f2;
      }
      </style>
  </defs>
  <path
     style="fill:currentColor;fill-opacity:1;stroke:none"
     d="M 6 2 L 8 4 L 10 2 L 6 2 z M 8 4 L 4 4 L 4 8 L 4 12 L 8 12 L 12 12 L 12 8 L 12 4 L 8 4 z M 12 8 L 14 10 L 14 6 L 12 8 z M 8 12 L 6 14 L 10 14 L 8 12 z M 4 8 L 2 6 L 2 10 L 4 8 z M 5 6 L 11 6 L 11 11 L 5 11 L 5 6 z "
     class="ColorScheme-Text"
     id="path4" />
  <path
     style="opacity:1;fill:#3daee9;fill-opacity:1;fill-rule:nonzero;stroke:#ffffff;stroke-width:0.0495356;stroke-opacity:0.94117647"
     d="m 6.9577402,13.049702 c 0.5378249,-0.53833 0.9778635,-0.995296 0.9778635,-1.01548 0,-0.02018 -0.8916409,-0.0367 -1.9814241,-0.0367 H 3.9727554 V 10.02896 8.0603953 L 3.0187304,9.0134796 C 2.4940167,9.5376758 2.0481962,9.9665635 2.0280183,9.9665635 c -0.020178,0 -0.036687,-0.8970046 -0.036687,-1.9933434 V 5.9798763 L 2.981465,6.9690814 3.9715986,7.9582871 3.9845609,5.977905 3.9975232,3.9975232 5.977905,3.9845609 7.9582871,3.9715986 6.9690814,2.981465 5.9798763,1.9913313 h 1.9933438 c 1.0963388,0 1.9933434,0.016509 1.9933434,0.036687 0,0.020178 -0.4288877,0.4659984 -0.9530839,0.9907121 l -0.9530843,0.954025 h 1.9685647 1.968563 v 2.0181227 2.0181225 l 1.01548,-1.0145734 1.01548,-1.0145736 v 1.9933551 c 0,1.0963452 -0.01651,1.9933548 -0.0367,1.9933548 -0.02018,0 -0.477151,-0.4400387 -1.01548,-0.9778636 l -0.97878,-0.977864 V 10.00418 11.997523 H 10.00418 8.0108359 l 0.977864,0.978782 c 0.5378249,0.538329 0.9778636,0.995295 0.9778636,1.01548 0,0.02018 -0.8970046,0.0367 -1.9933434,0.0367 H 5.9798763 Z M 11.006811,8.5052632 V 6.0037152 H 8.0099071 5.0130031 v 2.501548 2.5015478 h 2.996904 2.9969039 z"
     id="path4489"
     inkscape:connector-curvature="0" />
</svg>
