<?xml version="1.0" encoding="UTF-8" standalone="no"?>
<svg
   xmlns:dc="http://purl.org/dc/elements/1.1/"
   xmlns:cc="http://creativecommons.org/ns#"
   xmlns:rdf="http://www.w3.org/1999/02/22-rdf-syntax-ns#"
   xmlns:svg="http://www.w3.org/2000/svg"
   xmlns="http://www.w3.org/2000/svg"
   xmlns:sodipodi="http://sodipodi.sourceforge.net/DTD/sodipodi-0.dtd"
   xmlns:inkscape="http://www.inkscape.org/namespaces/inkscape"
   viewBox="0 0 16 16"
   version="1.1"
   id="svg8"
   sodipodi:docname="view-time-schedule-baselined.svg"
   inkscape:version="0.92.1 r15371">
  <metadata
     id="metadata12">
    <rdf:RDF>
      <cc:Work
         rdf:about="">
        <dc:format>image/svg+xml</dc:format>
        <dc:type
           rdf:resource="http://purl.org/dc/dcmitype/StillImage" />
      </cc:Work>
    </rdf:RDF>
  </metadata>
  <sodipodi:namedview
     pagecolor="#ffffff"
     bordercolor="#666666"
     borderopacity="1"
     objecttolerance="10"
     gridtolerance="10"
     guidetolerance="10"
     inkscape:pageopacity="0"
     inkscape:pageshadow="2"
     inkscape:window-width="640"
     inkscape:window-height="480"
     id="namedview10"
     showgrid="false"
     inkscape:current-layer="svg8" />
  <defs
     id="defs3051">
    <style
       type="text/css"
       id="current-color-scheme">
      .ColorScheme-Text {
        color:#f2f2f2;
      }
      </style>
  </defs>
  <g
     transform="translate(-421.71429,-531.79074)"
     id="g6">
    <rect
       style="opacity:1;fill:#1d99f3;fill-opacity:1;stroke:none;stroke-linecap:round"
       id="rect4143"
       width="1"
       height="8"
       x="430.71429"
       y="536.79071"
       ry="2.53291e-05" />
    <path
       style="fill:currentColor;fill-opacity:1;stroke:none"
       d="M 2 2 L 2 14 L 14 14 L 14 2 L 12 2 L 12 4 L 10 4 L 10 2 L 6 2 L 6 4 L 4 4 L 4 2 L 2 2 z M 3 5 L 13 5 L 13 13 L 3 13 L 3 5 z M 4 6 L 4 9 L 5 9 L 5 8 L 8 8 L 8 9 L 9 9 L 9 6 L 8 6 L 8 7 L 5 7 L 5 6 L 4 6 z M 8 9 L 7 9 L 7 12 L 8 12 L 8 11 L 11 11 L 11 12 L 12 12 L 12 9 L 11 9 L 11 10 L 8 10 L 8 9 z "
       transform="translate(421.71429,531.79074)"
       class="ColorScheme-Text"
       id="rect4449" />
  </g>
  <path
     style="opacity:1;fill:#3daee9;fill-opacity:1;fill-rule:nonzero;stroke:#ffffff;stroke-width:0.0495356;stroke-opacity:0.94117647"
     d="M 1.9913313,8.0101053 V 1.9913313 H 3.0068111 4.022291 v 0.990712 0.9907121 H 5.0130031 6.0037152 V 2.9820433 1.9913313 h 2.0061919 2.0061919 v 0.990712 0.9907121 h 0.990712 0.990712 V 2.9820433 1.9913313 h 1.015678 1.015678 l -0.01258,6.0061919 -0.01258,6.0061918 -6.0061918,0.01258 -6.0061919,0.01258 z M 12.988235,9.0046742 V 5.0211126 l -1.671826,-0.016439 c -0.919505,-0.00904 -3.1597527,-0.00897 -4.9783285,1.536e-4 l -3.3065016,0.016588 v 3.9834101 3.9834097 h 4.9783282 4.9783279 z"
     id="path4489"
     inkscape:connector-curvature="0" />
  <path
     style="opacity:1;fill:#00ff00;fill-opacity:1;fill-rule:nonzero;stroke:#ffffff;stroke-width:0.0495356;stroke-opacity:0.94117647"
     d="M 6.9944272,10.486687 V 8.9758514 h 0.4953561 0.495356 V 8.5052632 8.0346749 H 6.4990712 5.0130031 v 0.497089 0.4970889 l -0.5077399,-0.014117 -0.50774,-0.014117 -0.01311,-1.498452 -0.01311,-1.498452 h 0.5208502 0.5208502 v 0.495356 0.495356 h 1.4860681 1.4860681 v -0.495356 -0.495356 h 0.4953561 0.495356 V 7.5145511 9.025387 H 8.5052632 8.0346749 v 0.462895 0.462895 l 0.7235768,0.032878 c 0.3979672,0.018083 1.0666979,0.018084 1.4860683,1e-6 L 11.006811,9.951179 V 9.4635152 8.9758514 h 0.495356 0.495356 v 1.5108356 1.510836 H 11.502167 11.006811 V 11.50986 11.022195 l -0.762491,-0.03288 c -0.4193704,-0.01808 -1.0881011,-0.01808 -1.4860683,1e-6 l -0.7235768,0.03288 v 0.487664 0.487662 H 7.5145511 6.9944272 Z"
     id="path4491"
     inkscape:connector-curvature="0" />
</svg>
