<?xml version="1.0" encoding="UTF-8" standalone="no"?>
<svg
   xmlns:dc="http://purl.org/dc/elements/1.1/"
   xmlns:cc="http://creativecommons.org/ns#"
   xmlns:rdf="http://www.w3.org/1999/02/22-rdf-syntax-ns#"
   xmlns:svg="http://www.w3.org/2000/svg"
   xmlns="http://www.w3.org/2000/svg"
   xmlns:sodipodi="http://sodipodi.sourceforge.net/DTD/sodipodi-0.dtd"
   xmlns:inkscape="http://www.inkscape.org/namespaces/inkscape"
   viewBox="0 0 16 16"
   version="1.1"
   id="svg6"
   sodipodi:docname="view-task-child.svg"
   inkscape:version="0.92.1 r15371">
  <metadata
     id="metadata10">
    <rdf:RDF>
      <cc:Work
         rdf:about="">
        <dc:format>image/svg+xml</dc:format>
        <dc:type
           rdf:resource="http://purl.org/dc/dcmitype/StillImage" />
      </cc:Work>
    </rdf:RDF>
  </metadata>
  <sodipodi:namedview
     pagecolor="#ffffff"
     bordercolor="#666666"
     borderopacity="1"
     objecttolerance="10"
     gridtolerance="10"
     guidetolerance="10"
     inkscape:pageopacity="0"
     inkscape:pageshadow="2"
     inkscape:window-width="640"
     inkscape:window-height="480"
     id="namedview8"
     showgrid="false"
     inkscape:current-layer="svg6" />
  <defs
     id="defs3051">
    <style
       type="text/css"
       id="current-color-scheme">
      .ColorScheme-Text {
        color:#f2f2f2;
      }
      </style>
  </defs>
  <path
     style="fill:#3daee9;fill-opacity:1;stroke:none"
     d="M 2 2 L 2 14 L 9 14 L 9 13 L 3 13 L 3 5 L 13 5 L 13 8 L 14 8 L 14 2 L 12 2 L 12 4 L 10 4 L 10 2 L 6 2 L 6 4 L 4 4 L 4 2 L 2 2 z M 10.335938 6.5 L 7.1875 10.109375 L 5.6621094 8.5566406 L 5 9.2324219 L 7.2265625 11.5 L 11 7.1777344 L 10.335938 6.5 z M 10 9 L 10 10 L 10 13.199219 L 10 14 L 15 14 L 15 13 L 15 10 L 15 9 L 14 9 L 14 10 L 13 10 L 13 9 L 12 9 L 12 10 L 11 10 L 11 9 L 10 9 z M 11 11 L 14 11 L 14 13 L 11 13 L 11 11 z "
     class="ColorScheme-Text"
     id="path4" />
  <path
     style="opacity:1;fill:#00ff00;fill-opacity:1;fill-rule:nonzero;stroke:#ffffff;stroke-width:0.0495356;stroke-opacity:0.94117647"
     d="M 6.296577,10.521101 C 5.793705,10.011771 5.3056783,9.5111715 5.2120733,9.4086576 L 5.0418823,9.2222688 5.3505499,8.9108329 5.6592174,8.5993972 6.4119493,9.3578038 c 0.4140025,0.4171237 0.7674245,0.7526002 0.7853823,0.7455032 0.017958,-0.0071 0.7298462,-0.8117285 1.5819743,-1.788069 l 1.5493241,-1.7751645 0.321154,0.321154 0.321154,0.321154 -1.8405408,2.1079852 C 8.1180998,10.449759 7.272089,11.409333 7.2503732,11.422754 7.2286573,11.436175 6.799449,11.030431 6.296577,10.521101 Z"
     id="path4487"
     inkscape:connector-curvature="0" />
  <path
     style="opacity:1;fill:#ff6600;fill-opacity:1;fill-rule:nonzero;stroke:#ffffff;stroke-width:0.0495356;stroke-opacity:0.94117647"
     d="m 10.016099,11.502167 v -2.47678 h 0.468795 0.468794 l 0.01418,0.4829721 0.01418,0.4829722 0.50774,0.014117 0.50774,0.01412 V 9.5224759 9.025387 h 0.495356 0.495356 v 0.495356 0.495356 h 0.520124 0.520124 V 9.520743 9.025387 h 0.470588 0.470588 v 2.47678 2.47678 h -2.47678 -2.47678 z m 4.001005,0.50774 -0.01339,-1.027864 h -1.510836 -1.510836 l -0.01349,0.964485 c -0.0074,0.530466 -0.0025,0.993005 0.01083,1.027863 0.01902,0.04957 0.354103,0.06338 1.537716,0.06338 h 1.513396 z"
     id="path4489"
     inkscape:connector-curvature="0" />
</svg>
