<?xml version="1.0" encoding="UTF-8" standalone="no"?>
<svg
   xmlns:dc="http://purl.org/dc/elements/1.1/"
   xmlns:cc="http://creativecommons.org/ns#"
   xmlns:rdf="http://www.w3.org/1999/02/22-rdf-syntax-ns#"
   xmlns:svg="http://www.w3.org/2000/svg"
   xmlns="http://www.w3.org/2000/svg"
   xmlns:sodipodi="http://sodipodi.sourceforge.net/DTD/sodipodi-0.dtd"
   xmlns:inkscape="http://www.inkscape.org/namespaces/inkscape"
   viewBox="0 0 16 16"
   version="1.1"
   id="svg6"
   sodipodi:docname="view-calendar-wedding-anniversary.svg"
   inkscape:version="0.92.1 r15371">
  <metadata
     id="metadata10">
    <rdf:RDF>
      <cc:Work
         rdf:about="">
        <dc:format>image/svg+xml</dc:format>
        <dc:type
           rdf:resource="http://purl.org/dc/dcmitype/StillImage" />
      </cc:Work>
    </rdf:RDF>
  </metadata>
  <sodipodi:namedview
     pagecolor="#ffffff"
     bordercolor="#666666"
     borderopacity="1"
     objecttolerance="10"
     gridtolerance="10"
     guidetolerance="10"
     inkscape:pageopacity="0"
     inkscape:pageshadow="2"
     inkscape:window-width="640"
     inkscape:window-height="480"
     id="namedview8"
     showgrid="false"
     inkscape:current-layer="svg6" />
  <defs
     id="defs3051">
    <style
       type="text/css"
       id="current-color-scheme">
      .ColorScheme-Text {
        color:#f2f2f2;
      }
      </style>
  </defs>
  <path
     style="fill:currentColor;fill-opacity:1;stroke:none"
     d="M 2 2 L 2 14 L 14 14 L 14 2 L 12 2 L 12 4 L 10 4 L 10 2 L 6 2 L 6 4 L 4 4 L 4 2 L 2 2 z M 3 5 L 13 5 L 13 13 L 3 13 L 3 5 z M 7 6.5 A 2.5 2.5 0 0 0 4.5 9 A 2.5 2.5 0 0 0 7 11.5 A 2.5 2.5 0 0 0 8.0019531 11.289062 A 2.5 2.5 0 0 0 9 11.5 A 2.5 2.5 0 0 0 11.5 9 A 2.5 2.5 0 0 0 9 6.5 A 2.5 2.5 0 0 0 7.9980469 6.7109375 A 2.5 2.5 0 0 0 7 6.5 z M 7 7.5 A 1.5 1.5 0 0 1 7.0019531 7.5 A 2.5 2.5 0 0 0 6.5 9 A 2.5 2.5 0 0 0 7.0039062 10.5 A 1.5 1.5 0 0 1 7 10.5 A 1.5 1.5 0 0 1 5.5 9 A 1.5 1.5 0 0 1 7 7.5 z M 8.9960938 7.5 A 1.5 1.5 0 0 1 9 7.5 A 1.5 1.5 0 0 1 10.5 9 A 1.5 1.5 0 0 1 9 10.5 A 1.5 1.5 0 0 1 8.9980469 10.5 A 2.5 2.5 0 0 0 9.5 9 A 2.5 2.5 0 0 0 8.9960938 7.5 z M 8 7.8847656 A 1.5 1.5 0 0 1 8.5 9 A 1.5 1.5 0 0 1 8 10.115234 A 1.5 1.5 0 0 1 7.5 9 A 1.5 1.5 0 0 1 8 7.8847656 z "
     class="ColorScheme-Text"
     id="path4" />
  <path
     style="opacity:1;fill:#3daee9;fill-opacity:1;fill-rule:nonzero;stroke:#ffffff;stroke-width:0.0495356;stroke-opacity:0.94117647"
     d="M 1.9913313,8.0101053 V 1.9913313 H 3.0068111 4.022291 v 0.990712 0.9907121 H 5.0130031 6.0037152 V 2.9820433 1.9913313 h 2.0061919 2.0061919 v 0.990712 0.9907121 h 0.990712 0.990712 V 2.9820433 1.9913313 h 1.015678 1.015678 l -0.01258,6.0061919 -0.01258,6.0061918 -6.0061918,0.01258 -6.0061919,0.01258 z M 12.988235,9.0006192 V 5.0130031 H 8.0099071 3.0315789 v 3.9876161 3.9876158 h 4.9783282 4.9783279 z"
     id="path4487"
     inkscape:connector-curvature="0" />
  <path
     style="opacity:1;fill:#ffff00;fill-opacity:1;fill-rule:nonzero;stroke:#ffffff;stroke-width:0.0495356;stroke-opacity:0.94117647"
     d="M 6.363569,11.428905 C 5.8103501,11.273301 5.2354456,10.86048 4.9202006,10.392469 4.3641176,9.5669099 4.3629583,8.4340682 4.9173569,7.6136223 5.270648,7.0907923 5.888601,6.6702689 6.4860641,6.5461006 c 0.3472852,-0.072175 0.9960494,-0.03589 1.29456,0.072404 0.1984215,0.071983 0.2357197,0.07181 0.4458204,-0.00207 0.3137991,-0.1103502 0.9451143,-0.1444509 1.2873036,-0.069534 1.1548329,0.2528314 1.9884189,1.2814831 1.9884189,2.4537222 0,1.1855972 -0.85888,2.2287262 -2.0211644,2.4547472 C 9.1137818,11.52678 8.5527108,11.49425 8.2264445,11.38263 8.0168018,11.31091 7.978613,11.311 7.7806241,11.38373 7.4758146,11.49571 6.6901296,11.520758 6.363569,11.42891 Z M 6.7945464,10.176551 C 6.4001842,9.4242186 6.3989838,8.5864588 6.7911759,7.8241486 L 6.9377146,7.5393189 6.7803124,7.5398043 C 6.39808,7.5409793 5.8207871,7.9789321 5.6263538,8.4152338 c -0.055692,0.1249701 -0.084997,0.323498 -0.086412,0.5853869 -0.0018,0.3338278 0.018286,0.4353205 0.1274655,0.6439629 0.2362096,0.4513974 0.7315346,0.8136444 1.1161143,0.8162494 l 0.1606112,0.0011 z m 2.7541035,0.202332 C 9.8849526,10.264294 10.270356,9.8737785 10.383587,9.5328742 10.687882,8.6167269 10.180431,7.7183596 9.2616904,7.5467201 L 9.0325096,7.5039045 9.1721277,7.7569058 c 0.432539,0.7838021 0.4402453,1.6825254 0.021018,2.4511912 -0.065023,0.119221 -0.1182231,0.225103 -0.1182231,0.235294 0,0.04554 0.2511108,0.01135 0.4737273,-0.06451 z M 8.205371,9.8626549 C 8.587189,9.2856889 8.5679444,8.6006368 8.154698,8.0588429 L 8.0130814,7.8731739 7.8525169,8.0589196 c -0.413977,0.4789008 -0.4311081,1.3259605 -0.03726,1.8423227 0.068963,0.090416 0.1547281,0.1643927 0.190588,0.1643927 0.03586,0 0.1256465,-0.091341 0.1995261,-0.2029801 z"
     id="path4489"
     inkscape:connector-curvature="0" />
</svg>
