<?xml version="1.0" encoding="UTF-8" standalone="no"?>
<svg
   xmlns:dc="http://purl.org/dc/elements/1.1/"
   xmlns:cc="http://creativecommons.org/ns#"
   xmlns:rdf="http://www.w3.org/1999/02/22-rdf-syntax-ns#"
   xmlns:svg="http://www.w3.org/2000/svg"
   xmlns="http://www.w3.org/2000/svg"
   xmlns:sodipodi="http://sodipodi.sourceforge.net/DTD/sodipodi-0.dtd"
   xmlns:inkscape="http://www.inkscape.org/namespaces/inkscape"
   viewBox="0 0 16 16"
   version="1.1"
   id="svg8"
   sodipodi:docname="xml-node-delete.svg"
   inkscape:version="0.92.1 r15371">
  <metadata
     id="metadata12">
    <rdf:RDF>
      <cc:Work
         rdf:about="">
        <dc:format>image/svg+xml</dc:format>
        <dc:type
           rdf:resource="http://purl.org/dc/dcmitype/StillImage" />
      </cc:Work>
    </rdf:RDF>
  </metadata>
  <sodipodi:namedview
     pagecolor="#ffffff"
     bordercolor="#666666"
     borderopacity="1"
     objecttolerance="10"
     gridtolerance="10"
     guidetolerance="10"
     inkscape:pageopacity="0"
     inkscape:pageshadow="2"
     inkscape:window-width="640"
     inkscape:window-height="480"
     id="namedview10"
     showgrid="false"
     inkscape:current-layer="svg8" />
  <defs
     id="defs3051">
    <style
       type="text/css"
       id="current-color-scheme">
      .ColorScheme-Text {
        color:#f2f2f2;
      }
      .ColorScheme-NegativeText {
        color:#da4453;
      }
      </style>
  </defs>
  <g
     transform="translate(0,-1036.3622)"
     id="g6"
     style="fill:#3daee9;fill-opacity:1">
    <path
       style="fill:#3daee9;fill-opacity:1;stroke:none"
       d="M 9.0898438 2 L 5.9433594 13.740234 L 6.9101562 14 L 10.056641 2.2597656 L 9.0898438 2 z M 5.2851562 4 L 2.3242188 7.1445312 L 2 7.4921875 L 2.3242188 7.8378906 L 5.2675781 11 L 5.9824219 10.304688 L 3.3613281 7.4921875 L 6 4.6953125 L 5.2851562 4 z M 10.714844 4 L 10 4.6953125 L 12.638672 7.4921875 L 12.166016 8 L 13.525391 8 L 13.675781 7.8378906 L 14 7.4921875 L 13.675781 7.1445312 L 10.714844 4 z "
       transform="translate(0,1036.3622)"
       id="rect3918"
       class="ColorScheme-Text" />
    <path
       style="fill:#3daee9;fill-opacity:1;stroke:none"
       class="ColorScheme-NegativeText"
       d="m 9,1046.1954 1.66667,1.6667 -1.66667,1.6667 0.83333,0.8333 1.66667,-1.6666 1.66667,1.6666 L 14,1049.5288 12.33334,1047.8621 14,1046.1954 13.16667,1045.3621 11.5,1047.0288 9.83333,1045.3621 9,1046.1954 Z"
       id="rect5234" />
  </g>
  <path
     style="opacity:1;fill:#ff0000;fill-opacity:1;fill-rule:nonzero;stroke:#3daee9;stroke-width:0.0495356;stroke-opacity:1"
     d="M 9.4336804,13.570654 9.0255427,13.162516 9.8546398,12.332342 10.683737,11.502167 9.8546398,10.671993 9.0255427,9.8418182 9.4336804,9.4336805 9.8418182,9.0255427 l 0.8301748,0.8290971 0.830174,0.8290972 0.830175,-0.8290972 0.830174,-0.8290971 0.408138,0.4081378 0.408138,0.4081377 -0.829097,0.8301748 -0.829097,0.830174 0.829097,0.830175 0.829097,0.830174 -0.408138,0.408138 -0.408138,0.408138 -0.830174,-0.829097 -0.830175,-0.829097 -0.830174,0.829097 -0.8301748,0.829097 z"
     id="path4489"
     inkscape:connector-curvature="0" />
  <path
     style="opacity:1;fill:#ffffff;fill-opacity:1;fill-rule:nonzero;stroke:#3daee9;stroke-width:0.0495356;stroke-opacity:1"
     d="M 6.4070579,13.852021 C 6.1793608,13.788831 5.9875996,13.730238 5.980922,13.721815 5.9677181,13.705161 9.0790376,2.0776408 9.1049345,2.0468586 c 0.027715,-0.032943 0.9111645,0.2131938 0.9111645,0.2538588 0,0.037638 -2.9017877,10.8892726 -3.053282,11.4181676 -0.04097,0.143035 -0.089628,0.257355 -0.1081276,0.254045 -0.0185,-0.0033 -0.2199344,-0.05772 -0.4476315,-0.120909 z"
     id="path4491"
     inkscape:connector-curvature="0" />
</svg>
