<?xml version="1.0" encoding="UTF-8" standalone="no"?>
<svg
   xmlns:dc="http://purl.org/dc/elements/1.1/"
   xmlns:cc="http://creativecommons.org/ns#"
   xmlns:rdf="http://www.w3.org/1999/02/22-rdf-syntax-ns#"
   xmlns:svg="http://www.w3.org/2000/svg"
   xmlns="http://www.w3.org/2000/svg"
   xmlns:sodipodi="http://sodipodi.sourceforge.net/DTD/sodipodi-0.dtd"
   xmlns:inkscape="http://www.inkscape.org/namespaces/inkscape"
   viewBox="0 0 16 16"
   version="1.1"
   id="svg6"
   sodipodi:docname="zoom.svg"
   inkscape:version="0.92.1 r15371">
  <metadata
     id="metadata10">
    <rdf:RDF>
      <cc:Work
         rdf:about="">
        <dc:format>image/svg+xml</dc:format>
        <dc:type
           rdf:resource="http://purl.org/dc/dcmitype/StillImage" />
      </cc:Work>
    </rdf:RDF>
  </metadata>
  <sodipodi:namedview
     pagecolor="#ffffff"
     bordercolor="#666666"
     borderopacity="1"
     objecttolerance="10"
     gridtolerance="10"
     guidetolerance="10"
     inkscape:pageopacity="0"
     inkscape:pageshadow="2"
     inkscape:window-width="640"
     inkscape:window-height="480"
     id="namedview8"
     showgrid="false"
     inkscape:current-layer="svg6" />
  <defs
     id="defs3051">
    <style
       type="text/css"
       id="current-color-scheme">
      .ColorScheme-Text {
        color:#f2f2f2;
      }
      </style>
  </defs>
  <path
     style="fill:#3daee9;fill-opacity:1;stroke:none"
     d="M 2 2 L 2 5 L 3 5 L 3 3 L 5 3 L 5 2 L 3 2 L 2 2 z M 8 2 L 6 4 L 10 4 L 8 2 z M 11 2 L 11 3 L 13 3 L 13 5 L 14 5 L 14 2 L 13 2 L 11 2 z M 4 6 L 2 8 L 4 10 L 4 6 z M 12 6 L 12 10 L 14 8 L 12 6 z M 2 11 L 2 14 L 3 14 L 5 14 L 5 13 L 3 13 L 3 11 L 2 11 z M 13 11 L 13 13 L 11 13 L 11 14 L 14 14 L 14 13 L 14 11 L 13 11 z M 6 12 L 8 14 L 10 12 L 6 12 z "
     class="ColorScheme-Text"
     id="path4" />
  <path
     style="opacity:1;fill:#ff6600;fill-opacity:1;fill-rule:nonzero;stroke:#3daee9;stroke-width:0.0495356;stroke-opacity:1"
     d="M 2.993945,8.962997 2.0408551,8.0089661 3.0068053,7.0439687 3.9727554,6.0789713 v 1.9190283 c 0,1.0554656 -0.00579,1.9190283 -0.01286,1.9190283 -0.00707,0 -0.4417507,-0.4293139 -0.9659504,-0.9540309 z"
     id="path4487"
     inkscape:connector-curvature="0" />
  <path
     style="opacity:1;fill:#ff6600;fill-opacity:1;fill-rule:nonzero;stroke:#3daee9;stroke-width:0.0495356;stroke-opacity:1"
     d="m 6.1027864,3.9598951 c 0,-0.00707 0.4293139,-0.4417507 0.9540308,-0.9659501 L 8.0108481,2.0408551 8.9758455,3.0068053 9.9408429,3.9727554 H 8.0218146 c -1.0554655,0 -1.9190282,-0.00579 -1.9190282,-0.01286 z"
     id="path4489"
     inkscape:connector-curvature="0" />
  <path
     style="opacity:1;fill:#ff6600;fill-opacity:1;fill-rule:nonzero;stroke:#3daee9;stroke-width:0.0495356;stroke-opacity:1"
     d="M 11.997523,7.9979877 V 6.0294119 l 0.990718,0.9897887 0.990718,0.9897888 -0.97787,0.978787 c -0.537828,0.5383329 -0.983651,0.9787871 -0.990717,0.9787871 -0.0071,0 -0.01285,-0.8858592 -0.01285,-1.9685758 z"
     id="path4491"
     inkscape:connector-curvature="0" />
  <path
     style="opacity:1;fill:#ff6600;fill-opacity:1;fill-rule:nonzero;stroke:#3daee9;stroke-width:0.0495356;stroke-opacity:1"
     d="m 7.0191949,12.988235 -0.989783,-0.990712 h 1.943808 c 1.0690944,0 1.943808,0.01693 1.943808,0.03763 0,0.0207 -0.4293112,0.466516 -0.954025,0.990712 L 8.008978,13.978947 Z"
     id="path4493"
     inkscape:connector-curvature="0" />
</svg>
