/* XPM */
static char * title_2_active_xpm[] = {
"16 20 7 1",
" 	c None",
".	c #000000",
"+	c #FFFFFF s active_hilight_1",
"@	c #40618A s active_color_1",
"#	c #8E9AAA s active_shadow_1",
"$	c #4C7BA6 s active_shadow_1",
"%	c #4B58A2 s active_shadow_1",
"................",
"++++++++++++++++",
"@@@@@@@@@@@@@@@#",
"@@@@@@@@@@@@@@#$",
"@@@@@@@@@@@@@#$$",
"@@@@@@@@@@@@#$$$",
"@@@@@@@@@@@#$$$$",
"@@@@@@@@@@#$$$$$",
"@@@@@@@@@#$$$$$$",
"@@@@@@@@#$$$$$$$",
"@@@@@@@#$$$$$$$$",
"@@@@@@#$$$$$$$$$",
"@@@@@#$$$$$$$$$$",
"@@@@#$$$$$$$$$$$",
"@@@#$$$$$$$$$$$$",
"@@#$$$$$$$$$$$$$",
"@#$$$$$$$$$$$$$$",
"#$$$$$$$$$$$$$$$",
"%%%%%%%%%%%%%%%%",
"................"};
