/* XPM */
static char *top-left-inactive[] = {
/* width height num_colors chars_per_pixel */
"     7    20        2            1",
/* colors */
"` c #000000",
". c #ffffff",
/* pixels */
"```````",
"`......",
"`......",
"`......",
"`......",
"`......",
"`......",
"`......",
"`......",
"`......",
"`......",
"`......",
"`......",
"`......",
"`......",
"`......",
"`......",
"`......",
"`......",
"```````"
};
