/* XPM */
static char *top-right-inactive[] = {
/* width height num_colors chars_per_pixel */
"     7    20        3            1",
/* colors */
"  c None",
"` c #000000",
". c #ffffff",
/* pixels */
"`````` ",
".....``",
".....``",
".....``",
".....``",
".....``",
".....``",
".....``",
".....``",
".....``",
".....``",
".....``",
".....``",
".....``",
".....``",
".....``",
".....``",
".....``",
".....``",
"```````"
};
