/* XPM */
static char * top_left_active_xpm[] = {
"10 64 60 1",
" 	c None",
".	c #3B0A0A",
"+	c #B92020",
"@	c #DC3D3D",
"#	c #E36464",
"$	c #7D1616",
"%	c #D82727",
"&	c #D72626",
"*	c #A41D1D",
"=	c #C02121",
"-	c #BE2121",
";	c #C32222",
">	c #C12222",
",	c #C62323",
"'	c #C52222",
")	c #C82323",
"!	c #CA2323",
"~	c #CB2424",
"{	c #CF2424",
"]	c #B52020",
"^	c #D12424",
"/	c #D22525",
"(	c #D42525",
"_	c #AF1E1E",
":	c #B01F1F",
"<	c #D92A2A",
"[	c #D92828",
"}	c #D92C2C",
"|	c #DA2D2D",
"1	c #DA3131",
"2	c #DA2F2F",
"3	c #DA3333",
"4	c #DB3838",
"5	c #DB3636",
"6	c #DD3E3E",
"7	c #DE4949",
"8	c #DE4343",
"9	c #E04F4F",
"0	c #E15858",
"a	c #E15656",
"b	c #E05151",
"c	c #E36060",
"d	c #E46969",
"e	c #B21F1F",
"f	c #E25D5D",
"g	c #E67575",
"h	c #E67373",
"i	c #E36262",
"j	c #E77C7C",
"k	c #E98686",
"l	c #EC9393",
"m	c #B41F1F",
"n	c #ED9E9E",
"o	c #ED9C9C",
"p	c #E87F7F",
"q	c #EFA6A6",
"r	c #F1B2B2",
"s	c #E77A7A",
"t	c #781515",
"u	c #E98787",
"  ........",
" .+@######",
".$%&%%%&&%",
".*===---==",
".;;====>>>",
".,,'''''';",
".=))!)))!!",
".+!!~!!!~~",
".+{{{{{{{{",
".]^/(//^//",
"._((&(((&&",
".:&%<%%%[[",
"._%}<<<<<<",
"._|1122222",
".:34444544",
"._4@666@@6",
"._@7777777",
".:89999999",
".:70000a00",
".:bccccccc",
".:addddddd",
".efghhhhhh",
".eijjjjjjj",
".edkkkkkkk",
".eglllllll",
".mjnnonnon",
".mpqqqqqqq",
".ekrrrrrrr",
".ejsjsssjj",
".mmmmmmmmm",
"..........",
".t3u.     ",
".t3u.     ",
".t3u.     ",
".t3u.     ",
".t3u.     ",
".t3u.     ",
".t3u.     ",
".t3u.     ",
".t3u.     ",
".t3u.     ",
".t3u.     ",
".t3u.     ",
".t3u.     ",
".t3u.     ",
".t3u.     ",
".t3u.     ",
".t3u.     ",
".t3u.     ",
".t3u.     ",
".t3u.     ",
".t3u.     ",
".t3u.     ",
".t3u.     ",
".t3u.     ",
".t3u.     ",
".t3u.     ",
".t3u.     ",
".t3u.     ",
".t3u.     ",
".t3u.     ",
".t3u.     ",
".t3u.     ",
".t3u.     "};
