/* XPM */
static char * top_right_active_xpm[] = {
"10 64 60 1",
" 	c None",
".	c #3B0A0A",
"+	c #E36464",
"@	c #DC3D3D",
"#	c #B92020",
"$	c #D82727",
"%	c #D72626",
"&	c #7D1616",
"*	c #C02121",
"=	c #BE2121",
"-	c #A41D1D",
";	c #C12222",
">	c #C32222",
",	c #C52222",
"'	c #C62323",
")	c #CA2323",
"!	c #C82323",
"~	c #CB2424",
"{	c #CF2424",
"]	c #D22525",
"^	c #D12424",
"/	c #D42525",
"(	c #B52020",
"_	c #AF1E1E",
":	c #D92828",
"<	c #D92A2A",
"[	c #B01F1F",
"}	c #D92C2C",
"|	c #DA2F2F",
"1	c #DA3131",
"2	c #DA2D2D",
"3	c #DB3838",
"4	c #DB3636",
"5	c #DA3333",
"6	c #DD3E3E",
"7	c #DE4949",
"8	c #E04F4F",
"9	c #DE4343",
"0	c #E15858",
"a	c #E15656",
"b	c #E36060",
"c	c #E05151",
"d	c #E46969",
"e	c #E67373",
"f	c #E67575",
"g	c #E25D5D",
"h	c #B21F1F",
"i	c #E77C7C",
"j	c #E36262",
"k	c #E98686",
"l	c #EC9393",
"m	c #ED9E9E",
"n	c #ED9C9C",
"o	c #B41F1F",
"p	c #EFA6A6",
"q	c #E87F7F",
"r	c #F1B2B2",
"s	c #E77A7A",
"t	c #E98787",
"u	c #781515",
"........  ",
"++++++@#. ",
"$%%$$$%$&.",
"**===***-.",
";;;****>>.",
">,,,,,,''.",
"))!!!)!!*.",
"~~)))~))#.",
"{{{{{{{{#.",
"]]^]]/]^(.",
"%%///%//_.",
"::$$$<$%[.",
"<<<<<<}$_.",
"|||||112_.",
"33433335[.",
"6@@666@3_.",
"7777777@_.",
"88888889[.",
"00a00007[.",
"bbbbbbbc[.",
"ddddddda[.",
"eeeeeefgh.",
"iiiiiiijh.",
"kkkkkkkdh.",
"lllllllfh.",
"mnmmnmmio.",
"pppppppqo.",
"rrrrrrrkh.",
"iisssisih.",
"ooooooooo.",
"..........",
"     .t5u.",
"     .t5u.",
"     .t5u.",
"     .t5u.",
"     .t5u.",
"     .t5u.",
"     .t5u.",
"     .t5u.",
"     .t5u.",
"     .t5u.",
"     .t5u.",
"     .t5u.",
"     .t5u.",
"     .t5u.",
"     .t5u.",
"     .t5u.",
"     .t5u.",
"     .t5u.",
"     .t5u.",
"     .t5u.",
"     .t5u.",
"     .t5u.",
"     .t5u.",
"     .t5u.",
"     .t5u.",
"     .t5u.",
"     .t5u.",
"     .t5u.",
"     .t5u.",
"     .t5u.",
"     .t5u.",
"     .t5u.",
"     .t5u."};
