/* XPM */
static char * title_5_active_xpm[] = {
"8 31 41 1",
" 	c None",
".	c #3B0A2D",
"+	c #E364BE",
"@	c #E466BF",
"#	c #D827A5",
"$	c #D726A4",
"%	c #C02192",
"&	c #C12293",
"*	c #C52295",
"=	c #C62397",
"-	c #CA2399",
";	c #C82398",
">	c #CB249B",
",	c #CF249D",
"'	c #D1249F",
")	c #D425A1",
"!	c #D225A0",
"~	c #D928A5",
"{	c #D92AA6",
"]	c #DA2DA8",
"^	c #DA31A9",
"/	c #DA2FA8",
"(	c #DB38AC",
"_	c #DD3EAF",
":	c #DC3DAE",
"<	c #DE49B3",
"[	c #E051B6",
"}	c #E04FB6",
"|	c #E158B9",
"1	c #E360BD",
"2	c #E469C0",
"3	c #E673C5",
"4	c #E77CC8",
"5	c #E986CC",
"6	c #EC93D2",
"7	c #ED9CD5",
"8	c #ED9ED6",
"9	c #EFA6DA",
"0	c #F1B2DF",
"a	c #E77AC7",
"b	c #B41F89",
"........",
"++++@@@@",
"######$$",
"%%%%%%%%",
"%&&&%%%%",
"*====***",
"------;;",
">>>>>>--",
",'''',,,",
"))))))!!",
"$$$$$$))",
"~{{{{{##",
"]]]]]]{{",
"^^^^^^//",
"((((((((",
"______::",
"<<<<<<<<",
"[}}}}}[[",
"||||||||",
"11111111",
"22222222",
"33333333",
"44444444",
"55555555",
"66666666",
"77878888",
"99999999",
"00000000",
"444444aa",
"bbbbbbbb",
"........"};
