/* XPM */
static char * title_4_active_35p_xpm[] = {
"4 35 6 1",
" 	c None",
".	c #000000",
"+	c #8c8b89",
"@	c #4c4b49",
"#	c #373634",
"$	c #0c0b09",
"....",
"+++@",
"###$",
"###$",
"###$",
"###$",
"###$",
"###$",
"###$",
"###$",
"###$",
"###$",
"###$",
"###$",
"###$",
"###$",
"###$",
"###$",
"###$",
"###$",
"###$",
"###$",
"###$",
"###$",
"###$",
"###$",
"###$",
"###$",
"###$",
"###$",
"###$",
"###$",
"###$",
"$$$$",
"...."};
