/* XPM */
static char * menu_active_35p_xpm[] = {
"35 35 7 1",
" 	c None",
".	c #000000",
"+	c #dfecfb",
"@	c #9facbb",
"#	c #95a2b1",
"$	c #5f6c7b",
"%	c #e0edff",
"...................................",
".++++++++++++++++++++++++++++++++@.",
".+###############################$.",
".+###############################$.",
".+###############################$.",
".+###############################$.",
".+###############################$.",
".+###############################$.",
".+###############################$.",
".+###############################$.",
".+########%%%%%%%%%%%%%%%########$.",
".+########%%%%%%%%%%%%%%%########$.",
".+########%%%%%%%%%%%%%%%########$.",
".+###############################$.",
".+###############################$.",
".+###############################$.",
".+########%%%%%%%%%%%%%%%########$.",
".+########%%%%%%%%%%%%%%%########$.",
".+########%%%%%%%%%%%%%%%########$.",
".+###############################$.",
".+###############################$.",
".+###############################$.",
".+########%%%%%%%%%%%%%%%########$.",
".+########%%%%%%%%%%%%%%%########$.",
".+########%%%%%%%%%%%%%%%########$.",
".+###############################$.",
".+###############################$.",
".+###############################$.",
".+###############################$.",
".+###############################$.",
".+###############################$.",
".+###############################$.",
".+###############################$.",
".@$$$$$$$$$$$$$$$$$$$$$$$$$$$$$$$$.",
"..................................."};
