/* XPM */
static char * top_left_active_xpm[] = {
"4 18 2 1",
" 	c None",
".	c #000000",
"    ",
"    ",
"    ",
"    ",
"    ",
"    ",
"    ",
"    ",
"    ",
"    ",
"    ",
"    ",
"    ",
"    ",
"    ",
"    ",
"    ",
"  .."};
