/* XPM */
static char * maximize_toggled_prelight_xpm[] = {
"26 29 4 1",
" 	c None",
".	c #FFFFFF",
"+	c #34a853",
"@	c #030303",
"                          ",
"                          ",
"                          ",
"                          ",
".+......................+.",
".+.@@@@@@@@@@@@@@@@@@@@.+.",
".+.@@@@@@@@@@@@@@@@@@@@.+.",
".+.@@@@@@@@@@@@@@@@@@@@.+.",
".+.@@@@@@@..........@@@.+.",
".+.@@@@@@@..........@@@.+.",
".+.@@@@@@@..@@@@@@..@@@.+.",
".+.@@@@@@@..@@@@@@..@@@.+.",
".+.@@@@@@@..@@@@@@..@@@.+.",
".+.@@@.........@@@..@@@.+.",
".+.@@@.........@@@..@@@.+.",
".+.@@@..@@@@@..@@@..@@@.+.",
".+.@@@..@@@@@.......@@@.+.",
".+.@@@..@@@@@.......@@@.+.",
".+.@@@..@@@@@..@@@@@@@@.+.",
".+.@@@..@@@@@..@@@@@@@@.+.",
".+.@@@.........@@@@@@@@.+.",
".+.@@@.........@@@@@@@@.+.",
".+.@@@@@@@@@@@@@@@@@@@@.+.",
".+.@@@@@@@@@@@@@@@@@@@@.+.",
".+.@@@@@@@@@@@@@@@@@@@@.+.",
".+......................+.",
"                          ",
"                          ",
"                          "};
