/* XPM */
static char * hide_active_xpm[] = {
"14 20 5 1",
" 	c None",
".	c #4C7BA6 s inactive_mid_1",
"+	c #4B58A2 s inactive_shadow_1",
"@	c #90B8DC s inactive_color_1",
"#	c #FFFFFF s inactive_shadow_1",
"              ",
"              ",
"              ",
".++++++++++++.",
"+@@@@@@@@@@@@+",
"+@@@@@@@@@@@@+",
"+@@@@@@@@@@@@+",
"+@@@@@@@@@@@@+",
"+@@@@@@@@@@@@+",
"+@@@@@@@@@@@@+",
"+@@@@@@@@@@@@+",
"+@@@@@@@@@@@@+",
"+@@########@@+",
"+@@########@@+",
"+@@@@@@@@@@@@+",
"+@@@@@@@@@@@@+",
".++++++++++++.",
"              ",
"              ",
"              "};
