/* XPM */
static char * title_1_inactive_xpm[] = {
"2 20 4 1",
" 	c None",
".	c #000000",
"+	c #FFFFFF",
"@	c #4C7BA6 s inactive_color_1",
"..",
"++",
"@@",
"@@",
"@@",
"@@",
"@@",
"@@",
"@@",
"@@",
"@@",
"@@",
"@@",
"@@",
"@@",
"@@",
"@@",
"@@",
"@@",
"@@"};
