/* XPM */
static char * title_1_active_xpm[] = {
"2 20 4 1",
" 	c None",
".	c #000000",
"+	c #90B8DC s active_hilight_1"
"@	c #4C7BA6 s active_color_1",
"..",
"++",
"@@",
"@@",
"@@",
"@@",
"@@",
"@@",
"@@",
"@@",
"@@",
"@@",
"@@",
"@@",
"@@",
"@@",
"@@",
"@@",
"@@",
".."};
