/* XPM */
static char * top_left_inactive_traditional_35p_xpm[] = {
"4 35 6 1",
" 	c None",
".	c #040004",
"+	c #ffffff",
"@	c #aeaaae",
"#	c #acaaac",
"$	c #595559",
"....",
".+++",
".+@@",
".+@@",
".+@@",
".+@@",
".+@@",
".+@@",
".+@@",
".+@@",
".+@@",
".+@@",
".+@@",
".+@@",
".+@@",
".+@@",
".+@@",
".+@@",
".+@@",
".+@@",
".+@@",
".+@@",
".+@@",
".+@@",
".+@@",
".+@@",
".+@@",
".+@@",
".+@@",
".+@@",
".+@@",
".+@@",
".+@@",
".#$$",
"...."};
