/* XPM */
static char * menu_prelight_xpm[] = {
"20 20 2 1",
" 	c None",
".	c #CECECE",
"....................",
"....................",
"....................",
"....................",
"....................",
"....................",
"....................",
"....................",
"....................",
"....................",
"....................",
"....................",
"....................",
"....................",
"....................",
"....................",
"....................",
"....................",
"....................",
"...................."};
