/* XPM */
static char * top_left_inactive_xpm[] = {
"6 27 4 1",
" 	c None",
".	c #848284",
"+	c #FFFFFF",
"@	c #CECFCE",
"......",
"......",
"..++++",
"..+@@@",
"..+@@@",
"..+@@@",
"..+@@@",
"..+@@@",
"..+@@@",
"..+@@@",
"..+@@@",
"..+@@@",
"..+@@@",
"..+@@@",
"..+@@@",
"..+@@@",
"..+@@@",
"..+@@@",
"..+@@@",
"..+@@@",
"..+@@@",
"..+@@@",
"..+@@@",
"..+@@@",
"..+@@@",
"..+@@@",
"..+@@@"};
