<?xml version="1.0" encoding="UTF-8" standalone="no"?>
<svg
   xmlns:dc="http://purl.org/dc/elements/1.1/"
   xmlns:cc="http://creativecommons.org/ns#"
   xmlns:rdf="http://www.w3.org/1999/02/22-rdf-syntax-ns#"
   xmlns:svg="http://www.w3.org/2000/svg"
   xmlns="http://www.w3.org/2000/svg"
   xmlns:xlink="http://www.w3.org/1999/xlink"
   version="1.1"
   id="svg2"
   width="22"
   height="22"
   viewBox="0 0 22 22">
  <metadata
     id="metadata8">
    <rdf:RDF>
      <cc:Work
         rdf:about="">
        <dc:format>image/svg+xml</dc:format>
        <dc:type
           rdf:resource="http://purl.org/dc/dcmitype/StillImage" />
        <dc:title></dc:title>
      </cc:Work>
    </rdf:RDF>
  </metadata>
  <defs
     id="defs6" />
  <image
     width="22"
     height="22"
     preserveAspectRatio="none"
     xlink:href="data:image/png;base64,iVBORw0KGgoAAAANSUhEUgAAAIAAAACACAYAAADDPmHLAAAABmJLR0QA/wD/AP+gvaeTAAAACXBI WXMAAABIAAAASABGyWs+AAAxuElEQVR42u19y8s9zZ3Xp27dfc5znsvv9t7ykok6jsw4AwGvSFA3 Lly5cOFakMDgQhAUXGgQVJAZshPBv0DdiTCLqAgyIgTCzCSTeRfJzMQ4GfMm7+X3/H7Pc27dVeWi 6tv1rerqc85z+b2JOl9oTp++VFfX936paoHHBXHCeX/Cdf8/Ao2Lf+A1d4LHRIR4wLE/ggD+kY6f DI+FjLGdpz//15dSdwvY3n/83f927fev+DV/xP2HYcLhz3/xbzyF92LYvr5++bv/dVdc+2B4KDL4 /aJ78nmx/fT74p0v/q1fePWDb333X/34o//QQP6ZPdzRzjaQAIA93GMN5mcKBhI9HBrIx3yHH/9t /OiXzt/7oume/4k/ZfvN9z/54Nc+jec8+723WngIAQj2KwCIs7d+3lx94c//o69+/Wv/+LFG4C4w wEPf85XKex/SFoEERlKotXcuFV47O/5fCImNd9m1fcRrD/e1f/CLf+HLH/32f/wBArJpAx4gDfQ9 7hHF/rg1588WX/36156cS3VyY6+dxV2u/78RDMSIyBL4uw/eT8aCCKQHtAAMpkzL1eqdCeGuBDCH fAlASqnac6lWK6Fw4+3k5qWQ4/7aO6yEwqXWsSN1bmulxEvb44Vu0XuHVkjsvIMRcvwPYCJ06Uk1 YdwIib1343WOHZPsOn5vz54JYOwHh53L/2/iGCyEwsbb8Tc8V0zG6EIqrGObr53FQshRKiyhNhh2 AoCKiOY3E+LvrAruIwE4jMgHoJRulkshnzl4rITyN94KjnQOK6HGgV2IugRoZbj3Splx4GnQCSFz 2paOE2Kb2I+9d+P/gSGwPFa2a+L9ZuZ9eH93zoV91gghX0ZCd/C4lHp8j2s3ZG2RJBi8x0LIAYCW Wq0izgj5NSK4E8g7XFtyv2S/CoCRUl5IiHeulMmuJ6o2QkJCQEKMnFsiv5Vy3IDAabfOohUSrZAw 8bcVcuy8ZFsTjzdCjkhvGNL4cS0kdPzPj9UGpxwoF9+H+lMjBPrNzsXrF0Jh7RJBXEqNtXe4lDlP aiEIuc+1bl5EAtDslUvReSfD5b42ABf9ijollTprhXxGF66EQpQG1YZo4AZ4nB2wA66UgasgwTAx rIUc5Z8+wKVxQDF4P3teCwXr/chSe++yNveF6CdiADBKKoILpZOqKMTKhQznbOzLSihcuwGkQp9J g49dj/haz6VUTxDsAGqNDMF72wCnSoAalRHyiQCM9/4MwGWbcZGAi/3SkfMvlM44nZDPxWsrJFZS j2Mmi1/DuJuQ40cEirHDtC8Y8gFgKRW0EFjGZy8LAlSxHXoGh6VUowSiX9raQlVwO2FOMtA9SogJ 8i+lhhZCALgUApeRAHQc9wdLgbuoAGqYNrpfEgHAY9lKucpeOoo7ThQ75zKDqdSrqygGb5heJHFr 2GARgumXI3ER9xshsZAKSgg0Qo7cRrBxFksZxPGS3UNILwlEC4EhSoeaXWCYemqZupojAjrXCjky CCHfQJBtIAGsEBjMIDEeIb/Ey8lwVwLgRMCRHyWA7QC0AEauJxjgM67nA8CtefpvogSQyLlTCYGO /bfeYylVZuyVyNs4Ox5byCDe6diiQDD3EJJdIMZrmhn1UhIx/78r3o9DzU4Agse0lIpsAgFAO2c7 AA0jAi4B7hW0uK8XwAlgNAIB0dEFpXFX0/E0GCuZ9CS5WjKKbhnbWUiFXUTwK9vjQpnJK5fIaWT9 Pz++j5KokRJ758I5d7jdUl1snA2EFO+rSTRO5ARkH7RSjp4DScaFUCPhXEotrt0A53yDJP5LCVDD 0VGb4BQJII6cY0ageTpBMuN2LsInnECiM3I4DzMSAujYRfAysFSJfjlya4hvKpwmhUCn1KSNQ/s1 WDD1sGDEwd+3fPfSheWqoVQP5CL+/W/+90skiVtTAXeGUwigpKJSBQgASqqm+eff/PoL/kJz4s1E wy1zuYSAYsbbOPiFC8eR8sP9JkPuXZDGoVMKUohxa6Qcf/l+p1RGMHOwkGokBPrtmYTjg1/aCMAk oOSfSSMA4F00V9IsOswbgHcmgruoAE5lnOoUAClN1yytGglgDIZUXloXRhMX7zxowyET0RGemza8 xIxepnvm/tMxAFjbAUulsbaB25z3kMxr4PtEBM57XA89LrXB3rmJ6F9INVEP5KZyv+3WDVlkkQeU aMwNBF5iuDDtarHrN68LApBIQaE7RQPvYwRyAhjtAKmbZiHk27fOwgjpL5QeKZsHZziyyLgiXVdD fo2rufRopcoielokibB3Llj/hZTgGwGpk6XS49ZJhVaq2eifFAJPTJMRRikhSvVgKlLurAj+jAYj UwtGiOE5zJVuz86Qi3/q3L3UwH1yATUpIJVuGy3EWxQFJJTUEKuFgPU+HGNd3jqLRs2L85LTl0pj 7xw6qSFLg3BO/UiJ3rnx95QXVkJACYUty9x1Mv0nW2Jrw3++Pz5XSGycHQlh4/Lz/N1qtoER0krg he7OzpAjvsTLneAhEoB+JQAhlDaXUmdGIBf35FotpQrx7YpXUDPudMVemNP7HFoKLrHzc8g3UsHE 69sDEclOqnHbOju6o2TgkQTYWptJA+rjIkoTUgs8hCcwDYRNYghCPlW6XSDn/gflrB+SDs4CQlIq fSbFBXVXV4w3LUQWcOEIRXEfv1+RxJBzohgj8nbOZr8OHkbKMebOzwFB6kxCzFKhj9dsnYVg943I iAik/oXfSBgqj1uQEUn2x6ISsFrHtum9B++y+AEAsRDyUirdPhTpHB4jGygACCGUfml35y90WxUr KdAyPUfGXcnlNGAqeggJQQGhHMkcMfyXEK+kgo2DbKQa/5/ppMPb+CvZ/Z1Uo0gupQOXAkCwvOia 3fis6TvR77JAPrfeaCwoz9D7XgI4E0LyRNBn4gZWEc4eGDoihLhSpqVO08UUc984O9HrjZRYKp0h n4w2fg1HPB9QjmQJARX/81/FEET/DTtvGVdn9zEuNhW1sGXERMjnA9Qy9TAOdhF3IFhKhWV0HfPc RcozXCkjjBDSBwNQoI6LO+cEHhIJ5DpIQEgNWMGNPRoUMvZKN24cAKXhfBB7nNNL7h4HsngvjsiS CMp9SAkw/a8K5I7/PaCUgrV5u/ScM92gj+qjZVKid3ZUISQdSgOSE0JpLDYi1BQKAL330KlGQfbe w/uMAI4h+VEigXOQ2QKmOz8HAhKJig/peikEWqnGY1Lk57nOJQ6nxzkkbh4Rrk3eO81om9rlx/j+ yHI6P+7rBEIEV9YLSJBE8FnRnkcyIE+BUJjixwymZsagkGaFw5z/RuoBSh2TG4JCSr24fL5zH8Eo OXHvalxPlrQqcgalfs8G/lAPiau1TvtSJuRzzick65nXp+N2AMgjGfKKHU4YXI2EEjOBRirsoxTY Fsaj836MDHYq/AeQBanIONx7BwF4LYKpK013JaRS3tljRHBSMOg+uYBaHEB85YPffMEvIp1fIn+p 9BhV4xzBkc2RTxzXu2mNYYZI2pxLyC4JjxNECTZHMIQASKrYoS4hIpTSiKRBjeMprtAxI5MDtxEo VqCEECamu//hB994InVLxaGnqoJZeJSiUCm1urL6vRi08I2U1c5IISaWMwdC+pJZ5gRGqoRYzuWE EEI453gAkApwNvwCcZ8Hzw69rQS8TVKAv/kRyWCLoBEQjOO+cpygkTKzCbgUMKGWYb+AfKHMwtj9 es4IfOOh4OkDhZBvSfNuDFwIehlCKun78qVNDLWeBIR0QniNu+lXqrQB6Zf2lcYE+fweqQLys7dm 16vClqhIhtIDIeDxg/HRQoySseYlUI6kFdK+BfOe0k1ZHn5vKXDXZBDfZzEAKQCMKkAKMSZTlBDo fQqnAinQEvRl8svnezmDdI68EcoyOcJIvMZa3Al429RkqY5IfeipVOASgXrfFUElzhS0T9FEkgiN kGil9K2QbymtiQB4JPBes4PuEwfg+6M7aIR4QsMPFNkzJtpbFmUjyPxsrtelnFruJafye1X0kJQO +0oBTRt6ZW06TtfyDQC6Lj/PQRVShD9b6VwqVPiwlAgUNKrGGKzFlWmwtXnspBVSXkj1RChNwaAH 2wEPUQFpE0IaIc8B4CnPjhUvtx7CrDlu4E2QPwxTQ+tQbr9EYi1fT4jnVn2p15UC+j52vMuP1545 9q2iZpQ+ajDS2FDcwLBjV3EMr9hYRkKQRsgVMDpEDw4JP1YcQJ5JtaATNZ+3lQpL3YwPnIh8rQOC Mo43cWAF090MCXPFGUrXj9WOG5Pfo3QghFJa1J6pCuTLCmHMuJoubq1UkAD2zk4m/G2dzewCI2R0 MEQehJuqgpPhoUagBCCFVPKl7atvSobezllYZ+u6Xs9wZQnW1hHPkad04vRZbmfHnZ9/LrVRJagZ iTP3foVEMIX0qzEN/y+FQO+d7L2jaGCJi8+kKricFAIAolk+OXuhQyplrIFjL7hzFkvdTMO0fFC4 H17V7ZgX7/yX9o2ZXkvHuJfKr+sW+W/5nEPEcEwtAHX1VkDD6iGBPD5yoYzovYc03Rkf/5MwNwN3 CQSJmftFd/72s5c26E+KcPUsWbLUDdbDPr+TRD4f4MywmtHtHAmHkLzdhH3agPA8YxKBECFIETY6 T7YAv5fDHIEdIlR659o+ANW044DOBMV8p5QwQkB3589Q5mLqBvpROEYA5FrUooHj1qyevXcWix2o jIoaJ0LIgjs1kV8TndbmA60Y0ZD4JkTZISFRiimCCPEl0XHDkF8rRSAEaq8EUh3lc2oqofQailC0 alrY/S7vQowXUIV0J5Xowhh7067eghA1vX/nbOBD08ECgPjVb//m+/G8p8wYJ4IMJhb+ASubW+Y0 0Jxz+X63yMW00oCqvB4dp3Pjfw00TX4dNxCJqEpiIEIo1cMhIzV7VQUMA1TTTuyjph4b2X71g2+9 K6Sml3tQVdBDq4IBQFwI9bk2VPdmHZm19GmgSl1ZDhghwPnE7ZzrCTmj0RfHxLop8tUMrY+EIPNj 1qX2y1/qJhFn1l4pZVQefOIhad4uMBrJtlKllBAmhgbi80JI6etTw96IFyAq94w6aCHkOzvvQmYL QXxl5ZZk7NWQzwcKmOpd55OOJi6ciN3SymcIbGOdjzbBe6IkjxDhHE/6CBHu1SZJCb6VQBLhaH9U XSJIlYiljCYiuYm8yulCaVxJ/Z4QguoCajg6mQhOkQCHcs4CgFxK9Yxmu5Dlb+QBi30O+UDi8Jrr VmbsgDpihAA0ixtoVdf1dMwOAen0S22MCZ8+f55l5D2+k0gxBH681mc+BkyyqOJ6/mbMMJStkM9E iAnUYgBvpB5gMsTswUJDXGi2fEpqvTDyeFaOW/XcsOPQ90G3z51vW2C3C78cmeXgT7J5keu9nxIG jyGMXGkCEWgV7imJbr9P10uBbFE07lXw9waCaqBxYf1U8bc0DGN9oFZCtB7+wTEA4JGMQADd4IuZ MRTWLf37EmpIItFK/nhmXFF1j8p/a8gnRBrG1UBAIk0T7xbhPHE8PbMkBF20AeR2AhmS3GC0Q24k csTXII6F3e8mkoNYSwfrX8cE3IMKQoGHhYLBHt4FG2Amb35I5ANTHZrF7JmRlulnnXM9IYKAI5Y/ w5ggMcg2AFKARoiwTy4j2QxldJEkCJcEtjLJpBZQqr0/uYgmSDLVtEElMM+AikzOtQlBAeceZWbQ QyOBQqrGAFAt6X8e3TsUQuXI5yJTClSNOl6dU+prQgoh3JiUkm2asD/G7eMrk+oAUuaxaZLkmjPs SruB+le6lnQtdxtrruJkfJhXwFSASoaguHYDzOKSJoiUeHljXkC1JPzs2eefjVfR4J0CpTVPYrMm 7q1LhhjnRs3EOz2bfPm2zYnA+5zruy5JByKKssqobcO91FcR1RI3ELlXQX0et0IllO8PHIwXUGm6 atrRRaT8QLN6/rzAzRy+7k0A4sg5AUAsLt99N5sGPhfoKV+UfHty80rEE/K5u0YbIWHsjciRT/3h 9wGBCPh/6pcQAfkqlp3RL9kJXIJwdVEanjX7AEjeASf6WgyB3oXfx5jKOutV04qVUEN79uRdHJ8Y 8kbKwjNJ8E++88HPGCHxhEK9pI/LhA6H0uDLzjHE07V2SPqU1wwMQxLdxN0cwZzgSDXVUrz0q1Q9 WVNKECpUIQOzJAKuGsaRjgRD7zIXQhYyH7c4njFXIOx+hxtv11/5zgdfKBA/RwgHpcBdk0GT7QXM e6EevtB/2QAy0UsWvh0wycWPL02i2OQGIa/9J8QDgXuJuwnaJljb/HhjEqfTNQ0TxVoFl47a51IH CG01TVIVQuR+P7fcR++EqQOO1Nr62bWqIyYFlFRQTYuVUPZtmJ9heKhFBE+CuwSC+P8sCni0BRoY bvCV/j359CTyS8uec33bJvEsRI5QANjtw9ay2L6UwL4HukiM+z4RT9uE8+sNsIySZijr/mzelnOp H7tdeidKIBFB8FXJMld1CMNPSSelgcLvz8aP1Ru+0A1uvH0/TiDiyCc4eVn+YwRA2cDaQwQA8UyZ F0AsXjjk7tWyd5wrdrupeydEEr1CJMudIx8I/7s2Ib2dlpWHimLWH+J8Po9guWCGIOl8CtIURaXc RuD9q2Uv6Tolw5CX0UEKFpVBokk7IELQBuLFDE443o4Wij5GIOjijm1M/Xet0iBmujTq2P0+EYL3 yW1TKiC7awNHL7r5Z5ombLXjhNAaNCYnHFW4ukDqHxAkFBFmLZ5BCCX7gQxhTji1QJFKzzRCqqVU K8zHAB5dBcyFHeXa2cWVMlh2y6LDZbBD5C9qo9Vu3TQkS8jnbhwd566bc1GSqqTfa8gtB/LgsYI4 5yQCEBNcNhEm2QdzdgFlKa0LBSvdIo0Ltwl4BpGHiqMUWEil185SMuje+h94hECQEaKVwNT/L0UY kEQ/P8aDJ3ywSOfzHH053YtzJ58VNMftI+IO5OnLkHIpGebu5YTJYwxKB+NVm9wwPDvLx6GsM5gL EmmNTim18Y7PEv5M6gGy10UigtAGt/T5C9ALllmysQcmd4/6Pur0LjeggCR2a9xObdfwo1XgXI68 OUQObCrY2FdGtP0+b5PbIQSe2Tr03kRUFNCybmoLzGU8uRQAcKkb8pUlUlLoXlLgvhJAAhDN6vmq 915lH07gAR9y+Sixk02pUrnO5+KfG3rlTF6tcuQTt5dtk1ogY68xSUqUk0SzQJZK2xxyeCKqMVNC pf5KOS1coXfkkUKu/2u1hkQE1JWmFQCwePI+1QbO1QU+GgHUHiLas6crI4QY17Gpia2qvxstaJ5t q724EEGVcM7nSKuJZ63mEczLs0v1wqOItJGKoQCQ0oHY+DUDK1XncQMpgfVteo8xZD2D4Np4lePJ jUtgMN3FBeo22skwRwBzrgX9CgCiWVxeLUQoVBwNFzstdZoFEv3c1+cGHx8E4nwa+DKxwm0BDjOT N0dYnTECa9I9h6AmbXQFWcuzZMv0fVJ3YztFX7m04LmCsU2ycVoAGMxidYXTRP8sUTzIDVxcvvV5 AFIJWiZLpWlVY0g4Wrl2yF9YF1FAjvxxgNTUfy+BxDBQiPIDSG9i8qYxQF/o3FLlEMGVSFbFeXJD yxgEeTPcKATq6WNOHHO5AgAI3xPa/9Pf+90/jmlR6KN6AXMVJwKA+Je/9Y13WynFSunE+byKl1v/ Sic3qFZ+lS3Zwh7VlcYlswWyNynEPJAjmm/9ABjqm57aChx55czkxkz7Qv1cb4DtLhEBqYK2jYTQ p7GguEeZQua1j+NzpvUDF1L7K+gvFPipSesHEUCNIMbtXKi3AAjJw7F8ULabaZaPkEslWXO6n9or l3vhtX5k2JXI4ogyXFzH/UU3k/RhRMCJkNoen1VGOF3YOkK0TTYBkIeKgcTpM5+tgfOHJQCAC6Xl U6k/h/nK4EdLB89lnORCyGc758S5btIkDi7Gyno4Ajskd4hi+zS4xDW1gQaSO1db+KlE5DEojUIO pkjvTu5lKoHHHfizvU8SQMrwrsOhgpJCYtakgBy9LG0gnh9B9tGcwCkSoFwCj2/nrYyVQDSJgzpf 1u8TcscBNEn0+yNpaymnLhjBGDAyuSivIZn+zyK1kBakHsrzpdsIhPiAaXIXVal6LKNGWLy+kJhm 7ou71uJCGQmA1g2+dyTwlGTQrBcAYJGd4VBGtnjxJtf5ZXaPW/0ceDVPjfv3fUIWP2500PltM11A iv+SMXhIouz7adXTGGBqUpCoMSnbOI4kC28T0ZMU2M1kAQ9AI6Xu4WnZ2Llw/aMkgybGH9uaW2fF xOUrS6PJ7x8TJmxwqNiCx/lLva+iXi3j8DTY3Lgba/oq9kBpyPF1hdom3GOKdyHpwb0FsgfIJqF+ cVXAQ+FkI9A7cld56JNBSHBsogmApdLytbMaD5QAD6kJFGEoRCpc4NmtsuPW5dY/6cP9fhpOLS1t Htnjy8YQpxHiKRtIv9zSB3K9zf33Mp9AhEBqYLMNbZJHwQmQiGB8z0go5AmUGcqmUBM054BLzCMG IAC/1M29kX4fApgQhO7Ou6XkJaxD3vEsvelSkUe3yPUxSQAgFWOUkbxhpo6+HwJCTCHyszeUgSBL lVLqV36eP7sfcoLqK7H68n7qc61N5/KxGXpWN8meW5v7yMafci/t6sU56llB4ATCqBGAmDmW5QFW z//YOwDMKltKRSc/lhODVkns931wD0tdKkTgtFrQZy4QZHTSyzWgUC5xl/PhWNcCXTM1HEtpUBIT xQ9qUoCgdFF3+2gYx3Z9YRxrM111LGOeg1XW27On77+Puu4v9X+VGE4JBFWNjMX5i3cB6HI94Oq8 ee/jRIqitq8M+xKnzX3Jg68TKERA/llRh0BuJPfpaeua+STQHCGQbUBA9kDN4CSEcW6l2kQqGiFC 4AxSK57l2dMxO8mv83gq9b47f/F5zNsAjxoIyh7yqx98+x0AenGo80Axe4aFRHl4lJCxZdYwvfic aCZOHDlKT333MnmUvbnMgzt07FAMYdEFKcVVAUkxXhRLXMs9gdVZbgCOU98rS9rSeV48Y4dapZD8 lW9/82eQJg7NSe9ZuOu8AFIBUocghFJ8kgRfuIHAujztCySuIeu/nLXDYbC5TVCL4RNCeMw+m23E rH2towpoc+TVns2JgRuUPJRMK5jynAVXA0AgnJvbJAF40mx0ac00P1DWUGRzKwTeN53WEO/hnlFA YD4OICr/S9Hy5Ewq1cmKkVLWwpEKICOwXCwp88vLQE5R218iAJj+dz6Ie2CaYOLA8wxc+nC/n5DE Zw3xBA+VggGppJzDvg/IbpqE+KYJ11KkdJz1xGZCnQCdVPqp1E9jdTDHUw1/1XiArFyIyjFuAEoA 4qnU50ZIuWqKCSG1tXgIKMrFJ2jwSFnXFi5SkQ+gASUi4Pqfc3DHcvvDEI3QoZ62HZ+lpyphDjbb 6bH9fnpvqbv5LCT+TlLVJUCtrVwNGAClF8BxdhSOqYBqhOnf4d2/857p/goA0Vvrxw5SEmOs+6vo f5rGRdEvHvvfFhGxucAPcfyn13EYYmSNkLuv+NEk9suNxwhq8xo5wdC1lEwi4uXIL6erczVCyKMk GFcDFCjiwFcPGceULRunjb6Q+md/Tb7/z1Dn/qPrB53qBfDGhATaVkjRCAkTy5PG2T708rXaP45I Cu16n7ihKdyfGrfu+2nAiFy2wSZXrwbHFoqmbN4pUoAbsXyG0lAphrXF3AKaUURzEMlmIlU59oet j5CNqQecxbk2coDH4H0D3K86+NSi0EwFtEIudt6JpVTA+WUK8lxeVZ6gc0tXyjzgU1r6L54lDpcS WHZx2rZKov/JZd4zADiLbXJbYNEGgmibdB4AlpH41kzi3G6Cz06G7CaeI2PzZhOe1Q/AzTr8ljqf dPt6m+cXhsIrWG/CeO37FAnturCV9YFkCI7FpCbEUc4WMLcSeP0Jdt41BY74yJR4zGyBU3MB2fax 77sfDzusnfWjETPY8KK1MGaZPeNcYqM62LEBN4wLb9ZxAGxu+Q9DekWe+y8jdYT82820X0QIdK49 YDC2Jg3dXPaSzyukPhLye6YCOTEYk2YZeZ+vjUjZVSDkGLiN0PcewyDWzsKFL95xV7A2k6sKhyTA nGsh/xD9d35OLNcvbb/8rf/9+3ihW1zoBquDtfjsUZMvdrABbVjsvCZVhJgWcAJJyjQm2BINH7gh zT0EgMUC2GxyY7U0XEs7gtq3lTmDSgHbimEIMMJm5eF2GA3BvlhB1Ug9zVQC2Noeg/O4tT0+Hfb4 xPbiD4YdzqWyP0b/v4CDHsAsnFIUyokhqACIy98YbkZMKSHQRv2WfdunjJLNLh5R6XeZESPuoeIK 2njmkBDHS8BLRBDyCRlzM4UWi7AREHdyPc6nk3cHpqUR8NlGQyACo2fmMRaftxtYXIOODvD4fbdV 17CXQPZB6bn08AT42x9zAUci+BDD2w2E/Lt/8a8OWIzJHQEEvwQAZeoEGuPHhAongEQcAm3j4Vw0 JqUfEUqfT79dC5yv0uDMuXK14lCCRXe88IRgW8nPl+HpPSva4Ody5HlI6cf/wS4QMDpU6vSDxzDA 0PgNQ1KB/eBHleY9VgAgBFbe4+3wJP+XhgH/4j/9Ww3gEkkF0Fbijxf2jANxSkEI/U6zTT/8UGeF GgBweRH09e1t2m8M8NHH0zRvYwI3lgsv1JDKfe8dkrHH07HE/aVUIJfNFH55WbdAiCdiIbuG2nIu IZ7sGHpWaXuEkLEgBCbC2efcPdh6zIQ8ClvMPuJt7XZYw2EZ8F3i6KQwf40AylRi2agEIJaQwMuP gW4ZOkki8OYm/BoD/OjHccAr5eBUF9B1OceVRRukm0n0O5dsgDIhQ9lBOtY24dncGDM6F+Ucujb0 hRMb9Y0jnFv33FaIYn28lucEGjMNIFmbKqJub/Lp5GTwcTW1nRqyS0i0EAZ1A7Am+jMxeCwUPFcN hDUcvntzjee7LQbvcLltcDsMOCtmvhiaM1hbO8Ba4GzFjsWqYaWBW6T5gToi1rkkNciFbEweJKL9 PiKdiISQy/P0NvaDI5kIhR+bQzpZ/YMN5WA0PyCbIm6DAXjdp+IPQm4fC0FefpquBUJ6WAhg6NHP xC5eD3u8GnpCkDHLJ2f9+tMb4Kj1f7IKqMWXM/fie/s1Phn22HkHbIBnuoHcb6CFTJ+N3W3GT56c 6waAD5YuIer1NaqrhxpWK6djqJRH35QCGgCbiJgFyzEQIZDrRRNMeGXuYEOcgBDNpRARConpzbaO dCD58xTnH4a89I0jG2wByJ5Z/3YYEd07C+eBvbfZNwRfxe8x7LzDLZ8oGmbDNs1iddmvP/1RBWcH 4a4lYQAgmqLdVki8iNasEfmnnRsp4bzHuTbYO5uamfMIaotGKZ1KrGlwrU2GVc2Sp/Yp0rjdB8SO uncAXt+GY4R8am9gIVoqNyuXlCMgqUSZuraN6xSyBA/589mqqawdH9ZWDmstqbQCPlNT9Bl7IyTO pMKZVNAQxMpKKtMhNwA57h6FAEZC2MOLsyO37ot1g2+HYRQh1h0IyZJRli2sMEwNpXEGMgvDjg9n cw765HPD+UAI5fU8ObOu+PNDYcgRgRAXb7bAeh0k1nbLfH6XS4AjC0jvnM3caC4BmuJDli9tj423 2Mbvq/sk1efcwCqcOjWsbDiMvRCgqeE778IXQvw0o6XH7wjJfBl5LgXGNXgqy77S/90uiWDLkGCH JLLnJItzcXFmETh+3yeJsO8D4jnyb9fAy1eJiKi/pTtIljpXT2WZ92SJ+6k0scW3FPkHo/beYe9d RgRXyoQvtBAK/d1qAQnuUxYenxe+bw8ArZTYzZRx0Rexh5EwGCdxl6+slOn76bw5umfUsYUrNiJl mEoBcsf6Yom2fV8vOl104H54arvgfiDZFrSa6IoZtn2ftjKjx72TAl6y9ulz8vvIZEbIzA64xrj/ 6MmgWlHh2HAPjxdKY+ccVkqP3N17h0VR2LFQGnvn8g8m1h5PotKw/PiqC1xVrg5GCOHxBW7sZW/K 8gQNgMEn5M358kC++NNcrSKtDjZW8Kg8bl/GG2wRW6CuxwF33mOpNNbxOpIAdE3vHXREwzUsLqEE 5OQDEiVUi0LuogKq8MoOaKXETewsNbhxdvz8+doO6OOL7kLyIg0qMK2KBaZJpbffyu8BkiEIBI6k ySM1RHFuo7kEQoQMYF+I+c02t/zpvtK/H5jUIkPvnbfz55aLYY/YnvZxH8eh9w6Dd1CM0JfRSOQq duMtrqCwhXt18+F3vj+Ds0c1Asf//MDOObQyfDBix74bQAWj/EUMW/4cWqPf75IbaIsBJuNPCOBL fy64et4HQ8szDt73+fxBjnRCeEkIwxDSsnTNZossFFtyPrXR73PkZYthqdBPAh64KZfGY0RQM4r3 zsF6PyJ8zRjHCImNt2mcIRuzuFiibrMdxOepFUGzcOMt+BpBbeXLIZbp0EDlaXBNsQBSBlRC5j3w 3vOUxCEgF6/kpt0u516yCWjj0A95pa/39YoiQiKQJM0wTIn2vefhl5aB226m3wWi/lakgItjRR+N rmUvXtp+RP7LoP91s7g6L/B2EpxaEMJBNMn/hIFAK+QoBXbeYSVDsxtnRylAawlTzxwA8E/JOpvS rbUVMzc74PplMLCUDuvv8PkF60gcVOjp9nkamGf2BoYIyj/cxPV8xvUHC8QSUEUS/97AZh10/kcf sX4PmCyBZ1kchCOdoVkKgd4G7t84Cy3EuFQrkcuZVNg5h1duwBUUrmG1VOUybTnOHpMAsIdHXOUu IN87tEKO+31UA713WMR1266jVXtlGvTO1T8qxaEc+EUL/OUvsTn5xRc7srdiVUZUuQtMZ/pkY+On x1/fxPLxGD7mASMgzWWgjCDPUg7DNKtIXzBnbdgYHNs7i52zkBBopcLaDlhIhXWUjlxW7JzDAB+i rQ64gIKHO5T+nU2D3pUAMkoavM+OkEEIBGPlQiXrfKl0WlE8ggPgyBsYB3WGMF7dAn/zrwGXZ/lx srD55Er+vzxHx8p7+W8Jx55B/69vgd/7gziylHnULJDFr08opVFppcLGDtg7h6XS+GEMq9M1O+8y d3sdvzi+hTs0CfygOriXBGggcBtp8sZbLFmAwogU7Hlpe1xFIljbAbCBEJqREEJeoN9vU2GEs3m6 Vingk4+BH34UOPh6lcq+t/v5TnLOrx3nq4kfu/YQUF92PXD9OvSTqoMmET9fDVZticuZ/icJcDtj H63Z8S6ZcnfS/8ADVEADgYWQ6CPpbbzFlTIjpbZCQguJtbNjYqiREoN3GKzDpQxuq3U2JIecA3yM 65Md0PfAdg10z4Dv/SA8/Pws1Pjx+r/bTZoqzid10MzhnnkDVB/oESJ9L56Gc63Jg0T9AKwW+b28 7bII9eVr4NNXwIcfBfvAuVCjM3oJIhm7cWKJdRZbZyEYEWghR/9/8D4GgciFjkG1KP6v3ZCwLe6E 94cRABDy0BvvoOODjZBBBQiJAR5GyUn4kuAyrHOH18Mel7wkiiJ+zgZi0CZUHd/eAL/+68DLXwpV w1ICVxcBgQT8wxC1gBGvuyf/HwB+9HG6hyeb6LryQxTl+YtV4Px+AD59Cfz2t4IaW57lsQzOyRH5 QPg+MMX/JQR2MX6ykCoEfKJdZeK46jkGvx/+768COBghM1fvqTKjN+CRvIG9C5+Xfc0KIbfOogOm 3xmm6pc4/dxu11C/8zvp45MN+6gESQxef29tfg2P1FG9fdcFcb1lBaJz3/ThzyifBeSLXi2a4JmU haK05j+DfZQAQAiSWe+xkAobF/x8uvzGDiPyrfe48blquCf+768ClgBee4snQuPaDbiMrt/A3pAC Q2dSj9Jga+2Y5uziJ9KBYA0rUo1kQDkX3D47YOssdjcvAQQ7ApsbOO8zm21lmhBiJq7aroO3IQBs AWtt+PbOZh2OKbZmzyaWn29SYEbFdnbWjm1Tvr5VjHOFGMV2IxRWT54lqcE536d3JYQDSfyT9b9h 99y6IFUhk/XvCiq6Aq0Uw5/yBgkA8XHnQrGGEg2SN0C2QNBhEk1Bpltns6yX5XEBGrzIic57vBr6 cbAI+NdKP9xvoIRIc0WUxk00pkbYz5RvV2DjLFaxjY/67fjeALDZJfesEUHdnUmFc43A6asVcB2L XVyqNCqjfr1zkEgEBABaiOBhRSitf6q4oGteYsAd8c7wdk+4hcPGOywgoYXAxy4g6lk5u7cClOe+ Mg220ZURSB9Itvtd+GYerSimNJQQWEg1ZjQ4LXVSYal0NRX9zNTjI+SSkhTx8BAQPK+OVipoISGZ DUASrHOhr0SQRqixHwE7B/IcSNxP+5T86b3LJMAUYQLXPrSthQB8WMye0cub9wIAgBeEDN5DC4FL qfGx6/FMmiwySKuJ88hgpxS2LAdOn5x3UYSPeIgBpGW3hN3cwkg5JpaMlJkEyPZZzKFTBlvbZ/9p qKxNUmc97AEILHUS90ZKSBfE/OA8jKYpbtMxWSqNrl2k1b9cHk2siX7iZm75T4klWf/XbnpdDwfv T615fxgBeCAYgR5J35MncO0GPJNmYq3umC1AwKtdWqmwtQOkEGikSjoYmi0wdYZzAP1+hy19S0+I QARST9UH2RHx2q5d5AkZ04ZQNH2IaRjSZ2/sANO0MNFoMw3ZCgCvrt8OPXoRkHNu4sTS5Vk+/W2o Ix8I0qf3bjSge5by5f8J+XxMtRB4TW3C7/vt69efBQEAyEPBQKJGLQReRaPFwqNlbELI53EBGoRN RH4ngmG1jGVedr+DooyaCoNrTANDxRKsmHQSPySrn9wxnrLlUTyqP+CrmhMh8MWuuuUksNNZi67f BWIaP13XZoTHYVcR7dx7Glj2L1yf9nvvwP0SGvOoDq3taTbrmzcCswe89hbnQo1SAAjJDcMSRECw Zs9YkggAyvWFpBBw3mPd79FGlaAsmzhBU6S7RUry0OLR/BpyyZZF2HhcqFpPF7K+CwxFiTf/oBSV g23Wmb/PxX4XrX2qluI6P5jL4Ze4fuODqihdvwwhSQU8mg3giy075wHs4dBELic7oIfHUoQghoUY 5dlK6ZEIPJARDMUHboZ+NKJ2ZAv0u7Dxr5JRfWBZmFEiem6JtdFnZ4jk95XBnxKsA+yu+NhFJNTt Nuh+G2Yvc7PUeo9OBtuHDEslRJY84zF/jVRzSa7f6/CtAAChIusaFms4772bw9W9CYCIYEIQ//pz P/fNv/eD7/zZP0T//BIq+PiQ0F5ggB9109vR2Np4i9YnSQCELOIg/KgSttaOMXApBLrog49+fL+f Bl+AfCElvkgF/yg1R1RZmDH34YZyzSN6Fg8YUa3feJ3NXL7bYT+yI3kLryOxrmOq1zo/lnmVsIkc /yEzYAd4fOz7MRezgtq+hP0eUkUZx1WJwwnUCj6peltFAmkQFoVeAFghrElz0Vy897NfebX5ZcSJ iVchN8uTEX4JuVpCdQNzrgxEFiwiw4ZyCgYCa1gsobCGxZe6J7iKeX8iDAIjFYwKHkPvbNgn4EGe QzA3QxjIP1dbASLQNYts8qDQp/0e39i+yt63hGPjMsC7lxg+WUKKdQh7eQ/468AN/QfY/ed/f3H5 P/rbj/+nt/tPAdwgzKvaIsyi7BE8RSKQjDBOJYCOEcAKEBeAP0//sYjXNAgThBUA+WWsfuFPo/uT ANRNKF7EFs7votaqDUjL0hs7+OE9mC8sGYa4NbyGRQOJPRyWzAxcxypZOtbDo4/XrGGxgIRlg0zk KYp2Kd7An0fQQEJHYuX/B3js4WAgYSDsd7H9Xhs/9rPjMQYI/n9ScEvxjpewn/4KXv0XkFkA7CNi NxHRNwBes+0GwLogAFsQwOTBhwjAIKxAsURYn/4MQQoQAZwVBKDjJgGhimcdM1Am57+M1RcvIS9x HKoEdQ2HS+aNxP+jwcT+n2Q8xetPvfbVv8HNb5za1+I8XePiZhEIoEdA7haBAG6RI/8WiQD2yAlg Upt/iAAkcgJYIBEBqYKzeIwIwIBJAByfqVrOW6/1BTP3YebcZw1+Zp//90fO19rkGxFAH7cdAoLX SEi/YfubeA0RAN0/6Yc+0AEUHSipcB/vJ2R7dl6x43yu+hwi5xBam+1y59kvnxH4O/6esk9i2yIf eyIAQjIhekDO7UcNwVPdQNI/HPk7JARz5BNRzH3cGDhOCLWZycC8FPlJQo2rSwY6hRhq436I+Uoi 4ARQ6vxZ0DMd4B3hHejjPXskBAOJQEj/1wigJgXEkWO1jZ87WXe/QaA+zCF+jgjm9kvuLwmADME9 ki3AiYBLgKNEoIsO1FaToIdb9nDJzhNhGGQGYNUO4CmUQ1Lg2Fa7/ycNx5B/iBDK/xxxnABorAck pHMCIAlhT33uKSqAOkBlrbyOmrsmRACE+FO+b1/7j+LaQyrkp4UIaqKdj98xKXBI/9fsAC4Fyo2r gKOrTpcEwMUZ7xzNaCgJgOv9mugvv3F/ii7nqmJu/87Vr58BlEh2B/aBeQlQ41yOUNLzxO18I+KY E/8TVTBnA2QTeOJ/W1zDRdIhzifElQsXlwgs1UNNCvBztTZ+UjAXgi25vxTzx9rhbZAa4PYAlwgD pkYgKs/N4JgKIGngiuMOsegZuctX8/0PLWNekwKn2AJz9/+koJozQR35x2yAQ0TEjTtODOVWqo/a 8wAcjgNwVVCjZHp4ifgaxx8S26fYAcBhzv9JEcKpSDym/wXqonpOEpTEwAM9/PxROCUhPmfgUOr6 VKsdmCeAcn8O6T+Nur82XjUCqI1luY+Z87WtJIhyf+55GdwlNn9INNNxeeD6Y8+8SzTwLu/wpuEQ Amv691gQSOA48ZTGJh0/ZmDea/CO+etAHUHH4vdlpyicfOy+n5YAUAm1gBBQR4bAVETX1EBJDMC8 dMDM+YNw10E8pnsP6fm7tv/TyO2nwili/SHtHOPwU9u/94CeIsbv+7xDbf80cn4JNaOuPH9qO3c5 dzLSOTzWYD4mUn7aEfxQuBei3lRbb3qw/19H5mcFj0k0GfwfRIRgbqE9lmcAAAAldEVYdGRhdGU6 Y3JlYXRlADIwMTctMDYtMDFUMjI6NDk6MTAtMDQ6MDB0e6Z3AAAAJXRFWHRkYXRlOm1vZGlmeQAy MDE3LTA2LTAxVDIyOjQ5OjEwLTA0OjAwBSYeywAAAABJRU5ErkJggg== "
     id="image10"
     x="0"
     y="0" />
</svg>
