<?xml version="1.0" encoding="UTF-8" standalone="no"?>
<svg
   xmlns:dc="http://purl.org/dc/elements/1.1/"
   xmlns:cc="http://creativecommons.org/ns#"
   xmlns:rdf="http://www.w3.org/1999/02/22-rdf-syntax-ns#"
   xmlns:svg="http://www.w3.org/2000/svg"
   xmlns="http://www.w3.org/2000/svg"
   xmlns:xlink="http://www.w3.org/1999/xlink"
   version="1.1"
   id="svg2"
   width="22"
   height="22"
   viewBox="0 0 22 22">
  <metadata
     id="metadata8">
    <rdf:RDF>
      <cc:Work
         rdf:about="">
        <dc:format>image/svg+xml</dc:format>
        <dc:type
           rdf:resource="http://purl.org/dc/dcmitype/StillImage" />
        <dc:title></dc:title>
      </cc:Work>
    </rdf:RDF>
  </metadata>
  <defs
     id="defs6" />
  <image
     width="22"
     height="22"
     preserveAspectRatio="none"
     xlink:href="data:image/png;base64,iVBORw0KGgoAAAANSUhEUgAAAIAAAACACAYAAADDPmHLAAAABmJLR0QA/wD/AP+gvaeTAAAACXBI WXMAAABIAAAASABGyWs+AAAy7klEQVR42u19ya8tSXrXL6YczrnDm6q6qtxuN9jgARBtbLkFkgEL jGVjhhYSICGxQBaClSV7xYIdfweS2bDxxiC5BRghYdlgELiNmUw37Xa32rh6evVevXtPDjGwyPwi v4iMPOfce191tcCflDp5coyMbx4iQuD1gjjjfDjjuv8fgfolPPCaO8HrRIR4wLHfhwnCazp+Nrwu ZMTnPPneH99J3bRwY/j65/7tizC85Nf8PvcfhxWHP/ujf+UJQhC2e//Fe//73/TZtQ+GhyKD3y+a xx8T3fMvirc+8Te+7+WXf/Nzf338oV+QQv4ANXb0I4w0GP0IAHFfCAEtdHwQvy6/3gaLEAKMNGdd z/fPvf4u7eHX22ChhT67PaXr+K8L7qs/997P/bHLdz5hmmff+d1uPHzxG//jF59nBPAgtfAQAhDs VwAQ+ze/1zz6+A/9g5/8XPMPAaCSFQY/3OmhWmpYb1/b9fl5+n/ue+7anofeV4IxjLDB/stf/Ojz v/u1//rPv4wJ2bQBD5AG+h73iGw/btXl01Zp87iSVUR+Jas7v6B0D39eTlR0faMadK7bfF7eJv6e 0nNb3eJgD0eff4zI7/PtHGyw8MHDCAMfvBaAwZppuVq9MyHclQC2kC8BSClV/anP7i8qVcWOanUL 5128SUk1tTSElaiVkEdfflVdTc8QCi44jG5Eo5vkmmtcx30jDTrXoVHTNSRaqW10nM7RPbQPAFfm KnnWdXWNznZodBPbcFVdQQmFznYogYdfITaECVdCiNg/REhEVFpoVKrCK/sKAA6wvQCgZkQ79khC /J1VwX0kAIeIfABK6WpnpHlayxpCiOC8E/ShACCFjMjnOrlWNUa3dLpRJnmJEhPRuOCSY0qrVYM4 Akc/olFNglAACUHkUDpGx6kdnOiIEDhcVpfoXBe/SULCKIPeTTacFjqy0uhH1KpG73o0qoEPKbHM EssC0FKrixln9MISEdwJ5B2uzblfsl8FwEgpr4wwbwFACEEAgA8etaohhYSRBlroBPkS8ijyAUTO IgRwcMHF520ZfaX/dGxr4/eU7s3b44KDUQZGmURNELGMbkJ0LuWozVJICLF0catbkCoFEPZ6/0zr 6g1MBKCxMF6uEu5k192FAPgLuOhX1Cip1F5L/bTRDYw0kEJCSRUt5fTFMnIGIb7E+UqohOOUUAli iJv5MSNNch1dQyrkHNgiAk4geTuJIPg+h9GNMMrEb+fv4v2jpMrVQhj9+ExK9RiTHaCQEgBtd4Zz CaBEZYR8IgATQtgLiGt+IXE86XoJiVrV04cz5FMH8U48BzE50H0BIaocEtEHe4jXtbpNfreQJoWM z6F3kjTbIobYVmUSyWCUidIuJwTqH7KR6J0z8YpKVtdC4HomAI01ERzD1ybcxwjk1EYN0AAMAnY+ +IscWYR4Ai7yeceRTs8RsYVsjiQffLTaW92id308NrgBlVosck4I/H0uOCih4rWDm4wyTkwAop6m 95bax20GbiM0ukFnu6QPciKwwUIIwftMDn64QAh7TATgMBGAnzeOkw/cCEwsfyw6yYTgmkY3Nels LXRi1BhlogXPO5/+8yAIdeIW8gnZhLDBDRjcEBFOUoYDEULO/XQ//SfE07mcGPj7T4GRBs65hBhy VZcbi9G0ExMxVLISAJT3rgFQzQRAm2REcGdD8D42ABGBZJsCYADRdLaL4o3EGdfvucUMpO4YRzjp 7Fa3ceOIo1+OLC31CmmE4EpVkZMHN0AKicEN0HLhA9qvVJUQFv0XEEW1wY/Rd3AbJLdHEiJh/TO6 caUapJBi8AO8DxUW8U8qYEv/n6UGziEAceIcMwLNE26wkdHDO4b2G9WsDDoOSqjIYYMbcLCHyPE5 0gc3YGd2AIDb8Tae25ldRPDO7CLypZDRsGz05HrReR88Gt1E3c8Jgb+Pvz9vU24UAqk0o+8vEUKK nKm9QojZGxDXWCRuTgAfmBGYi5VcBQgASqqqkrp5g/RoDsT5eVCmBK1u4/WtbqPY3pv9irsJiQAi orXUMRRLhEGITz6+oNdXHTQTAhGFljq+j9sVvN103AUXJQP/VlJ1JUJodBOfP0vSoIUWABCUeiRN 22DbALwzEdw1DrCK/1NjpGkqaeo3cp+eW/U8lJojn4t4/p8j2ge/WMcMIRyRQoi4GWWS/0KI6Jpy acA3Ore1+eDhg0/ey1ULtZmQv2UnkIrgxiLZQ2QnzH0pSBL8yOfbK1NftEjVLzHjvYjgvpHAXApI qavqU59/9pGmaeCCC41uYkPowwwmv51b6XQeQLTgubjlnUsEkHMyBwoxc72fewEANs9Rm7j64kSt pIIMC/HkxOmDT57HvZASMURG8IsXAqS2klEGHt5Wonqk6/2+f/VVLv6pEYSTOxmCdzUCt6SAVLqu lFBvzggVubHHRR11BLfCOSFUqopikCM8Rzxxda3raEjVerH+cwSXrHuu08kwlEIm+pgbadxgJInC JVFuZNI7yH7JJR0nBG4TKaHy2IHb6/0butnvUeb6DzQQVCIE+pUAhFDaGGmecITzMC0BdYKASNw2 joxcPAshoKRaeRUcGfH5cnELlVRoTZvcS9fQf7qeX8sJIUFSFrXkeY6kU5mRSf/JlgHSOAR/x1ZQ id5by/qJ0jWpAB6OvzfcNxRMvzEgJKXSSqgr/iF5mJYDF5O0L4WM1jhHPoGWOnaG9RZGmeReKSSc dxGZzrsYUnXeRQTTMdonYqDjRBBkDxhlimqHCIHsDWobbz8RKZcMXArweAV3IckWYAa1UEJdS6Xr hyKdw+vIBgoAQgilJeQlsK6gAVKfnXM87zBMD1pSxXK7ea1pEyTSPgf+v9FTVtB5F/fpmmiMManA n0FEojAdJ/vAeRcNQmAiSiUVtNRppI8RD7mdHOGUteTAs5hKKNSqlr3r90JIngh6sBv4kFBwGg4W QhhlakptAhMlc0uY62Nyz7hlfwzpuY/MOTeqhkI2kBNhKdOXX0P/OXAJQVKhRBS87aS7iaC5kcht g8ENMeCVG4m8Td3QCQAyTF6XQBkXpZzAUaPwdXgB0/5EmaJ3fcL1PMQKIOEWMpy4WC8h/jAe1pnC DOlbAaVTeQQA2Fd7DHY4ec+xZ8XM5ywduBdhvV2lgYkQuIHK+4kTw+hHNLqRve8RQkIAwHHOP+kR 3NcI5C8WAIRpLi9HNybuS+5iVaqKH17idDpG+pRzCoCksmiLmzlUukKlJ31e6Soey38J+fy6XJ1w KL2PG6jOp/F+sl1yr4HOcZc0Pk+oRJq5MKkbIc0FjnP+BxIHyHVMaggKKXV7/Qz9EgbllJ2XbVFH bUEUrzKtwDmHm/l9uW1Avxz5zrv4nwiB/tM5TiD0TK5iSm3g33kYDzE6mccXdtUSqczzDsxrCI1q xI28gTTNIyGVCt6dIoKz4gH3yQWU4gDC1BdvGDVxZW7VU/SMqL/W9UrckyrICWMz719AKnF7iRhy BJaQxe/nhEHPjl6CXqRa9Hg2iJy8D/quPOT8snsZ+4JLS5IGc/xASCGhhYbS9WOpayoOPVcVPIgA SsinfQFASKnVX/zim+/MxwN9AM+bk8gjt467R0aZlcV+jNs553KxfQxqM7lb9B76r5VOfvPrASSI LxHcvtrH4/tqD2AhjFyVXNSxXAJGmXg92URb+YXZXRx+9EtP3lCmzQmg5JqfBQ8pCVv2hZCtat+m Y2Tc5BG8WtcxScMRn3Nl7CC5NvxyHX4MCIm1qdGPPWpTx43+E/Kts8n1dJwjcbBDPJfHEgY7wEgT f0vJLh4nACYVQNlKHmmk/iMpwGIB7rF5/I7SVV4efm8p8JCiUBYDkKKW9Rs8BZr79kaZ+EHkw5cQ Xgwa6WolzreQne+3VZsQAbWN/scoGyMKui4nhl296OvcNcxV0L7ab3onSqoYtib1UKkqSkfqO57J nJAlgxLqTUYAPBJ4r4KQ1zYuQAn1GEiDO0Bq7BHiuQ8PpPqTG12cy/n1hJR+7NFWLQ7DIUGiFDIi 3gcfr6tNnfji9BxqI92jlY6uXD/2K/VA/62zR4NPRprpG+y2sUiSpLd9EvWkdnJvqdGN9PCPBTQF gx5sBzy0KjiqACHEJbCIMOL6HDjyj3F8ScRzzuYivK3ayDWExIgEbXDRXsRO5b9GzyJZylXpGv3u m/3ErbPq4EjWShdtiKSqdyZmbteUpMGu2iGEgF21iwkt6kdWtSRtsBcAiMoeHBJ+XXEAKSFjz/MP KGXXeCdwsZojnetkrfRkUTORTlzCQSmV7DvnkuNKqbjRfyEEjDar40opeD8933sP733ifZDXQsjW Ssf2kVrIjVT6budd0UYY3Zh8UwghqgIjjdRCS0CkQbi1KvhACWAVBhZSUXHo1FlZTpzry0Y3idF3 299ucjzXyUoqWGdxGA7QainG0EoniOMId86hqdkoHrafi/UtIsr/c6Im1cOJmI7xb+d2QmzLhtvI GWZVIiak7F2MBua4uFc+4L71AEkhQrV7vI8XzHqsVGLF6/AIjol6Qj5xVVu1iYiXUsK6JZ6glIpI JvE+2nHS6drEfQIuvrcIgggplw4AcNFeRHuCiJzaVxoPufW9XDUoqZK+SyqaJs6HNM2e9/8dcZjA OUbgMdEiAYjm8iNPMUwfwP17/uG5yNty47g1TkjxwUdXTSsN7z2knL5/1+ww2snAovw8EUFd1TEZ A0xEEUKAVjoep2P8PAfrbHzeaMeEIOg7IyKZMUlI5B5FbvwS8LGM9ByeTZxdwrAzO1GrGrq5fIo8 F1N2C096BacIgFwLWTi+DAu/ePqOebEYTnnMnsOWO0fIJj1P1ntt6qh/CfkAUJkKwzhEhBYbP0sj +j3mRnIkcSIgSULEUgKlVKzlV0rh1eFV/AaSZrf97SoUPdghqsRKV7gZbpb3zkSgpSZvQMxEEUx9 8SaEkJjHX2KbSU+6hg9RAXGr2+uPAkCr28CRTIRA/jAPp24BiXStdES+lDIaZE3dRI6sTLVCco44 agtHPkkPjnQOWmlUploRVgghElwMEmVqwTmXeB08YFQKInW2WyE/trNckdT92P95+20hNZ18UFXQ Q6uCAUD81d9569vmAJDgH8iTOOTflyx98rsBYN/sJ7ds5nRCVm7Q5QgDJoIw2kTkG22KBDfaEZWp 4vPJwKT7+fvpeUKIqDry93LDk1QE5T9KoWfuTlIomNtFyZC6rCZSC20b2XxMCFkqCLmzIXiXbGBs EzsmAQgjpyHhpP+J+/mH8OQKRz7350tcSojaAkI2d8W4YdjW7dH7tdKAmt7DpQ/UIo1GO8Jok7iB dM5okxAG2QkoCDryYOjbSS2QbUCMQtIgz2rSsUfm0TtCCKoLKOHo7KjgfY3AJAZghHkKzCHfQrCD I76UdMkDMxyR1PkAEn2fi3FCRIJE/qFao+s7NHUDa+fsW0ZcJVuC7A5uexz6Q2KzcEMzIoqpBJIK 3LahbycXl6ee99U+UQm88qhRjexd/3SWAKUYwAceB4iIpxcKIa5yY2/0I3b1LkF+SRwT8nPfmyx+ rsu5+CWE5IgruXRaa1g7PY+QT8f5bwn5hHROLKXwL0kBIsR4jtkI5DJyV5ZLv9xLyCUoNQvAZUB4 cAwAeE1GIICmc12S5Llur3HbL+P0uO6jD84jeaRLt/xyJRWklJBSRiNtK52rtU4Qy//TvrU2+c2v z4HbDbSfF6XGglbWHuccnHOJUVfySMhYvRluYjIpv77VrQSghZD31vsPIYAcpnoAyEaJNK1Loo1/ ACVPEiqfQ7AU0cu5OZZnz4in48O4lE/lnExIzRFZIoJT15SIgbexMmkRCp3j0kAphbqqozSIVcGF BBdFS4Epo5hHDLXUqnc9gvdbI4M+UALII4FCqoqmLEn83FJpFpAmZHKxfywyl3N6ZaoVJ+dIy49x Ts+5PpcAORyTCPk+fTsPMJFtopSaPA2WLc0TSSRVSq7hrtoJADDtNQ0QyfHygdgAW66G3D/92FO6 6Lq9XkX/gCVWTrqPkE8iH0j9f7qPXDOy0LcCPiXRfYwgOMGU7udb0zTFc1uEwImd2suNV1IH1A8E 3Bsi2Fd7dLZbSQIpJKqLZ88y3Gzh694EcGpeAAFAtNdvv021gHl+fFfvEoQCKMbUieOpk8h12zW7 lVW/hYScm7mxx0EphbquV1nDXBoBKBqMW/+BiRBytzOPGzR1s3of9RmvPchLzOZZV8K+2gsfvK33 j9/G6YEhH0hZeBoFvHz6HXSCD8Piw7L4cOwcSkbcoT+c5HqOiBIy6nquFdjN6Vml0O7aZG7BFSKy VPAxKXLs3dxrIA8hYoRJA55PoIKVvC+o3GyWAGKwA2pV39b7xx9HivgtQjgqBe5SFVz0AH78C2++ QwM+ea58V++SOjsy4ihxAyx+/5ZRpZVeieStzi9JlqquMPQDlFKo6jn+3g9xn345tLs2UU0l6ZBL mi3pQN8spYwZPSCVCmTY8hFDHLhNwNxC9xNffOs7kNljuIcdcN+y8PjSC33xFrCu8yeddtPdJAEa soy10qlu9C5yDdep1tqVOKcOLsXhieOruoKzLkF8PO4clFbx+qqu4na4PcT95PoNIiAbIbcxjkEp sZSX0HGvIPecWtXikXn00QLy4yvOJYJTBEAhxa2Uo9BCvwEstYB5Fc++2cM6G+PpwGTccY4g24GH cHmnljqZoKS74zm9SII4BR2rCFJK4XC7FHAQQdAzufo49q4t76Gpm0jglFPgCSzqkzyqaZ2NDJTX ElS6QqUqHRDe2MBJ6XcTHjo4VNCQcG7I8MpanpwBECNmibHY7E6+mHMX6XfizFyUE3eX9Ht+vG7q 6K4ppaKKcM7BWZcQEakTpRWcdYmqKKmDGIuYJaD3PnI0MQG9O6oC76caRylx06XhYJZMU2YaIrYV A3jtKmAr7CiFEC1NBEHRvn7sp6yeSHU+fWwIIYr8vKqHOnOLqwj5hDBCDCGDV+/wTQgxXV+lxJJz X1Qh1aQGCOEJcc3Iz+2DHPn5N0gpY4aSxzN41Q8wJY24/URAYfVWt3r0I80TcG/9DzxMAtCLk1aS BCALnkbFlhI6wzgkWbi8E/P/uQgmzld6bQDm10opQSn0JZWO5L+3Pt6bSwqyGzjSya7gMY1NwzAr JZdSJu5xCAGVqRBCiPGSw3CIDMXzBFpq5YPPh4nfCx6SDCIi0MBCndRgyqIRVfNiihy4j7+FfA5K q0VMM0TlFb+EXNq2gBDPryvFCXLEE1Hk1x9rO1DOZAohorSkMvU8d0JQ61pOk0iLrXqA16oCOCTc X108izXqZOwBSLJd3OLN3Z+c+7c6kEQx34/6fxbpd0U6h3q3nlY2vzdRKcyD4HYCB56LSNzXLOxb KjOjPpFCFiOEV82VsMGiffxRqg08Vhd4FO46PDyxBer9kwtMhmBRZ1HcG1iQT6KMF3lucT4hmjq5 ZNTRfo4wUxmMwwhTnR5STteNwzipimpWFZWEHSyEFAg+rN4d7Y7Z3SSPouQO5tFJns4GJilACS5e +8hHPmVgTXN1dXjg6KAtFjnlWkzFoO31o1nHB6JWALGkKoSwCvyUMmdbIddoaBU4bCt8W0LqOIw4 BkQk9MvfJ7WEkCIhsCiNqiqJGQBI3MhjdQalSieKIPKqZ1IFOXNpoa1pLx7hPNG/SRQPqgdor9/8 WKMbaaQRwEStxNl8xE1Eih2TgE/eSVuRPWddYmhx5OSi3lQmbvw/B2UUlCkTT9TpnAikTN6XG4g8 yHS4PazaWQIKdwNYqYF8IEo/9kl5OQC0uh3ay6d/EA+cLvacQBD9roJAVXPxtpFGtLqNRZAAVrFv oFydC5TdJepM51zCYSUjL0cS53ZCMv1KLRPEK6MSIuLnxmFcEQG9w9QGw8AmnWQxgjx4tJVypqTR aMek7I1LTG4M5lKgkU34iS999OMZfu4cCHqQBPhLn3/rzfeH9wUf987r57jrFydZyLg/T7jwCF0p Lh8bTi4dRwzjdo50+q8NkzBawY0O3npoo+GtX4jVqGgYmsoUVVCza6YiUWac5u08pqIAxAhpXiAD LCOCKEScS4FKVfJCX3wbtiuDz/IGjhmBxRJwtkkl1NNGN0LL7aFVfFDGqQpfghzpucidqqEWW6Mk 4vn780BO7MS2glAi2Q8uwNmJMJSZiAQATGMwdqktoauJcKiNFEXMg1NAOUVNfUYzguWTZeQlctxj alSjtdDPTiD75Kqid5kuvkRdl53tpnmAGOfnup8CH9bZJb+/ofvpo0mU5hE3MsoItpCva71CeCQK LeJvcEvf0L4bHaq2ghtdfJ4QIjHOcuBRyaEfVl5LgngeMWRIXc1fRCVkfhlmxqSAdMHRvMEfWEXQ ll6hRNCq6J7XxwOL+M/z/lsZs3bXRuTzSBtQ8M21SkQ85/zgQoJ8oUXc6D+AKAHoF1ikgTKTB0LP JXXAiYATIzCpAooP8LbniI/HlEZbT9Pa8gEtEUEsR8AnxtiZnR78QOHgrXD9a0kGrYw/2g7uUFWy EnFuPbWsCsp1WT5St8T9eZQtd6+4ziegTgYWruUITzqR5zUjlaT/vfDJOYr7K60wHIaoEpRW8INP CCD4EIev5T5+sePZOIWu75KBJ0QMFBcg6UmMZJ1FrWtpg9X4gCVAEfG0taqNmORuWj6gcrQjDv0h Wr5b3E9WPwFZ1gkiZ6jaKnKnMmoS2TNBEPKjgZh1CamH/LhUEtNUB8s5XWsMhwFSS4QQEkIk9cOl AIW8+Xfw/TwqSOMVACRVVMCidghYxVBodCN63394uQDdXDYBQVPDuMFDFmxlKox2RFu3EfnHYuTt rk0qdkgVEFBnkAXPOZKOkyiXSq66RjcautawvYWuddxWnTITAtkIJFlMw+warZbIoZzskpzz6Tu4 pDpWZwisYwJk6Ma6AmVgnRWVrmCEQX3xxiXKWUHgDMIoEYDYOJZWAj37A28BMDSrBRlqxAHAMqbu 0B+isVMq4QYQrWgORFRCisTdi+eZkQbMnC/WyZYc0TnSda2hmw0vZpYm2mj0r+ZIp17cTmAiTCEF dKVXASIqRsmjg7zSidc+ku3EYwOkAm66m5ghnKHbP/koVQbleMqt/yIxnGsEriirvXzjbSON3ut9 RBaNiikN1S5l/Dg3FAs75k4j7vLeL9y+Ec2LIjxHNusiaVIxz6+NhmaYnxUmA1GoKRwshIjZw/jO mTgpX0Dtrpt6cgftOjKY1DqyqiFgSRLx/qTqKqqy1kqjlvXQXL7xMWzbAK81EJS8pNpdvgVA87mA yOAjKi4VfeadQEDcnhMBt/yllLEzSfQTQQjNSqvEdN9KvAtA1QreekgzR/8alXSTVDKRCPT+4OYh XzORRO8jczOFFIk6LBWelpiA10zySSq4RM0zpxfmQv6FL7/zHdheQhY4QQR3HRdAKkD+2G+/+axW tdJSr8RzHtbcSvkSUAj1cHvA0A9FKULP525ZbBRZ/EzocUkgjYSqmctYT7aCNBLBhWLq2PZLm8ke 0LVO4gbAot9JDdD3AEDf9YlNQ8dPFY0CSOoDYjuy2dZa1eon1ZN38ICagHOygfQ/ES2tah8DULWu E+OHXJdTM3tyLuj7PqnQDSEkBMWRD6x1f7ALUqIuFwvygYmDaV9IsUQTjVwMR6YaovSgRwckyCcC 5a4nQRxKfiQquOqPrE4ASMPmcbo6Npi2UpWWQj5B2QY4hs+lb8+4MDcAaVKISyWUTGa2mKtegcml 4UjMP5q4gAZgrHLsZ2TUYgOZ+CcLP/fxOfJzbhdSFO0CXeuka2PwiEknChVzb2A1VwCrYMr7gPcL ITlOMjku0jCOMWC5ASWUmZfp4V4Ax9lJOKUCihGm7/xTf/unLs3lnwEgOtsF6hQ+YldJFTNd0d/d KvGaq3G5F0BFHqXQK4/R89YmiBWpqM/rAVWloCq1WR8IMDUgUpWyZYhGNzWvJVQqprQ5HHOJgfLs KD74aWbReoed2Wkt9Xf99Bs//Y9Q5v6T8wfdJRQc/cw/9z+bGoC4qq7Q6EaQ+1ciAiqBpmRIPmyb G3+89IuOc/US07uzHcCjfQBS63wW2SS2vfUxj5CHb+PHztZ+RBD3CjIgAowSYItYZ+Lm35RDLgW4 6gwhxPsoewhMUqLWNb2wAu5XHXzXkjAJQLaqbQGIgz3gI48/gsv95dTAwvBrDnVdx6IJnjenkiup JZp9g2pXxbfqZra6GRcLKSCMiB0vNPtfyTiTbowItjKSuqAFTTUAO9sPFoAH/GEiILIp6D8AhDEg 2ABvPXzvYQ925Q5OF6YGpOtdEkYGgKEbYEebxD74ABg+cQUHay0O/VRwUpsaT/ZP8FvPf4sIgOOI cFbCY6Kf7jougHIADc1ZN4wDur5LEM73eW6cDCJCfqwY9iFxq2LHzk0lrlz539W6+RSj54icTrCL ziF7V35+fByrJOZtTSDM1UyZyirVF3LYspf4HANCiHDb3wrnHQ7uUGO9lvBrqQcobfKfvfPlz/6t r1ze9l2/+9Uv/Cre2r+F1rTJGPZ86hQ+XRqfJImKRKmUnKJcFEY22kQJwzuHj9Ch3zyPUNVsDv45 pMrFdB665SOE8oKUPEq5ohfnVhzb9dNC2aMdE9VII34GO6CzHRrdoLNdnCkMSKfNp6liDuNhmsLe 9fjK4StiXojbvXKvvgTc3QMA7u4GSgDSOnf91eGrDQBcVpfwwScrXgHpQgo0xBlIp07txz4ZB0cU niM/jxjGd7CUK0XdaKubOhl3572HrnQR8RzijF4sJR3T0lnQh8YlcOQnsf4sACaEWMVEcuQTsjny jZwWniLwwU+rk/gBXxu+pgY/XANxSflj6eEV8BaecgEjEXzyi+ojz/Fc/syf/Rn79O2n6G46mMoI ZRS6mw7NviFfXbjRBcqrD4ch+s1CCwQbILTIE7WBR/S887HxeZgXmI2v/Pj8RNWoaAQKNRl/fvTQ rY5GIbAYiG5w0UD0Y0oktrPF93N9HxFkPX1NkEpGee+dX1oXIIILgfoBgHDWLcUo1oUk4TUbwKx/ g7MOP/vzP6sBXCNdTbQ0dQwv7IltOmeuYPqN1GWDFf/+2yt87Rtf033fr3TWzctlUCPpfRLPh1eH lbVMFnScFpZl2ijtC6RZNfL9vfVRH/PgDUX5gCUGILWEquakzH5ps6wlwhigGw03uHiPH30sE+PI z5E+IzbaHCxcLfjAESpY5d9vB2Ywzurm9v3b2GelBNnL5y8nYug6vr5wrvvPCvOXCCBPJeYPnf4L 4N3n70Y9BywDQXgmi3S/lDIWg5CYbJpmZTDmXkJ/6JOYgLMOVcNy7SRR1LSyRkRUn2b9pJGwBzuF hSuFMAYIIxBGVhI2G2fBB7jeTXxiJ+4nnvHeJ4jmXOqsWyJ21sexEQS5O0j9wFWS9z6OJKYJNWgM Zdd3S8DL2WXNBKENygZgSfQn5uqWBCjlk5MH/ukvAb/7xu/iZf8yXkArdhPiuUEDLHMGUPrzxasX kVB47QB1TilQwodjCSlWQ7NI3QglYDHHHKAnkS4mQnGDmwo8+jA9Y+Z6Evv0S5zu3YJ0cumGA8vy dTPRzG5dMvlVZhuQDUBGIc+XOO9WNkJuCAKTMRhCwO14i53awQVnzO7xfrx9/go4af2frQJK8eVI XUoo/N7t76Hua0gsSQq+Cnar23TJmMOyjgAnjtrU6zz4bCuSEUjEQMOvSFrEdQgrnYhWhbmauFZT eHjOEbjeFYM7OfK98wniidudnTY7pH58jnRrbTLX8GjHVVaPDGJC8jwRVEQygGhgB4S4KDdd1/se clq3u6ra6+vx9vlXCjg7CnctCeOEEYGQr4TC7JrEhaPpI/is1zQpcj55dC4yjTZF6zoieY5AknVP iOK/ZB/Ybr5/zu/70cct+JDYErZPgzw58rn3UUr3chjtmAwC9d6DD6MDsJoRlK80zvswX6WUzRmk pDINUgOQ4+61EAAnBOHCMl6dVrdwwSUSoLQUKl+Eka/YfdPdTIsjszSo9x6HPh1wGZHC5tsjZFHB SAzTWofgQjTSiAhcN9X9+3FCuutmfR9Ssc8hloezgaK5yI+cP3M/cX0yUaaUeVVPMi3s6MZFt88r iVaqShaT5gt0A4ANFmGR6ltu4L0IYNMGAAp17HMjlVBxsENnu2T2K35PLgFo4ih+rdGmONo2Vgtl hZOl6ptgGRH0dkIyS/OSuM+RH8X/6JJIXmnoOJdUh/4QVVlpJvEcaLVRYB4LaCfpQGsK964HzcJC ENcihocWGgh3qwWMfX7GNcUSI7ac6WqGME6htOQZLYVaqSoGN7gEyEe/Aou0KOUYuP6tmxrezgUZ MiUCMhCDDfDw0UuwnS12U27wAYhGn/c+vodmEwOwyvVf6stICECaKaX6/lz/j36M0dNa15EIBjdM Ltd58NoKQghKRYUiRzJXAUSlZAPcjsuM4aQS+BSyfKn2fAQsAZ+utdhIxmG8Lj+31kkSeLeu3S8Z fST289Rz8OHoXINa680qqGRcA1tEg0tGHlWtVBX7mqsJvqgUAAG5WkAih3sXhW4Cn9uOGsRVAOkv YFoaNQ8X03TyfBUNQigNJR/tFBB69PhRvM9au0wewQpIkoEiNs3CcSKgzfUO3nm43i3H5vtKiOe2 BoWI+TRzAPD46ePov5PhV8oDAMvMX7RPyE9iB26YJtvy5TkOJCRssC9fvfvZL27g7LUagfG/Esv6 dqMboxpwwUVPgOwA0mVEDEqq5INo4qSb7iYpjuQ18r/9U1+LM4SRCgDSmT37rp9G+foQJUGOTG7F A8wwJAt/TLN33O0DgGGYEETTxBBBAlO6+/N/56tJR1EQhyROvjg1MNlJ+aCQvM9K+t+GKGUq017t ULbZjuLz3IqgFZBYssHCw0cJ0KhpjVyaPpZzPem1/GOdd7jtb5d1AufOujncRO55cqXR9/1q5lAq JAWWOQV4upUjkRMDR/iKSBjy7WCXUi02SpmnteP39T2eXC0zoN0cbuI+kA7u5AkyYJYGs40ETB7A 4Ab0roeAiAzT2S72tRaafnXVPqKU6Z1GCt11mjh6wSZ0rpsMRDlJgHY9fnS1uPKu3kV14LyDNjpy zqvDq3jf19/7OvbtfhpX13XJ/AI8fMxnDwsyLBVAdh0n4ERCOQhgEfclNUP/33/5/vRY5vZd4TIi +3J3uaqQAtJVxylrehgnldnbfrXqKtlWox9j9tDDcymqparWVvQZOLsPAZwNhHzSY+Ti1LqOasBI E9cP5jNikSpY9KHA93/y+5cZPWjo1wxSy5jxy0FqmWT/AKwmfipBXoBCySHXr20D2r6EL8XjHPkA klBvHuLlMRNgWX+Zon+jH9HZLvG4iFCmOIDP3UDeEZsfep+JIldgg0UlqmgLkL462AOUUPHjaB09 LgEoKgikHJLn0rtDhxd/72uomhpSiOMT4Yf1n9L1AoIHUDY+VuQHitf5EDB0PbqvdjBI3WKK83Og PuATQJK6lEJOdkFwq6VpufWfzC5+6jM24N4SQAmFW3eLS3m5jAKeG0dqwEgDF1zUbdRg512i7/iC knzi6Dij6DDg5cuXUFqhaRpoo2PV8akgyxZ4PxmLWs/Bp7O1JuvZeciWDx52tOi6Di9fvkQ9LNJ4 yx3kSTPqjxBCYvwd7CGGhV1wkcGon33wSyBoQfadvuTeBOCCgxbTODUpJHo3JSaUUKtQJSFaConR TUir9dRJox+xr/YJEXBVIITAoTvg3XffBTBZ/VU1VQ/TRE05EQgxc3aBNigyR1U85Fkci9iVzsUZ v800rn8YJpfw3XffxUV3kVxL3/P+4f1Y6sW9IO76aakjEcT7XQ8lpixnrv8l5PSt4h4U/BAC2ALS U2S0kDog8Uari3K4GW4macHEYT/2kEJiV+/wT7/n59H/qsMn/sgfxvXjR6jrBk1b43C4hcti9puz 4oj0vBstrHcTAYT5oNh4Rl6zNIOUEm3Tou8H9H2HF8/fw2f+2//Cf/ieX8df+82/jG7oktnTicAr XSWzmVGUNBrGzHPi1v8W2GDvJcGAB6oAGyzglxSwh4+TQ3eui8dL3kBve+yqZZr40Y9JVIyyYpWp 8Knf+En84+/8Bfzn//o5CCHwqd/486hNjRZtMXqoZTpMW2A9Jz+tO9gP/Uo/e+8T26AfezSmQTem SIiLPo4K/+KP/wpCCOgG4G/+959EVVfohm7l93PuzyeLlkLidryN4h+YbKTOdYn1v/peoe89Q8SD JADpntxtIaCAEBECUTZZsofxkCw2SQsmcinQNlOg50f/45/A6EZ8+hOfwT/5rk/jR//TJ6ClhhQS gxtwVV/F4soS5CubAuky7gASiZVH3shNa3SDl/3L6LIJIfCvfuAzGF8E/PhnPoFa1zBvGNRVDdyk OX9KgRP3K6lwOyyhcutt4g3wNnAJMPpxShV77mVEEriTUfQgAhj8gAt9kTTWyMVIaXQT7QGSAtwl BJCIfU4EsVPmoM/oRrw/vI8/+Wsfh/MOz+XzqRPnpNSr4VVMmgQECIhoeBKBxmVq2QqfWUx9BWSR A8ANljDuDW7ggoMLDj/4K9O6WbdyQaaUcqX7+TqAxP1CCDjvpmXkZ87niTZuTxH3CzGVv1WSu473 M4YfRABSyEiFlawSt4SQz+sDyPLPF0gi7uK1AsSdWmsoq3DdXMN6O0mRLH7JuSa3MWpdRyNLCBH1 LRlxT3dPk7K2krHHCTInHK6vd2YXjVsCrvs5cO6XQi5h8syIVkIVub+SFTrfQQuNMYxgzf7meAEJ AmSFwQ8JsukjcpeQ4Ha8xc7sYmAoeR4bFMGP7as9tNWJVc5H6vKUMzAR4ehHwAHXzTVe9i+juuAd mv8HFvVkpIkEQs8H1oSm5dSuq+aqOEbwZfcykXS8zp9gcEOS+StxPzBJ3kpOjGSDnQJB9/SH70oA 8SUuuKkBmAxBEkc22IkqZw4hfR8HOGTBIf7xFaq4eDLp4pevXqKtW+ybffSXCfGkkznk//fVPgab rnAViUtJhavdFZ6/ep4Epsgl3e8nrh/sRDCcKPk7yB4AgKvmCvtmn5Sy5dk+knaVqnAYD5v2EwH5 /hQRJO7n+l8LPYzd++9/Mwggwk7tMIYRtVi41wcfvQMtluViWO16/A8sUuBmuIFRZuoMv3QWiT7r bFxYalfv0I89Bjvg8cXj9XpDrOo4EgH2xV8AeHzxOO5XpsIwDsn5fJ+vZHrT3eCZfpYs+Hh9cT0t +HS4WYV7nXcrl4+ArH6A5VNm6F2fxg1mCRAn3grWufFArsYHbgQGGyxu3S0e6UdJgwY/cbEUS5ye KNgFF0Ok5BLyzBeAxDAEJkJ479V7k8tXt9g1O4QQcCWuoJXGaMfVGHpabxhYxgNSYklKmYy8DSHA GBOPdX23qkIGygs/aK2x63YJ0QHTNPDDOCwVwQWXj38rGX85UOSPA7f8b91tjATaYNOkyWsigJBt yTklFMYwwsAkxiABiXzJLDauBoDFgh/cMM03PBuHgxvQyjamTCMnzUUWtBo3TT+nlV7pXUI8X5yh 6ztotczQWZq8mZdzxzkNGNfTQBgq96Kw9W13C6MN+qHHi9sXKTJZ6JtS4gCiz09qbfQjajVHSCnc m1n+sa1CYwgDet8DQAhTZquEq3sTABHBiiB+7cmL//Ij7+1+8MbdPAOASlRLxI8RwoW+QK3qGCaG WurnKGVMHXM73qLyVQyFUriYiIZy6TSGgBBPNfccbg43Een5OcrQ0fQroSuEkUNIBm7Qsyi/T8BH 50gp8erwKhJLKXLX2z56MlTqRcxARt+tvV08jDB5Ly/HxUsZw4jRjxjCQMzVHfzhC5gGwLNS12R/ E0oFnzQARM0EUgFo5+0CwCWAq+rqne/6Cf9Dfx/AdSMbCUCaaZYGMdsAYad2FwAaargRbPWQMBuJ 8zE6z68bw4jvvvpuXFbL8PDcY6AIWW787eodXhxeJNnGuwK5o7lHEr/BjzGOkdf00cidz7787Oqb aJ/HKEp9MoN/z773jUpUwgYbAkKwU+Gis8GOv/T4d39pePGlfzfefP13ghueA3gF4AZAh2l4zYg4 BcaaMM4lgIYRwAUgroBwufxHO19TATDzvfKT9Se/79urb/9DWmhF5Us22DBHEAMZi/PxfF/YYO0T 8+TjRhiddyJ1VE44x36PwRZxlpC39ezCde4b4ze+oMVSiJB/JwDoZa4bwY83ssEL++L5p28//a9n BFoAw4zYw4zoVwDeZ9srALcZAbiMAJJBBKcIwGBaHHIHYD9vl/N2Mf/nBKDnTQJCYT1g4Riszv9w 88OfuJAX1wDg4KYhX5jVCJhnARfoP13HgR9zmIYNK0xTj8z3ivy+rfc5OEHH819+3Sv/6uUvd7/8 64XvPKWnOZL8vLmZAMYZud1MADcZ8m8YAQwZAfj8/ccIgBaFJAJoGRGQKtjPx4gADJgEwOmRqnnO rdQWbNy3STTfZAgb+/x/OHG+9Ey+EQGM89ZjQvAtFqS/YvuH+RoiALp/1Q59pAHIGpBT4TDfT8gO 7LxCOmPF1sRFW6OQ+f4WMXzYiD/WZ+f8nrNPYtsh7XsiAEIyIdoi5faThuC5biDpH478HguCOfKJ KGigwjnTmB9D8qmpTj5sQihxdc5A5xBDqd+PMV9OBJwAcp2/CXqjAbwhvAHjfM+ABcHAQiCk/0sE UJIC4sSx0sbPFco0vunAy0dKiN8igq39nPtzAiBDcMBiC3Ai4BLgJBHorAGl2STo5Y69XLLzRBgG iQFYtAN4tOaYFDi1le7/sOEU8o8RQv6fI44TAPW1xYJ0TgAkIdy57z1HBVADbIYArhoGLARAiN9S AcdGrxydlALbquLDhpJo5/13Sgoc0/8lO4BLgXzjKuDk4kU5AeTVcNQ4hzUScr1fEv35Gvfn6HKu Krb271z9+k2AHMn+yD6wLQFKnMsRSnqeuJ1vRBxb4n+lCrZsAK7bqdNddg0XScc4nxB3ao3bXD2U pAA/V3rGhwVbIdic+3Mxf+o5/BmkBrg9wCWCxdoIROG9CZxSASQNfHbcY0K0Q+rylXz/Y9OYl6TA ObbA1v0fFhRzJigj/5QNcIyIuHHHiSHfcvVReh+A43EArgpKlEwvzxFf4vhjYvscOwA4zvkfFiGc i8RT+l+gLKq3JEFODDzQw8+fhHPqAbYMHI/TCxefw7GnIoDnENG3EpQQfm4wCBvnS1tOEPn+1vsS uEts/phopuPyyPWn3nmXaOBdvuGDhmMILNZSnLhP4DTx5MYmHT9lYN6r807560AZQafi93mjKJx8 6r5vlQBQDqWAEFBGhsBaRJfUQE4MwLZ0wMb5o3DXTjyle4/p+bs+/1uR28+Fc8T6Q55zisPPff69 O/QcMX7f9x179rci5+dQMury8+c+5y7nzkY6h9fVma8TKd/qCH4o3AtRH9SzPujO/n8dmd8seJ1E k8D/BcThcgjJHpynAAAAJXRFWHRkYXRlOmNyZWF0ZQAyMDE3LTA2LTAxVDIyOjM0OjMxLTA0OjAw TOw0jQAAACV0RVh0ZGF0ZTptb2RpZnkAMjAxNy0wNi0wMVQyMjozNDozMS0wNDowMD2xjDEAAAAA SUVORK5CYII= "
     id="image10"
     x="0"
     y="0" />
</svg>
