<?xml version="1.0" encoding="UTF-8" standalone="no"?>
<svg
   xmlns:dc="http://purl.org/dc/elements/1.1/"
   xmlns:cc="http://creativecommons.org/ns#"
   xmlns:rdf="http://www.w3.org/1999/02/22-rdf-syntax-ns#"
   xmlns:svg="http://www.w3.org/2000/svg"
   xmlns="http://www.w3.org/2000/svg"
   xmlns:xlink="http://www.w3.org/1999/xlink"
   version="1.1"
   id="svg2"
   width="22"
   height="22"
   viewBox="0 0 22 22">
  <metadata
     id="metadata8">
    <rdf:RDF>
      <cc:Work
         rdf:about="">
        <dc:format>image/svg+xml</dc:format>
        <dc:type
           rdf:resource="http://purl.org/dc/dcmitype/StillImage" />
        <dc:title></dc:title>
      </cc:Work>
    </rdf:RDF>
  </metadata>
  <defs
     id="defs6" />
  <image
     width="22"
     height="22"
     preserveAspectRatio="none"
     xlink:href="data:image/png;base64,iVBORw0KGgoAAAANSUhEUgAAADAAAAAwCAYAAABXAvmHAAAAAXNSR0IArs4c6QAAAAZiS0dEAP8A /wD/oL2nkwAAAAlwSFlzAAALEwAACxMBAJqcGAAAAAd0SU1FB9oFCxQvNT8QanoAAAn7SURBVGje 7Zl7cFTVHcc/97G7ySabQB4EBQLhYYIIIqICiiDFd7HqaEVrp9MZFdupnbFj/6idip3R6Whr61iZ 8UVbO46obQVbsAqCCjqkAkIgRBAwITwN2Tw22ezj3nNO/9hzw2XdQALplHa8M2funZvsOd/v+b2+ v3Ph6+vr64wu478wrzrbCRiA6bt7oL0hB5OE+R8Cb6VeWvShs/T+1PJF8xYDISAAWD5yZy0BCwiY hnEJQNA27gfCPhKDuuZgEzABe++T37ldg0VByU/m1VwKFGgS9mCuaw7y7huAXVaY983et1JRU154 o88K9mC60WBbwALsvIA99XjOURTnBy77X7CA6fm/ZRqjj+MX5FnmuBxxYJyNLmRuf+yOW/UuZwhI iUIWXV9dPh4I6r9Zg7W2OZjgAWvk0ML5J5YthZKSeePKrsoiYAyGFQbbhez8oDXV/1IqCUoxrNCe ejZbwPN/2zbNyhMMICVKSfItc4wmEBzMTGSeJB16RcnWI9DH8ECF6h9beJff/z0RIaXEQA6ZXVk0 GsjTI6R/FzjJsLMs9hW3s/vQRpZvV60sXZOLsA3kjymPfP8ryk0JUBkrfO+iigc3NMd+BKS0JrIB 9yTayNNPwjekXxQafUgBO730/i8MOOdMTfyPDzYh3DRKuPQkkshkN7dOrvjK/8l4B1K4KCEQUuFK iQoWUFB5nixZvLYCcIC0JtxL2sxFYMW9s99q2H/0nLR75qJRKoFSEiElsc5Opo8szmyfm0al4sh4 B26sFZFO4TguPY5AFpZRdMEVVMy4jpZY0nx5bsEnQL52uRMEoZ3D981D7fEllmlcdeDLtkBJpIDz xwynMD90egRcBykE0fZOqootRkVMVCqOch2k66KkwHEVDgahitGUjarGAXZsr2Pr9pWkHUmXQ70u hMJngV5fz87lgbcbjrTMHVeWLgxalyeSKbP5aJQvO7oJhYIU5gUHRKBhTyOJnh5UvIN5VREs6SCd NNJ1cByJYwYIjZ5E6ZRZxFKCj2o38eH6jzl4+BiOUMRcNj66k0d8LuT4YyEXARsIrNx5ZLeSqnZ8 WfhCE1WaTKU43NLGwZZ2LMuiuDC/XwR27NxDS/QY36jMpzhAL3AVLiVQNYUh1RfTdOQY69au49O6 etrbYwgJAlRrko8e/4wndNAngKQvDmSuILZ0+goDEWAoMHTx1RMWXjA8crcBYVQmCYTsAONHj2B8 5fCTEljyh2WMDTvMHFmAIw1k6UgKRlaDHaR+Rz27GupJJFNIRQa4gKTg8CMNLAa6gE6gDWjXz3FN SADKyFVNdY4OA0VAsTeW3lLzaCRgTM4Ep0IpRcA0qaocyZSJ43ISePXll7miagjm8AlUVJ1HNBql rm47TY2NSClPAO4quh+u5+dAjwbaqUeHvndp8I7Xmhp9aBo/iQJtjSJ9j7zyrbEvoGSkN88LhWFA 1ZhKLp025YQJjxzYT/mISvbt3Uvd1q1Eo21IBVJyHLzCfbien2o36QG6NdiYvnfp94nsNGqcRJjZ XoXNReTpucN+NiTIdKmUoYQAIOU6OMkU5eeO5PYF1wCwZfOn/GvLNmLxNJah87SVAa4UxF0aH9/F 7/SOd/mGR8Ij5fm+8BW4E4I4VxX0ot1j7XiTvNMU/6TUFt1hkby4vbubjq4ElkxTHjaprplIU+N+ LOWSFwqybeceki4kHIg70JHIPMdcjvxmD09qoO0+X+/w+XtCu40H/oSjGfsk4KXvCETkInG429l9 3YiQGlWUZ4wuDmIAcng1sngYr7/xJp83BFh450JmTJvExi07CVrHXcdVsLebzXp3OzTwdp+7JH1r yb6OY+x+HEAJ3wTC53/Gc/PLFxbY0pBC4QqFWzCEkqqJLHt1GUkHojGHPbXvM2v29extPsjBo50Z /1egJBRaFPhcxwvYbg3ezaV9TkdOK58bOdqcSSAZNsVFritJC0EKk+ILLmf16vdo64zjZnI57dEo u7fWctvNCwjaxwPXVTAkwDTt20lfkCZ9BUv6/b2vJnwgl/KqdePdZc8pJWvSriIpBMXnz6T5SCub Nm1DSHBkJh0MKzBpa20lMrSUmprz2LxjX2ZHMlbIGxPGre+iVu+839/7JcQG2tD06iUTeXXKVSRd QaCiCsJFrH3/fVzt316qdIQi6Uq2bNxASWkJV86Y1Ps3oaDE5iafbDcH2mpaAwRvAaH624c+C/Ki tJAY4SJGTJvDX/66gs6uVCZYJHQ7HE5KDpWHDdMRIj/lCA40N3PtNdeyr/kL2jpTCAkGhCaEKdnR zYasbDPoFug9NrSQNyddRUrA8Atns+GjjRxt7cSV4Ag40MP6p/bx69/uZcmdG8QjXWlaHAGt0Rhr 163hu7fdQkiLW1dCocGNWi77JbMxmBbo3f3amyO/MlCzUkJSVn0xsbRk9bqPM0Gr4GiS9S/t5zVf MYqvOsyaOeXMdBWRY62dRCJ5XDp9Chu37oFMQFuTCqjZHme1DmDR31Nsc4AEggHTuCvpSsJl51Iy aixvrXoXV2R2siVB7YtNvKLzeRRo8cZDdfwg4XLAkbD2g1rCwRDXz52M1zNZMFNX+/ysk+wzJtAr Ld67IfyQ44piaQWpmnYly1f+k+4egasgmuKT5/ezVBelKHBMjxbv+Rc7WdTj0pxw4LXlbzF3xnQm jCvFzWR6e2E5z2sSef09wTMHEOyBfIt7Uq5k7CVz2LJ9B/sajyIUdKTZ9lwTL/qkb/aIeuPx3dzX I2hqj0leX76SRQtvIhLJuJ+hmKJ1V77WYKe0gtXP3Q+smJ9/T8jk1ooJkwlGSnjj72sQCjrT1C1p ZEkW+A4dA3Gf/O31641tvDetiFnR9p6SgCW4bs4s1m/ehVIY5+czb2eCv+UQb6dtAROw80zmh4pK GTVxMstWrERI6Erz2bONPJMFvlPL4LhXsfWI+7R9+++b+GGP4PN3PtxB2k1zxw2XZHbUoFJbIK8/ H0T6TcCyzIk1M+ey6t11tHUkiLvseqaRJzTYdl/HFNMV1b+Drq8t7PSU5wsHeCAh2PXnN95mxtQa LqwpRcjeXiTgO8EzT5dAb+WtvuzKiuZDR6hraCTpsufpffwyC3yHT7+ns3S7zCIR84J96SF+HO2i 4U+vv8l9315AeUkvLvNU4AeShQhEhu5dsWpttMth/VP7eNAHwiPQ7Ws8RJYI8549Ej2+37f98SgP bPsivubdDRt77l24oM6n+8/4M6vp68giujcu0O+FBtJbsPoAn/MzlK64YaBQd3lh7TZCW8mfCJJ9 kbL7czbl27m4fjZ0Zkn6uibnFOD9mt7NIdeT3odBn8R2TmWNUxHwJnc0SKnvZPUHjk8Cq37M6Sfh dXxJHx6h501nNTVnZAFvIdO3iOs7Ne4P+FwkvHnTvrrk7/4k/8/XvwFU/fT0tbRo2wAAAABJRU5E rkJggg== "
     id="image10"
     x="0"
     y="0" />
</svg>
