/* XPM */
static char * stick_active_35p_xpm[] = {
"35 35 7 1",
" 	c None",
".	c #000000",
"+	c #fbf3df",
"@	c #bbb39f",
"#	c #b1a995",
"$	c #7b735f",
"%	c #fff7e0",
"...................................",
".++++++++++++++++++++++++++++++++@.",
".+###############################$.",
".+###############################$.",
".+###############################$.",
".+###############################$.",
".+###############################$.",
".+###############################$.",
".+###############################$.",
".+###############################$.",
".+###############################$.",
".+###############################$.",
".+###############################$.",
".+###############################$.",
".+###############################$.",
".+#############%%%%%#############$.",
".+#############%%%%%#############$.",
".+#############%%%%%#############$.",
".+#############%%%%%#############$.",
".+#############%%%%%#############$.",
".+###############################$.",
".+###############################$.",
".+###############################$.",
".+###############################$.",
".+###############################$.",
".+###############################$.",
".+###############################$.",
".+###############################$.",
".+###############################$.",
".+###############################$.",
".+###############################$.",
".+###############################$.",
".+###############################$.",
".@$$$$$$$$$$$$$$$$$$$$$$$$$$$$$$$$.",
"..................................."};
