/* XPM */
static char * maximize_pressed_xpm[] = {
"14 25 17 1",
" 	c None",
".	c #717171",
"+	c #949494",
"@	c #929292",
"#	c #9B9B9B",
"$	c #D7D7D7",
"%	c #CECECE",
"&	c #8C8C8C",
"*	c #848484",
"=	c #B7B7B7",
"-	c #7D7D7D",
";	c #AEAEAE",
">	c #C2C2C2",
",	c #727272",
"'	c #9E9E9E",
")	c #686868",
"!	c #919191",
"              ",
"              ",
"              ",
"              ",
"              ",
"              ",
"              ",
"              ",
"  ..........  ",
"  .+++.++++.  ",
"  .+@@.+#$%.  ",
"  .+&&.+%%%.  ",
"  .+*=......  ",
"  .+-;>>>>%.  ",
"  .+,'====%.  ",
"  .+)!;;;;%.  ",
"  .+%%%%%%%.  ",
"  ..........  ",
"              ",
"              ",
"              ",
"              ",
"              ",
"              ",
"              "};
