/* XPM */
static char * maximize_toggled_active_traditional_35p_xpm[] = {
"27 27 7 1",
" 	c None",
".	c #b8b5a7",
"+	c #000000",
"@	c #6e6b5d",
"#	c #0e0b00",
"$	c #aaa592",
"%	c #f0e9d2",
"..........................+",
".@@@@@@@@@@@@@@@@@@@@@@@@#+",
".@@@@@@@@@@@$$@@@@@@@@@@@#+",
".@@@@@@@@@@$%%$@@@@@@@@@@#+",
".@@@@@@@@@$%%%%$@@@@@@@@@#+",
".@@@@@@@@$%%%%%%$@@@@@@@@#+",
".@@@@@@@$%%%$$%%%$@@@@@@@#+",
".@@@@@@$%%%$@@$%%%$@@@@@@#+",
".@@@@@$%%%$@@@@$%%%$@@@@@#+",
".@@@@$%%%$@@@@@@$%%%$@@@@#+",
".@@@$%%%$@@@@@@@@$%%%$@@@#+",
".@@$%%%$@@@@@@@@@@$%%%$@@#+",
".@$%%%$@@@@@@@@@@@@$%%%$@#+",
".@$%%%$@@@@@@@@@@@@$%%%$@#+",
".@@$%%%$@@@@@@@@@@$%%%$@@#+",
".@@@$%%%$@@@@@@@@$%%%$@@@#+",
".@@@@$%%%$@@@@@@$%%%$@@@@#+",
".@@@@@$%%%$@@@@$%%%$@@@@@#+",
".@@@@@@$%%%$@@$%%%$@@@@@@#+",
".@@@@@@@$%%%$$%%%$@@@@@@@#+",
".@@@@@@@@$%%%%%%$@@@@@@@@#+",
".@@@@@@@@@$%%%%$@@@@@@@@@#+",
".@@@@@@@@@@$%%$@@@@@@@@@@#+",
".@@@@@@@@@@@$$@@@@@@@@@@@#+",
".@@@@@@@@@@@@@@@@@@@@@@@@#+",
".#########################+",
"+++++++++++++++++++++++++++"};
