/* XPM */
static char * top_left_active_traditional_35p_xpm[] = {
"4 35 6 1",
" 	c None",
".	c #000000",
"+	c #fbf3df",
"@	c #a69e8a",
"#	c #40A740",
"$	c #7b735f",
"....",
".+++",
".+@@",
".+@@",
".+@@",
".+@@",
".+@@",
".+@@",
".+@@",
".+@@",
".+@@",
".+@@",
".+@@",
".+@@",
".+@@",
".+@@",
".+@@",
".+@@",
".+@@",
".+@@",
".+@@",
".+@@",
".+@@",
".+@@",
".+@@",
".+@@",
".+@@",
".+@@",
".+@@",
".+@@",
".+@@",
".+@@",
".+@@",
".#$$",
"...."};
