/* XPM */
static char * bottom_right_active_xpm[] = {
"42 33 2 1",
" 	c None",
".	c #A8A8A8 s active_color_1",
"                                    ......",
"                                    ......",
"                                    ......",
"                                    ......",
"                                    ......",
"                                    ......",
"                                    ......",
"                                    ......",
"                                    ......",
"                                    ......",
"                                    ......",
"                                    ......",
"                                    ......",
"                                    ......",
"                                    ......",
"                                    ......",
"                                    ......",
"                                    ......",
"                                    ......",
"                                    ......",
"                                    ......",
"                                    ......",
"                                    ......",
"                                    ......",
"                                    ......",
"                                    ......",
"                                    ......",
"..........................................",
"..........................................",
"..........................................",
"..........................................",
"..........................................",
".........................................."};
