/* XPM */
static char * title_4_active_xpm[] = {
"16 23 6 1",
" 	c None",
".	c #989898",
"+	c #FFFFFF",
"@	c #606060",
"#	c #D8D8D8",
"$	c #888888",
"................",
"+++++++++++++++@",
"##############+@",
"##############+@",
"##############+@",
"##############+@",
"##############+@",
"##############+@",
"##############+@",
"##############+@",
"##############+@",
"##############+@",
"##############+@",
"##############+@",
"##############+@",
"##############+@",
"##############+@",
"##############+@",
"##############+@",
"##############+@",
"##############++",
"################",
"$$$$$$$$$$$$$$$$"};
