/* XPM */
static char * bottom_right_inactive_xpm[] = {
"4 4 4 1",
" 	c None",
".	c #D9D8D3 s inactive_color_1",
"+	c #C2C1BC s inactive_mid_1",
"@	c #8F8E8A s inactive_shadow_1",
"..+@",
"..+@",
"+++@",
"@@@@"};
