/* XPM */
static char * right_inactive_xpm[] = {
"2 8 3 1",
".	c #555555 s inactive_shadow_2",
"+	c #EEEEEE s inactive_color_2",
"@      c #EEEEEE s inactive_hilight_2",
"@.",
"@.",
"@.",
"@.",
"@.",
"@.",
"@.",
"@."};
