<?xml version="1.0" encoding="UTF-8" standalone="no"?>
<!-- Created with Inkscape (http://www.inkscape.org/) -->

<svg
   xmlns:dc="http://purl.org/dc/elements/1.1/"
   xmlns:cc="http://creativecommons.org/ns#"
   xmlns:rdf="http://www.w3.org/1999/02/22-rdf-syntax-ns#"
   xmlns:svg="http://www.w3.org/2000/svg"
   xmlns="http://www.w3.org/2000/svg"
   xmlns:xlink="http://www.w3.org/1999/xlink"
   xmlns:sodipodi="http://sodipodi.sourceforge.net/DTD/sodipodi-0.dtd"
   xmlns:inkscape="http://www.inkscape.org/namespaces/inkscape"
   version="1.1"
   id="svg2"
   width="22"
   height="22"
   viewBox="0 0 22 22"
   sodipodi:docname="kde.svg"
   inkscape:version="0.92.1 r15371">
  <metadata
     id="metadata8">
    <rdf:RDF>
      <cc:Work
         rdf:about="">
        <dc:format>image/svg+xml</dc:format>
        <dc:type
           rdf:resource="http://purl.org/dc/dcmitype/StillImage" />
        <dc:title></dc:title>
      </cc:Work>
    </rdf:RDF>
  </metadata>
  <defs
     id="defs6" />
  <sodipodi:namedview
     pagecolor="#ffffff"
     bordercolor="#666666"
     borderopacity="1"
     objecttolerance="10"
     gridtolerance="10"
     guidetolerance="10"
     inkscape:pageopacity="0"
     inkscape:pageshadow="2"
     inkscape:window-width="640"
     inkscape:window-height="480"
     id="namedview4"
     showgrid="false"
     inkscape:current-layer="svg2" />
  <image
     width="22"
     height="22"
     preserveAspectRatio="none"
     xlink:href="data:image/png;base64,iVBORw0KGgoAAAANSUhEUgAAAGgAAABpCAYAAADWQGYEAAAABmJLR0QA/wD/AP+gvaeTAAAACXBI WXMAAAsTAAALEwEAmpwYAAAAB3RJTUUH4QUMEyMVXu7c7AAAIABJREFUeNrdvXeQbNl93/c5N3Wc nu7J6eWw6W1epMUiEBAzSIIGKZIyVWYokqZIkSJYoi3ZZalUqhLNskW5ZJpiuVQyWbYkBrgoqkiR IArEYhdYYLH5hd2X5s3Mm5w6p3tP8B/ndk9Pv+55bxdhafarU3d6Xs/te8/3/H6/7y+dK/jr9RLf xM+bt3lu8//HCXk3vl98CwAyf10BE38Nv1MMeS++jnswd/m9eZtgmL+JAImeGxNHXMsgQATAd/7K r3g/87c/fY7lpRN6a2tOb61Nj7Zr40lHjKYKhczk8dlkYiTrKwejWy0p2+3WXq1d323Icqmt9lqI LRkk1ryJ3PLl1z534zd/8zdl32SbuwBH3z2Yv2kSJI54L/rB+Yl/8yeFD7jJB2cqu+fOtbbPnA3q x1oZPRnWKmORMaNKi5w7ksuI6YWUM3/WSU4dx3VdjACjNUa3CWWoQ2WaCurCcSouQTnh+Hu71ebu jWsrK8WdvUWdSV+/fbxw+R9/x4dLfeCYI6TG/E2SoKPU1iFQ/ulv/9HMvDNy7qOTqfPZDBfasvoA 2ytnRzZvHR9r7oHbAtmC0RzMLsDZh+HUBRg7Bm62M3E93xcdzLXWEIJpK4q1NsVyDb2/uZKubF/X xcqbV3dql5bc3HW3kLv2U3/3E1tDwPqWAiXeJWlxen938txj3n//M58+NZUtnH70oWMfqdL+4IlW 6QO55g5OextKy7C5jJGREamsYHoeTjwMx87AiQcgMRFPlQEhDubNiEPf2oecfbt/G65eor5ZYo00 jcLUC9rxn3/uy288W663F79y/au3/svv/67qAUJ/K6VKfItA75cYAYgf/aGfSf23P/R9hdlz556s tfR/Laq173x8TKTxd2H5dVi+bkxpH6GkIJWBmWNw+hE4dwFmH++bavOObsfU92FvzYh6AxJJQXKE 1b02r19drwvH+Wx5b/f/eflrr7y0oXXx3//b32j2SNO92Km/VgDdMzAf+Y5P+lMbV8Uv/It/84MX Tp/8hfH5yfeR86C+hHnhs4YrryLqFYHnQzoLowWYPQnnHoPj7++Zhl6JeQevzt+rJlR2MeUqwvMM 49OQGhHVjW2++oWvsba2+5Ugm/rf/6dP/+wfn//OT5g/++P/EH2rgBLfIhtzaHzmP3z2+78r0frl 9NNPPGGm55OClqF4XfDaC5iNZQMa4SUEQQCjY3DmETj+OJjU4W/6ugHqcDH7g0EjTGSIQgjS9sTF PbN/5ZK4/LXXWxeXSy/PPPPh/+1TP/y3/qQPoG+ajRLfRKlx+oH5d3/4l2czX3j+1z4xo74n9UMf L3DuKQc3a+dJNw3RuqBWhnoFmnVIpWDsHGQWDoAw8f2Kb8TaMjFI4o7fmaiO2Fw31GtC1yo019fY Xrylr6/sFK/7s396/rs/9j9/x8fed7MPIP2NlibxdQJjhvgvneEA4r3/+J9k/+XEwo+9b//aLzYv LMxnn3osIxYexiTyCITB2AMoMBqUAq3AccBNgHC/LjvzttRdD/szLz2HWLoO9brRraZoNOqUQthx U/WXru+sidMX/vVtv/bv/9mv/mo9BmeYNJm+Obvnl/sNcjh7pebQ+Ps//+un/7uJ3KcfHWn+bOLJ 0ycT7/v2QBw7h/FyRiAExgh7RgHCsWA4PriBPQqnZ/LEO9Rh9/B/d0iki7h9A3PzMmJ9WbC7hVMp Gdf3hD87H6SPnxhXjcqjpqgmz1z4yM0XX/p8uW9x9i9e806Ewv06JEgMUWkdcNx/9XP/9L3f/9Dk L58/m/vRkfuOTZgnnzEivwD4CIOAnok/MuIm3qH66j2viocEvPj/BgDYq0LrJcTydVhfRpT3obwv dLVsTDbHyCOPIdLpnBs2HkpU96YePvvY1vMXX1wfAEq/ZvmmSpAY4v0fAufEfff5z/3zf/XxcycL v3b83MT35x85kzTnHzUiGLcSAwIhvkF25IhLFRJ0G2Qdwgq0KyAb4GWsZA5aFb3XJQzceguzdA1R LUG9iintCd2sCzk+K9Jn7zN+0k/Qql8QjfqJp+5/YqdIe3lra+tuIS3xzQBIDPmirsQA7nf98A+n fvunfvG7FvKJf7bw0Mz70o+cE2bsrBEiI7qqSnyrAhgR6BaEVajtQ3EH6g3IT8R27S6S67nw5quI N1+D0h60mphWE10poWWEHJ8RzonTJpVJOqq4c7qytvnIEw8+uT774NmV119/XX8Dgrz3DNAgqekH yPk7P/4TmX/4yR/52Emifzn+xPEz7n1nMYkZI0zQo86+VS8DxgMnCV7Cqrdmy5KPwiSI4M4p6icK Arj0IrzxFdjdgFYL2i10rYba30Y5Lmp8RpjpeZPKpoRX2Zla/NprT7/nve+/Ov/ww2svfvUr8h7m 8usCSBxxPCQ93/7JT6b+wQ/88NPnW/XfmfzQmRn35FmMN2GE8SxDE+9CXFZ0aLQPwSiMzkDGh6gJ BDEoume59V2jcODGG/DaV2B1FRotaIeoKEJVqujdTXQiiZxeEHp6wSRGMqLQ2sld++znP/rAe97/ anpmcuPixYvqbYbB7hkgMYAGiWGq7V/83Z9/aqxe/+37PnZ21jlxTOBPAJ41/+LdCJwPIBkCa5ee /wt48S/h1utQ2QbPQCZrgeyfgrVFeOUFuLkJdTBtUFHsCVSqKBOiJmZRUwvoVEYQeGT2bqevfPm1 p+dnT7z4+ddfWr9HVizeDkDDqPRAcP7RD/7shYfnp3/9A0/OXHDPzAsyJzEiMKLr37xb4PTZO6Oh uAZf+M9w+UV48zV4+Tn48ufgpWfh5kXYuQ31/fiSNazewrzxIuL6GlRBhqAkSGWP2lGoiUnU9DGh UlljkmnhZFIiuXY1X9xvnp+bOPHaxfVbO+/UL/XehoobCM4v/+T/cN8nPv7ULz12//j7vYURyJ/D iERsfg3vfla95yUj2FqBnXXY34VKEWoVqDdtVsJPw2gaRjLWTk0cB+EiPB99Ko9cKxEVbbZDCzAO sLWDWLyCOP8YIpcXTjpjnJP3i8Kjj9P8/Oc+kJo8/0v5X/jn/+tv/db/+FbPlehBAae3K0HD7M0B Y/uuH5/89K/9/M88+ORDP56Zn/XMyJTBSyNEDyrvtnrrNf5RG668AJdfhuIuNGp21BpQjGC7AStl uLaLubyMuHoV6iV48BH42Cfg0UdRJ2aJRnxkSqHcNgqDcjV6dAw9tYBKZYTCMToICErbIly6cX5U NcPv/vSvXPzzP/3T5tu1Q947YGxuZ/zaL/7S3z6+sPAj2cnRhHULpaCxBYkEuKN96uWbHKq5FxvU KsLyDRvrC0OIpB2dbI8CGkArXtLlNia9DTMLOD/wE7jCwd1cxb36BvL2ImyswvYmNBpQ3EOsL4Pr 4yAE49N47/2wGS0VE6WdpR+t//nnNoHf7pMiMSBWd0ia3HuggB2Pzu0ByPvNX//tJ5/54Pt/uTCR O+cFrhFGCiqLsHUdVC32yDU4Kob3HvyOb6oUhbD5FnzxL2BrHVoNCNvxsJlWoniogxmTSQ1PP43z oe+FXAEzOYeZO4U+/RDm/COoU/ejJmdRXoCsVZDba6hKEaUNUWZUJBKeCVeXRxqbG4UP/dw/ufiF Z//L5gBQzDD6fTeAnEGSc+z42dSv/MI/+EfHz819MJNL+gYQ9V3BzZegXIRmA8IS6Bo4LXCMZUjC ezeQsbfQrsON1+BrX4RKyaq7KLJWP1IHwERxNChm6CqhEY8/jPvEhzDJFCoMUcJBBQlUMoscHUdN zSMzI0Srt5DP/hnyxmVUaQ8VSZQ2JNtVoSOT39iuZ9zZ/OdWVlb0EaRsqIq7G53uSs9v/NP/5b96 9H0PflsqnUwbMKJdFGxesno9ETuFMnYMjQClIQN4c+8aPoRt2N20R2KJdlxwPHAl+Bp87IiAsMcQ Gw3aoAGtNUpGGCnRSlr1mc5iJmYx49Ooahl1axnz1iVMYQKTKwgvlTJ+KkiPOI2P/+Cn/t6nnn/+ +f/YF/XWA6LdgpiHvG3m9uj5sz/pGCbthyJBZQ2WbkAUWgdB9Th6jms9eS/z7pT+de1Pw9oLKcF1 wfXA88ALIPCs3+oDSSABxu9RIUajlcRIhdYaYwxKKYwxdiiFcV10YQI5c8IK5k6EWdpAXL+CWl8W o5MF5p98dPL21Ws/3WMu+nNmd5AFZwiDcAaBc/zY6eTv/NYf/NTJx8+cS2SS9m93V+HNl6G8H3tv 2tqfztER4KSB0XeRxoVQXoO9HXtLrg+eD34AQTIengUniZX2ZGwDhJ1NbTRKa3TPUEqhlAUNBKRH MXMniQKrNXUIpgWUq7C/Tc5tO49cmD7/f/7O7//0/fddSA4AqV9ghDOEXvdLjQd4M9Mzidnp4z/p uHF9U1Q2bFyF9RWrOpQ6SLYZY4fn2wnoRIffjVeradVbpWSlJ0jYa0pkIJmGRNoeUwGkgBSIVJxh HwkgO4rxAgtSFxC6EqSVQgE6k8VMz6FSKaTpcWZbbdjdNO72GhlfZPe3Nn46mfAT8bweJU04R/hA h0jCgw8+mf25n/vV7336ww+e8j3XARDrtwQ3L0G1ZFWHDK3hjWJX22hbq+aOfoMy7Byo7reDdbMB +zv22hwvlp4kJFKQzNjClMwIZDKQSUJGQBZEFkzKRwsHLSN0DE5Hcowx3fdaa/B9xGgBk80hjUDF U4ACUy0Ls7WGKO85Y3n/9M//3C9/4uMf++503zzfkYrwGF7g0cvcvNnZU/lUZuxHxidHPCs9FSMW LwlWl6ykuB6EAfiR9dijMFZxSavcvyEuUM9JhARThbABYSy5Ulpzm0zCyBiIjP1secsCpJWVIACv 51Y7ttLx4mxuAyPaCBFBNol2A5SUXSB6VVzveyMcTCqLyeXRZgeUwYlBEmEbiruGnXWRPTfpXVos /p1qTT8Xe149K+8QSMY7ghgcAul7v+d7Hjh75uR7jDFGCCHErYuCW5csrU6l7eoM21av+/HRcSxw fCOc1PjvuxynCdEeVPegXIFaHeo1aIf2u7N5SE/Za2vXYHIOTpyDrQ0b3pGRvWYRaxjhgONhXCth wmlgvAY6X0CnsmghUOoAlH5wtNI2fpPOIManwb0Jke5J5GqolYXYWcc79YBph833Pv300/e/+OJf bPYBcyhl7h2h2rqO6Q9834/N3X/+3EcfeuiETaKotuHKK4K1JbtqvcB65p53AE4Qq5BE8hug3nrA EZ1EXNUys2oDSiUoFqFss5602vZ6Eik485Ctp3vi22DhPKwvwfqyVcvlnr9pNsFtIzoEQnhoP4HM TyIzOSSOtTXDhlYobTDJNM7EDE7gQDMGx/Jze72lfSOaVTE7nQ2El/34T/w3f//a//W7/3o1nu9+ KTLevRCEcyfPLWRTqY+kM3aSzcrrQiy/CaUiBAH4PoSuVR9efIPpDKTy1ga9Y+HpANOTgiYCXYRG CSoVqMWTG8YOZyit/9Vu2olxfRidhNw0TJ2CC8/A3qolDZu3YWsNdjZhbxtT2kfUq1CtoJ0AFYWo /BgylUaZw9LTGVLKWIKUZXmuh5PL4wQ2IClMPKnaYKREtBtC18osnJxlaa350Sg0/xnYiGF0enyi LkBiGK3uAPTkYw8dO7kwc76L5PIN2N2ykwC2oF04sX8RHwXWyuK+Q/VmDgo7OqF/WqBL0CjbxVEu W4DqDWg0LVuLQktWDJAbg4kZSwR6Tdj4gh33PQ5hE4p7mNVbtkBkcxWzuYYq7qHqdeToJMpPWkCM 7ALSS7EP2SWtMKksbjouuziUP9SYdgtRLeG5BkF4f340eQJ4pSNn8dx3rtTxjqgxcADvk9//o3Pn Ltz3xLHz8wd5/ttLUCnbVdsBxnEsOCL2M/yUPX7dL239GBo2xlerxeqpApXqge1p1qHdgHbbskhj LDMbm4cgO2QNOOBnYDoL43Nw6iFMrYQu7qG3NtDry5iwjQbU3i7ST3RNipaHVVxHirQ26GQaN+li /J4opohVdLsFpX1Uo0l2JMkDDz74xC/8vV978bf+j99Y6Zl33S9Bw6THPTO9cFxXyg8gaxg/a1h9 C7FxS1Cr2tSiENYZFcKChAupLIzPQCrzDuxPzAKMANEC6rZ2ut2KUwM1KzW1cvxz3aq4VjOuGYgD oEJYP8dPDQ5H9tQfWGvsYwrjmFweVZhBzZxAHj+LvHYJtXgV9dYbyNw4cmwKmcujUlmUG1jAjLF+ jwElHOv0ej548Ve4YFyBcByE1tBqGtpN8iMTYresHgwj5wSwNkiKvCNCOy7gzpS3FlJf/fw5ym8g 5o4LEgmYP2UnYWvNrtowsurH9GA8MQ9B5h2YnY690RCVbEVO2LYA1OtxDqduwWnG4DSblhi0IyvV 7RYEKUtWOrRaDC5UNMYgukAJO9Gui0xlUEagXI9oY5no9qKVoGQGmUwTpUdQI2Oo0XFkegSVSKH9 AK2UvX8/6JY94IFwOwsYTNQWNJskxl3azcb97UZrPp5v1e8PeXdLys019heCN4tjlFw4/QB85w/B x3/MUtftJdhctj5Gee/AYU2lIcjb07xd89P5bFSEWtEyn3Zo7V2zYcFp1m0OphlLVjtmbZ2hgEwe RvJ2JQ+R4l5wtNbI2NeRUiKVQsoQ2awjq1VkqYRS9vdKaRQC6QeoRBqVTKPSOXRhEl2YsBKezcNI 0S5eT8Q+VmwCohCaNRxjMKix3Gj6WF9EoavmvKPU2/u/4zsK45nkbLq2DpWEIQwFM6cgPWbv8Ph9 UCvFaeOK/bm0bgswUvnD83IvnQi9n2nEBKDVshLUblkparYOJKbVjsGJ7Ih6fJuxKZg+dkAQ7gJO F5guSArZahJVyqhWExUHSFUUIsMQ2Q5RMrKAaYN0PFRmBPITmEwO5k8h8uM2RtlqWJrdCdJKCbUq WkYmmfLF7NzU3Kc+9an8Zz7zmd147ruM7kgJOnX/M/PZ2tWp0UiDnxSMTUE636PTAxiZsqNbK1iG 8ibsr9lwSiYLqVzsEB5Rg9ZRO8bY5FqjbsEIQwvCoRH2ACLjMFNnKEjEbStjM/Ya+oCxX3VYcnqH NfwSWa+hykVks24BEgLluEjXRXkeUmuUVKgoQkcNdKWE2dlETM/DB78LChN24Zb37f20myAjhBeA 1pgoFJl0AiG86WPHLhyDz+z3x+W8IRFVF3CDSnU2EGp8xNXW8ZyeP8BW9BXsd9o4/FEIb8PrX7Kh ldnjMHMKstNWLyeS4ARHp8Mb23bVdVLSnRHKOAKgDsBQ6uColD1XkIT0SA9BsIvhkL2JA52DwImi CCUjVLWMrBRRzYaVKm0DAtI4SARKOEjHRbk+2oCREaITcsrl4cRZjOPEi6ph2WajighDCBKYVoOE o6iHzkS7bWaAS/1YeAMyqAcAlUsTJtXK4yhMkEBMzh8m9sMSgpursHzTqr7VZSi8CeNTMLNg2xgz s5aCOza8ckeddK1mwVA2UWbTF3EqQ8UTrjpDHwxjLNUfyUOu0BNmuhOcfrV2CByliMIQVSmjahWr 0pRCaoM02qo0QAoRS5XAOK7NTQhj702AcVxEIk5nZEcgPw5SYpSCZh2xv4UvFaaVLLTqzckBkW28 IerNsQAV88o0cvgK4SdgdPzeSo23Vq39kNLaj1rVTnSjAZsb9mJH8pAfg8I0JPOW8XekyvVsdCKS cSi460wcuEaHets6IGLbVvITMDYNnn8QN+kD57C9GQBSq40sF4lqNWQYEkmJBEsQ4rCO1AZlLPvD 6bTJOBD4B4ujc20IhBdgvMC+jyRUK7iNMrqVyZmazA/AQBwVSXBSjXLO9etpRGS/OJm+C/sy1qHc uG1jXF4c+nGa1gYJ116cjKzxL5csYMmUBWx8BtKTMHEWCjXLDPd3bP2alH35RXGnP4uw5ypM2HP5 wR32pzdEc6QEtZvI4g6yWkKGbZSUSK2Rytiwj5QYpa2AI3r0h3MQ7oqvUYgBLS5GYZTEjSQ0GxlT b40OMjfeURQ72yqnvUQrwI9sE9zdIgNaw+aKrU1oN0AFsbjH9NJom8GKpDX+fgKCuk2gRSGkc5CO bZmXhUIKRudBNqG2C5vrsLMBeseGc1pOLE2xKAnHOsfpUUikrYrpkZpetXYkSFKiGnXU3g6yUka2 W0RaI41BKW0lR2uk1hhtMEaD0bEZ7Yi1e8jXuiMFb0xsr0KipgyieiMzgGqLo0I97oisJv12GxIS ofTdW8S0thNYq1hK7MV+l46ta4cGt9txkDVhVUGQOACy93IcLw44+dbxzE7DiQehuAXbq7C5Btsb sLdlWZ0wVoUk09Zr75Oa/tELUEdypFKoSCJrFaLdrViCWl2V1gFJ6bgeQVvxFTFIiIS9Bs+5U3I6 0tMBKgohCvGUIEmUGCBBeAPKq7pDNGueckIIDERthFR3iTprGxmu1Wzw0pfW9ih5kC9qNy319YM4 Z+RZZpcdtXZnmG/k+JD04wzoiI2dnaxDeRc21zAbK4j9XUQyZWNwgNbGhmK0RiqFPkSj1R3S0/0/ GRFVS8i9bWS1gmy3Y6kxSOxRG4OJCYwwPQYxXiB4wcCV3OWqWmEiG/lwpMDXod8vPf0q7g5VV63W 3bqJkBkPoQ1ujP4dwYFOQaLRdkXXq1aCpLTSE4U2T+Q1LQh+wh49315CKg1Ts/b3w6pyesFyfciM 2jExi5k7jSjuwdZtzMYKbG/YVV6YROUK1tsXDkrHDEzrboZU9ZIFZX0a2Woid7eRsQ8kwzCm1/bv dUdtGXOg0bSNupsEiHQafM+ahWHRRikR7TgtEnogo4G1Cf2xuEOSVGuFpu6FtCJwjUOq4+QNI3Bh 01Zt1qrW81fSBlRdLx5+XOrkgx+nlx0Hsrk44RfcWwlVDJZBIIRApLKQyqIdB7O6jLr8kmVao+O2 NaQwgcrkbEgmlUUlUtaP6airjrqT0tqfWg25uY6slJDtFjKUSCOQ2lhSoA/aj7rN913fX1kJcr0e FXfghnTvQEpMuwHtJkIlMUabvvm/Q8X1/6ejQEmpabYVvpQkItnlUb1+RXdd1MvWBlXjlLLrHgwn Hp1wh+sergWgJz0+NBLU851xhb7pgNVqoEr7qJ0t5NJ1TK1iPf4giUplUNlRC9jYFKowhRrJIxNp VCKJcj2UiAOlUYSsVVCbt4nKRVRLIhVIbe2NiSm+6C07VAcACSkxQaoLUH/JqIh9MqtZIkQUYnSA MkINEpKjMqqi5SWjyChaLY0O20RhRBBPkuiPBmtlgdnfsxFnrePJ7+SLRFzN2cn/x1B7vvVbUlkQ iSNBEQNYkQFbjlvcQ9++hVxfRlfK6KiNwkE2mxY4Vq2ac1wrQSN5VH4KOTGNzo+jMqPIzIhNGRR3 kDvryHoFGVlFYGI/uAtGp7jI2MA7qlNI7dh7cby+sJI4VBmClhacdhup0jSUEw6q7jmqaMSpJEfa 9UhGrWbdN+02YdTGlRLX9++cNKVturhVtyxN6zvB6OaO4t8bbe2OoRvUvKNrrLPi+kDrsDNtDDqK vf6Vm+gbl1HFHZTjoP2ElQ7HRRmQSqJUG1UuoTbXkLyJ8gMblc7kUOMzqJFRZBiiqlWkcFExCSUG SXQydtaVOSwhAvAdRGEM/ADTx+KMMXFUS0Fog7+m3UI5hKEIWoOqTI8quxJMz9dFXTWjZskXzSbt tgXIEwLPdXEc53D3Wqt54OMofRBeH2a4jLYEQThDo86HWby+cxiDDiNUvYbaXEOv3kI166hECiUV 2gtQnm+lBxsdkq6HMtbmqHYLGYUouYK8+aZVhWceQj76AdTZh2F7DVYXMRvrUFEHxfWDqvVccHJ5 G6j1vcHuiDGWPFXL0CijWw0YEU2dStcHYHBHPuiQ2VdzJ6omP1cLoxM5d/YEYa2GUy6TSCfRfoDr +ziejysEQsqDIo4oZm/9PXamY2E7mCqLnxNHKYxGxL5QR0oGAdOVHm1LnVQ7bo0v7iKL+2gZ2pR0 QiN9hfaklSSEHcbYxiuEDd8gkEpbBpfMoHNjqLMXrBQ065jyPuxuIDbXrO+1sQ6b24jiAUdQgHE8 3PwkXjLddc7FgCi6abdgfwdRryFbLUTeqznp0cqgBgaPI7aljAK/Ih99qtoe90mETWpf+yLRlVcJ 548TTM3hT0zj58fRmSyi1cKJeb0IQ9Aa4Yieal9zYGE7jr8CAoPxU5hUNqaqByB0S2sHSU5HemSE 3t1CrtxEb62h6xWUsjEyrWMntQOQ8NCOY0GJowFKm26qWrouKjOKGZu0zDJIQjaHGJ+CY6cxjRpU i1AuIrbXYWMTs76GWruF3I0wWWB8Gi9IdAE6UM9WGQqt7Xl21qBRQ4YKx3Uqzki2PEhYjuqwE82w vheO5CvN2RkyjX3aX/krWrdv4E/OkJyeIzE9RzC7QDB7DC+Txd3dRAgH4bgWIKUQ+qBMV/REZUyH mvoJzEgBUtl4n9EDgHqB6g3VdN8bgw5bqJ1N9I3LyFvX0FWNdkDRtABJjfIDlOehHd/mcwQoHUtS nNOR2qASSUxh0qoo14unKiY5fgKRzsLYJEZKzNkLiHoZsb+Du74Cm2vIZhNpBObGZdzpBZxcAZFM 4fi+JUw4NpLdqCF2txHNOrXIp6V0Sae8vUGBmkEkoftaWrqyu7n1VLGQH6UwkjKhUkIvXsNdvolM pwlHciTGJkhMzxJMzuAHAc7pBxCT84jiDmJvE1EtQxghpAXEcMB+EEAyhckVMH4CE0W2laMPlEOk oAc8bQyq1UYX91CrS+jba6gGaB80BmVaaGWsA+r5aEfazKeIVV0cZVDKnsv4AaYwAakMomNfu9Ho DmlxLLFJJGEkj5hawD31AGJvm+jKKzRe/CLqyiLedAF/ZgZvchpvfAIvP4HI5hHGIEp7mP0d3FZk qsoXu8Xy/mLx+e1BQuINaMXrvi5fvly/9fjS3szkNNHomFCTs6ggga63EWEVU6+i97bQS9fRo6Po cxdwP/b9iFQGZ3sNsXITsbMGpV3bVV0qI1q9YCXZAAAaPUlEQVQtG+KQxt57Mm2dTMCE4SGA+kG6 U8WBrldRe9vonW102dhuAoGVImFQJuyqOil8pCvRwjkAyBhM7BKYRNLmbPzEYT/rDhVjMErbzwiB SSbRrku0t0fj0oqtRrsMXt4hKIwRFCZITE3iz83gFyZw97ctBUz6QjHGTrW58+qNN+uDWiO94XVP 9ri5ubXTaobVltIjTMyi0iNQb9tuQQNECtFuIGSEON5Cn3wAsXACEYWIWgVRK8P+Fty+hVi+Bpu3 McVdKO9jWk1Mbhz8JCaMMEZYMDokIY4U94PUVXNKWenZuI3a2UWHFhyl4/xehE0N6DZaaaSjUY6D dByMcOhqX2MwSQ+RzVmfrCdVcCgKMChtIAQmjIh2N2gtL9m6yXj2ZFEji7tE7BLxFqlxEMeP4Zw+ B+cuYNoNfKYr1Y3SzjAh8bhzb+hDWxHXw/ZePQxv79dbD+ZGRo1OZcDZE8KmqXCFQTkQOTa87hmN 4/gwkkWMjluSICO40IBqEbGzidlag/UlzOaqtUFhiNlcs50BQYDxfKtyDvk8uguWMSa2P21UcRe1 eRu9v2vbknwLkOxIErZeTesIJRTasc6qETZ4YuImM5HMYKbmEfkxq97E4PKJ/poGA5iwhdzZJNxa 6zYX9vY2dlwntQfG3Yb3PmPEfY/SbrWFU2VZq9f7ATL9NmjoJt61xv52q1W+XS4lHswGaaEzowjX QSmFa6wuF2gb0Y0UulZDNBsIrXEc58DRDJK2iGN0AhZOIx58Ar2/i7l2Ea5fxty+hZmaw0zP297O ZBoT2FozE59D9xAHpTW61UIX99E7W+haAyUOOupt9tMSQx1HVrSjUUKDo60T2WGZTgKTHYWpeUik Ymeyg4phWO2Yid0GXS4Sra0Q7VYOVb7rvokVHjCRQsyeEs7MAmuL2+y1K8vFanFrgPSYjorrR+7Q ePmlF/amCpM3kk8/851Tp/IwNYNYXcRp1FB2rxf7T4NptZDVCm4Y2h06BINzIn7S5ndcH3PtDbj6 upWqVAqdzaPzE5iJGczcKcz8SUxhHB1Y38u4Pkq4GAyq2cBUSuhqFSmto9gBSXMAjIr96E7E0XQ2 UFLxtaUDGJtAjE/aKHvflmliWLmYEJgoItrbItrYgsZBQVuvcuzOeuAj5k7C5DQikWB5rcrLr371 2gtf+au9IfPPIJLQH6M1W7v7u81QrNUjMx+Mz1rvv1m3wAhbHK+FwGm3cGsVZBQi4mzmoWjDoS5Y FxNJaLcx1QpmZ8umgYUNcJpUCjOSx4yOY/IT6LFJC9rENGpsFpPOoku76N0tdL1m60bcA4KgDyIy lox0Nr+K0bP+sLEzmsnB5DyMjlkXQYg7ahnuqEKNVaNpNZGbt5GbG9a3G9Ci0B1BgJg7jsnkaDQl XiK4XatVd3rnut/MeAPsj+n5sAZMo1HeD1Xj8n4tMT8xvYDOFTC1CsZolOvaRkvHhVYLb28bp1FH CLd7gwNXoONg2m1MK05LOA5G2gJ0I+0WLXp/ByMW0UESkxlBZ0Yx2Sx6bAo9Pov2ffT2GlpKdBAD Y3oKgfqSV8b07ZBpgIQD+TxMztg0eScd3eNk2p8HSJLSyP1dotVbqOL+IQ/T6ff+HXBmMjjzp4wI EmJ7s4znqTeUru/2z3e/BJk+BO84vnX14v7Fi6cvjac/+LGJyUlXTR0T7XIR1WrgOg5KCFwBThSh 9nZwazWElzgUUL3j5uJ6MdNuY5RNVZtOBFhrjFJoraxTGFXRjRp6ZxODQAcJzEgedfwcemoO89B7 0JNz6NI+1Mroas2WCUtzkB7QDN6jOJ2xtmdiulsm3AHHdIE6TBJEvLecCUPk1irR+ia6PnjDic57 N5fAO3cWd+6EEJ5ndnZq6vLlV964cuXVvWHz3qks7VVvug+wzlCvvPry2lMPP3UzcjP3idnjqK01 dJxlVQJcDI4yOOUibr2KSGZw4sL1DkC9UWnhOFZ6wsiudjeIe8ysX6JdZSMLRmOUxmiJlgptNLrW wIQReuY4ZuY4ZnoBXa/Z2oTSjqXxxd24HDluU2k0iWukDliED4xPwuwJ20vk2MrWOyXH9JQSiK4v pCpF5NoiansPIw/bnd514DngzU/i3feYoTAh6o22aDfb11995aWVAXPdi0NXggbZnl6GqButZmN5 c+2FyULq7NT0gsvULCpsHfTPGIVjDE61jFOt4GTzCNe/gyh0dbgQNquITUsZz7fEveOk6g6tVhhX Y5SHdjq+kLL2KRsXyE9Mw8SsfRpKq2nTyJUSVEuIvW3YWsPsbyOa8e5W9SbUWpDyYGoeMzmLCBKH dL3TA87AyHWrSbS2SLh4A1WsHGos1X0bTviFgODsSbzjZ4T2Apauraq9vbXnwqhR753jQbbIu4vk dEeptNf8g8/8369O/8w//O7xMxNT3swxocolqJXQ2la1OAJEvY5TKiJGJxCJJE6feusC5DhWlQnX VsG4HYAsyzJu7KjqWJIcbYHSyv7t+DRMTNk+VG1s2V0i3vNAgBmfjgtVbF+RqFUw5SJid9NWvm6v 2njb+JQtXpFRnB7phjVjtdZni7DPJlL7O7Tfep1oeRXTvLM8t+vHCAjm5vBPP4STH6fRbJulxe3t P/zM777UaNZbR8y56S2eZ4AEqf6hlIpK9fJzlTD3ifzEfNIt7aG1skUh2vZo0m4hirs4E3OHQu4D bVDL9pbasInNttr6izj8Ikyc9NWxXTKgpd2PID8Bk/OY7OhBiVXsPFvfxoWEi0mkECN5mFAQtTHt JjRs2S2rS/Z6b72FaVRt5WwiYWvr/GRPbxGHmUariVq5ibx6CbNTP+jS7OsAdoDEuEtw5gTBiTNE uGyubbe8hPwrbXQ4YI77Jai7i8jAXa1iLe11hpTSeemVF9Yfuv+pRyYnC6O+ioRuteLrP0jOmXQG Mz5jA6FDUwYG3WraNsPt9VhKbAjGOA7GdaxH36llcJyD9HkyjZg9DifOQn4c4bpDH3Qnemwenm8l bmTUgrh4BS5+Fd58FW69BSs37K4ptYqNxseRXSMc6044jl04u1tEX/sC0aVb6Lq8I0fQKc/xfUg+ dI7Ue54hOH6GWjMyr710Y/Xf/t5v/p6UshX3drb7jp2UoOwlCfoIG9T5cBfpnVr5S8XlSmHMyFww M4dqtxDVCqZWtrVvpX378+gYwvcPGd5DtbqdkHZn8oVNh5tDNX6mu9uUcOIem1zejkT6YJX3J7aG OZfG2JT86i24cRFWdqEBwm1BsAVJB7JfgnzB5oXGp+0eC9PztltcK/TNK/DW67iVFv6AZd9Z5f50 msT5B/BPnKURwd7GXlW74bMc3gZfHmGDtDcEmH4VJ3vHf/z9f/ey87FPnn9iwntkYiofiJMz1jvf 24G9DdtyXq9Cs4pxcnEuJDahcQ+Q6dYoxM9rECKebHEoE2m9TCfWWzpu8c/Z/XMSMZU3Vr1xLwBh bL/OjUuwsQ/1uN4gMoimsmnt3QjcJsLdhsQ1G2nIJ2FqDCbnEUriYggCcJsHk6V7iIHrQ3DmLP65 BzHZUcp7jfCt66tv/tF/+r0X++ZTDSEKepCj2g+OHPCzrNfr4aXt9efz0ci08L1jMycyhCMTiKl5 TGkB06gjtMTcXrT6fCQP6SwiSILr2Jpp4Vhi4CeslIVOz3McnL7Olo4jI2xdXTprz5lIHnRPD/P2 B22stHwdbl6CYgMjOWxDOg9hUdhbbkooNWGzDMV9nGwezj2MNz2PWN/A3dlBl0voahlTq0DTXqp7 ooD30KMkFk6yuFbh2rXbGzeW33q2Vqu1j5jbfjuE1xOVcDicYr9DcnrHC1/9q5VjH/ve12Yk+ebm 5kiQHkWPjCJSGZARZmcDsXQNatdtQUgubwOSmaxNJyfj7WOcuOFW9FQcdYzyHSUzcWtKKmPP0XUs iR8JYYZKTrfUqbgL1y9i1ncRjYMNuMyAHfZM3wZtbmEMc/p+xAOPI4IEolrGFLcx5T1MeR+zu4XZ 3YZKFXd2Fn98gp3tCjvbrcrK6u1Xvvj8X946Yk7VnUVdByzuKB9I9hiuKCYOEpCvrF5/eWayMJop NZ4e39nw8H1btOf7toEqSEJxH2q3IAhsyjiTg9GCBcvzEWHDTrbSlhJ3ikrMgMfwCMcW2qczlp31 FJjcvVPZIBp1zMoNuHEFUdIHXzUkznLIn5lM4Tz0EJy9gMlP4HgeZHKIiWm7INttKO1hVq5j3nwZ p1GldfkNNrJNebtlXr6x8mqvaov6jkN9IXdAsdzAbTAHMDx3f29PlaSojU/MZHLCzGTSKUwyFXeC CNsSWClCcftgX4PKvq1o2d1EVPatRBQmbSYzGe/t0ym66OTGO6rK8229wOwxGJ+23WtDgOmGlzoj ihAbK4iXnkVcvo6pD/Yr9ACnkFFwHz6P+96P4xw7Za+5g67rxRsCBggVwdoyzpXXETdXWN0ssqiC 1760tPjFG1cvbsdMrXf0s7c7AHMHdEUN6rbrBcfpBWxvb6u5U6pWpqZPzuRcOZrIZhFBYBNiAtuT Wdqz0tGxJ1IdbOo6kofjZzAnz8PUnG2+yo1BOh3vOtUpdrQFJoxP2n0aRscQnncEGYiJQqdYsFqC K69gvvocbEXdYOpAD92JNy4HRBrcB8/iPfPtuPc/hkikDi+JblVtCW5cRrz4HFxZoViDt6bvX/7s 2q0/W1y9vtoDRC+9HgTOIVbnHiE9/T2r/SB1q/H3y3tN4znFrJ8/PZ4m6aUyiCBht/YK24jSrt1Z qtMi2EOpSY9gpuYQU3OIbA6RGUGMTSAmZhETs5bqZnI2FJNIQm4cJmZsBjR2bA88/thLNT3GK+7D Eas3MS8+h3lzFR0Ncdud+E87ZtAH9/Qc/gc/ivfI+3GyuW6k+1D5c62CuXEZ58UvYi5eoVGDN+aO F19Ou//vxdu3lnoAGQRO/4bQhwTZZfCmpv07Lrp93V/9ILnFSqmRKuR3ZJWzkzk/8NMZTJAEx0U0 G/b5O2H7cOmv49hJH5tAjE0hvLgLwg+s+sqM2D7W8SnE2LR9H4W2BrzdiDu8bQG6rc813f2CRLwI jNKInXXMa19CvfIVTNHcYYn7wekM73iB4EPfhvf4B3EK411weqyaZYUr1+GV5+Diq7Qqhpfyk/XF 8+f/8KvX3roVhmGrR3LaPcewZwyyR6YfoKHbYfb8bhBIDiDCMBRbu9v13NTErqpyYjTjJVJZa8yN 69pemE5RvehRW65nowGTcxag3lCQ4yBcD+EHmMC3uxauL8HSW7YIZfUW4vairW0o7SJaTas2O+rN caGyj3ntBdSXnkOv1G1BY39u2em6Xwf7Qi1k8Z/+KN5TH8KZmu1GSXqDvSZsw9I1eOlZxMXXqJVC ro8tVK7f/+Aff/Hia9erlUqjT2JafT8Pkp7e9XNoY3Nxl50XnSEEovu+3W6b1fXVaio3Wkw4qel0 wsukchlEMoN2HWg1EI16z0qPKfboGGJixpKDji/T3xMUhojdLTshW6uwv233fNteRawvI1YXYfkq LF2FnVVEpYSpljErN1FvvIh6a8Xuwjuk7chx4g2KPXBns3jv/zDeUx9CTM8jXLdLVLoB01YTlq7j vPI8XHqFYjni2tiZ7cszM3/++ddffbNaqTR7JKQDSGuIepODpKffBg0uoB8sTe6Adj0BOFEUmcWV xZIWbjkVjGQTrpf3E54IciM2Lhf3Donu/nIeIp3FjI4h0tmDgsH+FpRmAzZWrJNZjffwacY7X1Vq sFfBbO4h1rcR6+vWSa7u28i444IvbHrBafeUUcUxWhGvtgS4x8Zx3/cMzlMfQcwcQwTBgWqLG6FN owpL1/Df+DKN115is+mZa4VTt77men/1hcuvv9lqtdoDGFurT3KGMrf+YOkggHrTGYPskRjyfzaY bAwra8ulcrVZCryklwpSBYRw07kspm1zSN0AZqeJOJtDjBasWusaYBG3EWrbVrl2C1YXraqMOpsn aWjbBy+JBtAwmEqIaddgbhpx3yM4J8/jzB9DzE4jCjlELoEzkkSMBDgpB8fXOEmBuzCD84FncJ76 NpzZY4hOG38nWqEkulpELF3DufQ19l57jV2dCS+lZ658oa2ff/XGpRta63CAWmsNoNb94MhhKe/e KPmg5F2vw+oMkB5nUPMr4Fy6+upypVGtN0LZPH9i7oEoF4zkCxO4MkKX9jBKWt2vFaJexYStg+hA 7/Y9SiNadUtlw+ZBt7jU3VsUssfH9cCcXUA8/jTOA4/bCHbUxglbmHLRZlyr+zY0U9xD7KwjWg3E wmnE2QswMmp9OK3iGu3Y3pR28TaWkZdfZffaDVajdPXW1JkrXyruf2Xp1uXdeI7CPtXWPkKtDZKa Qx66O2Rfl2FPfBz2zNRBhAJAlCv77dsbS2updCGsb5fGxkYSnidwnSCBk85axzYIbBnWyCgikeo6 l13C1G4htlZh8S1re1ot60eF5vAtmw44I4i/9YOIR96HyOUtWfADRDKDGC3gTM7gzBxDTC3gZEYO 9izw4p6eZh3RamDirTVN1MYp7cKtqzSvXKKytRNd2QlLS+cff+Fzb778wsbaUrkPlLBPaoZJT9Tn 99wBkjukeH4QGIPUnuDoR0XbLolmU125emnLZFO3jFtIJ2R7JJHNeO74lBDjM4hcIY4gJAdvWdao IVZvweKbVoqitt3LpwNM2OmUAHMihfPh70E89jRiZLRbP4AR3YQerotxPUy1hFm6bosnV24idrcQ pV1MpWgd21YTEUVWurfXqC0umsvXt1uXRs5efT3t//nnnvvctWaz2R4gMa0hx94r7gVGDZAeBgHE XfaqEPdIKgbmz9bXV9svXXrlxsiZh0qNpp/D9dKpwqjjT0whRsfsvgPl2KkN40dqKmnru9eXrf1p xvYnMoe8BxOAOJnG+cgnEE99CAoTXfZl4rhet3ClUUXdvkH04hdRX3sWlpcRjQiHKN5FK976JpFG pDMY4bBbbslrNX9jsTDx7B989o++vL52u9ojBYPUWXuAFEVDmNuwurg7bFDvzje90W0Rn8iJTz6Q HAyQvkEFkd5/+pM/uqai8Ob3ffen7jvXcp6YGG3OzZ+YJJtNoioGvbVqgUDEu5G4FpRU1u67phTo 5sFtZYCTx+B9H4VH3m/DRZ3NjWKfqtM4pfe2ia5dRF58EbO8glttxUWF2L2FMlnchRPIudO0xuYo myTFilq/uLL70mf+5A/e8oJA9jGwaECEYBAx6AVnWIpbD9kgdKgdGhQ09Th40k4iHsmeY7LnfWcE HDwApptGT6ezQSaVTj/84CNz73/P0w8WUomTE0HbzzRLBLsbqJ11VKsFM8fh5DkLTGkP9rdt8cfe to3rzR6Dh5+C+x7B5MYsIJ2NDJSCZhOzs4G69gbq6huo1RXYq+NIjROAm/XwJ6Zw5hZojC2wTIHb 7XQU5NNLb11//dIbl19fr9RqjXq92urx+qMhZKDVB1CrT4Kie8ikMqyydNDK7y01VkeoO4ZUqQ4r KdaNRk03GrXoua88W1taXdmdHC1cfOZ9Tx4bT2QXUo3EbLqqyEV1EkLjzMxBYRLdbqOLu5jbi5jl a7Z+YHzS5ojC0NJxz8c4wtLxrXVYvQlL13CWbsBuCSfeLN+dKWDGxylnJ9hLTBGNTtHK5tc3KpXV L77ypdvNsL6/ub64H0WRHJAq6GVrrSNsz7Bwjj5KtfXT7KGN1X2lxr3gyCPslTkizxT0l3pFUaQX b13bXYT9nWppayw3fisn24WHJkcnj01MjPlirMBKccTZbZNOeCR0RMLz8VJphAwRKkIUtzGOQYwU EKm09Vm21hErNzCri6jdLSIpifLjkMmw7yQIx+eR4zPVejJbXCrW9q5fubZbN+xXq1t7i9evVvvC L705nPAI6WkPcUjlERU8+m577HIXVTdw09kedRf0jETfSPb8vlfVBT0q0+0bAnDn5+eTp049OJFQ jCVdJz89XhiZnh5P5RJBMhW1Ek6lGDjNhu95ridSaaESSUwyg0gkMFFItLuHU9o1olWXUulI+V6o /KCtAq+1vFNrroVupRokS22h92/fury7trbW4OB5kINqMsIBqu0oSn2vAA1t/7mXJ7UPCvcMKs0K jgAq6PvZ77NH/gCQ7gglJRIJ95HH3lvIpkdzCTeRdZXKeEolEw6JhOf4RhvPgCMc10glTaMRSqV1 hOe1ZZBsat+rS0fX66398utf/XKx3W6rIzLJgyRnEGsLjwCmV7UNCobqo8C5G0CGe3ieXR9I/hCg BgF0B2kYIE2D4oDOEaEpjtgvbVgNeu9xWCVT1MfCwiFZ0UFSE92j5Ax8IrF3DzfW/0f6HidDD8gm d2486Dv6R6g7py9m6BzhIB/Zbzuk/EANkZyjwAmHANPrhL5dcAa+vLcBzL2ApId0ig2qs+sFKRoA kjck7jcMJHEPknNkB0df4LKfsQ2SoEHgDQLmbjYHhjxL1btH6Rn0SGN9j5Nxr+D0qzpviD0aFEW/ FwnS91CkKYeotkEEIRow5AAfRx3h5wxVbW9HxR11Mj3ks3czvL2T4Q8AyR0A0DB1d68SNEytDSrU 7AcnGiAt0RHlU+ouTqi5yzzfM0BHObEMcGYZ0LE3rGK1X7UdJUHuoDT7EIDEkJZ2PaTKSt1FgvpV nRwgLcMiA8PSCHcF5u0CxF1UnRjWJT5EiryeYwekcIAEeUcUrNyN0R3F3NQR6k312ZFoAGD9n1Xf DHDeLkC9Jx0UEurtQB8EkDtgtXo9IPUe3QFq7ihbNMgOHRlmGiI9dyt5VvdQ9G4GRAjM2wXmnQLU r0J6SUR/WMjchdF5PTfs3kVy3CHS4wyh22YISRgkReoukjQIRH231sUB4Jij2NrbCfW8nb8zd0nY DSs2cQeVEh/hA92Nbr9dFTewD3cImVEDPtObZBvaQj/ACX3bEvT1Phv4qFje3Wq+B9U3uEfYnKN8 IXEPjvPdQBqk9oZ9ZpiN0UeA8I4eZP7/AY9iZI9AKh2PAAAAAElFTkSuQmCC "
     id="image10"
     x="0"
     y="0" />
</svg>
