/* XPM */
static char * maximize_pressed_traditional_35p_xpm[] = {
"27 27 6 1",
" 	c None",
".	c #3e3e3e",
"+	c #ffffff",
"@	c #bdbdbd",
"#	c #8f8f8f",
"$	c #363636",
"..........................+",
".@@@@@@@@@@@@@@@@@@@@@@@@@+",
".@@@@@@@@@@@@@@@@@@@@@@@@@+",
".@@@@@@@@@@@@@@@@@@@@@@@@@+",
".@@@@@@@@@@@@@@@@@@@@@@@@@+",
".@@@@@@@@@@@@@@@@@@@@@@@@@+",
".@@@@@@@@@@@@@@@@@@@@@@@@@+",
".@@@@@@@@@@@@##@@@@@@@@@@@+",
".@@@@@@@@@@@#$$#@@@@@@@@@@+",
".@@@@@@@@@@#$$$$#@@@@@@@@@+",
".@@@@@@@@@#$$$$$$#@@@@@@@@+",
".@@@@@@@@#$$$##$$$#@@@@@@@+",
".@@@@@@@#$$$#@@#$$$#@@@@@@+",
".@@@@@@#$$$#@@@@#$$$#@@@@@+",
".@@@@@#$$$#@@@@@@#$$$#@@@@+",
".@@@@#$$$#@@@@@@@@#$$$#@@@+",
".@@@@$$$#@@@@@@@@@@#$$$@@@+",
".@@@@$$#@@@@@@@@@@@@#$$@@@+",
".@@@@@@@@@@@@@@@@@@@@@@@@@+",
".@@@@@@@@@@@@@@@@@@@@@@@@@+",
".@@@@@@@@@@@@@@@@@@@@@@@@@+",
".@@@@@@@@@@@@@@@@@@@@@@@@@+",
".@@@@@@@@@@@@@@@@@@@@@@@@@+",
".@@@@@@@@@@@@@@@@@@@@@@@@@+",
".@@@@@@@@@@@@@@@@@@@@@@@@@+",
".@@@@@@@@@@@@@@@@@@@@@@@@@+",
"+++++++++++++++++++++++++++"};
