/* XPM */
static char * title_4_inactive_traditional_35p_xpm[] = {
"3 35 5 1",
" 	c None",
".	c #464646",
"+	c #ffffff",
"@	c #f0f0f0",
"#	c #9b9b9b",
"...",
"+++",
"@@@",
"@@@",
"@@@",
"@@@",
"@@@",
"@@@",
"@@@",
"@@@",
"@@@",
"@@@",
"@@@",
"@@@",
"@@@",
"@@@",
"@@@",
"@@@",
"@@@",
"@@@",
"@@@",
"@@@",
"@@@",
"@@@",
"@@@",
"@@@",
"@@@",
"@@@",
"@@@",
"@@@",
"@@@",
"@@@",
"@@@",
"###",
"..."};
