/* XPM */
static char * close_active_xpm[] = {
"14 19 6 1",
" 	c None",
".	c #777777 s active_shadow_1",
"+	c #BAB8AB s active_hilight_1",
"@	c #E6E6E6 s inactive_mid_1",
"#	c #B8C4DE s active_color_1",
"$	c #827D79 s active_shadow_1",
"..............",
"++++++++++++++",
"@@@@@@@@@@@@@@",
"##############",
"#$$$$$$$$$$$$#",
"#$##########$#",
"#$##########$#",
"#$##$$##$$##$#",
"#$##$$$$$$##$#",
"#$###$$$$###$#",
"#$###$$$$###$#",
"#$##$$$$$$##$#",
"#$##$$##$$##$#",
"#$##########$#",
"#$##########$#",
"#$$$$$$$$$$$$#",
"##############",
"@@@@@@@@@@@@@@",
"++++++++++++++"};
