/* XPM */
static char * hide_inactive_xpm[] = {
"14 19 7 1",
" 	c None",
".	c #777777 s active_shadow_1",
"+	c #BAB8AB s active_hilight_1",
"@	c #E6E6E6 s inactive_color_1",
"#	c #C1C1C1 s inactive_shadow_1",
"$	c #827D79 s active_shadow_1",
"%	c #F3F0E1 s inactive_color_1",
"..............",
"++++++++++++++",
"@@@@@@@@@@@@@@",
"##############",
"#$$$$$$$$$$$$#",
"#$%%%%%%%%%%$#",
"#$%%%%%%%%%%$#",
"#$%%%%%%%%%%$#",
"#$%%%%%%%%%%$#",
"#$%%%%%%%%%%$#",
"#$%%%%%%%%%%$#",
"#$%%$$$$$$%%$#",
"#$%%$$$$$$%%$#",
"#$%%%%%%%%%%$#",
"#$%%%%%%%%%%$#",
"#$$$$$$$$$$$$#",
"##############",
"@@@@@@@@@@@@@@",
"++++++++++++++"};
