/* XPM */
static char * title_1_inactive_xpm[] = {
"7 19 5 1",
" 	c None",
".	c #777777 s active_shadow_1",
"+	c #BAB8AB s active_hilight_1",
"@	c #E6E6E6 s inactive_mid_1",
"#	c #7E7E7C s inactive_shadow_1",
".......",
"+++++++",
"@@@@@@@",
"#######",
"#######",
"#######",
"#######",
"#######",
"#######",
"#######",
"#######",
"#######",
"#######",
"#######",
"#######",
"#######",
"#######",
"@@@@@@@",
"+++++++"};
