/* XPM */
static char * title_1_active_xpm[] = {
"5 19 5 1",
" 	c None",
".	c #777777 s active_shadow_1",
"+	c #BAB8AB s active_hilight_1",
"@	c #E6E6E6 s inactive_mid_1",
"#	c #597696 s active_color_1",
".....",
"+++++",
"@@@@@",
"#####",
"#####",
"#####",
"#####",
"#####",
"#####",
"#####",
"#####",
"#####",
"#####",
"#####",
"#####",
"#####",
"#####",
"@@@@@",
"+++++"};
