<?xml version="1.0" encoding="UTF-8" standalone="no"?>
<svg
   xmlns:dc="http://purl.org/dc/elements/1.1/"
   xmlns:cc="http://creativecommons.org/ns#"
   xmlns:rdf="http://www.w3.org/1999/02/22-rdf-syntax-ns#"
   xmlns:svg="http://www.w3.org/2000/svg"
   xmlns="http://www.w3.org/2000/svg"
   xmlns:sodipodi="http://sodipodi.sourceforge.net/DTD/sodipodi-0.dtd"
   xmlns:inkscape="http://www.inkscape.org/namespaces/inkscape"
   viewBox="0 0 22 22"
   version="1.1"
   id="svg6"
   sodipodi:docname="align-vertical-top-to-anchor.svg"
   inkscape:version="0.92.1 r15371">
  <metadata
     id="metadata10">
    <rdf:RDF>
      <cc:Work
         rdf:about="">
        <dc:format>image/svg+xml</dc:format>
        <dc:type
           rdf:resource="http://purl.org/dc/dcmitype/StillImage" />
      </cc:Work>
    </rdf:RDF>
  </metadata>
  <sodipodi:namedview
     pagecolor="#ffffff"
     bordercolor="#666666"
     borderopacity="1"
     objecttolerance="10"
     gridtolerance="10"
     guidetolerance="10"
     inkscape:pageopacity="0"
     inkscape:pageshadow="2"
     inkscape:window-width="640"
     inkscape:window-height="480"
     id="namedview8"
     showgrid="false"
     inkscape:current-layer="svg6" />
  <defs
     id="defs3051">
    <style
       type="text/css"
       id="current-color-scheme">
      .ColorScheme-Text {
        color:#f2f2f2;
      }
      </style>
  </defs>
  <path
     style="fill:#3daee9;fill-opacity:1;stroke:none"
     d="m13 3v3 1h5 1v-3-1h-6m-10 6v1h16v-1h-16m0 3v6 1h5 1v-6-1h-6m10 0v6h6v-6h-6m-9 1h4v5h-4v-5m10 0h4v4h-4v-4"
     class="ColorScheme-Text"
     id="path4" />
  <path
     style="opacity:1;fill:#ffff00;fill-opacity:1;fill-rule:nonzero;stroke:#ffffff;stroke-width:0.06811146;stroke-opacity:0.94117647"
     d="m 3.0105263,15.474923 v -3.473685 h 2.996904 2.9969041 v 3.473685 3.473684 H 6.0074303 3.0105263 Z m 5.024059,0.01703 -0.017867,-2.503096 -2.0263158,-0.01804 -2.0263158,-0.01804 v 2.521137 2.521137 h 2.0441828 2.0441829 z"
     id="path4487"
     inkscape:connector-curvature="0" />
  <path
     style="opacity:1;fill:#00ff00;fill-opacity:1;fill-rule:nonzero;stroke:#ffffff;stroke-width:0.06811146;stroke-opacity:0.94117647"
     d="m 13.02291,14.998142 v -2.996904 h 2.962849 2.962848 v 2.996904 2.996904 H 15.985759 13.02291 Z m 4.972136,0 v -2.043343 h -2.009287 -2.009288 v 2.043343 2.043344 h 2.009288 2.009287 z"
     id="path4489"
     inkscape:connector-curvature="0" />
</svg>
