<?xml version="1.0" encoding="UTF-8" standalone="no"?>
<svg
   xmlns:dc="http://purl.org/dc/elements/1.1/"
   xmlns:cc="http://creativecommons.org/ns#"
   xmlns:rdf="http://www.w3.org/1999/02/22-rdf-syntax-ns#"
   xmlns:svg="http://www.w3.org/2000/svg"
   xmlns="http://www.w3.org/2000/svg"
   xmlns:sodipodi="http://sodipodi.sourceforge.net/DTD/sodipodi-0.dtd"
   xmlns:inkscape="http://www.inkscape.org/namespaces/inkscape"
   viewBox="0 0 22 7"
   version="1.1"
   id="svg6"
   sodipodi:docname="call-stop.svg"
   width="22"
   height="7"
   inkscape:version="0.92.2 (5c3e80d, 2017-08-06)">
  <metadata
     id="metadata10">
    <rdf:RDF>
      <cc:Work
         rdf:about="">
        <dc:format>image/svg+xml</dc:format>
        <dc:type
           rdf:resource="http://purl.org/dc/dcmitype/StillImage" />
        <dc:title />
      </cc:Work>
    </rdf:RDF>
  </metadata>
  <sodipodi:namedview
     pagecolor="#ffffff"
     bordercolor="#666666"
     borderopacity="1"
     objecttolerance="10"
     gridtolerance="10"
     guidetolerance="10"
     inkscape:pageopacity="0"
     inkscape:pageshadow="2"
     inkscape:window-width="640"
     inkscape:window-height="480"
     id="namedview8"
     showgrid="false"
     inkscape:current-layer="svg6" />
  <defs
     id="defs3051">
    <style
       type="text/css"
       id="current-color-scheme">
      .ColorScheme-Text {
        color:#f2f2f2;
      }
      .ColorScheme-NegativeText {
        color:#da4453;
      }
      </style>
  </defs>
  <path
     style="color:#da4453;fill:currentColor;fill-opacity:1;stroke:none;stroke-width:1.44331563"
     class="ColorScheme-NegativeText"
     d="m 7.7401269,0.92598425 c -2.8530957,0 -5.3145572,1.15125005 -6.6661112,2.86125005 v 1.305 c 0,0 0,0.83375 1.111574,0.83375 h 3.3330556 c 1.111574,0 1.111574,-0.83375 1.111574,-0.83375 v -0.41625 c 0,-0.6925 0.7432714,-1.25 1.6665279,-1.25 h 5.5545368 c 0.923257,0 1.666528,0.5575 1.666528,1.25 v 0.41625 c 0,0 0,0.83375 1.111574,0.83375 h 3.333056 c 1.111574,0 1.111574,-0.83375 1.111574,-0.83375 v -1.305 c -1.351554,-1.71 -3.813015,-2.86125005 -6.666111,-2.86125005 z"
     id="path4"
     inkscape:connector-curvature="0" />
</svg>
