<?xml version="1.0" encoding="UTF-8" standalone="no"?>
<svg
   xmlns:dc="http://purl.org/dc/elements/1.1/"
   xmlns:cc="http://creativecommons.org/ns#"
   xmlns:rdf="http://www.w3.org/1999/02/22-rdf-syntax-ns#"
   xmlns:svg="http://www.w3.org/2000/svg"
   xmlns="http://www.w3.org/2000/svg"
   xmlns:sodipodi="http://sodipodi.sourceforge.net/DTD/sodipodi-0.dtd"
   xmlns:inkscape="http://www.inkscape.org/namespaces/inkscape"
   viewBox="0 0 22 22"
   version="1.1"
   id="svg6"
   sodipodi:docname="crosshairs.svg"
   inkscape:version="0.92.2 (5c3e80d, 2017-08-06)">
  <metadata
     id="metadata10">
    <rdf:RDF>
      <cc:Work
         rdf:about="">
        <dc:format>image/svg+xml</dc:format>
        <dc:type
           rdf:resource="http://purl.org/dc/dcmitype/StillImage" />
      </cc:Work>
    </rdf:RDF>
  </metadata>
  <sodipodi:namedview
     pagecolor="#ffffff"
     bordercolor="#666666"
     borderopacity="1"
     objecttolerance="10"
     gridtolerance="10"
     guidetolerance="10"
     inkscape:pageopacity="0"
     inkscape:pageshadow="2"
     inkscape:window-width="640"
     inkscape:window-height="480"
     id="namedview8"
     showgrid="false"
     inkscape:current-layer="svg6" />
  <defs
     id="defs3051">
    <style
       type="text/css"
       id="current-color-scheme">
      .ColorScheme-Text {
        color:#f2f2f2;
      }
      </style>
  </defs>
  <path
     style="fill:#3daee9;fill-opacity:1;stroke:none"
     d="M 10.5 2 L 10.5 4.0253906 A 7 7 0 0 0 4.0175781 10.5 L 2 10.5 L 2 11.5 L 4.0253906 11.5 A 7 7 0 0 0 10.5 17.982422 L 10.5 20 L 11.5 20 L 11.5 17.974609 A 7 7 0 0 0 17.982422 11.5 L 20 11.5 L 20 10.5 L 17.974609 10.5 A 7 7 0 0 0 11.5 4.0175781 L 11.5 2 L 10.5 2 z M 10.5 5.0253906 L 10.5 7.0351562 A 4 4 0 0 0 7.0371094 10.5 L 5.0253906 10.5 A 6 6 0 0 1 10.5 5.0253906 z M 11.5 5.0253906 A 6 6 0 0 1 16.974609 10.5 L 14.964844 10.5 A 4 4 0 0 0 11.5 7.0371094 L 11.5 5.0253906 z M 10.5 8.0410156 L 10.5 10.5 L 8.046875 10.5 A 3 3 0 0 1 10.5 8.0410156 z M 11.5 8.046875 A 3 3 0 0 1 13.958984 10.5 L 11.5 10.5 L 11.5 8.046875 z M 5.0253906 11.5 L 7.0351562 11.5 A 4 4 0 0 0 10.5 14.962891 L 10.5 16.974609 A 6 6 0 0 1 5.0253906 11.5 z M 8.0410156 11.5 L 10.5 11.5 L 10.5 13.953125 A 3 3 0 0 1 8.0410156 11.5 z M 11.5 11.5 L 13.953125 11.5 A 3 3 0 0 1 11.5 13.958984 L 11.5 11.5 z M 14.962891 11.5 L 16.974609 11.5 A 6 6 0 0 1 11.5 16.974609 L 11.5 14.964844 A 4 4 0 0 0 14.962891 11.5 z "
     class="ColorScheme-Text"
     id="path4" />
</svg>
