<?xml version="1.0" encoding="UTF-8" standalone="no"?>
<svg
   xmlns:dc="http://purl.org/dc/elements/1.1/"
   xmlns:cc="http://creativecommons.org/ns#"
   xmlns:rdf="http://www.w3.org/1999/02/22-rdf-syntax-ns#"
   xmlns:svg="http://www.w3.org/2000/svg"
   xmlns="http://www.w3.org/2000/svg"
   xmlns:sodipodi="http://sodipodi.sourceforge.net/DTD/sodipodi-0.dtd"
   xmlns:inkscape="http://www.inkscape.org/namespaces/inkscape"
   viewBox="0 0 22 22"
   version="1.1"
   id="svg12"
   sodipodi:docname="dialog-xml-editor.svg"
   inkscape:version="0.92.2 (5c3e80d, 2017-08-06)">
  <metadata
     id="metadata16">
    <rdf:RDF>
      <cc:Work
         rdf:about="">
        <dc:format>image/svg+xml</dc:format>
        <dc:type
           rdf:resource="http://purl.org/dc/dcmitype/StillImage" />
      </cc:Work>
    </rdf:RDF>
  </metadata>
  <sodipodi:namedview
     pagecolor="#ffffff"
     bordercolor="#666666"
     borderopacity="1"
     objecttolerance="10"
     gridtolerance="10"
     guidetolerance="10"
     inkscape:pageopacity="0"
     inkscape:pageshadow="2"
     inkscape:window-width="640"
     inkscape:window-height="480"
     id="namedview14"
     showgrid="false"
     inkscape:current-layer="svg12" />
  <defs
     id="defs3051">
    <style
       type="text/css"
       id="current-color-scheme">
      .ColorScheme-Text {
        color:#f2f2f2;
      }
      </style>
  </defs>
  <g
     transform="translate(-551.28572-607.64791)"
     style="fill:currentColor;fill-opacity:1;stroke:none"
     class="ColorScheme-Text"
     id="g10">
    <path
       d="m563.78571 610.64791l-4 15.75384 1 .24616 4-15.75385-1-.24615"
       id="path4" />
    <path
       d="m566.03107 613.64791l-.74534.70967 3.66459 4.29032-3.66459 4.29033.74534.70968 3.97515-4.64516.27951-.35485-.27951-.35483-3.97515-4.64516"
       id="path6" />
    <path
       d="m558.54037 613.64791l.74534.70967-3.66459 4.29032 3.66459 4.29033-.74534.70968-3.97515-4.64516-.27951-.35485.27951-.35483 3.97515-4.64516"
       id="path8" />
  </g>
  <path
     style="opacity:1;fill:#3daee9;fill-opacity:1;fill-rule:nonzero;stroke:#ffffff;stroke-width:0.06853583;stroke-opacity:0.94117647"
     d="M 5.2224111,13.64724 C 4.1104277,12.347494 3.1570642,11.212877 3.1038257,11.125868 3.0178333,10.985329 3.0216585,10.949262 3.1380936,10.802763 3.589904,10.234293 7.2310572,6.0174455 7.2701079,6.0174455 c 0.063926,0 0.693755,0.6418203 0.693755,0.706963 0,0.02814 -0.80471,0.9920615 -1.7882445,2.1420471 -0.9835346,1.1499854 -1.7731725,2.1282384 -1.754751,2.1738954 0.018422,0.04566 0.8240055,1.007741 1.7901866,2.137964 0.9661812,1.130223 1.7481089,2.086438 1.7376171,2.124921 -0.010492,0.03848 -0.1732901,0.213343 -0.361774,0.388575 l -0.3426979,0.318604 z"
     id="path823"
     inkscape:connector-curvature="0" />
  <path
     style="opacity:1;fill:#3daee9;fill-opacity:1;fill-rule:nonzero;stroke:#ffffff;stroke-width:0.06853583;stroke-opacity:0.94117647"
     d="m 14.344376,15.653494 -0.365583,-0.370181 1.829539,-2.137336 c 1.638729,-1.914423 1.819419,-2.149223 1.732502,-2.251314 -0.05337,-0.06269 -0.831273,-0.977529 -1.72867,-2.0329808 -0.897398,-1.0554517 -1.679929,-1.9749376 -1.738959,-2.043302 -0.09992,-0.1157224 -0.0815,-0.1474378 0.267055,-0.4596496 0.20591,-0.1844429 0.390723,-0.336686 0.410696,-0.3383179 0.0418,-0.00342 4.115317,4.7539013 4.201187,4.9064143 0.03448,0.06124 0.02101,0.145485 -0.03427,0.214294 -0.248575,0.309433 -4.171516,4.882555 -4.188381,4.882555 -0.01074,0 -0.184047,-0.166582 -0.385118,-0.370182 z"
     id="path825"
     inkscape:connector-curvature="0" />
  <path
     style="opacity:1;fill:#ff0000;fill-opacity:1;fill-rule:nonzero;stroke:#ffffff;stroke-width:0.06853583;stroke-opacity:0.94117647"
     d="M 8.9004289,18.867406 C 8.7181881,18.817326 8.5528081,18.760077 8.5329178,18.740187 8.4965521,18.703821 12.415687,3.1861593 12.492715,3.0615262 c 0.03195,-0.051693 0.899963,0.1023801 1.004727,0.1783391 0.009,0.00656 -0.877638,3.5330348 -1.970405,7.8366157 -1.092768,4.303581 -1.9868501,7.84034 -1.9868501,7.859464 0,0.05849 -0.2909018,0.02733 -0.639758,-0.06854 z"
     id="path827"
     inkscape:connector-curvature="0" />
</svg>
