<?xml version="1.0" encoding="UTF-8" standalone="no"?>
<svg
   xmlns:dc="http://purl.org/dc/elements/1.1/"
   xmlns:cc="http://creativecommons.org/ns#"
   xmlns:rdf="http://www.w3.org/1999/02/22-rdf-syntax-ns#"
   xmlns:svg="http://www.w3.org/2000/svg"
   xmlns="http://www.w3.org/2000/svg"
   xmlns:sodipodi="http://sodipodi.sourceforge.net/DTD/sodipodi-0.dtd"
   xmlns:inkscape="http://www.inkscape.org/namespaces/inkscape"
   viewBox="0 0 22 22"
   version="1.1"
   id="svg6"
   sodipodi:docname="distribute-horizontal-page.svg"
   inkscape:version="0.92.2 (5c3e80d, 2017-08-06)">
  <metadata
     id="metadata10">
    <rdf:RDF>
      <cc:Work
         rdf:about="">
        <dc:format>image/svg+xml</dc:format>
        <dc:type
           rdf:resource="http://purl.org/dc/dcmitype/StillImage" />
      </cc:Work>
    </rdf:RDF>
  </metadata>
  <sodipodi:namedview
     pagecolor="#ffffff"
     bordercolor="#666666"
     borderopacity="1"
     objecttolerance="10"
     gridtolerance="10"
     guidetolerance="10"
     inkscape:pageopacity="0"
     inkscape:pageshadow="2"
     inkscape:window-width="640"
     inkscape:window-height="480"
     id="namedview8"
     showgrid="false"
     inkscape:current-layer="svg6" />
  <defs
     id="defs3051">
    <style
       type="text/css"
       id="current-color-scheme">
      .ColorScheme-Text {
        color:#f2f2f2;
      }
      </style>
  </defs>
  <path
     style="fill:#3daee9;fill-opacity:1;stroke:none"
     d="m3 3v1 15h1 11l1.333984-1 1.666016-1.25 1-.75v-12-1h-16m1 1h14v12h-3v2h-11v-14m1 3v8h5v-8h-5m7 0v8h5v-8h-5m-6 1h3v6h-3v-6m7 0h3v6h-3v-6"
     class="ColorScheme-Text"
     id="path4" />
  <path
     style="opacity:1;fill:#ff6600;fill-opacity:1;fill-rule:nonzero;stroke:#ffffff;stroke-width:0.06853583;stroke-opacity:0.94117647"
     d="M 5.0168224,11.020561 V 7.0454829 h 2.4672897 2.4672898 v 3.9750781 3.975078 H 7.4841121 5.0168224 Z m 4.0272002,-0.01713 0.017854,-2.9984426 H 7.5191004 5.976324 v 3.0168876 3.016887 l 1.5249221,-0.01844 1.5249221,-0.01845 z"
     id="path817"
     inkscape:connector-curvature="0" />
  <path
     style="opacity:1;fill:#ff6600;fill-opacity:1;fill-rule:nonzero;stroke:#ffffff;stroke-width:0.06853583;stroke-opacity:0.94117647"
     d="M 12.007477,11.020561 V 7.0454829 h 2.467289 2.46729 v 3.9750781 3.975078 h -2.46729 -2.467289 z m 4.043613,0 V 8.0049844 h -1.542056 -1.542056 v 3.0155766 3.015576 h 1.542056 1.542056 z"
     id="path819"
     inkscape:connector-curvature="0" />
</svg>
