<?xml version="1.0" encoding="UTF-8" standalone="no"?>
<svg
   xmlns:dc="http://purl.org/dc/elements/1.1/"
   xmlns:cc="http://creativecommons.org/ns#"
   xmlns:rdf="http://www.w3.org/1999/02/22-rdf-syntax-ns#"
   xmlns:svg="http://www.w3.org/2000/svg"
   xmlns="http://www.w3.org/2000/svg"
   xmlns:sodipodi="http://sodipodi.sourceforge.net/DTD/sodipodi-0.dtd"
   xmlns:inkscape="http://www.inkscape.org/namespaces/inkscape"
   viewBox="0 0 22 22"
   version="1.1"
   id="svg6"
   sodipodi:docname="distribute-horizontal-equal.svg"
   inkscape:version="0.92.2 (5c3e80d, 2017-08-06)">
  <metadata
     id="metadata10">
    <rdf:RDF>
      <cc:Work
         rdf:about="">
        <dc:format>image/svg+xml</dc:format>
        <dc:type
           rdf:resource="http://purl.org/dc/dcmitype/StillImage" />
      </cc:Work>
    </rdf:RDF>
  </metadata>
  <sodipodi:namedview
     pagecolor="#ffffff"
     bordercolor="#666666"
     borderopacity="1"
     objecttolerance="10"
     gridtolerance="10"
     guidetolerance="10"
     inkscape:pageopacity="0"
     inkscape:pageshadow="2"
     inkscape:window-width="640"
     inkscape:window-height="480"
     id="namedview8"
     showgrid="false"
     inkscape:current-layer="svg6" />
  <defs
     id="defs3051">
    <style
       type="text/css"
       id="current-color-scheme">
      .ColorScheme-Text {
        color:#f2f2f2;
      }
      </style>
  </defs>
  <path
     style="fill:#3daee9;fill-opacity:1;stroke:none"
     d="m6 3v4l3-2-3-2m10 0l-3 2 3 2v-4m-7 3v2h-6v7h6v4h1v-5-6-2h-1m3 0v3 8 2h1v-2h6v-9h-6v-2h-1m-8 3h5v5h-5v-5m9 0h5v7h-5v-7"
     class="ColorScheme-Text"
     id="path4" />
  <path
     style="opacity:1;fill:#ff0000;fill-opacity:1;fill-rule:nonzero;stroke:#ffffff;stroke-width:0.06853583;stroke-opacity:0.94117647"
     d="M 6.0448598,4.996495 V 3.0688143 l 1.4470789,0.9663186 1.447079,0.9663186 -1.2586054,0.838824 C 6.9881793,6.3016287 6.3369938,6.7342417 6.2333333,6.8016377 L 6.0448598,6.9241758 Z"
     id="path817"
     inkscape:connector-curvature="0" />
  <path
     style="opacity:1;fill:#ff0000;fill-opacity:1;fill-rule:nonzero;stroke:#ffffff;stroke-width:0.06853583;stroke-opacity:0.94117647"
     d="M 14.509034,5.9785554 C 13.75514,5.472036 13.131362,5.034555 13.12286,5.0063756 13.110605,4.9657546 14.650626,3.9113402 15.78509,3.1836124 l 0.197465,-0.126668 v 1.9257334 c 0,1.0591533 -0.02313,1.9237284 -0.0514,1.9212778 -0.02827,-0.00245 -0.668225,-0.4188807 -1.422119,-0.9254002 z"
     id="path819"
     inkscape:connector-curvature="0" />
</svg>
