<?xml version="1.0" encoding="UTF-8" standalone="no"?>
<!-- Created with Inkscape (http://www.inkscape.org/) -->

<svg
   xmlns:dc="http://purl.org/dc/elements/1.1/"
   xmlns:cc="http://creativecommons.org/ns#"
   xmlns:rdf="http://www.w3.org/1999/02/22-rdf-syntax-ns#"
   xmlns:svg="http://www.w3.org/2000/svg"
   xmlns="http://www.w3.org/2000/svg"
   xmlns:xlink="http://www.w3.org/1999/xlink"
   xmlns:sodipodi="http://sodipodi.sourceforge.net/DTD/sodipodi-0.dtd"
   xmlns:inkscape="http://www.inkscape.org/namespaces/inkscape"
   version="1.1"
   id="svg2"
   width="22"
   height="22"
   viewBox="0 0 22 22"
   sodipodi:docname="document-revert.svg"
   inkscape:version="0.92.2 (5c3e80d, 2017-08-06)">
  <metadata
     id="metadata8">
    <rdf:RDF>
      <cc:Work
         rdf:about="">
        <dc:format>image/svg+xml</dc:format>
        <dc:type
           rdf:resource="http://purl.org/dc/dcmitype/StillImage" />
        <dc:title></dc:title>
      </cc:Work>
    </rdf:RDF>
  </metadata>
  <defs
     id="defs6" />
  <sodipodi:namedview
     pagecolor="#ffffff"
     bordercolor="#666666"
     borderopacity="1"
     objecttolerance="10"
     gridtolerance="10"
     guidetolerance="10"
     inkscape:pageopacity="0"
     inkscape:pageshadow="2"
     inkscape:window-width="640"
     inkscape:window-height="480"
     id="namedview4"
     showgrid="false"
     inkscape:current-layer="svg2" />
  <g
     id="g818"
     transform="scale(1.375)">
    <image
       y="0"
       x="0"
       id="image10"
       xlink:href="data:image/png;base64,iVBORw0KGgoAAAANSUhEUgAAAC4AAAAuCAYAAABXuSs3AAAABGdBTUEAAK/INwWK6QAAABl0RVh0 U29mdHdhcmUAQWRvYmUgSW1hZ2VSZWFkeXHJZTwAAA0mSURBVHjaYvz//z/DUAQAAcTEMEQBQACx kKOJEQigTGYQF4qRATWj8T8SDcMMAAHEQoaDGaEOBullhbKZ0Cz6R0XHw8z6C8Ug/l+AAGIhw9Eg x7IvWrgokY+Pb8Krl68YhEWE/1jbWLOwsDAzMDEzM7AAMQNI+b//QATCQLv+Q9l//zGA8tX//xD6 3z8IG06D5OBiEAzKhhoaGiJAe39BMQNAAJES4iBHswEx56yZs+J5eXn7xcXFGb5//86gqaXJ8vXr VwYODg4GNjZWYPAzMjAyMcEd9x/mGJAjGBD8f3AP/EOogTv+HwRD2UDAC8RfoW75CRBALESGNhPU 0VxTJk9JEBUR7QU5moeXh0FUVITh/bv3YDY4twMdzMTEDEk7MEfDHAPF/5AcC2b/Q4Q8zPHIev5B Sj4BpKTzByCAWEhx9MSJExOkJKV6xcTFGIAhzsDDw8Nw4+MHhr/AEGFhY2HgBIY4JGpBmAmaPCCO YfgPiXKEPMyhDEhJAyaGCPV/CIeDQvwnEP8A5SuAAGIhwtGgNM01oW9CvIyUTK+YhDjc0dzc3Ayf PnxkYGVhBbP/QqIUkkORHAD2wD8GjKQD8c8/aAwgpXuweuQYAZvLCQ1AkJsZAQKIiQhHc/d298bK yMj0iQGTBy/QwSBHc3FzgUP4CzBt//r1iwFSkUEcBcqYiKiG0gxI/H8QB/37/xdC/4M4FOZgWCjD kg40xNmhjga5iwkggFgIObq7qztaTk5ugjgwpPn4eMFpGRS6nJycDKxsbAw/f/5k+Pv3L9hCRmhx DnIIIywToiUP5LT8Dx7yyGkb4nhQGvr79z8kM0NCHO5oEAcggFjwObqzvTNKXk5+kjhS8uDh5gE7 mg3oaGD5B3Y0qKS8cOECgwQw7TMCM6ajgwNKxgOx7929xyCvIA9Pu++AGfrD+3dgPjBgUNM5CP6F VAeQ0gizSgAIIBZcjm5va49UUFCYLCEhgZKmOTiBRR47xNGgEgSSDP4zPH78GOx4kIcePnzAoKWl xXDm7Fmwpc5OTgxXr11luHPnDsOzF88YIiIiGZYvX86gr6/HcP36dbDDHwD1xMbEwst95NDH1p4C CCAmtAoGnBHbWtoiFBUUp8AdzQtJ15xciJAGORqkBVLe/gfXbXp6evDk8fbtO4ZnT58xPH/+DBzS oBAGOer+vQdgPeLA2AGpVVdXZ3jx4iXDj+8/4EmKATljwpIOGgAIIEaQBNTRoNDnaGttiwI6eoak lCQwTfPBHc7FyQUPaWZgzQhrrnR2djAoKCgySEtLMwgJCYLVswBLGUTxBi3WGBDl9T+o42AZERGy iJrzH7xEAqZ1IN/C3CIIaN0TIH4NxO8BAogJLdlwKsgrzJCQBIY0D1JIg9I0FkeDszo7BwMrKyvD 58+fGB49egRpBSGVKDB87uw5hnv37oFLEpBH/oKTGDTjAvHJkycZTp08BUzb/6AlDkT87194cYgC AAKIBamVBw7xL1++MOy7sI/h7Z+3DI+fP2b4/uk7w8/vPxl+//rN8PcPpPRgYmZiYGFnYfDV82UQ FREBOp6dYcuWrWD6x4+fDBcvXgA3BcTFJRjeAzNgYmIiw7Vr1xk0gMni6NFjDOoa6gwnjp9gSElN Ydi5cxdQzw+g+m/gJGZoZISoQf8hynd0ABCAzWrHARCEoa9pwISJQU08gvc/CSfQCTedBBNjtGUg DN7gvfb9WnMqeLvdGyJHpDOBO4ZxBmQI9rF19BAT2DB6qXvvPZxof5IvLcsqWs0yiOZyXQWfr6vG m5JQMxz7XmSowEIIhfA4DnhrIbWg/1PlE0CwNM4GrVJF8hfn3/j6GVipfPvF8Pvnb3BIw4s1BmhD iBGoh4mRIdU8FZyM+Pj5gDQXAzuwgQXOuIxM8KgG51toSw9Rhf9DLf7+/UdSj95qhDQLbO3sUNI4 QABhlONMrEzgdgeoLgGFONs/SEiD+H///YU7HARADSxQ+gaFGBtQDzMTpF/xD7mCgToOlDRMzUzR GlXQTPkPWrMC6fcfPkBi4z9CDbbiECCAWDAa7UARcPL4A0wOf5khBsNqQQZYboeECh8fPzB0GcEZ dueunQwPHjxkkABWViB7+Pn5GV4Ai0I1dQ2G6zeug9srxqbGDKtWrmL4AHQcyLPv338Al+EvX74A BoIoWAwkB3IwKFAsLS3hsYYOAAIIo+cCSr+gUAeFNgsnCwRzQGgmdiYIZmMCqwGV6+wcbAzMwA7E T2CmBKVpkGPev38PxqD0DaqUEO1xSBkPClEVVVVwpmRjZwUWoXxAvT8YREREGT5+/AhsRvxg+PTp EzSQQH7+i+FwgABiwehuMUGyKbjIA4qCSpB/0CIKWlFBNfwHhjSws/CPEewwfmAmFRDgZ0iIj4eU 2X8RFch/eKPqH0NwcBBEHChvZGiI1HyFJBlNTXV4MoEklb8M2AYiAAIII8ThZSgQTg6ZDE7Xf/// hZcooLYJDMPSMUjcAdg+SYhPgHbPEI2jf8hdsL+gNPweXFbDqnRQRQRK1+fOnEXpKUHcAHH0PyzF IUAAYWROkEP/gWsrSPRMD5uOoSlqThRSfxASMvv27QOmz/fwzMTOxs7w/MVzaHqHZDYvLy+GuXPm MRgbGwPT9UsGJ0cHhg/ApAHSC0pmp06fAScjCwszYE0shdKCRAcAAYTh8D9//8AdBQK26bYojR1Y qMhZyKGIg0KS4R80REEOB2Y0NTU1MPvQwUMMOno6YDaovAalY1D6/gDsPUlLy4Cbx6AaGiT/+MkT cK0N6Xj8h7db0AFAAMHKcXDjCogF01am3YcVUSD61sFbDIrWipB0/u8fvEgEsbs9uxEdA2gl8w+p iIO18lCLPpgaSBH4H16O/8UoQpF7TB4eXijlOEAAYfSAYOkXFPLzYuYxHJl9hMFMwYzBTNGMYXnq coZV6asQaRxlCAHU/vgHrD3vgy0/eeokvCfzD5pujxw+AuZ/AJY8Z8+ehrYsIUkT1CxG6fEzIHWu sSQVgABiwerwf5DMGD0/mkH1vypDQ1IDWK5rcxfDylUrwSEjbSIN71eCDD9x4iTDDWB5LSYmBi4C b9y8yWAEbHeAqvRbt24Biz8Vhlu3bzOYW5ozbNi4AZgfPgLb7Y8YXr16xSAtI8PAzsrGcBaYQfUN DBikgC1TeGkEL/BQAUAAYc+c0FBclrQMLNa9pZvh0/NPDM2pzQxlvmUM3v3ekNIG2g4HOR7k6Bcv XoDb66DyGzY0AXIgKImCQpmXjwfsGPCQBpAP7MeCQ5oN6OiPnz6AnSgFzZT/4f3O/1iLQ4AAwkjj kfMi78McDsL3j94HO05EQwRcnL24/gJsmKShJMMk/4lInV/U8hijXQJuk/+Hdzz+IbfXUdhI5T9S Y8vX1x8ljQMEEBOuEAfRa9LXMMiayzKcXXyWgYUL2BbhZma4tPwSg4ShBLRSgpTZ8AYStKxGbjTB HA0rv/9hDEcgDRbBRq+QMY62CkAAYSQVWOkBKw4fHHvAwJDNwPD45GMGSWNJsNiT008YJPQloAZD DD946CDDR3CygFgESjKg9se+vfuAzV9RYJPgBzjD8QB7SKC49/bxgRZ3qKUHbBwG0sSFZVLMNA4Q QFjL8f/QwUkQuLD0Api+tOISoooFGgiLGVjIgdIyAzhNf4A0wIDtjzOg2hAIQb0nkBpQef3p4ydw 5cLwD214Dj7ahZS+YeM0WEoVgADCDPH//+DVuWefJ8OTU08QDvyHSIPgUVdwrockD29PT9R0izTA g0jH/xh27drNoKysBNT1FyVEMUMcMmQH7ptiGfsBCCDMEP/zB17B7CjaweDc6YzovP5FpGPwIBDD P5QaFTmtovZiEOnaxdkFkf5h6Rep9EDl/4eN52E4HCCAsJbjyGMZe8v3YmiyqLaAhDhSYwrWO/qH lKn+Iffa0WIMkjRgJQgDwqH/kJMJAyT5YEkqAAGEmVT+oWZO9WB1uIX/kbpZwtrCiCodaYjhH3o6 hUU50pAzw///mAOgkAoB2rb+D65zYDS2pAIQQFgdDk7jwNC0a7aDVBh6oohmLGz4ANY0RRnX/o82 ZPwfpQsGH3lFCmGwODwTMiA8ygAL6f9YJ2UAAghnUoE1lIR1hVHb3//+oYQ83GGwjIqU1v8hjUrB MQNqJkTOC0hj1EixBA15NAAQgCzrsAEAhEH8f7NSYxc1fkAbSBhf5ryfdAe4TeG43B/RG04IFYPP 7wzC5jAC5GwJTEV/ZrM+QmCZE5uVOFeaFmfOEUDoXbd/sPY4uOuF1LyFs//+Q53TQcpgmI7+h+RQ RBJigI5iIZqxDPDkw4DU40GOIehsBNzxAAEEa6uAR7GAGDSRIwgaX4HOufBAZwLImg+lAgA59DsQ fwHiD0D8BtROAfEBAgg5xEF9td9QhZ9hs1tIMwED5fCfSG76DnXjX4AAQnf4L+QpOaQ5l4GaOv8H dfwvqKO/Qtl/AQIIPY3/QtLwA336YoAcDnP8b6QJ2n8AAQYAbr0qlXcaTlEAAACEaWNPboAAEAkA ABAAgAAQDwAAAASAABABAAACIIAAEAIAAAHSgAAQAwAAABSAABAEAAAAFIAAEAUAAAAAgAAQBgAA AACAABANAAAAAIAAEA4AAAAAgAAQB/////iAABEHAAAAAYAAEAwAAAAAgAAQCyhJY29uIKkyMDA3 IEtlbiBMZXN0ZXIpAO62wdoAAAAASUVORK5CYIKJUE5HDQoaCgAAAA1JSERSAAAALgAAAC4IBgAA AFe5KzcAAAtkSURBVGiBzVlbbBTXGf5mb2B218GLscEYAhsBwXbAwcSGpAoQkkAhIQmBqKqiVhFv UdQ+RIry1Kc+RK0aqRUiD5USISXKQ9Mkyk0hgtwTUojDxTahgRhjfMOX4JlZ2BnvnP/vw8w5c2bX 1M5L6Vijszue3f3Od77z/ZcxmBnyGDi8I+sZUw0CRgb/R0ccXEhwaqhx+4e2vGZI4AOHd2RFxmyL zymuMmLccNNQTnMwGUPCrfohXrilU4I3mBkDh3dk3arJDelcVVs8tbgtMWde9maD1Q/PvW6X3OHv ileL3xZH05137PvYNi5/uF2BnpO9uy1Vvbw6llpmELFxswHLQ7iXMGVfslzr605rvNgprmZOJDxj qiE511kVT+XbUtXLq187yzuJL4KZQUzqjLwnf9yX3wcO/scAmAnEDDD7I/kjMalrJIL75XeS/1qN zGB1zT+Z87hrHX9UKl68KzGnp+AaqeGYgJExYtwQS1ZVI7E0JsEJFhAsEHlP0ZNBYEjQPgjIHyYO JqwBFMH9wT0SrDqJwRSSwxRMkgQo1pCIJedWw+BG10N1Qi4HMxtEFBMkIixL8BKIzrjPHIMJPlPl J7FiV/9/ZELyu+UktMmQup9RKolEySOUShx3SxRLAAAxG8QwiNjwyKuQiQQaAU0Mn2CG/ANrQAmB PPx7wQRmBEuvyYWgSUNek5KhQGqMkuclhGAqeRwvOiKe0DcBMxszAdbHgOpKphXjmuYJGmAOJx5Z PVIME+krQhCeiBNxjIhjAFABPMJ4OXDtvRBiGokErEGXh880I3wfbsSyDVrGMtTKMgLQBhGMqalA KjpwpXEKNc7E0LUf7nYK5EHhxlQ/KicTlYeuZVLM69pmtZpCBCT4WAxmGMwwKhgHAB24PgoS4fIp 5kOmjh8/jjlzUigWHWxoa4tsPGZG/6V+LGlcolg1TRPmpAkGY/HixVGdg8GCAUin4XKYMwMXJBRY CV5fEblB+/r60N/fH7y+iJUrV+JMVxfAjE0bN+GH8+dx6dIlXBm7goceehjvvPMu1qy5HRcuXEBD QwMGBgfx6COPKN/X2dfzKXnEpgPuCU95NRHBEx48Cq/J/ysJEAMMtLS0APDlcfXqJEavjOLKlVEs aVwC0zRBzBjoHwATobZ2AYgZ+XweY2PjcB03lJ++MaV0ZmLcE970G7LstVwJycyePY+BmLB16xal 440bNyp3eXj3Q2BitLe3g5hw/7ZtwfcxWlpaFGjl3cqRgnFGqbCIyCIiE30CFFobMWNy8ipM08SS xsYyR/HHnp4eZDJZNCxZrDYmgGAjMk6fPg1mRktzMwh6YJpeKjdkXDlJ2eb0Q3HgNtrme/PNt8DM WL9+Pbq7u+A4DmprF8I0Tezd+zjOn7+AfD6Pzs5OrMivwOlTp7DviSfwxRdfwnVdOI4DMKOpqSkS /uXEZ6VxIUIde+T5r+U1bdQ30sK6Wkyak3AdB7flb0M2Ww3HceC4jrI3y5wEwLBME+l0BkyEc+e+ x+DgQOjzFDiLtqKzdhUflMaszr4uI5ljgLF9+y/x4AMPqh9a17ouCCZ+xNy5a5cWXELffuqppzQv 1zPRMEP0CY9m2RWMKwcRIhwl+yJkXwihZXUEBBMkLaD4P+5P8tTJUxHQpM4wmBExTNMKNjercTqp VDIesK0zHPFw0vUfZoBHP/4Ely9fxsKFtSBiZLIZjI+OYkU+jws//ggwo/mOZnzw/gewbBupZBKW ZWHx4gaMj48hl8shlUrBsiwwM2pqatDa2qpWbUaNK02XaV2+j2qcAm0SXMeB4xQxOWnCMk1YpgXH dXH27Pdhiku+x2fSGdy6/FY4rotkKoFMJgPHcVFTUwPbtuG6UygUCoExAMxidhpXPk1cwbY6BUVc JZPNojpbjT179oBAYBEGED2X3779Qf+6YDStadISK/+78vkVSia+VASmccMbaDxg9IUdL0Q0rZ+e 8LTMjdDR0eGDZgZpyVEkKRMM0zL9SiiYFIhgWhZ6unq0lQkmAh80zVrjAcsA8OLDL1Z8aP9r+yNB iIhx7NjXSp/MjGQyhfGxMRAY2UwGzIzNmzfjjX+8gebmZkxMTKCjvR2WXcA33xyD67ro6u5COp3B unVrUV+/MJJBzgjcE54CBQC7n98dSXbk6/rW+sh107IAChhlRiqVwvIVy0HEOHHiOFatXgVmRi6X g20X4DguLNtGfX09kskk5s2bB2ZgZGQY6XnzgsKDVd4yM+Oanp/+59MgIjS0NaiVUC4jRMS2tt23 TeUVyuMDu2xublKT3LVzpywM/GKbGDu27wBJO9X9W6uYyo/KyKnp+ODjB/Hen95D+7J2dCzvwCtP voJDvzkU8XHdhwUTBgYGQMw4dfq0qmRkJPz2204QMyzTQnd3lx8dgxxoeHgkjAvMYTcg+PzPksr+ 1/ejKdGEZ/c9CwA4cOQA3nrnLTAxFrQsUMGHmXHy5Cn09vZiwYIczp49i97eXjQ3N+HcuXO4eLEP y25dhr6+PqxrXYsjR4/Atm0MDQ1hYuIn1C+qRyqRRE93D1bfvhp1dQtDN4JfUMwsFU0SL//6ZR/w 0QO4PnYdz/3qOTxz/zPY+9LeYAP7eTgTobe3F+PjY0gmE3Bc168zmWFZFsAM27KQzqTB5AcXy7JR X78Iw8PDSCaSsAs2GIy6+jplsWE9W4H7vzP+5KEnMfLdCJgZ1Suq8ehfHsXVC1f9yNZUE7Dt63r3 I7sjfszBd9y5/s7wfWCRv7jnHtx99yYQMVavXhWWbHoNquTyMyogeb7621dRu7YWR/92FLGqGGJV MXz20meYv2Z+mB3KQKN5tZ40SdCWbYFFeTMpWjz495edN9icN5SK9M6RkyMAgLHTY6hpqgEAjHeN 45bbb1GMMzOOnzgO27I1H08il8vh2LFvkMvVwHWnwMxIp9NgJmzesiWwO73g0DsEQaMIPyPJYmYI 4QegTw98CgD4/KXP1T2qtNISfcuygUDTzIxMOoOurm4wExLJJIgIyWQShYKNuro6rZFEYZApm4B0 lumyrArg0qOZGY8dfAxjZ8YA1RsJs0G/IcQqL9ly771BeI92sfTJERG++uprLF3aCIKIMFrJuN9I AtE0nnKDzSmTq7effhu7/rorrP3IbxPLJItQWXvqoPXSS+p608ZNof6lfjX3iL5nucSzk4qu8fd/ /37Fh7b+caufHeqdJrA2wbC9EHarwtUKG6HSQRACJV0mUG24WUlFMgoAHfs7lFR0yaRvS6uQHm0p lK9AsOSKRdKkoFkgglYE4Hd+KRxnJRUhhM8mMR748wNgYmRXZcvycC7Lx8O8PNoyjpZgUiLQGGYO Hg9wAFZOFJJpP8jNCrhcciJCemU6Ih856oFClnAEvdANHqHo1brmFPojFyktdchoKXU/DfIIcMMw WLEa1JUKZIRp9iscgqZn3drC7i2x34qGdBCSG1K6hn8fWHcUQGYpHDwwMAyDDQNsGP4sEnFwgYUx JNxiIV66PF940aI4BKn18QgVm5ADgFHQpAENJQT2OQzTWCj5QKt4IlliaZA8t1goFnnEK5GdSHBq yL4297xnDOY41rfhy+d/92kJi1KlKS/peSIhBMWYb/To0J3mmoGwBxKf/mOzPAzD4Hg8RgYNe47Z b/80OtA9PpY439ltDxnMjMMH75mfa3Q7sguq2lNVizYYibnzSx4lhMdxIo4xbs4zTwMGx2IGldyi PTE+eGawr3DiyCfXjh16t3/UYF8/sb//obVmdYvRMWeeuyYW46UljxMlj+NCcAyMm/Ow1gDH4wZd u8YjE2Pxf3/wkf2v1z8cGAfgSuAGgPiB59fOb1iUXOYx5l93RGJqiuIlwTEhuCKL/F8c8bhBybhB U1PCOnHGHjj0bv9PAKYAiP8AMOx3ElGrG0IAAABIaWNPboAAEAkAACAAgAAQAQAAALmAABACAAAA k4AAEAMAAAAUgAAQBAAAABSAABAFAAAAAIAAEAYAAAAAgAAQBwAAAACAABAMAAAAAIxUgdkAAAAA SUVORK5CYII= "
       preserveAspectRatio="none"
       height="16"
       width="16" />
    <image
       y="0"
       x="0"
       id="image10-3"
       xlink:href="data:image/png;base64,iVBORw0KGgoAAAANSUhEUgAAAEAAAABAEAYAAAD6+a2dAAAABmJLR0QAAAAAAAD5Q7t/AAAACXBI WXMAAABIAAAASABGyWs+AAAACXZwQWcAAABAAAAAQADq8/hgAAAN5UlEQVR42u3beXRN9/rH8ffe SU6GI0EmbRrET12lqKs0Qc2Xal2l9JaKeYq4WjVU1SyttqKmVFGCGmtoG7SmIMZqDNdctMZEDZUg MSXnZO/vc/9I3KrfvV3EcAz79c+zzlpZn+/O9/tk5zlnrwMWi8VisVgsFovFYrFYLBaLxWKxWCwW i8VisVgslkeK5uoLeFB063b4cIEC/3m5Krd478ut6t3c6pDJk0uVunLl/ufdK7rrln4w/PGg9C9z a+MpuXV29dzae3dutX1+08He87x7zd11S7tWt/lHWhWoBrxAGqU9o5gq4axsJ2RxHsfw3ggKeSIC 0KCKPxo62qIVCCBH7nne/fLYNUBUoZ+L2+2gKhpN1CrfTdoUrYLWvNeX1NG+oFmfGI7hzQa/Y4Tj RyvAAx1Pr9qAhnj+vl/jgb53P+9+e+QboHdbw99uh0vhh8oCmJ2NdyG4vzZOm6aFDmsgDakqWzus YTZVaeMV7xaoHfQ4B2oMkcZpkDVyXuK4iAea5sUO3DQfgM6f73/Rbr8LeS72yDZA56i9oXY7ZJQ+ MBdAy6YNlNzMLu0DbCPnShXelvGviVyjp1TVq/1lkT2lWi/w9/Mwik6GbYcyfvu6JkgqS2U7UAY7 HlzmK/oDkC3z7kLeHznv/z49ckNgh307x9ufBY80+/OqPzDVHIFXZU1C1K/Yp+2REaZTIpqXFn9z vjZBz6ow2L6+4Ulo3zNk2+RtEHbCc1vlkaDOmW1kAsh6M55r8p3sNOdhkzdkoLEBr78uuIO8qVwD STano/9eXeWRuQO0m7d9kE9tMC7mdDf7oLIOXqil2xqkM07bLSc+jeYNoiWxfHe37toTHk2h6oKA 2JaroFmXkH8MrQ+FozzcQraAnJCXVrmDKmBMRQB/FCnaOubQSdY1KMUkulKyfSQt6CeJz+Xccp49 Ly8IOAkEU1BS//ArLKbw/d+3h74B2hVMLuzjA/QwyrPVfbUeoi3SW7Q4KX9Vxwj66LD0Yb2qWOxr z8X6J/ZxUL9nkSbRydDo5JNV+ySCzwW3LwptuSHwRbVAJoK8bK6SacB2MqSG/xKeo7XWYNgR6cNs VbbgWc/Feqw97jbyGporJR7YRpaEA5UopIW7evce4gZofW3zNB8fMNcZO8Bnkva11hm3bqXowvdc HfiKzGKFmeC/3/dzj9OB5aHJ9qcS+teGOsOKzOkUCLbX9Nrei/9/rtSS1mSCGmBMIhXYxxVOuMdL Ih+bSwriO9HjbGDpfOQNzMvbwyVSgUr4c+MdYKZr9vGha4DIIRs8fXxAhhkOKHyVKtqHuL2/QgZq peVo92MyjAZqjX1/UKRXgbAgaNE1bEBMcwj3CezWbBzoOzUf98r/O19qqTg0UE+aa3EC9VgugRA4 y2trWBlo0TGsV0xjCC8QGH1beUXNdejAaTLQgWACHoQJ7IFvgMio9fV8poMqbwbKCyD9zETqF/Vi MOE4RhQgVXtRvm25UgbK22qTR53ik30LPZcGkTNK9v44Cco1KlypbgowGh8q38KCk6UlGsgkI0lC wSvCPd53IbRcWHzKiI4QsSeoVvMkwBsf/G4jr4ppoAM/otCBHKsB/lSLmMRMb2+Q086X9I9BdaO1 OaBcUU3XfGX3qNoc4Qy9XhrBfNpIiFb02Uz/r2o/BZHlSsV80hZKzPLtWvH6Z+xtb31d8VHxZIL5 mfme1AWPQ26LfFpBaAv7vGfjAJ1Xbungb8pTBQybpADBXGYuEEzQTUPg0/jf/31+4BrgjfXLe3t7 g/HClY5AJMW9i5ipNWpwSlvMkNEJqg1eMqLKLN2uveN2BsLTizRs+iO0SvzL8x8Mh+Ag764l7uDh itSSGcSDDDTXyRiQLWYPSQM6SDm1HsjOZ94AsyzfAbs4L/OBygRbQ+ANXr/8XYq3N6gtajbocXpt j1ZoTZSaY27DPrKS2NmiWpaKsu3QP/JqDfUyiy3pkAOvh5fyGPAM+M20RQXZ7/w65F3VmExQJ42z pII64/YpCqQk31ASgMv5yss0/MkGNnORVKAKRf4wBC5wzb67vAGaj0/Y7+0NssSIAs95nNf+gd7e IfO1uajh22SmvG+eLNLTvs+jTaFp0KTE01V62aBRfImVPZqBV4Z78QJ381lKLRmPBirJ3IwOUsls gg7MlTcB8prg9vN2m7XRgSDO5w2BTzzWM0Az/Rtvb19QF83+aO5B2iHtddRbo6mnDeba4BV0l5MS 5dfev4f3L6FHocW1MvZBh6H2/mJzI5PAPUMvbrsHD9GkoxqOBrLe+AUd1M/uC9GBfjIDgDfymbfB bI0OJJOODiiefKwbQK02x8oZIJsL6AHLJJjiZLf9kZWMZqxfkJuhifslaFAlLKlre6g3MWxCuyjQ lnNAj7t31yV2GS6ZoPzMS/QCqWleQQPZyeuEArAmX3mFjOniBEJIYwEQQshNQ2AVAu7vGYALnwXI v1QlokHKyk/EZhyWlqo9DRNPq9fNE4x1OnM+NQYZE2DTuRMVF30Bu547U2ZNM6AW8ZJzD6+rjopj KqiixiqpBOpVs5A0BnbKGM7dQV4JM4nnQT1hrpVwUE+aSdxQXcVlDbCkX8sXsmeDNDIMGeKIFF/z G9n0QU/Km1fI+fSAHDIaSdqVg8eeSX9y7xGYMCh59T8HwQaOn13QH5RNOhun7sGFTZZXyQTZY1Yk BeSU8QmngL00wryDvH3GC6SA/GiEkwqSbETcWF3F5f+Flh6IXODQQcUYOVrBzBCVab6P9uEOmaMm aaGDL3NMbXSLPH/0t+qZU1J6wOTvty7tsw6+L3kwerInOLuaPbJu863ZnxFvlTu0+RiJ6KAqmW7o wCDpckd5BXI/CVTB5tq8mnRjdRWXvwu47vtX29XIzoZXJk1v6uWV1YX61EBNGMUcqYtn+nlK08Gt +kcDMrKulkoPKer75cEd0UNnQMbmrID0HGhulj/eewzY3Wwl/NLzfx1SW3KHtrfM6uggyqyFDrJd 3rmjvIHmodwhUM6iAxFaMdf/+T0Ad4CbLY/uuDg7G+RtswkY72pN9DrI3Hh52lyIETUMf/NL/diB lde2ZmdccYNFx3eNG/MtTLdtbT6gPWRUyHr3XPQdXEBjNZxMUP3NiRwFOW56UQa0vmzTdt5B3hBj mqSCijHjSQUVc/11bnWVB64BrluhdXk6OxsM/+x5OCV9xYgdl7KvrRgjQ9UCadvpGHXNZdr8H5s4 43KqOby5tOzET4emBcFnEzce7TkDzky+1OBY5u2vK61kPPEgHYyj8iE4y+bMc26HzDZZoee/zn+e Kp03BAbmDYHBeUNg8GM6BN6qVf8XHZ6toH5shd62fUBSzms4k/8pAeplSe4UKIvNgtqu5W+pNjld 1CXZs9Hjl0PfJMOY+muWRHeEo0+lrdlT/dbXk56qCZkgk8yvNQMu1bxa4qIBM5smj4o5BUfD0tbv qZePvB/yhsBkawjMl9X9eiQ4y4NR0xnHAlDrzSOaz8HpssH8DCPqkhxRX2hxc7rLJrOMlmaU21k+ pWdSFIzqlejo2gl2bzz5rw1LgKmsJfZ/ryM+Mg4NVBlzp/YMqMtmAgdgV4UU/3XbYFSPxCtdW+Uj z/c/Q98DNQQ+NA1w3drYvgMcDlhTsqfmcIC6YA6DXxeriWYMOe+8JUfNetprcfMoqqbrz2S5/3zi dLWdCj61r1rdzQM2Df2ldEInkADZpgb/lwUaq7EAMsicjYB8Y6ykmiTgYX6k+xnGz8dPV89X3hBz DjrIcGMaOkiMOePG6ioPXQPcLOmtPjscDhAvcxdceJMZ6u+YQ7IkxOyvlY75ljZqqd4oY9XJiumn j5yAsVMSy/ZsBssce1bPGA05e80EZ9Xf82SsxGKCmmDEyClQw8zhHLkYKldVZa3orB20U9/pf78Q f9t5n+flDTcH5A2BA+WG6ioPfQNct+6lfvMdDjBHGa/IpKsRKsY8L2fHjJchZiid+mqkqWV63Nmw 9LEZl84chIlt13i+NwvmZySPHxMJzgzT7qgELJVVfAcq0OzLa6B8je5SKWemudNIlfDPnDLMDKNz 3223nReQlxdkDJAqoILNgXlD4EBXDoFurj64uy1lxdo0cwkU61K7mN7DPK56SDQ5exK1MFVNm3uk JtPEobk9X8nxg/OpbJ+AwvvPndydXBCy7M6oq3+DnLeNX53rYe9vKe4/LAFJU5o0ujaKHPWmNnrG XvfO5/u4NUycq8p5zZTlR1++7bxzCnnl6kx01UmbPLMcv6qmZKZ9n5qwPsFU93+/HvlvB794buhm mw08CrkvAJrmvGc8ATUbSoxUwWfMQjkrfurw82tt77l/7nkBfId7r/WvDxcPXPn5XBEQk9Zq2bk6 BOOnhdZtSQDB8FM327MezruSB8BP3X74W8xsp/XFkLtvc/DwF51OcCx1hACLjQGODrCxm3ygmnCt 41c8o2L1kmvWOIo6WjgX83JaQEa9M6vALGloaguoCsZCrSg2VcT4AghQ7saHcBfzihhTXLk/j/wd 4Gbhu/ovstlAL6blfl5YnFAI2yB7JQNG7uIniYXmESic4Baeu0e/peOGF9RdhGDAge7JjUe2cDrv ft799tg1wM0iSvarYbMB2fwGQRsJIgKGLsYNb2i1AUFB8ixyyIQ21dGxwfmM5D2xc/7bgd3tvHvt sW+A6yIi+vWz2a6/suc9X3w2IbdeXJtbD8df/4nk5NjYPzuwu51nsVgsFovFYrFYLBaLxWKxWCwW i8WSH/8G56MP3WPjuP4AAAAielRYdFNvZnR3YXJlAAB42isvL9fLzMsuTk4sSNXLL0oHADbYBlgQ U8pcAAAAAElFTkSuQmCC "
       preserveAspectRatio="none"
       height="16"
       width="16" />
  </g>
</svg>
