<?xml version="1.0" encoding="UTF-8" standalone="no"?>
<!-- Created with Inkscape (http://www.inkscape.org/) -->

<svg
   xmlns:dc="http://purl.org/dc/elements/1.1/"
   xmlns:cc="http://creativecommons.org/ns#"
   xmlns:rdf="http://www.w3.org/1999/02/22-rdf-syntax-ns#"
   xmlns:svg="http://www.w3.org/2000/svg"
   xmlns="http://www.w3.org/2000/svg"
   xmlns:xlink="http://www.w3.org/1999/xlink"
   xmlns:sodipodi="http://sodipodi.sourceforge.net/DTD/sodipodi-0.dtd"
   xmlns:inkscape="http://www.inkscape.org/namespaces/inkscape"
   version="1.1"
   id="svg2"
   width="22"
   height="22"
   viewBox="0 0 22 22"
   sodipodi:docname="document-edit-encrypt.svg"
   inkscape:version="0.92.2 (5c3e80d, 2017-08-06)">
  <metadata
     id="metadata8">
    <rdf:RDF>
      <cc:Work
         rdf:about="">
        <dc:format>image/svg+xml</dc:format>
        <dc:type
           rdf:resource="http://purl.org/dc/dcmitype/StillImage" />
        <dc:title></dc:title>
      </cc:Work>
    </rdf:RDF>
  </metadata>
  <defs
     id="defs6" />
  <sodipodi:namedview
     pagecolor="#ffffff"
     bordercolor="#666666"
     borderopacity="1"
     objecttolerance="10"
     gridtolerance="10"
     guidetolerance="10"
     inkscape:pageopacity="0"
     inkscape:pageshadow="2"
     inkscape:window-width="640"
     inkscape:window-height="480"
     id="namedview4"
     showgrid="false"
     inkscape:current-layer="svg2" />
  <g
     id="g817"
     transform="scale(1.375)">
    <image
       y="0"
       x="0"
       id="image10"
       xlink:href="data:image/png;base64,iVBORw0KGgoAAAANSUhEUgAAAC4AAAAuCAYAAABXuSs3AAAABGdBTUEAAK/INwWK6QAAABl0RVh0 U29mdHdhcmUAQWRvYmUgSW1hZ2VSZWFkeXHJZTwAAA0mSURBVHjaYvz//z/DUAQAAcTEMEQBQACx kKOJEQigTGYQF4qRATWj8T8SDcMMAAHEQoaDGaEOBullhbKZ0Cz6R0XHw8z6C8Ug/l+AAGIhw9Eg x7IvWrgokY+Pb8Krl68YhEWE/1jbWLOwsDAzMDEzM7AAMQNI+b//QATCQLv+Q9l//zGA8tX//xD6 3z8IG06D5OBiEAzKhhoaGiJAe39BMQNAAJES4iBHswEx56yZs+J5eXn7xcXFGb5//86gqaXJ8vXr VwYODg4GNjZWYPAzMjAyMcEd9x/mGJAjGBD8f3AP/EOogTv+HwRD2UDAC8RfoW75CRBALESGNhPU 0VxTJk9JEBUR7QU5moeXh0FUVITh/bv3YDY4twMdzMTEDEk7MEfDHAPF/5AcC2b/Q4Q8zPHIev5B Sj4BpKTzByCAWEhx9MSJExOkJKV6xcTFGIAhzsDDw8Nw4+MHhr/AEGFhY2HgBIY4JGpBmAmaPCCO YfgPiXKEPMyhDEhJAyaGCPV/CIeDQvwnEP8A5SuAAGIhwtGgNM01oW9CvIyUTK+YhDjc0dzc3Ayf PnxkYGVhBbP/QqIUkkORHAD2wD8GjKQD8c8/aAwgpXuweuQYAZvLCQ1AkJsZAQKIiQhHc/d298bK yMj0iQGTBy/QwSBHc3FzgUP4CzBt//r1iwFSkUEcBcqYiKiG0gxI/H8QB/37/xdC/4M4FOZgWCjD kg40xNmhjga5iwkggFgIObq7qztaTk5ugjgwpPn4eMFpGRS6nJycDKxsbAw/f/5k+Pv3L9hCRmhx DnIIIywToiUP5LT8Dx7yyGkb4nhQGvr79z8kM0NCHO5oEAcggFjwObqzvTNKXk5+kjhS8uDh5gE7 mg3oaGD5B3Y0qKS8cOECgwQw7TMCM6ajgwNKxgOx7929xyCvIA9Pu++AGfrD+3dgPjBgUNM5CP6F VAeQ0gizSgAIIBZcjm5va49UUFCYLCEhgZKmOTiBRR47xNGgEgSSDP4zPH78GOx4kIcePnzAoKWl xXDm7Fmwpc5OTgxXr11luHPnDsOzF88YIiIiGZYvX86gr6/HcP36dbDDHwD1xMbEwst95NDH1p4C CCAmtAoGnBHbWtoiFBUUp8AdzQtJ15xciJAGORqkBVLe/gfXbXp6evDk8fbtO4ZnT58xPH/+DBzS oBAGOer+vQdgPeLA2AGpVVdXZ3jx4iXDj+8/4EmKATljwpIOGgAIIEaQBNTRoNDnaGttiwI6eoak lCQwTfPBHc7FyQUPaWZgzQhrrnR2djAoKCgySEtLMwgJCYLVswBLGUTxBi3WGBDl9T+o42AZERGy iJrzH7xEAqZ1IN/C3CIIaN0TIH4NxO8BAogJLdlwKsgrzJCQBIY0D1JIg9I0FkeDszo7BwMrKyvD 58+fGB49egRpBSGVKDB87uw5hnv37oFLEpBH/oKTGDTjAvHJkycZTp08BUzb/6AlDkT87194cYgC AAKIBamVBw7xL1++MOy7sI/h7Z+3DI+fP2b4/uk7w8/vPxl+//rN8PcPpPRgYmZiYGFnYfDV82UQ FREBOp6dYcuWrWD6x4+fDBcvXgA3BcTFJRjeAzNgYmIiw7Vr1xk0gMni6NFjDOoa6gwnjp9gSElN Ydi5cxdQzw+g+m/gJGZoZISoQf8hynd0ABCAzWrHARCEoa9pwISJQU08gvc/CSfQCTedBBNjtGUg DN7gvfb9WnMqeLvdGyJHpDOBO4ZxBmQI9rF19BAT2DB6qXvvPZxof5IvLcsqWs0yiOZyXQWfr6vG m5JQMxz7XmSowEIIhfA4DnhrIbWg/1PlE0CwNM4GrVJF8hfn3/j6GVipfPvF8Pvnb3BIw4s1BmhD iBGoh4mRIdU8FZyM+Pj5gDQXAzuwgQXOuIxM8KgG51toSw9Rhf9DLf7+/UdSj95qhDQLbO3sUNI4 QABhlONMrEzgdgeoLgGFONs/SEiD+H///YU7HARADSxQ+gaFGBtQDzMTpF/xD7mCgToOlDRMzUzR GlXQTPkPWrMC6fcfPkBi4z9CDbbiECCAWDAa7UARcPL4A0wOf5khBsNqQQZYboeECh8fPzB0GcEZ dueunQwPHjxkkABWViB7+Pn5GV4Ai0I1dQ2G6zeug9srxqbGDKtWrmL4AHQcyLPv338Al+EvX74A BoIoWAwkB3IwKFAsLS3hsYYOAAIIo+cCSr+gUAeFNgsnCwRzQGgmdiYIZmMCqwGV6+wcbAzMwA7E T2CmBKVpkGPev38PxqD0DaqUEO1xSBkPClEVVVVwpmRjZwUWoXxAvT8YREREGT5+/AhsRvxg+PTp EzSQQH7+i+FwgABiwehuMUGyKbjIA4qCSpB/0CIKWlFBNfwHhjSws/CPEewwfmAmFRDgZ0iIj4eU 2X8RFch/eKPqH0NwcBBEHChvZGiI1HyFJBlNTXV4MoEklb8M2AYiAAIII8ThZSgQTg6ZDE7Xf/// hZcooLYJDMPSMUjcAdg+SYhPgHbPEI2jf8hdsL+gNPweXFbDqnRQRQRK1+fOnEXpKUHcAHH0PyzF IUAAYWROkEP/gWsrSPRMD5uOoSlqThRSfxASMvv27QOmz/fwzMTOxs7w/MVzaHqHZDYvLy+GuXPm MRgbGwPT9UsGJ0cHhg/ApAHSC0pmp06fAScjCwszYE0shdKCRAcAAYTh8D9//8AdBQK26bYojR1Y qMhZyKGIg0KS4R80REEOB2Y0NTU1MPvQwUMMOno6YDaovAalY1D6/gDsPUlLy4Cbx6AaGiT/+MkT cK0N6Xj8h7db0AFAAMHKcXDjCogF01am3YcVUSD61sFbDIrWipB0/u8fvEgEsbs9uxEdA2gl8w+p iIO18lCLPpgaSBH4H16O/8UoQpF7TB4eXijlOEAAYfSAYOkXFPLzYuYxHJl9hMFMwYzBTNGMYXnq coZV6asQaRxlCAHU/vgHrD3vgy0/eeokvCfzD5pujxw+AuZ/AJY8Z8+ehrYsIUkT1CxG6fEzIHWu sSQVgABiwerwf5DMGD0/mkH1vypDQ1IDWK5rcxfDylUrwSEjbSIN71eCDD9x4iTDDWB5LSYmBi4C b9y8yWAEbHeAqvRbt24Biz8Vhlu3bzOYW5ozbNi4AZgfPgLb7Y8YXr16xSAtI8PAzsrGcBaYQfUN DBikgC1TeGkEL/BQAUAAYc+c0FBclrQMLNa9pZvh0/NPDM2pzQxlvmUM3v3ekNIG2g4HOR7k6Bcv XoDb66DyGzY0AXIgKImCQpmXjwfsGPCQBpAP7MeCQ5oN6OiPnz6AnSgFzZT/4f3O/1iLQ4AAwkjj kfMi78McDsL3j94HO05EQwRcnL24/gJsmKShJMMk/4lInV/U8hijXQJuk/+Hdzz+IbfXUdhI5T9S Y8vX1x8ljQMEEBOuEAfRa9LXMMiayzKcXXyWgYUL2BbhZma4tPwSg4ShBLRSgpTZ8AYStKxGbjTB HA0rv/9hDEcgDRbBRq+QMY62CkAAYSQVWOkBKw4fHHvAwJDNwPD45GMGSWNJsNiT008YJPQloAZD DD946CDDR3CygFgESjKg9se+vfuAzV9RYJPgBzjD8QB7SKC49/bxgRZ3qKUHbBwG0sSFZVLMNA4Q QFjL8f/QwUkQuLD0Api+tOISoooFGgiLGVjIgdIyAzhNf4A0wIDtjzOg2hAIQb0nkBpQef3p4ydw 5cLwD214Dj7ahZS+YeM0WEoVgADCDPH//+DVuWefJ8OTU08QDvyHSIPgUVdwrockD29PT9R0izTA g0jH/xh27drNoKysBNT1FyVEMUMcMmQH7ptiGfsBCCDMEP/zB17B7CjaweDc6YzovP5FpGPwIBDD P5QaFTmtovZiEOnaxdkFkf5h6Rep9EDl/4eN52E4HCCAsJbjyGMZe8v3YmiyqLaAhDhSYwrWO/qH lKn+Iffa0WIMkjRgJQgDwqH/kJMJAyT5YEkqAAGEmVT+oWZO9WB1uIX/kbpZwtrCiCodaYjhH3o6 hUU50pAzw///mAOgkAoB2rb+D65zYDS2pAIQQFgdDk7jwNC0a7aDVBh6oohmLGz4ANY0RRnX/o82 ZPwfpQsGH3lFCmGwODwTMiA8ygAL6f9YJ2UAAghnUoE1lIR1hVHb3//+oYQ83GGwjIqU1v8hjUrB MQNqJkTOC0hj1EixBA15NAAQgCzrsAEAhEH8f7NSYxc1fkAbSBhf5ryfdAe4TeG43B/RG04IFYPP 7wzC5jAC5GwJTEV/ZrM+QmCZE5uVOFeaFmfOEUDoXbd/sPY4uOuF1LyFs//+Q53TQcpgmI7+h+RQ RBJigI5iIZqxDPDkw4DU40GOIehsBNzxAAEEa6uAR7GAGDSRIwgaX4HOufBAZwLImg+lAgA59DsQ fwHiD0D8BtROAfEBAgg5xEF9td9QhZ9hs1tIMwED5fCfSG76DnXjX4AAQnf4L+QpOaQ5l4GaOv8H dfwvqKO/Qtl/AQIIPY3/QtLwA336YoAcDnP8b6QJ2n8AAQYAbr0qlXcaTlEAAACEaWNPboAAEAkA ABAAgAAQDwAAAASAABABAAACIIAAEAIAAAHSgAAQAwAAABSAABAEAAAAFIAAEAUAAAAAgAAQBgAA AACAABANAAAAAIAAEA4AAAAAgAAQB/////iAABEHAAAAAYAAEAwAAAAAgAAQCyhJY29uIKkyMDA3 IEtlbiBMZXN0ZXIpAO62wdoAAAAASUVORK5CYIKJUE5HDQoaCgAAAA1JSERSAAAALgAAAC4IBgAA AFe5KzcAAAtkSURBVGiBzVlbbBTXGf5mb2B218GLscEYAhsBwXbAwcSGpAoQkkAhIQmBqKqiVhFv UdQ+RIry1Kc+RK0aqRUiD5USISXKQ9Mkyk0hgtwTUojDxTahgRhjfMOX4JlZ2BnvnP/vw8w5c2bX 1M5L6Vijszue3f3Od77z/ZcxmBnyGDi8I+sZUw0CRgb/R0ccXEhwaqhx+4e2vGZI4AOHd2RFxmyL zymuMmLccNNQTnMwGUPCrfohXrilU4I3mBkDh3dk3arJDelcVVs8tbgtMWde9maD1Q/PvW6X3OHv ileL3xZH05137PvYNi5/uF2BnpO9uy1Vvbw6llpmELFxswHLQ7iXMGVfslzr605rvNgprmZOJDxj qiE511kVT+XbUtXLq187yzuJL4KZQUzqjLwnf9yX3wcO/scAmAnEDDD7I/kjMalrJIL75XeS/1qN zGB1zT+Z87hrHX9UKl68KzGnp+AaqeGYgJExYtwQS1ZVI7E0JsEJFhAsEHlP0ZNBYEjQPgjIHyYO JqwBFMH9wT0SrDqJwRSSwxRMkgQo1pCIJedWw+BG10N1Qi4HMxtEFBMkIixL8BKIzrjPHIMJPlPl J7FiV/9/ZELyu+UktMmQup9RKolEySOUShx3SxRLAAAxG8QwiNjwyKuQiQQaAU0Mn2CG/ANrQAmB PPx7wQRmBEuvyYWgSUNek5KhQGqMkuclhGAqeRwvOiKe0DcBMxszAdbHgOpKphXjmuYJGmAOJx5Z PVIME+krQhCeiBNxjIhjAFABPMJ4OXDtvRBiGokErEGXh880I3wfbsSyDVrGMtTKMgLQBhGMqalA KjpwpXEKNc7E0LUf7nYK5EHhxlQ/KicTlYeuZVLM69pmtZpCBCT4WAxmGMwwKhgHAB24PgoS4fIp 5kOmjh8/jjlzUigWHWxoa4tsPGZG/6V+LGlcolg1TRPmpAkGY/HixVGdg8GCAUin4XKYMwMXJBRY CV5fEblB+/r60N/fH7y+iJUrV+JMVxfAjE0bN+GH8+dx6dIlXBm7goceehjvvPMu1qy5HRcuXEBD QwMGBgfx6COPKN/X2dfzKXnEpgPuCU95NRHBEx48Cq/J/ysJEAMMtLS0APDlcfXqJEavjOLKlVEs aVwC0zRBzBjoHwATobZ2AYgZ+XweY2PjcB03lJ++MaV0ZmLcE970G7LstVwJycyePY+BmLB16xal 440bNyp3eXj3Q2BitLe3g5hw/7ZtwfcxWlpaFGjl3cqRgnFGqbCIyCIiE30CFFobMWNy8ipM08SS xsYyR/HHnp4eZDJZNCxZrDYmgGAjMk6fPg1mRktzMwh6YJpeKjdkXDlJ2eb0Q3HgNtrme/PNt8DM WL9+Pbq7u+A4DmprF8I0Tezd+zjOn7+AfD6Pzs5OrMivwOlTp7DviSfwxRdfwnVdOI4DMKOpqSkS /uXEZ6VxIUIde+T5r+U1bdQ30sK6Wkyak3AdB7flb0M2Ww3HceC4jrI3y5wEwLBME+l0BkyEc+e+ x+DgQOjzFDiLtqKzdhUflMaszr4uI5ljgLF9+y/x4AMPqh9a17ouCCZ+xNy5a5cWXELffuqppzQv 1zPRMEP0CY9m2RWMKwcRIhwl+yJkXwihZXUEBBMkLaD4P+5P8tTJUxHQpM4wmBExTNMKNjercTqp VDIesK0zHPFw0vUfZoBHP/4Ely9fxsKFtSBiZLIZjI+OYkU+jws//ggwo/mOZnzw/gewbBupZBKW ZWHx4gaMj48hl8shlUrBsiwwM2pqatDa2qpWbUaNK02XaV2+j2qcAm0SXMeB4xQxOWnCMk1YpgXH dXH27Pdhiku+x2fSGdy6/FY4rotkKoFMJgPHcVFTUwPbtuG6UygUCoExAMxidhpXPk1cwbY6BUVc JZPNojpbjT179oBAYBEGED2X3779Qf+6YDStadISK/+78vkVSia+VASmccMbaDxg9IUdL0Q0rZ+e 8LTMjdDR0eGDZgZpyVEkKRMM0zL9SiiYFIhgWhZ6unq0lQkmAh80zVrjAcsA8OLDL1Z8aP9r+yNB iIhx7NjXSp/MjGQyhfGxMRAY2UwGzIzNmzfjjX+8gebmZkxMTKCjvR2WXcA33xyD67ro6u5COp3B unVrUV+/MJJBzgjcE54CBQC7n98dSXbk6/rW+sh107IAChhlRiqVwvIVy0HEOHHiOFatXgVmRi6X g20X4DguLNtGfX09kskk5s2bB2ZgZGQY6XnzgsKDVd4yM+Oanp/+59MgIjS0NaiVUC4jRMS2tt23 TeUVyuMDu2xublKT3LVzpywM/GKbGDu27wBJO9X9W6uYyo/KyKnp+ODjB/Hen95D+7J2dCzvwCtP voJDvzkU8XHdhwUTBgYGQMw4dfq0qmRkJPz2204QMyzTQnd3lx8dgxxoeHgkjAvMYTcg+PzPksr+ 1/ejKdGEZ/c9CwA4cOQA3nrnLTAxFrQsUMGHmXHy5Cn09vZiwYIczp49i97eXjQ3N+HcuXO4eLEP y25dhr6+PqxrXYsjR4/Atm0MDQ1hYuIn1C+qRyqRRE93D1bfvhp1dQtDN4JfUMwsFU0SL//6ZR/w 0QO4PnYdz/3qOTxz/zPY+9LeYAP7eTgTobe3F+PjY0gmE3Bc168zmWFZFsAM27KQzqTB5AcXy7JR X78Iw8PDSCaSsAs2GIy6+jplsWE9W4H7vzP+5KEnMfLdCJgZ1Suq8ehfHsXVC1f9yNZUE7Dt63r3 I7sjfszBd9y5/s7wfWCRv7jnHtx99yYQMVavXhWWbHoNquTyMyogeb7621dRu7YWR/92FLGqGGJV MXz20meYv2Z+mB3KQKN5tZ40SdCWbYFFeTMpWjz495edN9icN5SK9M6RkyMAgLHTY6hpqgEAjHeN 45bbb1GMMzOOnzgO27I1H08il8vh2LFvkMvVwHWnwMxIp9NgJmzesiWwO73g0DsEQaMIPyPJYmYI 4QegTw98CgD4/KXP1T2qtNISfcuygUDTzIxMOoOurm4wExLJJIgIyWQShYKNuro6rZFEYZApm4B0 lumyrArg0qOZGY8dfAxjZ8YA1RsJs0G/IcQqL9ly771BeI92sfTJERG++uprLF3aCIKIMFrJuN9I AtE0nnKDzSmTq7effhu7/rorrP3IbxPLJItQWXvqoPXSS+p608ZNof6lfjX3iL5nucSzk4qu8fd/ /37Fh7b+caufHeqdJrA2wbC9EHarwtUKG6HSQRACJV0mUG24WUlFMgoAHfs7lFR0yaRvS6uQHm0p lK9AsOSKRdKkoFkgglYE4Hd+KRxnJRUhhM8mMR748wNgYmRXZcvycC7Lx8O8PNoyjpZgUiLQGGYO Hg9wAFZOFJJpP8jNCrhcciJCemU6Ih856oFClnAEvdANHqHo1brmFPojFyktdchoKXU/DfIIcMMw WLEa1JUKZIRp9iscgqZn3drC7i2x34qGdBCSG1K6hn8fWHcUQGYpHDwwMAyDDQNsGP4sEnFwgYUx JNxiIV66PF940aI4BKn18QgVm5ADgFHQpAENJQT2OQzTWCj5QKt4IlliaZA8t1goFnnEK5GdSHBq yL4297xnDOY41rfhy+d/92kJi1KlKS/peSIhBMWYb/To0J3mmoGwBxKf/mOzPAzD4Hg8RgYNe47Z b/80OtA9PpY439ltDxnMjMMH75mfa3Q7sguq2lNVizYYibnzSx4lhMdxIo4xbs4zTwMGx2IGldyi PTE+eGawr3DiyCfXjh16t3/UYF8/sb//obVmdYvRMWeeuyYW46UljxMlj+NCcAyMm/Ow1gDH4wZd u8YjE2Pxf3/wkf2v1z8cGAfgSuAGgPiB59fOb1iUXOYx5l93RGJqiuIlwTEhuCKL/F8c8bhBybhB U1PCOnHGHjj0bv9PAKYAiP8AMOx3ElGrG0IAAABIaWNPboAAEAkAACAAgAAQAQAAALmAABACAAAA k4AAEAMAAAAUgAAQBAAAABSAABAFAAAAAIAAEAYAAAAAgAAQBwAAAACAABAMAAAAAIxUgdkAAAAA SUVORK5CYII= "
       preserveAspectRatio="none"
       height="16"
       width="16" />
    <image
       y="12"
       x="8"
       id="image10-3"
       xlink:href="data:image/png;base64,iVBORw0KGgoAAAANSUhEUgAAAIAAAACACAYAAADDPmHLAAAABHNCSVQICAgIfAhkiAAAIABJREFU eJztfXmcFNW59nNOLb3OvjPDMDMgMCCCLIKBIHpdoogaQW+iGEk0CeaaKyaamOhNyDUmJtFPFDTG mE+TkCtGjHg/cuUmJrgrArIosg07wwwzw2zd01st5/ujq7qrqqt7ema6Zwbh/f3Or6tOV1VXnfc9 z/u87zmnGjgrZ7SQob6B003WjRxZTgiZTQAvAfwEePfqo0ebh/q++itnDSBNWVddXRMIBh8ryM29 Ls/rhSgIUFUVwVBIbu/oWO10Ou+98tChtqG+z77KWQNIQ/6rrGy2wHEbRldVed1OJwAgIkngKAXH cVBVFc2trc1dPt/tXzxx4q9DfLt9krMG0Iu8VFVVoyjKtgm1tfmKouBEayu6/X6ojIEAcDkcKCsq QmFeHvyBAJpaWlZxHPeDqw4d8g/1vacjZw0ghbxYVcUHgsGN59bWzpFkGQcaG8E0xRMAhJDYdq7H g5EVFeAoRePJkw2hcHjxNceObRraJ+hduKG+geEsVzscd48oKrrd5XBgz5EjYIxFvyCWfkMIwpKE 9s5OuJxOlBUXF3Ict2QBz9OvFBW9+6fOTnXw7z49OYsASeQP5eWTBY7bMqmmht9+4AAikhTr7YC5 91vRoDAvD1VlZVBVFcebmz+QZHnJNceO7R2iR0kpZxHARv5UWekMRSIbJtXUlB9paUFnIJD8YCMa aNvBcBid3d3wejwoKy6uYowtuUYQutf4fJuzfOt9lrMGYCNXOp2/qi0ruwaM4eDJk9FKK+xrwuy+ IwSKqqK9qwsqYygtLBRzvN6r5nPc9FsKCjb+qbNz2BDEswZgkefq6i7yUPp0TWkpdhw6BFX3+0ii bKPYoEEgGER3Tw/yvF6UFhWNjUjSkmtF8eCLPt/u7DxB3+QsBzDIC3Pn5nft2vXxrLFjq/Y0NuKU z2fr4xP8v6EgCTfgCEFFSQlKCgsRCAZxrKnpeVEUvz3U4eJZBDDI5zs7nzt35MjP+UIhHG1rs4V2 XfqKBgyAr6cH/kAAhfn5KCksnBIIhW5a5HZvf6G7+0gmn6MvchYBAPzjL38ZR9zuDd0rVtSM6uzE u/v2QVVV+16dgv0nFJtjAYCnFJXl5SjKy0O3zyc3t7au4AXhB1cdOiQP7pOfRQD8c/16nsvL+x/C 8xPcc+eiTZZxats2MEWx9em2+1ZksIoVDRhDt8+HUDiM4sJCWpCX9zlfT881N3q977zQ3d2akQdL U+hg/thwFOpy3Q9gOgAwxpA/fz7OXbkS7ro6MMbAEFUqYyy2rwJQGYt+6tvaPrMrSa7T4fNh78GD CITDqKmqmlJUULDl1crK7w7m85/RLuD9d9+cKav0HUVReL2O4zjwPA/CGI79/vdofOklQFFSk8A0 CCJ6Oa+koAAVpaWQZRnHm5reACG3zD98+Hi22+CMdQHb3nvNG4Hrb4SQYp7nYz2TEAJKKSjHoWDa NBROnYrObdsg+/19cwN9DRdDIXT5fMjNyUFpUVGNJMtfu1YQDr/o8+0a+NOmuJVsXnw4y4fv/vMx CY5llFJQSkEIgSzLkGUZHMfFCqUUiESwf8UKNG/YECNyA0GDVOEiBVBeUoKyoiIEw2EcP3FiLaH0 6wuOHu3MRjucsRygXDjq93Ld0YbXer3T6YTH4wHRiJpeqNOJCfffj/N+/nPwubmJPh3J/b2JKxiK kQsYz1MBNLW2Yv+RI+AoxZiamkWiIHz8cnn5v2SjHc5IF9C19ZcT8/mO54v4Jp5AQZAUg2hIwHEc RFEEIQSqqsbQgRCCnNpaVF51FQJHjqDn6NEEmGfpRg1WsbmOJMto7+qCwPMoLy7O7ezqummRx7Pz z35/RgeVzjgX0L3l57yDUzYDbApjCpgaRkDNRRM3CzJXAKNLUFUVkUgkhhBGt3B07VrsXbUKSjDY J4II2LuEVO6jvLgYDlHE8aamTp7na68/cSJj7uCMcwEClR8EMIUxFUyVwFQJTrUJ1ZGXkSfvjPV2 QggEQYDX6wXPR4MEHbYBoObGG3HRCy8gf9Ik2zDPFCIathNcBnoPF5va2sBRChXIlxXlm5lsjzPK BYQ+Wj6bEu4ZxlTKmIRoiYCpEqCG4YrsgygfR8RRC8K5Yj3f4XDE5v4BiBmIIz8fNdddB0JpNHmk qv1KHhkl2egiASDJMlRVldcGAn8acGNocsYYQHDrj72UCq+DsULGpFjvZ2rUABiLgDEJvNwMV+AD qHwBmKMyZgSCIMDhcEBV1Sgx1NwE5TiUzpyJiosuQuvWrYh0dPSqeJbsO6sYvpMUBUrUAPmXA4HH M9AkAM4gF0CpsBKM1TAmA6oE6AigGj41gyByJ3Jan4an5RlQhGM9nuM4eL1euFyu2HV1qC6YOBGX vfQSxtx8cyLzT+UGUrgE43kRWYaiqlCBjIaDZwQChD76z2sJwcMMSqynM1UClAigo4DRJbBoHQ01 QOjcCNU9BsRRFiOIgiBAFEUoigIg7hI4UUTlvHkomjQJLZs3Q7ImjzIzurjhL4HAq5loF+AMMIDg 1h+VU8pvYEx1myDfoHSwSKJL0L6H3AG+428gqh/InQ5KuVhE4HQ6o4RPVWOughCCvLo6jLn+eviP HUNXQ0NGw0XG2AOvBIP7M9U+n3kXQKn4W8bU4ngPN8J9vETdQsSCAhLAGMAU0Ob/At11C0jwgEnZ DocDDocjljwCorAuFhRg7pNPYubDD4O6XCY4T8b2rQmhhMLYB185dSqjC08+0wgQ+ugn3wTId1KR PivsQ5UA7RgwGSAcGFPAmAwWPgn15EsgVADNm2YKC3UDMBoHIQQF9fUYNX8+OnbvRk9j40DQwM8Y u/zVYLAjk230mTWA4JYHRlMi/AVMFqFGNNIXMZC+iC3k6wYBJgFEAJgaNQTI0U81AtbxNtTOD0Dy LwSjHlPaWFXVWLJINwohJwejFiwA53ajZdOmfoWLjLHv3Nbe/r+ZbqfPpAEEtzzAU86xnkGps5I+ O2Ub8wG6QYBwICBm5TMFQJT4IdQItWkt4BgB1TnGZACSJIEQEksgAVF4L5oyBeUXXYRTO3YgfOqU reKZYdsg67/e3n53NtrqM8kBCBXuZ0ydZfbzGqnTirn3G8JBJoFBBSECGNRoYVqBZYGP4gPb+11g 711QpS6oqhorPT098Pvj8z11l5A/fjzmrV6N0bfcYppIEgsRkcAN2lTGvp6ttvrMIUBo64+mgXB/ YEyixt5vVnYkCemLAKoMynsAMK3XywYUUGx/kwQPgrT9PzDXOVDFypgRRCIRhEIhCIJgIomgFCWz ZqFo6lS0fvgh5J6e5G6A0pvuaG/fmq32+kwZQHDLA15CxQ2MSaUJSrcqO5YCNvMAyjlBCA8wGcwA /9Ht5Ev8iNoDrn09oHRD9kwHY1GFK4qCgLaySBCEuBEAcFZUoGrBAgSbm+GzhItaXuD5f2tv/0V2 WisqnykD+I9vXvIooFwVz/SlR/qgkb5oatcbZfya8mPbTEGSKZ8mEaUTcIX3ICKOgUJzY7wgFAoh HA4nhIxEEFA2bx7ctbVo27QJaiSiG8JhT13dglebmiLZbLPPjAGEPlo+H4StMMb6iaTPQv5MYaEM TijQFC2b4V9Hgl6EEBGCuwZU6YbTvxEMBGGhLppKYAyyLMPv98dGGo1o4KmpQfnll6O7oQGhEyfk nLFjr/na1q0HstdiUflMGEBwyw+LCeHWM1XKtSd9Nr3fkgugfB4I4cAMvZ4xWdtXkAr+dRE9dVH3 AQVgMsTgTjiC2xESJ0Ah7hgaBAIBRCIROJ1OExpwbjfKr7gCYlnZzhv/8If7s9tqUflMRAGEOn7N mFxln+mL+/rYAJDlOEKdoJwLgKrF/Vox7vcivKMseg0tYtDPFyL7UHryHrj9r8fIIWMMgUAAJ06c QCgUik8U0SKFkrlzP8hqgxnktDeA0NYf3cqYvCghvWtVdoz0mUM/gGnQb1E8rPvJhXJu8I4KrScb ShT7QdQgCjt/jZL2h0Fkc7jY1taGzs7oAJ9mCA1KKHRvFpvMJKe1Cwhsvq+GEG4dVMlp8usJkG/m AbFcAItAcJQBhGpwr5jhX3MBqckfgegdC0IootAfLSyWNFJi9YJ8DDnBvyPMVSLCjYhdQZIkPVyU VSl09fTZnz+U1YYzyGlrAIHN9/GUOl5mTBrPmAbxfSF9agQcnwfK51iyfTISs3/JRXBVa9fQFG9Q OmOKhiKKlkRSQFgA3uAb4NV2BMVzwYgAIEoSpbDvZzMvnPvHLDedSU5bF0AIfxdj0rxE0hcxZPqS DwCB8ODEIiTAfYLvT977KZ8HXiwFGINxWgfToB9giC0YY6pWDwAMeaENqO5YBqcUm+S7RWStP8li k9nKaYkAwc0/mAxC/8xYhJpjfCvpi5hRwHCc6KqOQ7+J8Rv3U8T+hIfDO06bV22AfQ36WRJ3EE/8 AhzzIzf0D0jciPUEytJZl3xlUBeGAgDf+yHDSwIf3usE4Z5nTOLTI32J5JB3lIJQRzT1a9frjftJ RHTXghBeM5bYSH9Uwdo1jBPDopEBS7gmgfr6tC/8aEH2Wiy1nHYugFDhQTB5iinPn5Dvj5iMIpYL YBIodYITizVIVrQBHyUWvjGtl7IU8M+JxeCEQiAB9tUY9Nu7A2a9ZqdES76azfbqTU4rAwhs/t5F ALsnTvoSlZ1q5g+YAsE1Kuqz9eQOU2LGAMRJW7LeT6gDorsW8V5tCR1T1FuvyUCW1iw8kPUVwKnk tDGAng+/m08Iv9oK5+bhXSvcm6MBwVUNQgTYx/k2LsBGRM85AGjsGGY415gASqxn1muuqbqh68Xs tVh6ctoYAKXOlYxJVYmkT4oneKyhn+F7yueBE4rN4/tMtd9PonzeWQmOz0UMzjV4NyaAUtbH5TiA O7LcZGnJaWEAwc3fX8iYtJipEphi18M1NEhC+gihEN2jkVavj/VWs1DOA8E1ygTviSQvbfK3uPKG 7qws9+6rDHsD6Nl0dxWAZ239fEKcH3cLxkkegnt0NFNnCNNi2yZjMO4bhUD0jtNW0vYF9o31MaNa UXlD95vZb7n0ZNgbAKWO3zIm54NZSJ8asTGI+Hc6GvCOCnBCoQnezXAfjdOjxR7+RXcdKOcGksB7 svpYBBDv/Z8A5AeD1HRpybA2gMCH9/4bY/IXjD4/nse3I33mQqgI0V2XOs63cwkGoUI+eGelplwb Vq/3dpv6aO+PhX4yQBZX3tAVGrQGTEOGrQH0bPrOOACPmBRt2EYCD7ASQxmOnIkgoEhL+TFFGvw/ 4eHw1mt1BjjvAwcwGNQDlTd07Ris9ktXhqUB9HxwF08Iv4YxyWkifRbYtw3/tO9Edy0on6NBfC+s 3xSqxcXhHQdKHTDDuTXvH0/+xNb0MGO9CgDvAPTRQW7GtGRYGgCh/I8Zk6YkjuglZvxMLkHjAZTL ibL+WK80D8tGe6Ux8WOE8KjwYil4sSwNkmdJ/8aUHgv9/AB3S+UNnYP+FtB0ZNgZQM8Hy2YC7D4w S8iXLONnIn0RgDE4c6dEmz9przeighLb1+GfUAdEbz1sYd9gLOnl/cmdlTd0HB6a1uxdhpUB+N+/ 00sot4ap0YGe+JKu5Oldq0E4vPVRxm4X6/c69BsVR85EEMpZFGno2Qn11rx/LPRbV3lD1+8HtxX7 JsPKACjnfIwxucZK+pCM9FkMghNL+8f6DbG/4KoGLxTF/HpypRvrrddkAGPNIHzWVvRkSoaNAfRs uns+Y/LtTInY9PD4ZI/EnL/2HaFw5U3TRvPMcX1i7J9IBIFotk/0jO1fosfkIhhAyO2Vi9qH/R9J DgsD8L//rWIAz6c1oqcaSV8cBVx500GoaOnlxoyfefQvtq/3WBA4cydrC0JZXJF6LM90dh9HBiMq MCMqgKyqXNRxWvyB5LAwAEqdz4FJxfakzz7jZ3QLomsUBGdlL/Buo3xD6lf0nAPK55oVaatgY8ho N+WLNRBCh1W2L5UMuQH0fHDXbYxJV6dN+iy5AEqdcBbMSCvOT+YSOCHfNFjUP9hXAagyCF08YmHr sPlTqN5kSA3A/97SGhC2wo70JbJ8m2FepsJdNAcEXPrEL4G0EThzz4/eULIQL1avx/w2sB8N+X46 YmHrsP+3UKMMmQH431vKE87xAlMkrx3pQ1LSFzcKp3cCeLEEzDLCF53MGVeetRczA5Q7vRO0gR7d 1xtKwmCPDv2GSCAeGWwB4R4amtbsvwyZARDKf58xeVZCD7eu3FHtX97E8flw5k+N9VQTo9cTPAbD iO/Hv+cdpRDco5IndNLP+/tBuMUjrm8eltm+VDIkBuB/747JAJabSZ99YscuFwAAnuKLoxfrlfjZ EUEFhPBw5k5OoeAkMM8MkUFssIfcN+L65mH517C9yaAbgO/dbzgJ5dcwVeJNL29KNskjYbKHAlf+ BaBCfrTHq2kSP8u+M/c87TUwcYhPvaDDhgNEj11fcX3zk4PdjpmSQTcAQvlfMVUa3zvps4sGZPDO CjhzJ1li+zRRQKsTnFXgHGV2LD553j8R9gGobSDCsJjb118ZVAPwv3/nFWDsTjvIt1/Hbz6OUAHe 4kttId00speU8asg1AGHd4L5GgkDOHF4TxkSgiyt+OKxIZ3WPVAZNAPofm9ZPqA+mx7pSwz9wFR4 ii4G4dxxSNfhPwbxiiUVbNzXWH/uZG0lr3mM38jqWRze4yVxytfzFV9sfHmw2i9bMmhLwwihjzFV qkro4UnifKNbAFMgesZC9J6DtJZz2e4rEN214Ph8RN/5kxrykaoe6mEQ4duD1XbpyjMHJ0yOKJ2r AMwC0MAR5/I7xhxMufZgUBCg/YOHqiKkYrFCixBdS9dLpk815gJkUM4LT/ElMM3atYH3VL6f8l6I njGx7/oX+jGAqTLALam47vCwyvb9uqF2dkTpfCffWT9nZN5VfKln5ngV8pqnGmpvTnXeILkA7loQ yitcKRRxAhjEuLLtZv0YSB8AeEuvAKEC4pM5DBM60mD8AODMOQ8AkHxqVy/1sciArCi/7vCwmdYN AE811M5WmbRhbNFXvSPzvgACigLXuTiv7B5wxPH8Uw21C5OdOygGwAg/ByDRkTbOC+aZCYjVSLqk S41EYRoMzrxpEFzVtpBumuKVwgUInjEghkki/R7uhbodhBtWAz1PNdTOZ0zaMLb4q15/5Cg+PvkY jnatx9623+FQx8uoL1nKE0LXJDOCQUIAUgVCtPffEYBwgGcySN7FABFtSF/UR3NiETxFc01ED5ae Dh0VbImfog30VMMK70ZXkTrvr/8GCwHckvJrDwybbJ+m1HUTSr/l7Q4fRKPvH0baiq7wfhzpfBX1 xd/gAax5an+iEQyOARBSE/sTNBIvRBwBrvRGEOdowDT3XwFAkFN2dfRYZlGQNSZPQvwIKBw5EwE1 cel2qry//VJvPFB+7YFhM637yf11CxnDmvqSpXxrz0c40b3RFLTopTO0Fyd8b6G+ZCnPgDVPWoxg UAyAGBFAQwGiGQOhTvAl14AvvT72ilYAcBd+Xnv9igHujeQujdSvI6cehIrxrF6a+f3E/ID6Rvm1 B4bNtO4n99fdBmDNhNKlfJPvLZz0v48U/0aIU4HtaPK9hQmlS3mArH5yf+1s/VpZN4BTmx+vMcG/ BQX0Os57HhyjvgvOMxa8sxKuggsQm9lrjPPTTP1yYik4R0ncj1tRw6r45BygE0S4JdvtlK48ub/u LkrEZyeV/Tt/wvcW2gLb7Tp+QmkLbMcJ31uYUPpNp8rkDav21cwGkP1/Dm3f/MQ8gG0EoZrSqfY+ vPg+CNGSM9F9KrdBZMFoLoBFtNAwSYllD8Px8BEErvxpAACmKhrHUDRuIYOpcnxbfxewanwvsHFb XVx2zb6M/U/fQGTVvrq7OCqumFi6FEc616MjuLvP1yj1zkSuowYNp170c8R5fvZdAEFlAvRbuYCl ThVLEREroVLBDMtJY3/dPUSjAkdOfZRoGkfubJI6vaICU9cOF+Wv3Df6QUodKyaWLsWB9pfRHtyd Vs+3lpP+TQgrPjDAy4CFg5AJJFXapy30J6tn1AHJWQcaaQINHe0V8vVt3lkJTshD7OVNVgWnGfoB 6nEQYVhM6165d/RjDi5v2YTS27C/7UV0hw9hIODd1P0OwAhUJnsHIxUc4wDEhgcQG2MgBmNQnSPB hDzQ7o8BFkKqdC/lXBA9tUlQInEhh01+P1bPQJaULdg15C9xeGLv6MdEPm9ZfckS7GldDX/k2ICv GVF8AABC6IbsGwCJRgDpQL+pzljP50MtnA34dgL+A0lYP4PoHQ+ARCFftSo3uSuw5v1VglXlV+/+ R9bbJoU8vX8aH5RP/tbB5S+pL7kVn7b8HgHpZMauT0CW/fv4Q+8OhguoSQr/faoTgPzpYI4KsPa3 waSgyQUI7lGgvBtQ5USf3re8/56AwA3ay5rt5Nf7pvEBqeWFPOfoRWNLbsSu5v+LoNSCDHL2Zcsm HHscGIw8ACFVRI8AksB8X+qIuxp0xPUg7mroK3wp7wXvHBFXZCz0MyzoQBz+U+T9ZZ/D8aW6K3YO 2Uscnto3jQ/KLS/kOesWjSn6Ij5p/h0CUku/CJ9NkRnYnXdrygeyPBzcvu1pL2EsP8Hv28B8r/zA WMd5wFVcC9K1HXLL6xC9Y7VftE7tMs7dY72Sv4BIl4++7KMhy/Y9uXe6Nyi1vJTnrPvCmKIvYmfT bzV/nZGeLwPsS9+deNw0hyHbLqDGDOl6rJ9+NJCqjhZMhSO3HqRzJxBuNZG/dJZ0+zgJ7xe1o9kR BscIXMxR/NK26fwN528Z9Hy/pvzXSr2T59QUXo7tJ55GRPZl6vIyCPvSPROPJUxgyaoLICCV9pBO berMxpCyzljPe8GKPweWOz6asU+Yv2+M7eORQJDKeK24Ff78SowsuhzlhfMQdDiXHRZa337+4+nl 2WwXq6zaM8MbkFpfK/FOmVOV/3lsa/wNwrIfDCQTJcQAW+UD2eYAhNT0G+b7Ei4SCuRNBMovAxNz EGP9dlO+wCARBa8VtaCibD7GlSwEJQ44hELMGLkMpZ7Js1rQum3lrkkzs9o2mqzcPaM8ILVsLPVM njMybw62Hf8twrLPNE41gOJnjF1677lHk05dyxittJOO7c88CEIeAKHa4I85/QtQsxJNdYZjoaWK 0zkOCtRTH4K1bzOndrVUrwIJfy1ogrNsJlxCMfa2rtNcBODgczCp4hZ0hY6gofU1mRJh2T2T9mZt yvfK3ReUB6SWjaMK5o4v8Z6LbY3PQlEz9i9xfgL2he+dd+TdVAdlGwGqEnx5L5A+4DoqgpbOBR15 DcB74uQPDCpUbMxrBQrHIdc5Cntb1oGpaowihyUfth57GhxxYGrVN3hK+FUP76h57olPL3Bmumme +PSC8kCkZWN1wdzx+a7R2Hb8WShKJCNUHwx+sN6VD2Q9DCQ16UE6jdcNKFyk0Ikm8Y4BP+ZroHnj EQ3xVLznbUN7fhkq8z+HT5r/DIUxqCCmojCGT0++ghPdWzGj+k7kOCqX9Eitbz++a2ZVplrl8V0z x/VIrW+PLJg7Pt9Zh+2Nf4CkSgn30s/SzIBZ35/cu/KBQeAAA8oADiBCACEgnAf8qBvBVy/ER95u HM5zYmzpAuxoXN1rb2vs3IIdjX/CpIqbUZEzdXpAatn8ix31Fw20SVbsmjkuILW8Ma5kwZgCVx12 NP5RI6jJ76UPpRmMzbtv8uFd6d5PthEgYSJIasWZE0a2MG9zfuo6it1iB7Z7gzhvxE3Yfnw1wnIA KiO9lq7QCWw68mtU5s3A2NIF5Yoqvf7w9vq7+tsaj30yc1xPpPWNcaXXlRMiYNvx1VEUSuNe0ijN jGHeD6Yc7tMaxayRwO0bflVVU1l8LBb/a8owhYHGuQC2x6V7LrU/jhA0BD7Ea6eewIxRt2NX0zp0 hfo+mEJAMa5sPvJdVdh2fDXCsm+1Wyi74zuT3k97avjPt9XPVlh43YTya4sB4NPmV/t8HylkDwG7 8v6phw739cSsIUC3L5hAAAcSBvYF+vW6iBrGhrZVqC6cjX0tf0dn8Dii/+rdt6Iyht3N63G0fRNm 1dyBXOfIxT2Rlrcf3XlhTTpt8bOPJsxWVHnD+VWLixmAXU3/3a/7SFL2ALi4P8oHsvivYS63e+b2 3UdvlCQFJUV5EAXBHMohsbcmD/lShYFc0nNPRg5hW/cGOPlcNHd/ChOn6EfpDjWjvecQplR9CYoq lbf1NCy+dGnFR//8TeuhZO3w0NYJs1XIG6aOvNnbFWzE3pN/G/B9GMoeQtjF/zHtYHN/9ZQ1AxBE x1Ub3tx5+bq/bcGza/6Jj/ccBQMwpmYEKOV6gX4rzJsVb4L+ZMYECoFzYXPnf6M71JSx5wrLfjR2 bse4sstQ4B7lPtm9+6ZLv1kR+OczLe9bj31o66SFCpPWTqu+ydvecxgHWt/K2H0AeIcQNv9H0/uv fCCLHGBM3ajHunyBZfo/ZgOAqqooKsjBt269ErcsugROh8PUq4lF8YnzB63H0hTH0gafcuqnLzb+ pLg90vhIpp+PEIpxZZei2Dsam4/8EWHJv9Yjln373invND+yYw4fkjpvY2CrLqz7Gn+i82McbEsr KktX3iGEXfnjGQ0DXp6WNQMoLy9/hTF2nf5v2XrR94sKcnDvtxbi5oWXpIB+q4tIC/qbJRZ5+FTk +G/qRlwfAoCHt0y9Iqj41gDIz/RzjsifhAkVV2Lr0TXo6DkqI/p/QMUcdXgvrFuCw6c243jHR5n8 yXdA2JU/uWDgygeyaAAjRozYzBibris8mSHMnDoOK376LVRXliaB+WScIaGukwE/VZnyZE7JjITx /F9unVnjkzpeAjA908+a6yzDzNrFONVzGKd6DsMtFmBkwfnYdWIDGjs/zuRPrSeEffk/Z+7P2MLU rBlAVVVVK2Os2GoAdoaQ43Vh5c/uxGXzZvTCBawhX1TxAFYAeNxTMj2nDoXGAAAHm0lEQVTlHL7l m+p5RVVWMpClmX5enoqoKZqBfHcFwnIAR05tRXcoc1O4AKwlhH35wVn7MjpUnRUDqK6udgII2ine +AnAtL/8e0vwjVsXwHaghxCQmM+nACEhgDwNsIc8pRf06Z2897837l8BPAvAm/GHz46sJYR9+acX Zlb5QJYMoKamZgyA/b0ZgBUJVFXF7YuvxoM/vD0V9MsM5GnC2EOe8ln9ZsD3vztuHGNkLYBzM/bg 2ZHVhLCvPjR7b1YmqWTFAOrq6v4FwOvpGIDREPTte799E+6+41+t0C8DZDUDHvKWX9iQifv84Tvj vCqjKwEsycT1Mi9sxcOf33N3Nn8hKwYwZsyYWwE835viU6HBE7/4DhZde4kG/WRdOCLfWzhqXkYU b5X73qq/jYGsApDxYd/+C1vxi7m7s6p8IEsGMHbs2B8DWJ6u4u0MwOVy4K8vPrqOUrp8ypybsj5R 83tv1k8GyFoAY7L9W2nII7+86NNBmZqeFQOor69/jjG2pDeFpzCEN84ZPXL5ps073szG/SWT7705 IV9l5DkA1w3m75qFLXtk3qeP935cZiQrBjBx4sS/M8Yu7aviVVXd4nI67jly9NigKt4q92yceBdj 5BEM4lvUosKWPXrJrkFTPpCl0UBKaRWlFH0o210u13UtLS0zhlr5APDIxbseF5TceYyR4xkcteul 0EFXPpAlBJg8eXKQMeZMo8c3OByO5Xv37h0WS7Ct8uP/ubq4SzzyAkAuzeLPyDwTv/TIZVuG5KWT GUeAOXPmFFNKnb30+MM5OTlLxo4dWz9clQ8AP7lqfVtRcOKVgpyznDHIGZqqbSwyr7iHTPlAFnyc 1+utCQaDiK7KhfWzOScn5xcjRox4+pVXXonl6++77z7icrngdDrhcrmI0+mEIAjgOA6U9slG9YFy oI/oFp0zrEClYcgkBIWGIJMQ5HAQLqn0Z6cc+z7w802rART35bopRHaoOV9+5Mp3hvR1sxlxAatW rSKnTp2Cz+fDwYMHrzt27NhfLFDfmZeX98jIkSOfyM/PD4miiPz8fOTm5oLnecrzPOU4jvA8TziO AyGkP4qniM5v4Az7mRS1WzhesS933TMSCQ100Yi/LHTeouLw+DcpE1SOCUwhYfDMBU51gmMiCDgW nSgbm/KpS2x78eLFzHrhvkraBrB69WrrdBT9fBoOh2k4HCaSJJGdO3d+85NPPnlUC+e6amtrn50x Y8bTFRUV1oVu+nV4AALiyuvPM+jKF7XCI7YQMSOiLyuSJRJUD3j/98528UDKV7AmvVlGArWBS79R HjpvEwAJgIzoMmerMnXFG1+RZp0HrBrqjeewdI0jZQNpStcn2/Na4RBvYH07psBdu3bNfvvttx+s rq5+a8aMGb8rKSnpgb1CCOJKcyKuOIK+K45q9+A0XCsbBhABEAIQanbsOP+g+41bVSiu9G+Shsf5 r/4/RdKYXYgqP6wVSbu+8feAqOIjWpEQNxTdKIwGpBq2Za2oANRUxpC0gTTlCwAcANxacWnFoX2n f29UoG4wvSlE7/36+Q4M3AAchnszrEAdkBh7m0lpPVxbzh73Xy8OcO15vV1EYM5Qfc81G/PkypOw GBPiyjWKrtCwdkwYcaXKhvN1A9LvLaiVgFbCAKRkRpCKBHKIKrsAQCmi5KcQQA4AD+KN7dCOc8Js ADziijUqRBcdAQREDURHkf4oTUcqAXGUsrqr/ooRcvXeJQFQPUoxm+K7qfmA6w3SJO7KTXYBkbmU Sf5FTR61aBSAUTArMYK4Yq2/a1W0saeHDEU3yh4APgDtANoAtADoMJyTILaNo/V+B6LKrwRQq914 mVbnRVy5erEigK7cZIrV9zmYyVt/laafZ+35mTAA/TO+xNjis5uEXUKD8w1RIZLp90TVzSYHFgU9 aqHRVxtfUKTDuZXoxXgHEqFedw1G5YcA+BFV+EkARwAcAtCo1YXtUCAVAuiNqbsAL6K9PxdmA9Ah Xle0lS8kUz41FDty2ZukMpZszXSyg1EGABXSRJajlEkNjrf4Dv4YJYygUBmlnBO6WHaxXL0dkinZ SObsDM7o7/VjZUSRV4d93c3KiCKBG1H9pORCqTiACCAPQDmAakSRoFir8yAO+zon4A3Fjo0blctZ ju+L8o2okSk/31+x9mgZNuiQ5BzjeVYFG4/VuYfRXeiooaOA7u/9ALoQhf9GAEcBNAPoWrx4se26 81QIoGgXbdVuoB1x/68r3WgAOgLorD4Z+RsIYdOJo9XA9O8GW4zcQFeSHaGzO0//1P28DuWK5Xsr YYwgkQgaiZ/OAzoAdGp1Se+ntzDQSNKsvl6v14veK3tT7kBCNv362Qr3+iq6Adix9XTicDumrxtA 0ugDcdQwEklj0Y+NIBoB9M8AAFMuQIdeainW7Js1N2Dn+/ubtMlmuNcfMRqA3hsjsE/s2J0LJMb6 ulswHmeN+Y1kVIE5WaQaj+ktIdTnRtMMwniu1X8bDcYuHTuQtK2RP9gZ2FCJNTHTGw/QJVW2zyh6 vTXrB8vxaWcAdcla49kYit1v9ydU683AhkKsjL4v5xnPT3pMJvL+djIcek+/JA0DGyzJ6ODMYMv/ B8AyPL4SobJ8AAAAAElFTkSuQmCC "
       preserveAspectRatio="none"
       height="4"
       width="4" />
    <image
       y="12"
       x="12"
       id="image10-36"
       xlink:href="data:image/png;base64,iVBORw0KGgoAAAANSUhEUgAAAIAAAACACAYAAADDPmHLAAAgAElEQVR4nOy9ebxlx1Xf+62qvfcZ 79i351HdUrck27JlW0KOJYRtZDsYbGPHYAM2xuCQQJ7JI7yQOMHPDI8YQj4hYB4Ek5c4QOADz++F EGzLEwh5ENasbstSt3qebt++fed7hr131Xp/VNU+p9tSiI1u33bySp+jc/vcc8/Zu9Zav/VbQ1Up /gccIgJgAB1e0sO/LopCLS0tjSilFKBExCml8tHR0aU0Tf9bn6kBNfSyA1BKyfN8C1dtqL/+Ld9c Y0j4qixLNT09vfHs2bMvevLJJ+987LHHbkvTdJcxZtJa22i1WlpEKIpCFhcXyyzLOqdOnTq/uLh4 pNfr/WWWZV++++67D3/wgx/sMBB+fDggCt4BzuvTN9f45rviv2asrq6a+++/f/8DDzzwzlOnTr25 Xq9ff/PNN6cveMEL2LFjByMjI6RpiojgnKv+TimFiNDtdpmdneWZZ57h0KFDnDhxYklEHn7Tm970 0bvuuutTmzdvXmQwb0IQfnjYbzY0+B9GAd71rne1lpaW3qa1/kcjIyM333777frAgQPUajU6nQ5L S0t0Oh2KosBaWwn/yn9rrWk2m4yPjzMxMUGz2WR2dpbHH3+cw4cPdzdt2vSZ7/u+7/vlW2+99aAx JiqAACVg+SZTgmteAQKkVyNaaoTbnTt3NsfGxn5027Zt/2THjh2brr/+epRSXLp0iX6/T6PRYNOm TWzZsoWpqSna7TbGGEQEW5aU1lbf4Zyj3+8zNzfH7OwsFy9eZGVlhSRJmJqaYmJigvn5eU6cOCFZ lj36Az/wA++/7bbbvqy1dgwUoATKbxZ3cM1epYgoBuRt+DoFYGFhQe68887v3rlz57/ZunXr9kaj wfT0NLOzs2zcuJEbb7yRffv2MTU1RVEUdDodsixjfHycRqNOvV73n6QUZVHQ6/VYXFxiYXGBbrdL mqaMjY0hIszOznLy5EnOnTuHMYadO3fSbDY5d+6ctNvtP3/Pe97zD2+44YaTeAUo8Chgr+qEfYPj mlOAYRIXXoqkq4KCr371qxv/1b/6V/9eRO6p1WrqyJEjzMzMcN111/HCF76QXbt2Ua/XqdVqbNu2 jcmJCVrtNqOjozQaDZRWIFQoohSIE1zgBREJFhcXOXv2LDMzMyRJQqfT4eLFixw5coSVlRV27txJ o9HgzJkzvf379//Cj/3Yj/16lmUFAyW45l3BNaUAQ1Y/bPnxgYjI7/3e793z5S9/+aNTU1OTR48e 5Stf+QpTU1Ps3r2bAwcOsGfPHjZv3oxzjiRJ2LZtKxMTk9RrNZI0RWuNcw5rS+/3h0WkFCo8wveR 5zn9fp9+v8/8/DwLCwsVIhw7doxer8fevXtxzjE/P/+FH//xH3/H7t27p/EK4LjGxzWjAEH40fLj IyqDstbyK7/yKz81Ojr6z0dGRszHP/5xVldX2blzJ/v27eOWW26h1Wpx/Phxtm3bxo033shIu+19 vfNonCQpaZLgxFGWJeIcgiACIg4RQZx4z4DCJAlJkqC1pixL+v0+SZIAcOHCBR5//HGOHTvG008/ zf79+9m/fz8PPvjghbvvvvuNr3/96x/6/xXg6xgiEhM3w4I3gMnz3PzGb/zGr770pS/9gdXVVT7x iU8wNTXFxo0bueOOO0iShC984Qtcd911vPzlL6dWq9Hv9yiKHHGCVgpjDNpotNaIsxXUIx76/TWE a6muSaG1Js0yarUatVoNYwxKKTqdDqurq5w+fZqDBw9y9OhR2u023/7t385f/dVfdefm5t72gQ98 4M+u9jx+veOaUIArrL8SPJAWRZF95CMf+cg999zznadPn+ahhx5iy5Yt7Nu3j927d/MXf/EX9Pt9 vuM7voNms8nq6iqdziq2LDzM2xJnC/q9Lv1eh36vS7ezSr/fI+/1ycsCsQ6dGNK0Rqs9QrM9SrM1 QrM1Qr3RJM1qZFmNdrtNu90mSRJWV1d54IEH2LRpE5OTkzz22GOcOHGCoih4wxvewMMPP5z/zu/8 zvd97nOf+9h6zu1fN64VBYgWH4WfAKlzrvYHf/AHv37XXXe99fjx4xw7doydO3eyf/9+8jznj/7o j3jta1/L/v37WVlZYWFhgW6nQ6ezyuLCLBcvTHP+/DkuXpxlaWmZTrdHnhfkeU5RFORFQVEWuNIi gNaKNMtoNZtMjI2zbcc2du3aw3V797Fp0xYmJicZHR2lXq9XXOLTn/40c3NzvPGNb+TMmTM8+eST XLhwgTe/+c089thj+Uc+8pE33XvvvZ9cz/n9b411V4DA+hMG1p8AiYjU/vRP//T9N998809cvHiR 2dlZ9uzZw/bt2zl8+DAPPvggb3vb20jTlNnZWRYWFpifn+fC9DkOP/VVnjl2lJkLF1ntdHHOolAk iSZJEhKjUAoP/85RWktZOgprcdZRWodWhlq9xsjoKNu3beXAgZs4cOONbNu2jfHxcWq1Gq1Wi3a7 zVNPPcWf/Mmf8CM/8iM453jkkUc4efIk3/Vd38X999/f+U//6T+98rOf/exj6zjNzzmuBQUYhv9o /dmXv/zlNxVF8Tsiop1zHDhwgNHRUR555BHOnj3L61//elZWVpiZmWF2dpazZ89y6OBBnnjiCS5e vEi328UkmlajzthIi5FmjWajRr2WYBRoHb/fUVrBOoe10M9L8tJRWEenm9PPPTqMtEfYMDXFnuuu 4wUveAHbtm1jdHSU0dFRNmzYwNLSEr/1W7/FO9/5TtrtNl/84hc5duwYb3zjG/nYxz529t57733x l770pUvrNc/PNa4lBYguID1+/Pjuz3/+8w9MTU21FhcXufPOO9m2bRvT09PMzMxw/fXXMz8/z/nz 5zl//jxPP/00X/7ylzl27BjLy8tkacLkxBibNkwwOd6ilmqMEhCH0QIIqVbV3VsnFNbhLJTOgTIk aQ2lDb3csrjSY2FplX6/IElTpjZs4Ib9+7nxxhurDOOWLVsA+M3f/E3e/OY30263+fSnP82pU6e4 5557+OhHP3rvY4899oYnnnjimkoQmfW+gA9+8IMR+hWgiqIwv/3bv/3/tNvtPQ888ADXXXcdN910 EwsLC1hr2b59O7Ozs5w5c4ZTp07x4IMP8pd/+ZecPHmSoiiY2jDB3t272L1jC2MjDZwrKYscY6Dd SJgYqTHZzhhvp4y1EsZaNdoN/9ysJ6SJwTlHUZaUpaVer7FhYpQNkxOYQP4uzMxw+vQZZmZmqryB tZZ2u80dd9zBH/7hH3L99dczOTnJ448/zhNPPMGLXvSifefOnTt77NixR9Z5yi8b644AACJScYCP fOQjP3zmzJnfePLJJ9m+fTs/+qM/SrfbBeDAgQPMzMxw+vRpTpw4wUMPPcRDDz3EwsICzWaTHdu3 MrVhAqOEzuoySiztRsZYO0OLpdvvFWlaP1dvtJ7evnPX0wuXLixpk3SttS2d1HecO3vqBrHl9Vq5 Dc1mQxUlLHdLSgf1epNGs8VqL+f02RnOnpumtJYtW7Zw2223ceONN7Jr1y6uu+46kiThP/7H/8h3 f/d385nPfIY//uM/ZteuXbRaraUvfelLBx599NHpdZ3woZGs9wWEIQDT09NjJ0+e/D+efvppLly4 wGtf+1oAzpw5w6tf/eoqA3f06FEeeughHn30UVZWVti4cSM7d+5kbLTF8tICvc4KjXrCaKNOZ3Wl zJutB/fuu/HDt77s9s/dcddrZ7Sv4smzFWyeePjztccefnDfzPTZdzxz5Ol311K9o1FLWeqssNLp MDY2xv69O2jUM46dOMOpUydZXl5mdXWVfr+PiLB//36+53u+h49//OPcc889fOpTn+LRRx/l9ttv H73xxhv/9e///u+/4+abb76qE/xc41pBAA3oD33oQ79y7Nixn3jsscfYuXMnP/MzP8ORI0d4zWte Q7fb5ejRoxw5coQHH3yQhx9+mDzP2bJlC7t378Zoxdyli7gyZ2ykRrezardt2/knf+d7v+/9e/bs Pbxlx56vOy//wP2fyr54/33fceiJR3+lnpl9ThmWVwsazRajo6NcnFvi6SPHmJtfYGJigjvuuIOX vvSlHDhwgAMHDnDq1CkOHz6MtZZf/uVfZmxsjJe97GXlyMjISz74wQ9+5VqoGK47AsRS7JkzZ6a0 1j9y7tw5ms0mb3rTmzh+/Di33347IlJZ/iOPPMIjjzxCWZbs2LGDXbt2UZYlMxcvkiqhWU9YXe09 c9vLb/+ht37v939hz74bv+GCzB13vTYH/vPhJx/7xO999CM/efTppz7QGmnXl1aW6Bc542OT3Hjg ep4+fIxLc3M89NBDpGlKkiQ0m0327dvH4uIiS0tL3HHHHTz88MMsLy8n4+PjHwLeHO7drqci6L/+ LWs3QgSQAPq+++77saIoWvV6nde85jUcOHCAvXv3smHDBs6ePcvx48c5dOgQjz/+OP1+n23btrF7 926stVyavYhRgrW5TE5t+v1v+7a7XvyP3v/zn/+bCH947L/5Jf2f+6Xf+Bff9da33za/uHKyWUvp dbtcunSJ0ZE2Bw5cz4YNk8zOznLw4EGeeeYZTp06xdzcHC9+8YtpNpu8613vYu/evfR6PbZu3fq6 Q4cO7SHkPcI8rMtYNwUYDv96vV5j48aNf7fb7fLiF7+Yt7/97YyMjLB3717m5+c5ffo0x44d46mn nmJlZaWCfV+rv4jW0O91ZcPGTT/3/T/w7nf9vff9085aXPPb3/neQ3/37/34ywrRjzVrKf28z6VL lxgfHeX6669ndHSUs2fP8swzz3Dy5EnOnDmDiFTh4vd///ezadMmms1m+pWvfOUnGBS9zHopwboo wJWx/5EjR+5qt9ubm80md999NxMTE0xNTSEinDt3jrNnz3LixAkuXLjA+Pg4e/bswRjDzMwMZVHQ 7XQky2o//8Y3fffP3nbHK9e0AnfPd7zl0gd//pe+banT/0otS+isrjK/MM+GiQn27dsX+wM4c+YM 586d49KlS0xMTJCmKS9/+cu59dZbWVxcZN++fW/P87zJIAQ2V3Y/XY2xXggwXPUz/X7/Ry9cuMC+ ffu4/vrrMcYwMjLiU7sXLnDu3Dmmp6fJsow9e/bQbDarbJ9zjtHRsT/83/7xP/nZN3znm6/KDO67 4cbFfddd97rZSwsXs1rG/MIiq50OW7duZfv27fR6Pc6fP8/s7CwzMzP0+33Gx8dpNpvccsstaK0Z GRnZeObMmZcD6RXzcVXHVf/CK5o+dFEU9cnJyTvn5ubYu3cvIyMj1Go1yrLk4sWLzMzMcOHChQr6 JyYmKmIFsLKycvR1r3vde7/lFWtr+VeOX/m13z67deu2d8zPL1qtNXNzczjn2LVrF2NjYywvLzM3 N8fCwgLLy8ukaUqapmzevJktW7YwMzPD0tLSO/AcqKqEXm0UWE8SqACztLR0oNPpTLZaLbZv306W ZSRJUlX3orAbjQY7duxARFhYWEBEWF5etrfe+tJ3/dAPv3d1PW7gVd925+cmJqd+tyws/X7O0tIS IyMj1XV2Oh263S4rKyuUZUmapsT7nJ6ept1uvzokwWJGtup+ulpjPRTgshucn5//1lOnTjE+Ps7k 5CRpmuKcY2lpqXrkec7GjRsZGxtjcXGRbrdLWZZMTU391zd853d+aR3uAYB3v/d9ctfdd//00vLy ilKK5eVl+v0+W7Zsod1uV+1keZ5XLWq1Wo2pqSk6nQ7OuR29Xm+Sy1cc/Q+vAMNDVlZWvvXIkSPE JVkiQr/fZ3l5mZWVFXq9HlmWsWnTJsqyZGlpCRFhZWXF3nTTTe+/55571rXx8n3v+4czW7du+3f9 oqDf77O0tESr1apIbK/Xo9fr4ZxDKVWtOxARpqenk4WFhevDR/1PEwXI0MMtLi4eOHfuHNbaylpW VlZYXFxkZWUF5xxjY2OMjY1VCmGtpV6vP3z48OGvrsP1f83Yu2/fr3Y7nRJgeXkZay0TExMkSUKv 16Pb7bK8vEye51hrqwLS0aNHmZ+ff1H4mDgnV3WslwIASJ7n6fnz5yfn5+fpdDr0ej36/T4rKytV bl0pxdjYGFmWsbS0RBF6+G+55Zbf/NjHPnZNtF2/+tWvPlmr1Q5aa+n1eiwvL9Nut2k0GpRlyeLi InNzcywvL1eIMDc3x9GjR1lYWHgRfj1BNS9X89qvugKEtKcDpN/vN44dO9aam5vj0qVL1eT4vr4O ZVlSq9UYGxurGjGdc4hImWXZp6/2tT/XeN3rXifbt2//v4uioCxLVldXqdV8D6Fzjk6nUyFav99n dXWVS5cucfr0aWZnZ7fiVxMBV3+l8XpxAAe4TqfTOnPmTNrpdL5GAfr9fuUv2+02q6urw/A//cIX vvD8Ol37s44tW7Z8pt/v45xjdXUVEaHVaqG1ptvtsri4SKfTod/vVwtMFhcXOX/+/EY8AsQFpld1 rIsCBBSwS0tLenFxkbIsWVhYqBRgmDm3222azSZ5nlOWfjHH1NTUkXe/+93XVM99v98/bowpyrKs FLXZbGKMqdxWdHPLy8uVO1haWsq4fJn5VR3rFgUopZifn6fb7WKtrcK9GDqJCFmW0Wq1qNfrWGux YSHn6Ojo8fW67ucak5OTy41GY6UsS/I8B6DRaFCr1QDI87xS7ij8cL9x2du6LChd1zDw4MGDlWCL orjsEePmVqtFs9msrF9E2Lt378n1vO5nG41Go99sNjsiQlmWaK1pNBrU63XCJhQVinW7XYqi8KuW rIV1LAmvdzm46gcoy7J6xFApTdPLVuQ459C+nbe3ntf9bOOnf/qnpVar2bjXQJqmZFlGmqZVz+Dw PQ4vQv2fth9geCEmUG3UEBVDa13l0JMkwTmHMYYsy9bxqp97tFqt6n6SJCHLMozxWV6/INWjXZ7n 1T0O71KyHmPdEQAGy7SjVcRJMcaQJEn1HIfW653AfPaRJEl1T/G641rCKOyIbvEe17stbF1nMu7U ESct/jxcEVNhYWecKK31NasAWuvqOuM1Dy81j0KPShBfX89xTbiAK13BX/f79YbN5xpXXtdz3dew oqy3Ml8TphQhctgarnQPw6+v96Q914iCjUWf4XuIXGAY7Yaf12usOweI0PhsExIV49lev1bHsCJH RY3h3pX3ci3cx7oqQCyRApf5xOHHs03SteoC4vU+m6CHX4+/uxL11mOsO5Y+Fwo82/Zwz/W7a2UM s/th5Y73dqWrey4Fv5pjXRVg2Jc/m3VE2IwKMhweXssjXuewlV/pAq4VN7CuK4OezfdfOXnDcD+c NbwWRxTysKU/W5gbkeJaSARdEwoQrXt4cp5rYq4F2HyucWVCCwYEMI7472eLfNZjrKsLGO4DjM9x 8mJNYDg7eK0Qp+cacd+g4escvvZhRRh2Ces5rgkEiD8PI0Ksqj2b0LXW1yQERAFHAnil4l6pHNcC mq2rAgxXxb7GVzq/CXf8fSykhATL+pvOs4wrLd9fZrD8KwQ/HC2s51hXBYi7cPrhUDjE5mBzlJRo KVFi0QiI+FUT16j/j0PEX6u4ElwJtkC5HKU0ypUgFnGDHtD11uX1dQEiKASjBYNFS4F2oF2OoUCL nzxcSqItSvnJRaz+yu+9O21sHKkrYxRFYQStxFnEinIObG5xZYGUBSPbtyYiNkEUOKuU1oiA7c4l Km1aZWoirkQpjYhFwJ3/wuf6SilQimy0QVLLSEdHRZmUbGRCFKBqIyVO3Oq5C/207vjV+yHRkGjx 9xKu30jhFUByrwyuwPjdj//nU4BHP3xHknftK6Wfv35+7pM7jIJUCTUDyvZRiUNLD+P6JKQo20O5 BIMl1YLWjr210/9MHD/ZXyjrOjFaJ02tVKL8ni8WpESp3CuMK1g6dtyU/a5xRR9X9L1i2BKxpRLn BASchKUZCpQWbbJCaY3SCVIYrBicLdCpxnaWRSU1MdmqxWQuHdnSN2nKaH1lMlFClgiGAmX7aNcn VQWIQrs+lD1S7e8lUUIjyTc98ZE3/LotylOk9t7M6IMveM+nrppWXFUFeOzDd6Td+c695Ur5Kikd teQkWTJFLYVUWyi7iC5IVUlNF2jbRUsf5VJSVZIaMEZhFG2tTFuJQqNQTnlh4zz02j4Ufci7SNHD 5V3Ie1D0UWWOKkvElihxKHEKB+L3jwcUSotSmJpv0Ba0gBLQAtp5ZdGCf9agtEGrlARHlkCmhUQK sF0S+iT4HkHteijXR0tOZoTcCHUt43ZV/oEtBcF9yKXFvwD++dWSyVUNA/v94rul516lrUMjaITU eOuvaYt2PbTtkrgeicrJdIGRPsb1qWlHPfHwaowmSTNMmmGSFG0MSnslUMqBWJRYKjSQEqWcf2hB G8EkCm2U30A61Zg0waSaJDPhZ4PODCZLMGlCkqaYNMVkKSbL0Eni/11dQ0JqFPUUaolgyP21S05G TkqOtj2U7WFcTi2BWqIwWJQ4tLOootBSqp985P989farJZOrhgBf/JevzFTR/ZAGSDUIWKOoGbCJ UDOCdj2MGIzr+EkTjXE9tEtJVEktETCKxBhMrY4yGcokwXIdqgSHQ2ERShQlCotWAsqCETzr0KAE uaysLCg0ojUKjTIGZRL/SFJ0kqGSFJVk6CTFZDX//UmKTlLQCakRMgONBFJylO2SSI+UHJQipY+y XQx9aokjN94AlAZtCIvlbEPDzwB/72rI5aohQFYrvs+Ius5oMKnBpIZLKwXNTJPgSFVJoksSyclM SU2XZKYkVTna9UkoPFdIFLMLq5ishkkTdGJCHV5AObSyaOVQynokGLJ8YxQmUZhUoVONzgw60ejU W7quJSRZgqklmCwhqSUkNW/1OvWWn6QpSeat3gQU0mlGXgrYklQ5MuMw5CTSJ1V96omlZkoSlfv7 oCTTQqqFMu/jRNDBvWlxaOFdD//bu7deDblcFQV4/CN3NmqJ+QWjJEyqIa1pfvPPp2nUEoqiR97v 0l2ao99bwubd6pH3Vun3lsm7qxR5jyzV/O7HH8GqxFui1mgNWjEQNt4FGO1Q2qGMoBOF1t5nm0Rh MkMSID+tGZLMkGQpSRaUIEvQQfBJlpLUM5KsRlKreReQ1dBp5t2ASfjsl55icWUVZwuKfo/eyiK9 ziJlv4Ptr2LzLmW/Q7+7THd1kX6vi8Zx9tIKh86uYFLtrysBbV2jlpj//WrI5qq4gMKWP9yQZDtG gwnn9QBbxhQPHXwGl6/Q6fRIsxojzRqd1VXyvE+W1RgZm8MpwxNPHuXcxQUmXMp8V9McncTlHRAH nsyBdjjrrd4YT+xxglOA8dAv/qxPn4WD4D4gsDmU1ihlUDrAv0lRxsN8dAEqqaFNGlxADaVT9u7Z yof/+D+zdaLGzGyfxpcPsW3zeYq8x+rKKsZoRkbnSbLTHD89zanzl6g12jz+5w/w/T/3PejlxxFR iNOAw2j9g4f+w6t+4YXv/vMzaymbNc+qPP4fvrXdrGVH7XxnEzFJIoAIPdr84n+e5i8ePUk9VWwY G6FeS8J7XNUWbp0wc2mRxU7Bt/ytu/ilf/x2JjkNSiHiwOY420dsHyl7SJnjyl74d+4jgzLH2RLF IAvnSX88QEqDMf5ZGy9slYBO0WkGOkMnNZSpoZI62mQoUwOToXSCE83HPnuYf/mbf0yR99gw1mKk 1UArvxO5UpAYvyPupcUVZhdW2Lh1F7/w0+/lhep+KLu4ovCJInHoLIWR7N/f8LZPvGct5bPmCnDi T1//T6WrflE6naFv8z90bJ2HT9Q4N7vKqh7nqVMLnDl3kdm5BYrc78w9MTnJDTfs52W33szuqQaJ XeDAnjE2jnnWJK5AXAE2R2wPqZTBZxTFFbgiBymryZXS+nA/JHqUj/2DHzEobUCnwfoz/9AZOqn7 15O6VwSTAv591sKJ6YInnzrKpRXH4ZMXOXriDOenZ+j1eiilaLfbXLd3Hzfs280t129Br5xmxwZh Z3sWjc9NDDKFYMbH8nNnFm96xd//7LG1ks+aKsAj/+5Vk5t3bzzmVlbHsOXQyne/HG61qHPobJMj R07Rbre48YU30RoZp59bCuuot0YZm9xOY3Qjh5+4j+mz59i2Yxf7do4xNZECDlyJuBxcgTgveC/8 wmf1bO5/LyFH4LwSICG4R6G09oJXfu8qZVIvaG2CoD0CKOPhXukamJp3EzoDpbHOcPpCj6eeeoaV lSV27NjJhg0bsa6kyPuYJGF0fIqRyW0cPfhZDh98nEa9zoF9m9kxeikogEWkDNlOh6rVsWnt/12Y WXjri9/5yTVJDq0pB9i4d+M/S3RjTOoFEBfBhn2QlCLtGSYnR5icaKGMIu+vgCrp93Ksg7JYQVyf 5YWzIAVTGyfYsGECnYDJMhALorxfF404hTgDLvWogPPPYsEVXgls6Z+l9NejfNgHeOg3KSgDKgk8 oO6FrLOvET6kKJ36GM4KWVayZesmLs2C1kKvt0xRdCnyHkoJZb7A8vwJ8t4iIyN1JibHSFLB1DOM Tj1KOeuTUuIARW1s4rtWe/0XAIfWQkZrhgBHP/nW7RNb9xx2yxebhIwa4g9jEBxKJXS6wsxSm4X5 JXr9Hu2RUUxawzlAGbJ6k1pjlDRrBD/qz/QZaSjGRmvef7s8WHUJUoTvGZpEKYOb6KPEIq5EokLE A+KUDkLXXvBKg8lABYtXaRB6DXTiha4CR1AGpQzWOc5PL1I6zerKIllaQ2so8i5l3kOkwGhBiaXo d+j3Vmm1WiSywo7NCqVjAsvzH3x6EpXWsbXxz85Pn77nwN/+g+cdBdYEAe7/8LfT3rTzQ0Y3mrre ql6P5/GhvMXVE2iVjvbIBrRJaLTGfGKHBFSKSWokWROT1CjLAlsWCI56LcVkJvh1hXN9NAZUw0On rnkhAyIFYvsgOdief73iA6VP/iBesGj/rFJQGUqZyvJRafU8eE9QGH9XtEctVhRjYy2yegNjEh/O lh3E5j48paTMV+iuzOFciaFG0khD3sIrLyUpHqoAACAASURBVEr7SmKIUNLG5KtKZu8E7n++ZbUm CHDscz9y3ebrX3nYrTyT+AmHCv7VYCs8EUOvL6AMJqmTZG3vb1WKUpF8hYmW8Lfi0EpQesjCcShR oP2mm0pn1XeJ6wXf3wPb8bzAhcXFUg5NgRooQbBsjwaJ/7dOvEIoE64vIkbc8RaKosRaX1Mw2mDS Js52ccUK4roegewqtuhii1WcyzFaqKUAXpmF0qNAuCQlQDqKSzc+NLb3vbc937JaEwRYOjO3cWx7 ljQnXoGvtORVaIcUCMZrOkKKn0gfewdfG6xL6RpVripU6gb+MaChuMgpvdXq1PvtdMx/p11BimXE dT1RlDwoThGgVsKnhkKQMuG7TECrKwStwuEmKmzuGSuIaDLjKp6rTQudjiEux+WzSLkUyGoNqeWI jHsFVAkKW80B4O9fh4conGRceOrgmtQHnncFEBEe+rffyaE//b9Ynp0nSVJaI23qI2NkrVFq7XHS ZpPayBRJo03ansRkLZKsiU5bKJ35ZIvOfA1dJ/iJH4CVqv6vKmFVLF7pAVyDh3zbB0ofXkkZ+IIN 7sB6t+EPkX2WO4rr+3TIOwxcmEIjSg0UsPp7hdJ1dDaGOIvoFNev48o+znWwxRI272F7OXlnhrK7 TL66QNHpki8v0llapLuyQreXY5UhqddpNNaGrq0JAmQjW+iunMDZnLLs05M+rrdEsVSjX6v5PHu9 jqnXMLUMU2uS1hvorIHJmphaC500SGqjaFNHp82QfaujdVrF5cp4tPDhmaqstOoaUsq7juAaUA6c BjGA9QQS7XMDgXiJK/3vxCEu90pRkUyLq7p6yiseFrFF1c5malNk7euwRYfOhYfIl05QdpcoeyvY Xgeb97H9Mjzn2NLiCkvRK+j3S3q9gtwqJKtjshR/su7zP553BVBK8cCvvwZnC2y/wIn1Jc8wcT5e z1CqBMrAxku0KhApwPVB+pA2KG0HndTRRQOdZLiQnNFVPB4fnjRGzqBMA520QWnEdhHXB9cPxDAI F/FRQxS8uOr3PkUgoTvIJ2a8X3ZeyDhwzhNM59u/xIZoQzTiSlzZoez6I2zK/myIPoabQkNIWrmy 8DpDbWLD3UJr1Aq3NnkAY3z5NfhrsQ6nCqwStMQafRESNDXEdRHbIym7UKt74mbrmKyJ2AyxNaSs oUyC1hmSpB4BgvArwZcRDeq4YgFQgWvYAPlFIH7lUKgVGklCA6cMvTbo7S9D+trhYj4hvOaFHxJS 4nC2DD2BDrELvqm1v+Thv+x7obuYiFI4G/lMTJMPL4wZmtM1ah1bEwVQMlgVC4QbjgVvGUCuc777 V5yH2csgtcCVXa8sSnBYNClOLFpyMAWYBKh7oeoEVObjfZMHMqfC95WVIngBu6AIceLt0DadURDi 3x+QABcIXgzVRML1B0SRohK+swWuLH1mzzkv+LLv3UT1EMSGz7XOfyzhcmSgILC27eNrgwBD11qF NBrE+UKMxhd8nBN00HjU0I1L6TN64i9PxKLE+OdKiSyIQbkS0V4YHnUywCKBpSulgtADEvhPxFv9 0CGelRLI4DpixOFsuIFyANWu8Mo7nFqWIHSbeyGXeVCGLs7m3n1EvhAe/r4ZKFT13XEi/UPWqH18 7VLBTryWB4vCOtA6pEziwsghawuwKNG6BA+jodwrCP7tZfDRCqTEOYtWjUp4fqtFHfL6Kn6TD6il xIeVgmD970PHroRowF+eCijhM4qilE/MBB9eQfxQgSmmcZ3t41wZKpIFzoYKXxR+BfGDtQKecA4J XaILcKGmTTVnz/dYGwUQQaLyhoZLickfJEBeUBDnqhumqhVAVRAhvOx8rCxOvHW70v9OeyErU0Mk MH1RiEpCo2gIIQV/MWFbXpEyKImH8UpRUQxy8hBz8gNBCy729QshsRQFXISwMygGNhDCoiKAVT3C hr8LUC/DygVB8JrKTa1R1n7NXUBI/gaBeqH7+XSDVuzKKpQXsAzgTsT5TF+AZu8+rG/uiK4h5Pe1 qYHocDS4C/JU4MKK3ehHJSpBQIIoZIVHrgp14rW5YPFSKaZn8CrwgwF3wQXC6SzYYsBtgmJIEVrS o6Bt4EGxtyHOk/IIWM3dGo01UQCpmG2EMn1ZeBPhLhqlOOddBIF4WYeYwl9eNenREhyg/SoiwQs3 VNIkVPeENERNMR8Q9+uJxCpqaLR4/92D8MsNEDfyhKE6vffHQwTwa3IDdvAsNkQEAQmcC0rOYH6C EiiiAYi/r+GT5NZIB9YmCtAq7H0dlSDAcvTrarA9nPfhftEOLvpCLxg/cQViUj/ZWofJL0Nyx/pJ G/LjCsD1kJhaFUFUZNE+ny9IeH8khxqRYihCuDwsk6gQgn+/EOB+sIbRf05k7RHe3ZAyDKWvGdxr /I/L1kj6twwD/1phwNogQLhZT9yCMAPTFYW39rjLhxPESmUZEBUmuAHBEzCTBAE4EI1gQx3fhQgg 8casJHQIKyQsFkEUmHow9jIgQhRIoOGiqbbtD2v7YhYQZUIGcIjAwSC5EwXnbIgMpPLvlcVX/x74 /mGS55yPiiqecJkSxol4/seadAUrPXwI1gD6PcJLFfNG31fdKIKz0cKin/WfExs54jwoEd/yFS0y FJdwJYIKE12ETCP+2TlQsZbvS75VVBAt3/ZDgqoMnwVie+HfsZDkSV/kA54gxtDSeeYP3v/bmDOQ Ku9RxfyVwg+7uYCUMRIarlauwVg7BBAGyYsoUB1LupH9e1ZfZcac9YKJEUKEUHGoSP5Eh1DPF2UU frKUEuLpq8qV8Uu9KwgTqWIRR9d99VEpxPZwtociZvaChfob8ZcfiVkIQ6swLYSpUZhSJbYIRC9e hg0ciIA+RUX+nHMeAS/7zJgWjggqA0R8nsfa5QHUkGYPAU3FfsMNegEnYeKi4GN0QKUEGIdPDMUJ 8bF95S7EoGKcr/WgQhc2bPRuIQEyen3F0qpw+uwMX/3qk8xfukiiS3ZubXDT/s1s2zKKMcEVVXF5 /Nld7vfFhoyf9e6iihaC0oc0s5TxfYOwV0KuJGpKnK9QmK7ex5DyPt9jjcJANZBTJURd3azPscfG fTWAxQr6YxMJVG7EORwlWvleApXUK1+tYkyOoFQa3IEGcSiXVNczM7PI5754gvrobl7z+rdw4ybN juu/lbzImbkwzSMPPcAf/ZvPUqzO8ANvfQl3/60bSNNkkMOIcXvkCM5W3CYqRlz772wZLHxQ/EF8 +tfZy8NKwfv/CPnR+lFShYHfVJlAH4ENaazgW67xZMfg9wYwgg8Zw8RU4aNSnv1rXbkGCYs2EB1I WYHWIVUcyJrSCTGHoGP3DoqyLPnk5x7lz/9qmh/84fdx68teQavdRinFhqnNdDodGs0xGq0JXvyy u/jMpz/Bb/zevXzszw7xM//wVWzZOlEp6wABoiuziChcJHYQyGyI6531fytDu4aEBBlcDvsRaVzM l1QcqvrxeR9rgiuxwDPgrSokfUJzRbhZ56IFxD8cyg7GPHh0AVERYkOni80ckRX6kE+pBEW0WkO/ 3+e3/sNfcOi44R/85M/RGp1iYXGx2rPff61UG1OdOnWKw0eOs/26F1KkO/n77/8vHH767BAfGbgl CUcgS2wwjUQvWH8V6g1bu3VV3O9KO4h+RCol8O5DovepePJajLVxLOE+qhg2qrDEkI/BxABYGQjy sonyewj51u8wic4FmBz4XRXZeIB98N061il+94/+ijLdzUtufxVPHDxUnUfc6XQuU4AinPx5+PBh v3eRtUxs2Mr1N7+S9//yn3P+/DzgCWUUlhe0L+9KGRDADpQy+v0Bt+FyhWBo+1g3eE+U+gAVWLN+ gDVEgKEXhvfEq+4jTFKMgyvfGv1jLAoN/Kp/fyBbVZgUEST26iUh1Mt4/NA5js8k7Nl/K48//kR1 Gvnc3ByLi4uXHd6Q5zkLCwscPXqUJEloNpu0Wi02b93J/he9kl/88Ocpwzk/fquZoHQVZxmksJ2z OBsjCbk8YojK4G/GpzFsTHYzpBxQpacZMpDneaxNHsAYlNZXsFxVWQCE58qt+oSIKwerh6qkSVSc ONHRtwre+oJAxBWB5WuUyugXmo//5Une8r3v4amnnqqOppuenubixYtcunSJlZUVjh49yqFDh1hc XOSZZ56hKAoajQbNZpPR0VFGR0e55SW3I9kWvvjQGWJTqAzH6/HnIZZPJH+VWxhA//BrVfLHhnT4 8BxFKF3DsWZ5AJ/koWLgzjmMHtozXwIqWIcYGcTIsTgSy7oCPs8emjIVvlVbHOgMDyqhGVTwHcFJ nacPT/PyV3w7E5MbueWWWzhy5AhLS0tMT08j4s8c+Nmf/Vk+97nPkec527Zt49Zbb6VWqzEyMsLE xARjY2NMTk7SaDS452+/hT/55O9y1x03IdU5jyFUC30BDFv4cKNHrH5W5M4/u6hAsWI6JO/KIwJV JnUNxhouDQtQGaxcDWe0huL86t9hwny+x+G0RdsSSRIUoV1afPjoCyeCaFfVArTyC5CUqSOqxkJv lNe/4S1ktQZbt25l586dPPzwwzzzzDMcO3aMhx9+mE996lMV+Tt58iRZlvGqV72KqakpJicnmZiY YGRkhHa7zU033cTF80eZW8yZGM1CZlKq6uEAlVwF94Nun0AQy0Hs76qSeOxPjD0LA8kLYS+iNRxr VAzSAxYYqnKR23iITEI3UCBF+FJt1Sw5nCyxJaI1ogwOi5EEcAgJypaQJMEFWLTJEGexZOzc+xLG xicARb1eZ3x8nF27dnHw4EHuu+8+Hnjgga/ZrjVJEvbu3cv4+DhjY2NMTU2xc+dONm/ezMjICK1G wunH/4CJET24PmcrocfY379G5ecHeY4YFTDUoxDj/uhSIr2Rat7WcqyNC4gdLhEODQzwLS7uGHp/ LAeby7QmaEz8t6AwngdoDRS+w0hSqoxcqOatLM9z4YLQ7/tQryxLlFJs3ryZrVu3ctttt1XKMLzz +A/+4A9y4MAB9u3bx65du2i325dtaT8yMsbx05e4ee/WSvCuKv4E4dpB8Ychn++VQFVW7wpbGUXl RqopCu3skfiKrFUQsEYuwIWSMFQkT2I3jx6EOhVLHmqDq5pEKzQI/QFKkCiLmPpF+aXgkvi6QGgk XV7s8vgjz7Blxw2XndsLfkPnJEl4xStewa/+6q/yUz/1U/T7fT7wgQ/wvve9rxJ4jAyGR7/f58jR U3DXlE9UVSFeqOqFEBFxYCVEAmpA9mKiS/Dl6LIMSiMD8hc/Y2j4npm1wYK1cQFmqAFkyKgH2h2C tyB8pYcihKgcMdyCEC5Zv26SBJK4OUTYdt1ZKPuIKL8Dme1x7txZjh8/QZ73KcuSfr9fIUFUgqmp KbZu3cqZM2d44QtfyAMPPMD4+DjNZpM0TS87t1ApxdzcPM5K6PcLynGFG/CP6B4CAWSICFaETyrr 92sYXVU/kfCLaCBhVtdCVGvlAgZFzEGoJ4NnEzpdo9VbgXQonLoiIyjOISYWSAKhwnreoEIA4ARH H4VQTwouXZyujnCNHMAYQ61WQ0S4ePEiDzzwAAsLC6Rpyr59+zh8+DAnTpxgZGSE0dFR2u02WZaR ZRlJknDk8JNs2jCGLXpQodOgvSsSvIEbCMS2yhwHS4+5oqgolwk5zoEKRjNwgWsx1igKcJW1V0gQ fT/eoImZsSrOZwCfEur9gLPWh4+VS5C4JRhaJwEaLSFeBIRWXbG6fIk00YyMjlUnepZlyfLyMqdP n+bJJ59kaWmJdrtNnuds3rwZ5xwnTpxgfn6++l2tVqPRaJBlGZ+/77O88dv2I+V0Rexc8PHVOoCK 7IUOoYh8gc9IfK1qCwtdRM4bQkSHykdWbuWbKBNYrc+TIJfhvoBo9VXmL1p+TBHjlSNa+3BTVCyQ hGyglH2/FYwr/ALQ0ItvyLlhe51zZ46htSbPc5aXl5menubJJ5/k4MGDzMzMsG/fvup491qtxsaN G9m+fTubNm0iyzKWlpa4dOkSs7OznDt/joOPPcgNe8a9b7cOVwQeEBpcqxaxirzG1PcQKS5DNRAu V4TKLRJC2ziXroqm12KsUVv45d2tMOTKQsgD0TIG+YFqAkMV0MNksAQH6Oj3TYUmaIMKfyNlF0Gh dMIbX72XX/roH7J91w10u13m5uaYnp7m/PnzzM3NMT4+zu7du6sziY0xtNttNmzYUB340Ol06HQ6 rK6u8tVDj3HzTTeQdE9SVCd/yBBfGTwGEdAQD6rCu1jhU4NMqcO7s/h5cb7iJlayZsXAteoHCA0Z sTlUCGRNQgeWANpbjQmW7WTwPusQ5cBcXjP35+/pIUzFRwFKEbd7V0qg7LFvV5vJxjKfufdP2b33 RmZmZrh06RILCwtordm+fTsTExNkWYbWuiJ8rVaLPM+JR9V7RVjlgb+8l9/5tZ+mWLoPXwEcNHAO iB+XCzv+7AYPr9iKQROpX7lUFYuILjMqUpzUbyIOUGk9DEigiLdS/4YA/X71jhO/E7eIz5BpEar2 7TDByhmEEhEDJvQJGB1ap8MsK/F8K/QT/OMfupX3/uzHWV7poZOMhYUFRKTKB7TbbT784Q/T7/dp NpsURUGtVqPdbldJImst933mv/D27/07tHsPY4MyDgo6QzxGVOhvCPdb5QCGiR4Vf4gRgB9qgHoV Nxj61VoIirUqBjF0wYEI+opgIPFD2u6chL4+/0dKm4HlhBkWCGGguzxEDopSsfDQI0go0U6MJvz8 j7+cxx/4NKdOHsc6R7vdZuPGjYyOjtJoNNi5cyd33HEHsT6QZVlF/BqNBp/5s48xNTHKW++sY/sr 3nrdQEFjgSqGclUEE1GgEr7ynb9RYZyExg8XWiKlKjB6zyeV5xMZTqU/v2NtSGCA6SEqMCB7wfJF QEofH7mhTJqzMqicSegXtb4HgCorp/ylhxgcEZ9+xq8zGCzrhpuuG+Vf/q/fwsLZQyxcPEer1WJs bIxms0mtVrss0xdzBFmWUeR9/s0vf4A0gX/6Qy8hn3s6fFdg+aHyN9z6HUlrJcjY7GmD0tsY3qrq 9y685qrIKORGgtnHavBajbXpB4h97bGcPQgAIR6vGv1dFHwFpSH2r6TviyWD5db28hU2NnTWhEMg cK5q2gBAaQ5cN8rvfuj1XDexyCNf+CTnTh/D2rJK8gyPudkZ/v1v/Wv+/nu+h7e86W/zE2/ZSH7p 4CAxFXy4hP0J/SXGKiaX5wGiWxD8tSsY9AiGe1ZqcO/ETrFoKJE4yprpwNpkAgN7JcC9TwtLJROU wokL6/oiE46s38fWygnaOpwWVOmQ1PcCioTQMmYCh9d+Vq7DbyCpNH7NPpp2DX7hf7mDcws1fv+/ Psav/eJ/pdEeZ9v2nbTbbZaXlzh39gyNRovv/Z4387v/+ocpLn6BfLH032sFwfmfh4Q4gCmGkCD8 jN8AwucK1IDxu0gEg7IMrzyy4bPVQIfXcjzvCnD6j17N/LywujRk905wutqRL7B6367tnMQIL1iU Q1Upc+9vJfFW5MoCnSR+Vw1n0dpHBU5cWN7hF1PGQ6HEDi0HD9W6LSN9/tE7dqHrL6XjJlm1LZyq 06xrmmoF1TlJsfpXFBfAlW7AYZyE8DT4/KH+fX+PcWnXIDkkpSUuQHISjsAb8vVebzyauCHUrEim ijOoMBpO/uGrVaOeyqY33/u8yet5YxYv3jPKrXtHdath9K5N7dtevm/iixdPnkOKAq18EcZo72O1 1pjEYBIdDo8Ix7Ikxh/QUKuF1+PRLAadJGgTDofQvn6gdKRGQSGMF7xOtF+5Q1wDiJ/x8H4XOohd UQytN4zJJ0IyR1VEFSGqlhfYcH+fBN8eTjm1RYErSr+pZen/bcsSW5TYIpyEWlpcGRtRQzeUczjr sE4orH9dTELSbtMcHydNOf/px87vzlLlLi0W7r6vzMnxC52/sdyeFwTYvampxtuZPnahm4iQiZjs 9hsmiRggMcTzMggtdX7Vix76vUdBFazVoIxDhb9TccIVFQsX6zeNhGD1+M+xeR9tEkR8b54yxgu2 DEfDoZAyLO6MS9GwHn6JEUlM24ZuI+t8siZAO5HYXsFlYngoVqr1fl7YeEsvxdcCnGBjx1AM/+KW c0N2GSsBhRP90DNL7cSoXEGxc6pp51YKt7ha/I0cxd9YAXZsqKtvuWFMlw7jnKSFk1puXeIiKfLE eKAEOsA9ceJk4ArERwTKeeUY7il0ETfxFo61vorobRpE4YoiJIt8DUFc4bOGpa8VxHo8ikqgVS7e iu9ODs0sUZmkLMOBPoPwbZDnUIGUukFCKDJ7glsQcEMhsODDP1spWCR/cR5cZQzVd/owULUbpl5P NMYoMRp5zYs2yP1PzsnFpcvL1l/P+BsrwN0vmFRGKy1grCPpFTZDpBGMiNjtAoJTyhd5nKug2TlP 8pQxOPEwqLSgTFAEJ2iH97nhcGYl/m9V4AEo7++rBUkSK3BB4Nb5ErUtvDBjOBc3YbIOb9eqqkNU SBDz9VFRZOjfVVYv+HQ7HOeDDSggZYwKXEAFfHTjBBs0YxAyD7WKx/vB73PSzEwjS5SrJdoqpZzW yMuvH+MTj1x036j8/kZh4Btv36xadaPSVJs00YlWZJnRjcSoeswGDTQ5PAdfG/MpLkZXV6RCRSJB 8tk4Z2MfHdi88KEfUNoyrMoJnxfKr5W1ln5xqQuVOlcUnogRLDTE6io0rDgnWFsOwssqNg8NHjJQ Ahdes87hyrLKZ7jSf65zg/dZJ9gyoBBD9x1/5nJUdCG4qFJASlRqVDPRqp4YlWWpMlmi9O6NdfWO b932DcvwG0aAd37bdlo1vz2nIMYJKVBD0VDQjJDvCVRcGRZiZy1oJ1V3kASWrMKN+wPAHMq6sF2s 4EoLaQJO0CqESVbQSuFKF1aiRZ/sQqbO7yEgIuH33qf7ON0Ghq+qlC1WfOeShH2AlMLZcEFDkF25 t/iVUWDWu7HhvgAXLTtGAOE5ciKJ6DH8WUOp1CrK8MF1S2tVOCFPoVRglVIu0WGzo29gfMMIUDpR RocjNgRjnaRAXYSmE5qRy0j0bQw0fThbNqgDqcolVFbgfNnUT6xU2TdnBVf4rVVtUQRL9BZry9KT K2ux1hMtZyX8zp9A7iooFlzhGzoifLvYvhUbOZ2EkM0L1RY2oIb/zsjsq/eWtlJo77lcZc0So4h4 zxKRMfCcMA9R8Jehp4hyQss5aQA1gRRvwHq8majX37rxG4roviEEeN2tGxlvJso6tPOb2KZOqDmh 7kSaTqRZvVl5q8eB6FDSd95C44ZtzvkjWWMq2Fl/jp5YweYlZCm6+lsJaBIsQylUKM8qLcGHiy82 Whu4RtC20KeoYgtWrLtbELFIKYR14cRePaVMcCEQw8BB106M+YOgA9RXShS+tooMRAavV+zfXQb/ rnJ/1S3GyEA7kbYT1RWRXmnJU6MKEX844qbx7BtqG/qGEGCsmWil0IJoEZLCSeqc1KyTpnXSdo5W RWjCzfvsn1SkUBxhsvxr1g22SHHRyoOAIzl01oYY2w7gNDRYuMATbIUEg6SM5wv+yDhX2IAKLmzQ XOKKApuHPQGt878PiRprA8t37vLriMpacZT4dx7ibUQNkXCt4f5QIRk0FPZGhJCBcgxzhKALqnQy Yp20Sit1J2TiDc+UpZjReqK+986tXzcKfN0I8LZXbmFqJFXWiXaCcZA6R+aEhnXSslZGrEg7qrCT 0BbgXJWhc078Yl4GGTLP7P3EaMQ3lTnnmz2sQimHswoSgxJBlRISQYILO4gqFxm0C3kD57erEQVF EQpGIHk4jSN8nxriIP6EeedDTDdI/hAEF21GxFZuwUkkqMPkzw2IqYvwPrBwXwTziR+G3EFEgvAl VbiJOGWdjFonq1qpjnbSK0vyNFGF9T3xulUzl/35f8/4uhGgnmgNIYcjJNZK6pzUS2/9rVJkxFra PkpSQxo82PjAe4FBE0ScIBthtIiWNnjYYG3R4r0PttiiRNBhouMGzwpb+JZsF9BCUNjSUpYWKx4p ytJbdwzXbLgWax02t565Bz9vrQR2byuUkZC9i7G/i8rgIsdwFcJFnjEcFURkrCINgpsQd7lC+HhU l1ZGbUAB66RhRWrWk2/jnOh6qtVb79jydaHA14UAN+8coVkzqrCiBYxzpKWVrLTSsNa1rJOR0jJa OmlVTixUwHzIHTZr9G39l4d9zhF3EXEqWIb2VolyYZtf7bf/D9U4FRfOF4Un+GESXUj8kBeA8p/D oA6BDAo5cZWOSIgcHIjSXsBDWbnY3qW0Idbw48c55/MIVeFHBkoeCacMQXq8bxeJ49DPLlp8vN4w nIgqLaOFlmWt3Yp2uqOgBy5XiS6UwooTXc/014UCX5cC7Jyq6cKKcn5VV1KULrVCrXTSKKy0Cisj pXUjpXX+pKjhcAaq/n/wPk/rwLA9oQgw7HxO31qcVijCsSraV9aiIvlIL1YaCSljG4QYFlvH74+v ByHH7VaqVvUyzFloL4+hl7O2WubmF7cMEkWxZBv5QLTcAR8ZoMDX8oAhBfQzM8j5qgEJ1LEQ5cMA VVg3YrQeVYplhayI0CEogdGqBFyaaLdvS1Mdne78dynBf7cCZKlmrJnSzZ0WMAQFcEKtdK5elDRy 65p54VrL3SJFrBitlNPKV/eUT2go5dFAa6q0bdzTSanBtrIC3iyMt05x4YDHuNOYCpNoB4K7zJlG 4SsQ65s8hWj1cvl3xD7DEN+72JMQBe4k9DGEa1MqlIcHvt5vcSNUm13F6l4cMpCx75r2SulLGa6q kVT1AAWI85tkFH06PZvnpWsqRRN0E1wjNaruRGW5JcmMTsTjpNoyXlsDBTCaPZsblKVgnUhhxeWF s4VzNi91WZSS56Xq97TqrfbtpV/7s+P37dmQ7k7FjrZSXa8nkjQyY2oGXVNKZVqRKqVSozBGkWUa YyDJDNpof9p3otFGoYwODbIS6v+CowefkAAAA9BJREFUMsqfSxD2U1YGT9pEAtK4SgG8vg4Ytk6G 9i6Im4pUqRRBm9CwCiF35PmLHtqrRUw47CF8lxMViKgPdzUaUYJT2oe/RhCrsMHnF05j8YhRosgL kcIp6RVOugWuV4hdLYq+M9JdLTtzxy72Dzdr/19tV5PdNg6DPwCkZHuamZd2M8vpVXKK9oS5RXdz h+46F5jkTRPH+iGALiQ5rEorspPBe3gAaZEW9H0CJZqWpNlEburIbRW4r4T6GEgjk1WRLQZyYcKf 1xX+/nq/CtezLhj+ub2hpMZd56xmISWrzFClZDs1vOuT/aHq132y933yD12y67az901n102nvx8a vXrqbLdvdHNorX7qLHa9xba3kJJJMkgyZwYERCxEHIJQCMwhMGIUjlFQCVFdCdVCqCumKgqCAHUd KDAQawHUEIQRwnDAmYAqME1Dxna6CzHg0KTjUL9vhj+LEjEOnY5jlaDvFMkcKbkndfTJ0HbqnTra 3rztDW2XvFdzVfOUzFKy5yV+gDHBgpAGIY2BtY6sVeS0q7nf1tLtam52lTSbWh63NT9sKv5eR76r At+HSHdR+N8gdB+E/hPhhyB4ZKEDM3XC1MfAGiMbC/lfn768bQYAhkhE2LdbOCAKYHwk5jHhJgAt gEcAdwCuRv1t1O2gXmG4jw3uiHAXHx4axm4u7s46/LrIZs5qzmZgNWdV52TOmpyTOak6J3VWdUpm pOqslkjZyRTU904+zKJhP96WTIs0n6OicSU7OdGw6JhA/m5DzgQXNucr9iDkwmQi5GGwFgQuTBaE XYRMmIwZJkLGRKOFMpMRkRHBQMMULg1z1YmABKIeQDcevwbAE4D9eCwfATxk/n7cphkxmJ5Ycbym Xovp2RMH325vphGKMeRWwTAtGTG8rmMz6gj20a9HrfA8jRnG9uO74Y59ckGpYF9SFPwl8ZnvC75l /rzOCn6umtlJEwYwcyK0AA4YgJ5sDnw/tpv6cAD+8fO6sx+4bCp46nwe4BRAi4GhE9C55qBPWgKd Cv5rCJDbtfHlfg7yVF4iwBz4EjmWCDEB2xd0fN3aT+Q57sM54AMXZAAA+HZ7k7fNM8Jc5wBLYds1 wK4BfL5PJftSzKfAz+tKpFjSElFOkWVOEJ3Zuf7U58fPXxZCK8tFBJhkJELez5qzspSeT6XrU+Be CvSaeEtn0BIxTg0TpbpTn59Dql/6ugT4SV5FgFwKZCiVlwBaA+JaUN8srkxOpdZ5/VL5lL9ULta/ BvRc/o8DdZSMFK/93pe2n3/uhbq3lpfG2rPG4qU2bwV2SX4AftaOZElCzr4AAAAASUVORK5CYII= "
       preserveAspectRatio="none"
       height="4"
       width="4" />
  </g>
</svg>
