<?xml version="1.0" encoding="UTF-8" standalone="no"?>
<svg
   xmlns:dc="http://purl.org/dc/elements/1.1/"
   xmlns:cc="http://creativecommons.org/ns#"
   xmlns:rdf="http://www.w3.org/1999/02/22-rdf-syntax-ns#"
   xmlns:svg="http://www.w3.org/2000/svg"
   xmlns="http://www.w3.org/2000/svg"
   xmlns:xlink="http://www.w3.org/1999/xlink"
   xmlns:sodipodi="http://sodipodi.sourceforge.net/DTD/sodipodi-0.dtd"
   xmlns:inkscape="http://www.inkscape.org/namespaces/inkscape"
   viewBox="0 0 22 22"
   height="22"
   width="22"
   id="svg2"
   version="1.1"
   sodipodi:docname="document-open-remote.svg"
   inkscape:version="0.92.2 (5c3e80d, 2017-08-06)">
  <sodipodi:namedview
     pagecolor="#ffffff"
     bordercolor="#666666"
     borderopacity="1"
     objecttolerance="10"
     gridtolerance="10"
     guidetolerance="10"
     inkscape:pageopacity="0"
     inkscape:pageshadow="2"
     inkscape:window-width="640"
     inkscape:window-height="480"
     id="namedview6"
     showgrid="false"
     inkscape:current-layer="svg2" />
  <metadata
     id="metadata8">
    <rdf:RDF>
      <cc:Work
         rdf:about="">
        <dc:format>image/svg+xml</dc:format>
        <dc:type
           rdf:resource="http://purl.org/dc/dcmitype/StillImage" />
        <dc:title></dc:title>
      </cc:Work>
    </rdf:RDF>
  </metadata>
  <defs
     id="defs6" />
  <image
     y="0"
     x="0"
     id="image10"
     xlink:href="data:image/png;base64,iVBORw0KGgoAAAANSUhEUgAAADAAAAAwCAYAAABXAvmHAAAAAXNSR0IArs4c6QAAAAZiS0dEAP8A /wD/oL2nkwAAAAlwSFlzAAALEwAACxMBAJqcGAAAAAd0SU1FB9oFCxUJOfS6z0IAAAvOSURBVGje 7Zl7jFxXfcc/5947r52dndn17tpOaDY2NbZJ7PBoqhYltNCSVOQP3Db/VDJBqRJUyahtWqlCigAR qGiL1aoVUUqpAvzVpIHGcZJKgFSQ84DEVhI7Cfi5GL/teHZmHzNz73n8Tv+YM871sib2mrZI5UpH d2bO3N/9fX/v3+/AL69fXv+/L/U/SFMtQV9yn/0vCoA8w1HuPlh5hn0AMVg+t/5PAFxgtjoymmz7 5BdvaIyv+t3KUPV3yuXKTUmh0DDGyUK3e3Zubv6lIX3oB/qNfd/7wj/8+/4s7VrALgHofwXAwDyi 6sho4f4vfnXLivHJTzbq9U2CUt57rBWc81jxWCekNuLaeD/j0RE518pePXys+Xef/et//ZbRaQYY wIV1RealrkLq8V9+/svr3rFx0780Go3fjKNIVUoJpUJCsRARqQhwDMlpsiyl3fEM20O4XhPjDMY4 f3LGfvffduz+s//69rdPADoH5LLNKl4m88lnv/TY7e/YcONTI7Xaunq1pFbUhxitlSkkMUpFKG8Z 5hyJT6nEHRqleUrFIqgEcQaju6pSkDUb1q2+sz428eLevfvPL8eE4uUw/+l/fPRDa9eue6xWrQyv qFcYbwwRRwonUPDzRL5Daoso6aEtxLKAdxnW9i0kihPEC1Z3SUirU6trH4mqq5//4esHmouc++cG YGDzyZ9+5sF3rtu46clqtVIdb1RpDJcR7xHxOOeJpUPJt1E+pexnKPkWSIY4g7gMaw3WGvAgzqCz LnhdmpycuO3EDE+fPXWykwMhb8VYdAUaiK6Z+tXy2vWbv1JIiiOjw2VqlSLWCcYK1grGCfO2ApJS 5xiRH0je0EorzKQVtHU4k2JtiooS4riIs456oTX5Wx/87c/FSWEYKANJELC6Wg0MTKfw55/7ykcn Jld9vFErMTlaRbzHSV/6RjxKUkbVcYx1nM5W0dUJxgniNHNZkVQL3naJ3ALGWKzJcOIxWiM2xUpx zXxh7Ysnj7x6OjjzW4bX5HKlP3nt9eX66MRfee+pDZWwIkhgfgAgdhYbaWayBm1dQdsSzgzh7Chj 6iQlzpO4WbTVGKMxxqC1wYnCaCHyC/GqqQ3bojh5RZzVIU/8zKgUXaYG4i13/cWvJYXymnIpoVKK sdZhjMNYhzaCNkIibXApDXWMtyWvMyTncDYD1+XI/AQn5kdBumht6GWeLDNYk+KdQUT6WhH1G1Mb b14LVIDCW1lJcrmRZ2zldX9oRSgXYowVnATzcYIRqHGOenQcnAZnKTjDyrhFoyD4qMukQLNXZLYX oWyPmU6FVreO2BLzKUwmPbzTmKybrJy64X0/fu37R4BeyA9RLsldsQYiIE6K5VuNdSRxjDYOrR3a OFIjxLZNQx1FbA9jDMYYMmNwNgU7h5geBd8idrMcm23QSS0lOcewP8e5hYQXT/0KL529Fm9TEt+h ODz2vuDIxaCB6FLOnFwmgEI50ddlRogiRWYEEcGKoI1iOJnB2x7WCc5axFmsMzirsUbjrEEbS1ma iBb2LlzD9cXDONNhrtvA6g7HuxWqrkIkPbyvbggACmFll2tCi0vhJEihVPYzQ2d7NbJM96OPE6zz GOtxxRZp3MU5j3cO5/qx3jmNc/aCs2appuZPcCqb5FBnhE53mKOtMmLm0ZnmoK5hraBVtxF8oBLM qHiJ6tUnSzA/UFkcHiwDtaI+Q6+3gtZsmUjR9wPXj/0LpXmSeB4rCrxFvEWcR8RgdV/6WmekmUan KavUQdo2omcKZJ2ITGc4a0nF4cVRLHUjYBjoBB+QwJPJhVe3uJhTgel4pnk+XW59/Z0d24mUQyFY UTiTYbQh1Zq0l3LXtn9adu0+tmJ8PADSAYBNlog4RYCdO3aGFsrjncf5vt2LE5wIzjmc9H9zzrFx 4w1875nnsNVrKCeOqaGTjJQzjNZondHrZaRZ35SXSxuoBa0w8ItkCQ0ULzhI4/ex1mGNwxpLYeEM K2tdVj37JNXmSbJ77+H091/h8CmDXd8vW06cM0hSQtULbF7t0FaTZSlZltHtvemLy6ENNHKtqV0c RgcACgPpOBGcdYizTO15hNumH+P2t8N7G8L6j29lwy3v5ebmIW77xhdwzgKQds6TLbRozhsojOGk TJppemlGlqZcDe2ggYsS3FJRKAHwHpwVxDuuP/wU7/nOl2k88gjxu98NK1fCCy8QP/QQ8d13oz78 YVxHA9BdmCcuGqZ7BW591yp83OGN822SCNKggeXSDswXA49qKQ1caMR9kNCKE7t458kXGH7gAeKb boLTp2HXLvxrryHNJmbDBswdd+BCrZ/2uqS9BXrdBYqlMkqV6HZSskyTpoaroQ2UAvMX+EwulZ1F PN3pfdw4Zanc9xCln/wE//TTMDGBv+UWZNUq9MGDdHfvZnbNGqz0X6KzDrGzeBKGSkVaUZE0zUAi rOlLcrm0FzP/M0sJ8YI6s5eh2z5I+dgx3KFD2DNnsBMTmPXr0XfcwUKtRvuee2jdeScifUczOkNn KVnWJUpKqKhAL+33BB3tr4r2FZUSXjxDpQ7s20c8NkZ2/DhojaxejQV6WtPavZuZ8+c5Oz2NcwMA migSBEUUF0AlOJPhnOLMbHJVtK8IgBOH/9Er6OOvkn3965iJCeTll5FHH6V33XV0Gg3OHz3KTLfL WSAJUtJpSpwkiIckTkAltDpwaiHh6Ln4qmhfLgABuGnzuzA3bKLtHM898zzWOlxUwNTHcM1Z7NkZ 3Na7sX90F4n0ExCANprIWVCKJIlAxbx8rESxGONd35aXS3vRIOynAFxUKP3Hk/+5rHTvvcM7j1ee OE6IIoVyBlwCwRmXS3upudFiDXjAja0Y3wSsBCaAxtatW2++9db3/0Gz2WykaY8syxCRs48//vi3 Dh8+PBeCga+OrBipT75tqlgdvS6K4xVJEtfiOKZQKneq1eHTvW77x1Nr1h9emJ/peO8ToLBly5br b7/9997farVqOdpndu7c+c0DBw6cBtJQPrQCgHybeVExF4fKswqMPrHzqf0ejxfBi8d7j3jp30Od 4n1/T7zHi+djH/vo/bkXqB88//zf/vD11/nje+99GDg4kNwTO5/avgzaHwGawPkApgN0FpuQCwz0 Thw5Ghp2uWg5cf1E5Abfpf+9bx4nBswDKoljlFIAbWAmFGCyTNpzwELoDwZC+ikfkKAmve2+T2wA 6qH+GAaGgPKnP/Wph08cP87DX/va3wM/Gvw/EM4CcQ8UidRAw50AIAXMtvs+8aFQz5SC1suff+CB r05PTw/o7g90M6AbGO+G5wczVFkqkQ2qPB0emA/I28As0G7U69SGh8nZZSuotgm8EVTcbjWbT09M TKobN29WO3fs+Ez4/0KgNfhvMwCbqdfrjIyMDOheeF9Yc4GXbuBtEI2W1IDL9aCSk0IPqIyPj9Nu twm/zYb9NKws0KmICLPtNgcOHKAzPw+wCXg2py2Ve7YyPj5Os9kc0G2HvV7u3Vnu7pYCkPeDvEZ0 bmX1NzVgcssO1NpsNg+VCgXE2osI//ODD24H+JNt294TAoYLzySAadTrDPfpZjmTGTCfLnqPu1QY HTCtcnY2OEkB8MPDw5QrFZ7dtWt7P4x5VBQTKYWKImbbbeZmZ4mivnVu3rQJpRTee3bv2cNLe/a8 NOi0+tHGI+IQJ1QqlYFgusGUBiE0fwByyUQ20IBa1DirAEAB3ot8d6hS+cCB/fsvbiSUAqXYFMfs D3tKXTzKmZ6evuB0PjQG3r85Mdy7b98+YDpIPb/sUhOJKzmhSULEGAp5Yh3w9lwQGBCNnnziiS89 98wzlyT0N9u335+buMmiicixsOaC5Lu5yHZVR0yDVrMcQORH4CoHZBAafz3c87NNlwuNL4a7yZmt D4ymi8KmudRY8UoAXDTkyo39CouOVOPc/gBAkivETC7yZItsWnI5ZbCvc+ZzVeN1ci/If46XANDL 9a1xTjuSy/T50XkegFsU3eRyJHvFZ8KDAVjuu1oCyOKhbD7PuCXOh+US+z+XE/1f2Ou/AeKJSYMP 56IEAAAAAElFTkSuQmCC "
     preserveAspectRatio="none"
     height="22"
     width="22" />
</svg>
