<?xml version="1.0" encoding="UTF-8" standalone="no"?>
<svg
   xmlns:dc="http://purl.org/dc/elements/1.1/"
   xmlns:cc="http://creativecommons.org/ns#"
   xmlns:rdf="http://www.w3.org/1999/02/22-rdf-syntax-ns#"
   xmlns:svg="http://www.w3.org/2000/svg"
   xmlns="http://www.w3.org/2000/svg"
   xmlns:sodipodi="http://sodipodi.sourceforge.net/DTD/sodipodi-0.dtd"
   xmlns:inkscape="http://www.inkscape.org/namespaces/inkscape"
   viewBox="0 0 22 22"
   version="1.1"
   id="svg10"
   sodipodi:docname="dontknow.svg"
   inkscape:version="0.92.2 (5c3e80d, 2017-08-06)">
  <metadata
     id="metadata14">
    <rdf:RDF>
      <cc:Work
         rdf:about="">
        <dc:format>image/svg+xml</dc:format>
        <dc:type
           rdf:resource="http://purl.org/dc/dcmitype/StillImage" />
      </cc:Work>
    </rdf:RDF>
  </metadata>
  <sodipodi:namedview
     pagecolor="#ffffff"
     bordercolor="#666666"
     borderopacity="1"
     objecttolerance="10"
     gridtolerance="10"
     guidetolerance="10"
     inkscape:pageopacity="0"
     inkscape:pageshadow="2"
     inkscape:window-width="640"
     inkscape:window-height="480"
     id="namedview12"
     showgrid="false"
     inkscape:current-layer="svg10" />
  <defs
     id="defs3051">
    <style
       type="text/css"
       id="current-color-scheme">
      .ColorScheme-Text {
        color:#f2f2f2;
      }
      </style>
  </defs>
  <g
     transform="translate(-421.71429-525.79074)"
     id="g8">
    <path
       style="fill:currentColor;fill-opacity:1;stroke:none"
       d="m432.68304 528.79074c-1.75093 0-3.40688.4216-4.96875 1.26367l.77734 1.78711c.78092-.38352 1.48271-.65748 2.10743-.82422.63297-.16673 1.27792-.25 1.93554-.25.98644 0 1.74342.22025 2.26953.66211.5261.44187.78907 1.075.78907 1.90039 0 .44187-.0568.83057-.17188 1.16407-.11508.33348-.31231.66651-.5918 1-.27948.33349-.86767.88335-1.76367 1.65039-1.10008 1.00333-2.2511 2.78548-2.35156 4.64648h2l-.006-.0312c0-.75868.13147-1.36761.39453-1.82617.27128-.46689.81313-1.055 1.62695-1.76367.99467-.84207 1.65753-1.47518 1.98633-1.90039.33704-.4252.58756-.87438.75196-1.34961.1645-.47523.24609-1.02172.24609-1.63868 0-1.41734-.44773-2.51904-1.34375-3.30273-.89601-.79204-2.12564-1.1875-3.6875-1.1875zm-1.96875 14v2h2v-2h-2"
       class="ColorScheme-Text"
       id="path4" />
    <path
       d="m436.70452 538.79074l-.99023.9902 2.00976 2.0098-2.00976 2.0098.99023.9902 2.00977-2.0098 2.00976 2.0098.99024-.9902-2.00977-2.0098 2.00977-2.0098-.99024-.9902-2.00976 2.0098-2.00977-2.0098"
       style="fill:#da4453"
       id="path6" />
  </g>
  <path
     style="opacity:1;fill:#00ff00;fill-opacity:1;fill-rule:nonzero;stroke:#ffffff;stroke-width:0.06853583;stroke-opacity:0.94117647"
     d="m 8.9919003,15.826856 c 0,-0.34008 0.3203008,-1.477124 0.5657474,-2.008361 0.4587373,-0.992877 1.1795543,-1.957936 1.9632533,-2.628482 0.807759,-0.691132 1.680867,-1.5905933 1.90614,-1.9636738 C 13.746829,8.6967314 13.881976,8.0963516 13.841523,7.3850355 13.783847,6.3708867 13.410094,5.7627937 12.602574,5.3692794 11.360505,4.7640037 9.6571267,4.8746011 7.6344839,5.6918488 7.1706152,5.8792747 6.7780148,6.0195517 6.7620386,6.0035755 6.7460623,5.9875992 6.5639336,5.5909599 6.3573082,5.1221549 L 5.9816255,4.2697819 6.6396202,3.9503256 C 8.0223145,3.2790279 9.5606967,2.9678178 11.219315,3.0238673 c 1.18699,0.040112 1.661059,0.1429688 2.501557,0.5427542 0.462152,0.219824 0.68936,0.3848656 1.099319,0.7985382 0.860152,0.8679427 1.159565,1.6745269 1.161351,3.1285407 0.0012,0.9763889 -0.09409,1.4109316 -0.487837,2.2246797 -0.259459,0.5362179 -0.363758,0.6615989 -1.311275,1.5763239 -2.294439,2.215032 -2.636284,2.569705 -2.811601,2.91711 -0.16783,0.332567 -0.277948,0.785779 -0.361132,1.486317 l -0.03866,0.325545 H 9.9814704 8.9919003 Z"
     id="path821"
     inkscape:connector-curvature="0" />
  <path
     style="opacity:1;fill:#3daee9;fill-opacity:1;fill-rule:nonzero;stroke:#ffffff;stroke-width:0.06853583;stroke-opacity:0.94117647"
     d="m 8.9919003,18.011215 v -1.031702 l 1.0109037,0.01897 1.010903,0.01897 v 0.99377 0.993769 l -1.010903,0.01897 -1.0109037,0.01897 z"
     id="path823"
     inkscape:connector-curvature="0" />
  <path
     style="opacity:1;fill:#3daee9;fill-opacity:1;fill-rule:nonzero;stroke:#ffffff;stroke-width:0.06853583;stroke-opacity:0.94117647"
     d="M 9.0821727,15.663863 C 9.152784,15.154361 9.4705074,14.156185 9.7299948,13.628632 10.157331,12.759832 10.666522,12.133883 12.074591,10.746417 13.16488,9.6720826 13.464845,9.3360393 13.604036,9.0330218 14.112508,7.9260779 13.96679,6.4653642 13.279312,5.7778852 12.203486,4.7020596 10.066091,4.6606058 7.5183801,5.6661545 7.141433,5.8149306 6.8139279,5.9162826 6.7905909,5.8913812 6.719825,5.8158716 6.1133956,4.4233127 6.1133956,4.336321 c 0,-0.099251 1.2409606,-0.6534723 1.8905718,-0.8443429 1.1984715,-0.3521383 2.6796446,-0.4891709 3.8801826,-0.35898 1.27932,0.1387342 2.170678,0.5489324 2.930117,1.3484243 0.809154,0.8518293 1.093584,1.641624 1.096171,3.0438112 0.0015,0.8277263 -0.125897,1.4253914 -0.448155,2.1020217 -0.241116,0.5062597 -0.361097,0.6412607 -2.121512,2.3870747 -1.184041,1.17422 -1.91913,1.95638 -2.011482,2.140284 -0.147602,0.293928 -0.300146,0.883172 -0.381844,1.474981 l -0.04494,0.325545 H 9.9721547 9.0418048 Z"
     id="path825"
     inkscape:connector-curvature="0" />
</svg>
