<?xml version="1.0" encoding="UTF-8" standalone="no"?>
<svg
   xmlns:dc="http://purl.org/dc/elements/1.1/"
   xmlns:cc="http://creativecommons.org/ns#"
   xmlns:rdf="http://www.w3.org/1999/02/22-rdf-syntax-ns#"
   xmlns:svg="http://www.w3.org/2000/svg"
   xmlns="http://www.w3.org/2000/svg"
   xmlns:sodipodi="http://sodipodi.sourceforge.net/DTD/sodipodi-0.dtd"
   xmlns:inkscape="http://www.inkscape.org/namespaces/inkscape"
   viewBox="0 0 22 22"
   version="1.1"
   id="svg6"
   sodipodi:docname="draw-triangle.svg"
   inkscape:version="0.92.2 (5c3e80d, 2017-08-06)">
  <metadata
     id="metadata10">
    <rdf:RDF>
      <cc:Work
         rdf:about="">
        <dc:format>image/svg+xml</dc:format>
        <dc:type
           rdf:resource="http://purl.org/dc/dcmitype/StillImage" />
      </cc:Work>
    </rdf:RDF>
  </metadata>
  <sodipodi:namedview
     pagecolor="#ffffff"
     bordercolor="#666666"
     borderopacity="1"
     objecttolerance="10"
     gridtolerance="10"
     guidetolerance="10"
     inkscape:pageopacity="0"
     inkscape:pageshadow="2"
     inkscape:window-width="640"
     inkscape:window-height="480"
     id="namedview8"
     showgrid="false"
     inkscape:current-layer="svg6" />
  <defs
     id="defs3051">
    <style
       type="text/css"
       id="current-color-scheme">
      .ColorScheme-Text {
        color:#f2f2f2;
      }
      </style>
  </defs>
  <path
     style="fill:currentColor;fill-opacity:1;stroke:none"
     transform="translate(-1.00194-1.00194)"
     d="M 4,4 4,5.40625 4,20 l 14.59375,0 1.402344,0.0039 0.0078,0 L 20,20 20.0039,19.9961 Z M 5,6.40625 17.59375,19 5,19 Z"
     class="ColorScheme-Text"
     id="path4" />
  <path
     style="opacity:1;fill:#3daee9;fill-opacity:1;fill-rule:nonzero;stroke:#ffffff;stroke-width:0.06853583;stroke-opacity:0.94117647"
     d="m 2.9923576,18.953583 c -0.017943,-0.04712 -0.024685,-3.655581 -0.014983,-8.018806 l 0.017641,-7.9331347 8.0185824,8.0188047 8.018581,8.018805 H 11.02858 c -6.3397887,0 -8.0103804,-0.01781 -8.0362224,-0.08567 z M 10.29394,11.740041 4.023053,5.4688663 4.0053698,11.654371 c -0.00973,3.402027 -0.00298,6.224056 0.014983,6.271174 0.025803,0.06767 1.3469595,0.08567 6.2885712,0.08567 h 6.255904 z"
     id="path817"
     inkscape:connector-curvature="0" />
</svg>
