<?xml version="1.0" encoding="UTF-8" standalone="no"?>
<svg
   xmlns:dc="http://purl.org/dc/elements/1.1/"
   xmlns:cc="http://creativecommons.org/ns#"
   xmlns:rdf="http://www.w3.org/1999/02/22-rdf-syntax-ns#"
   xmlns:svg="http://www.w3.org/2000/svg"
   xmlns="http://www.w3.org/2000/svg"
   xmlns:sodipodi="http://sodipodi.sourceforge.net/DTD/sodipodi-0.dtd"
   xmlns:inkscape="http://www.inkscape.org/namespaces/inkscape"
   viewBox="0 0 22 22"
   version="1.1"
   id="svg6"
   sodipodi:docname="draw-bezier-curves.svg"
   inkscape:version="0.92.2 (5c3e80d, 2017-08-06)">
  <metadata
     id="metadata10">
    <rdf:RDF>
      <cc:Work
         rdf:about="">
        <dc:format>image/svg+xml</dc:format>
        <dc:type
           rdf:resource="http://purl.org/dc/dcmitype/StillImage" />
      </cc:Work>
    </rdf:RDF>
  </metadata>
  <sodipodi:namedview
     pagecolor="#ffffff"
     bordercolor="#666666"
     borderopacity="1"
     objecttolerance="10"
     gridtolerance="10"
     guidetolerance="10"
     inkscape:pageopacity="0"
     inkscape:pageshadow="2"
     inkscape:window-width="640"
     inkscape:window-height="480"
     id="namedview8"
     showgrid="false"
     inkscape:current-layer="svg6" />
  <defs
     id="defs3051">
    <style
       type="text/css"
       id="current-color-scheme">
      .ColorScheme-Text {
        color:#f2f2f2;
      }
      </style>
  </defs>
  <path
     style="fill:currentColor;fill-opacity:1;stroke:none"
     d="m18.5 4c-.65424 0-1.202197.418077-1.408203 1h-13.0918v1c3.601 0 6.5 2.899 6.5 6.5 0 1.905514-.822115 3.601777-2.121094 4.787109-.245727-.180239-.548776-.287109-.878906-.287109-.831 0-1.5.669-1.5 1.5 0 .831.669 1.5 1.5 1.5.65424 0 1.202197-.418077 1.408203-1h4.091797v1h3v-3h-3v1h-3.912109c1.479147-1.367931 2.412109-3.317097 2.412109-5.5 0-2.788667-1.510668-5.207469-3.757813-6.5h9.349609c.206006.581923.753963 1 1.408203 1 .831 0 1.5-.669 1.5-1.5 0-.831-.669-1.5-1.5-1.5m0 1c.277 0 .5.223.5.5 0 .277-.223.5-.5.5-.06925 0-.135453-.013828-.195312-.039063-.179579-.075703-.304688-.253188-.304688-.460938 0-.06925.013828-.135453.039062-.195313.075704-.179578.253188-.304688.460938-.304688m-11 13c.277 0 .5.223.5.5 0 .277-.223.5-.5.5-.277 0-.5-.223-.5-.5 0-.277.223-.5.5-.5m6.5 0h1v1h-1v-1z"
     transform="translate(-.99999-.99999)"
     class="ColorScheme-Text"
     id="path4" />
  <path
     style="opacity:1;fill:#3daee9;fill-opacity:1;fill-rule:nonzero;stroke:#ffffff;stroke-width:0.06853583;stroke-opacity:0.94117647"
     d="M 6.0280232,18.932316 C 5.6613687,18.816603 5.2560603,18.451122 5.1119795,18.106289 4.9837983,17.799508 4.9915958,17.159858 5.1269949,16.874526 c 0.1450019,-0.305569 0.4825155,-0.636351 0.7807933,-0.76522 0.3215925,-0.138943 0.8573075,-0.129578 1.2291206,0.02148 l 0.3038869,0.123466 0.3035838,-0.338031 C 8.1625571,15.450596 8.7355885,14.566601 8.9490837,14.05777 9.3467086,13.110098 9.4350833,12.643751 9.4337321,11.500312 9.4324391,10.406158 9.3744904,10.050599 9.0562315,9.1840587 8.2370022,6.9535002 6.1313852,5.3347105 3.6960217,5.0631514 3.3322871,5.0225926 3.0166987,4.9894081 2.9947143,4.9894081 c -0.021984,0 -0.03091,-0.2235981 -0.019835,-0.4968847 l 0.020137,-0.4968848 6.5451713,-0.019899 6.5451714,-0.0199 0.191536,-0.3021032 c 0.137447,-0.2167903 0.297218,-0.3538085 0.565767,-0.4851976 1.319813,-0.6457243 2.653157,0.7251535 1.969963,2.0254187 -0.561887,1.0693921 -1.975223,1.0858166 -2.627424,0.030533 L 16.039911,4.9894081 H 11.40293 6.7659493 L 7.2244255,5.296976 c 1.4485723,0.9717721 2.5948873,2.6021256 3.0442875,4.3297573 0.258741,0.9946747 0.297878,2.3346137 0.09676,3.3128307 -0.270153,1.314013 -0.8287083,2.454756 -1.6935785,3.458807 l -0.5037409,0.584807 h 1.9196594 1.91966 v -0.515356 -0.515355 l 1.490654,0.01847 1.490654,0.01847 v 1.507788 1.507788 l -1.490654,0.01847 -1.490654,0.01847 V 18.52657 18.011215 l -2.0389412,0.0022 -2.0389408,0.0022 -0.1814896,0.299263 c -0.3397039,0.560147 -1.0705115,0.822505 -1.7200822,0.617506 z m 0.6600699,-0.998527 c 0.2355401,-0.10732 0.3539694,-0.408661 0.2432115,-0.618848 -0.1111055,-0.210847 -0.1942824,-0.260913 -0.4355653,-0.262178 -0.5393113,-0.0028 -0.6252389,0.719718 -0.1082004,0.90983 0.056542,0.02079 0.1090629,0.04024 0.1167129,0.04321 0.00765,0.003 0.090379,-0.02943 0.1838413,-0.07202 z m 7.3069229,-0.436593 v -0.514018 h -0.479751 -0.479751 v 0.514018 0.514019 h 0.479751 0.479751 z M 17.789511,4.8473621 c 0.347107,-0.2730348 0.149641,-0.8174556 -0.296498,-0.8174556 -0.241749,0 -0.482421,0.2302461 -0.482421,0.4615214 0,0.1943309 0.284998,0.4979802 0.467393,0.4979802 0.07202,0 0.212206,-0.063921 0.311526,-0.142046 z"
     id="path817"
     inkscape:connector-curvature="0" />
</svg>
