<?xml version="1.0" encoding="UTF-8" standalone="no"?>
<svg
   xmlns:dc="http://purl.org/dc/elements/1.1/"
   xmlns:cc="http://creativecommons.org/ns#"
   xmlns:rdf="http://www.w3.org/1999/02/22-rdf-syntax-ns#"
   xmlns:svg="http://www.w3.org/2000/svg"
   xmlns="http://www.w3.org/2000/svg"
   xmlns:sodipodi="http://sodipodi.sourceforge.net/DTD/sodipodi-0.dtd"
   xmlns:inkscape="http://www.inkscape.org/namespaces/inkscape"
   viewBox="0 0 22 22"
   version="1.1"
   id="svg6"
   sodipodi:docname="draw-polygon.svg"
   inkscape:version="0.92.2 (5c3e80d, 2017-08-06)">
  <metadata
     id="metadata10">
    <rdf:RDF>
      <cc:Work
         rdf:about="">
        <dc:format>image/svg+xml</dc:format>
        <dc:type
           rdf:resource="http://purl.org/dc/dcmitype/StillImage" />
      </cc:Work>
    </rdf:RDF>
  </metadata>
  <sodipodi:namedview
     pagecolor="#ffffff"
     bordercolor="#666666"
     borderopacity="1"
     objecttolerance="10"
     gridtolerance="10"
     guidetolerance="10"
     inkscape:pageopacity="0"
     inkscape:pageshadow="2"
     inkscape:window-width="640"
     inkscape:window-height="480"
     id="namedview8"
     showgrid="false"
     inkscape:current-layer="svg6" />
  <defs
     id="defs3051">
    <style
       type="text/css"
       id="current-color-scheme">
      .ColorScheme-Text {
        color:#f2f2f2;
      }
      </style>
  </defs>
  <path
     style="fill:currentColor;fill-opacity:1;stroke:none"
     d="m12.00781 4l-8.177734 8.177734 4.515625 7.822266h7.273438l4.01758-6.957031.517578-.896485-8.146485-8.146484m-.002 1.414063l6.898438 6.896484-3.861281 6.689453h-6.119141l-3.84375-6.658203 6.925781-6.927734"
     transform="translate(-.99999-.99999)"
     class="ColorScheme-Text"
     id="path4" />
  <path
     style="opacity:1;fill:#3daee9;fill-opacity:1;fill-rule:nonzero;stroke:#ffffff;stroke-width:0.06853583;stroke-opacity:0.94117647"
     d="M 6.6728617,17.857607 C 6.2956608,17.207044 5.2754905,15.441121 4.4058166,13.933333 L 2.8245911,11.1919 6.918935,7.0968847 11.013279,3.0018692 15.07424,7.0624009 c 2.233529,2.2332923 4.060962,4.0802141 4.060962,4.1042701 0,0.02406 -1.013129,1.797518 -2.251399,3.941026 l -2.251399,3.897287 -3.636862,0.01773 -3.6368606,0.01773 z m 9.2860223,-3.189026 1.9296,-3.339609 L 14.451265,7.8849617 11.014046,4.4409514 7.5587976,7.8961999 4.103549,11.351448 5.8748833,14.424323 c 0.9742338,1.69008 1.8431913,3.188527 1.9310167,3.329883 l 0.1596824,0.257009 3.0318506,-0.0015 3.03185,-0.0015 1.929601,-3.339609 z"
     id="path817"
     inkscape:connector-curvature="0" />
</svg>
