<?xml version="1.0" encoding="UTF-8" standalone="no"?>
<svg
   xmlns:dc="http://purl.org/dc/elements/1.1/"
   xmlns:cc="http://creativecommons.org/ns#"
   xmlns:rdf="http://www.w3.org/1999/02/22-rdf-syntax-ns#"
   xmlns:svg="http://www.w3.org/2000/svg"
   xmlns="http://www.w3.org/2000/svg"
   xmlns:sodipodi="http://sodipodi.sourceforge.net/DTD/sodipodi-0.dtd"
   xmlns:inkscape="http://www.inkscape.org/namespaces/inkscape"
   viewBox="0 0 22 22"
   version="1.1"
   id="svg6"
   sodipodi:docname="draw-triangle1.svg"
   inkscape:version="0.92.2 (5c3e80d, 2017-08-06)">
  <metadata
     id="metadata10">
    <rdf:RDF>
      <cc:Work
         rdf:about="">
        <dc:format>image/svg+xml</dc:format>
        <dc:type
           rdf:resource="http://purl.org/dc/dcmitype/StillImage" />
      </cc:Work>
    </rdf:RDF>
  </metadata>
  <sodipodi:namedview
     pagecolor="#ffffff"
     bordercolor="#666666"
     borderopacity="1"
     objecttolerance="10"
     gridtolerance="10"
     guidetolerance="10"
     inkscape:pageopacity="0"
     inkscape:pageshadow="2"
     inkscape:window-width="640"
     inkscape:window-height="480"
     id="namedview8"
     showgrid="false"
     inkscape:current-layer="svg6" />
  <defs
     id="defs3051">
    <style
       type="text/css"
       id="current-color-scheme">
      .ColorScheme-Text {
        color:#f2f2f2;
      }
      </style>
  </defs>
  <path
     style="fill:currentColor;fill-opacity:1;stroke:none"
     d="M 19,4 18,4.5722656 5,12 18,19.427734 19,20 19,18.84375 19,5 19,4 Z M 18,5.5839844 18,18.271484 7.0234375,12 18,5.5839844 Z"
     transform="translate(-.99999-.99999)"
     class="ColorScheme-Text"
     id="path4" />
  <path
     style="opacity:1;fill:#3daee9;fill-opacity:1;fill-rule:nonzero;stroke:#ffffff;stroke-width:0.06853583;stroke-opacity:0.94117647"
     d="M 10.923598,14.979973 C 7.1045684,12.794614 3.9896152,10.998052 4.0014802,10.987613 4.0573736,10.938436 17.973622,3.0018692 18.003956,3.0018692 c 0.01907,0 0.03467,3.5929906 0.03467,7.9844238 0,6.346479 -0.01757,7.982642 -0.08567,7.975741 -0.04712,-0.0048 -3.210331,-1.796703 -7.029362,-3.982061 z M 16.980183,4.6620104 c -0.01712,-0.017122 -2.481837,1.401509 -5.477145,3.1525126 l -5.446014,3.183643 5.45965,3.119933 5.45965,3.119933 0.01749,-6.272446 c 0.0096,-3.4498447 0.0035,-6.2864539 -0.01364,-6.3035756 z"
     id="path817"
     inkscape:connector-curvature="0" />
</svg>
