<?xml version="1.0" encoding="UTF-8" standalone="no"?>
<!-- Created with Inkscape (http://www.inkscape.org/) -->

<svg
   xmlns:dc="http://purl.org/dc/elements/1.1/"
   xmlns:cc="http://creativecommons.org/ns#"
   xmlns:rdf="http://www.w3.org/1999/02/22-rdf-syntax-ns#"
   xmlns:svg="http://www.w3.org/2000/svg"
   xmlns="http://www.w3.org/2000/svg"
   xmlns:xlink="http://www.w3.org/1999/xlink"
   xmlns:sodipodi="http://sodipodi.sourceforge.net/DTD/sodipodi-0.dtd"
   xmlns:inkscape="http://www.inkscape.org/namespaces/inkscape"
   version="1.1"
   id="svg2"
   width="22"
   height="22"
   viewBox="0 0 22 22"
   sodipodi:docname="edit-group.svg"
   inkscape:version="0.92.2 (5c3e80d, 2017-08-06)">
  <metadata
     id="metadata8">
    <rdf:RDF>
      <cc:Work
         rdf:about="">
        <dc:format>image/svg+xml</dc:format>
        <dc:type
           rdf:resource="http://purl.org/dc/dcmitype/StillImage" />
        <dc:title></dc:title>
      </cc:Work>
    </rdf:RDF>
  </metadata>
  <defs
     id="defs6" />
  <sodipodi:namedview
     pagecolor="#ffffff"
     bordercolor="#666666"
     borderopacity="1"
     objecttolerance="10"
     gridtolerance="10"
     guidetolerance="10"
     inkscape:pageopacity="0"
     inkscape:pageshadow="2"
     inkscape:window-width="640"
     inkscape:window-height="480"
     id="namedview4"
     showgrid="false"
     inkscape:current-layer="svg2" />
  <image
     width="22"
     height="22"
     preserveAspectRatio="none"
     xlink:href="data:image/png;base64,iVBORw0KGgoAAAANSUhEUgAAADAAAAAwCAYAAABXAvmHAAAAAXNSR0IArs4c6QAAAAZiS0dEAP8A /wD/oL2nkwAAAAlwSFlzAAALEwAACxMBAJqcGAAAAAd0SU1FB9oBDRcNDvsEgjsAAAo5SURBVGje 7ZldbFzXccd/537sJ7kkd7kUSZGUWSqkLae1LMm1kcK2kiZiErd14Ye+2H6IFLdFFKCAgeSpKNAA QSXFrhAlNeonG/GDA9RPTdG4YQA5AtKkRWE3smtFTkRBkczYpiSS4n7ee85MH+7lkrRhRC6XKgr0 AHfP3t3F7pmZ/8yZ31n4//F/YFQqFZM+NYC/4TIf8QIw+Xze33C/pfEbv6Snp8er1Wrywnde+ItG vXF4dOdofM/vHvA93ycIAlWnOHWgirUOVUFEEFGcS+6dCCqCc44otuf33nXXFwAHxFs1ILiJxeef /ftnvzQ0NHSi2Wzq9My0abXaWiwWjGc81BcQDxHF9xURAwp4DsWgzkONIgY8z0NsHAC9QBOwJJ/+ Hw/vw94oFoterVYz3zr1raOTk5Mndu7cqblCziwsLNBoNIy1Diept50g4nBOcOIQdThRZO3eufRz jnYch0AZyHZDRt6Heb5er+e+efKbT05N7T4+PDys5UrZrCwtU6vVsNYCoGuLV0GcoppKRRR1a1IS RDU1ToijyAeKQNiNHAg+zPNPP/X0n8/MzJwYGR3RgYEBUyqVaDSbhJkMge/jeV6qd8WJYAw4K6gK qHYWrZpoXyQxwDnrpYv3u25AsVj06vV67hvHv/FnM9MzTw+PDCeL7yuRz+dxzlGv1/nhD+eoDFb5 vU98gpXVG/QUe5i/cIFKdZBCPs/8hQtEcUy1WqU8MJAksRNUHeKEblWgTRLqK/WZer1ujv/N8T/d s2fP3+7cuVPL5XJn8Z7nISK0223eW7zK3Nwcp185zbFjx1hcfI9//clP+Ltvf5t2u83FS5e4ePEi zz33HH4QoM7h1HVk1M2x0RPhieMnvnjH7Xc8MzExoYODg6a/v59cIYfnJXY+//xzlMsVbrttF2Pj 46gIxng06nVaUYt8rkCz1cQDRJVms0mjUSebzWGdQ8Vx7frShc999nOPAZeBXwPSDQl5QDhQGjj6 5q/f1Lnzc6a+Uidux0nIDQyUBrhzaA+NRoMXX/wu9z9wP//1xhuUyxXuu+9eXn75XygWC5QrFcbH x3n97OtcvbpIsVDkgQfv71Qi7XIENuZAZr49r1f0immsNmjWmtjYJj+KYjOW6lCV3lIvnmfwMFSr Q9y4cYM4jsllM4gI9VqNMAg4e/YsY2NjZHO5JJll/doOAwzgrw6skmvm8Coe+b48okkdV1UGewcZ H5+g2Fvky0e/DAZ+R9LSiTI5+VvM3DGDpjvw0aNfQsTRbkU4cRjPw9kY2cYIqAkN2TCLX/DTNkA7 RhSKBSrlMis3Vjj+7AkqlTK9vSWWrl8Dz2egv483f36Oi/PzrKzcYGJiglarRX9/H++++y7T09Ps 37ev60m80QBnAqPGN8Qak8vlsM6iTjHO4Gd8crks9WaA5xkeeugPiKOI2Mag4PkeqsqB/ftpNluE mRDnHJ4xNJsNgiAkdrbrEdi4E4vDEbmIk4+cZKg0xOTgJFPVKUIvxDqLKBQKBQ5/4TDWxoksnEvC p8ri1UUMhlKpFwP856uv0mq2yGWz5Av5zs68XREgtjEOhxd4vPXjt8gGWVCYf2eefZ/chzjH9aUl Xv7+91leXiYMQ0ZHRzn7s7Psv2c/Vy5fQQSmpiYpl8vMX7zIz8+f575772V6ZhpNK9G2GWCtBR++ 9s9fI9+TR8eUiYEJ7HuWuJUkYH9fP48//jitVouoHeEHPocOHaLZaCAH7kkaPBVUlMcee4wwCGi1 W8SxTV5XWYu8/z5OuJmhKU94zWZTAP1ABFSURrvBZ/Z/hkd+/xGeeukpzr9yngOf3I84R71e40dn zpDNZHj9jTf44pEjnD59mr6+PsbGx/mnf/we/QP9tKM2lXIFFcdde/fi+z4iiqqOvfTSPzx/2+Rk tGvXrsjD2xJPbI6AszjnePTAo2hdOXzsMCePnuSX135JFMWIKo1GgyuXLzMyMkImDImiGGsdrVYL 3/OoVgepDA7yi7d+QRS1yecLBGGIsxZxQhCEWc/zd2fC0PiejzFsiSc2GRDZCDGJRp858wy9o718 9cWvIjbxinOOUl+JI0eOpG20I4piZmcPsbKyTC6X49DsIVqtNnfeuQfnEgawcWK8qhDHEeB1eMIz dFpyl866gSfWOCJp2WUjT1wFGpsMcNZhsUwNTTEaj5Kv5RnaM8Tp752mOFVAxLF0fYkfzM0Rtdtk MhkCP+DSr36FiCObyzG8YwcPHjyIWJtsgolsUNFUFhZVb50n4KZ5QjbzxMoHk9hZxAhPfvdJ7NvJ 83MXz3Fu/hx7d+3FiZDP5Tj44ANEUZzU+FaLu/fdDSg//em/8bGP7U4WrymFpQntVEAEJ5AJ1nlC 1WyJJzZLKI5w6jh15BRfeekrFIICIsJoeZSonbQEGENvb6kT2mKxmFYex+zsLHEcJ14WTXofJU3e pOVQ5/j3117j6rVrPPT5z7Nar22JJzYhpXOO2MV4gcfCfyyw8OoC77z2DguvLiSedIkOnXPJJbLu aSdEURuX7rbJe4qo60RBnWJFWFpa5syZM13hiTVLfKBw8OsHf6zob6+2VokuRfRM9iBx0guNFcf4 q8/+ZZLokiacOES0MztxIMkxi6aoiWja0SalsVarEwQBe+++mx1DQ/h+sCWe2JwDsVX1lIzJEEwE yeZlE4/bbJKUGxeeaFTTOp1IZs3bIonmk+qjnVnFMTf3CgosvP02g4PVLfFEsGGHk3azfUFUsi5y oVjxnHNGnCBWaJkWi4tXiW3U8fqal9N88CKJh2MXheIEKwJu3SDjeRRzBcQpYRgQeD7V6hC1Wm1L PGE6uWAooJSAkbTOFj/CyYEHFD/9xKf/GsOEje36cYsKKPQV+pjdM0ulWuG2iV1UBiuUekuQpDZn f/b6Jp5ISug6T6gqUdRmeWn5wh/+0cMfkJCiREADWEzn8CP0KR7QOzA+EPmhn5TjVF5CEqFKvsLM zDRxHPOdF15geHgH5XJlyzyxUUJRetS3uqE63awBPtBTnaq2jG+ot+vkwoQn1tqToeIQd9x+O9eX lygWCzz88B9j43jLPPH+kznZcOgap0bd7NUyoVHnOU79ySlGyiPsHt7N9Mg0uUwONYofhJRKJY4c PoJztis8EXSzN//f4ImuGnALeWL7IrDdPPGbcmBrEXCWKI549MCjjO8Y5/Cxwzwx+wQfv+/jH+CJ RqPxoTwxPDxM1IqIojZBmCEIww3H+Lp9EbgVPLGtEroVPCHitjGJbwFPvE9BXZbQLeAJtjMHnHPE us4ThUwBFBYuL1C6p7TOE+I24KLrVBcrdv110Y7uJZVQJxLbaYDB8Kmvf4roxjpP5HbnsJHtLHj9 6OT9PJHyg6Z9VHqvazyhCrqNEbgVPJE8IGt/z3bLgC3zBB1DUqMS8a/jKAoGqdcal4B22rN17c+2 rfLEzTqpCdxIW/5FYLl7EdgaT9y0SlMjVoEWoN3+AS9d9EfliZuNQEeu6az/DRoF/9o8Nx3lAAAA AElFTkSuQmCC "
     id="image10"
     x="0"
     y="0" />
</svg>
