<?xml version="1.0" encoding="UTF-8" standalone="no"?>
<svg
   xmlns:dc="http://purl.org/dc/elements/1.1/"
   xmlns:cc="http://creativecommons.org/ns#"
   xmlns:rdf="http://www.w3.org/1999/02/22-rdf-syntax-ns#"
   xmlns:svg="http://www.w3.org/2000/svg"
   xmlns="http://www.w3.org/2000/svg"
   xmlns:sodipodi="http://sodipodi.sourceforge.net/DTD/sodipodi-0.dtd"
   xmlns:inkscape="http://www.inkscape.org/namespaces/inkscape"
   viewBox="0 0 22 22"
   version="1.1"
   id="svg6"
   sodipodi:docname="color-fill.svg"
   inkscape:version="0.92.2 (5c3e80d, 2017-08-06)">
  <metadata
     id="metadata10">
    <rdf:RDF>
      <cc:Work
         rdf:about="">
        <dc:format>image/svg+xml</dc:format>
        <dc:type
           rdf:resource="http://purl.org/dc/dcmitype/StillImage" />
      </cc:Work>
    </rdf:RDF>
  </metadata>
  <sodipodi:namedview
     pagecolor="#ffffff"
     bordercolor="#666666"
     borderopacity="1"
     objecttolerance="10"
     gridtolerance="10"
     guidetolerance="10"
     inkscape:pageopacity="0"
     inkscape:pageshadow="2"
     inkscape:window-width="640"
     inkscape:window-height="480"
     id="namedview8"
     showgrid="false"
     inkscape:current-layer="svg6" />
  <defs
     id="defs3051">
    <style
       type="text/css"
       id="current-color-scheme">
      .ColorScheme-Text {
        color:#f2f2f2;
      }
      </style>
  </defs>
  <path
     style="fill:#3daee9;fill-opacity:1;stroke:none"
     d="m10.5 1033.3622c-1.385 0-2.5 1.115-2.5 2.5v2.5l-5 5 6 6 7-7-3-3v-3.5c0-1.385-1.115-2.5-2.5-2.5m0 1c.831 0 1.5.669 1.5 1.5v2.5l-2-2-1 1v-1.5c0-.831.669-1.5 1.5-1.5m-.5 3.4141l4.535156 4.5371c-3.53535 4.0497-5.535933-1.9511-10.121094 1.0488l5.585938-5.5859m7.5 3.5859c0 0-1.5 2.6716-1.5 3.5 0 .8284.67157 1.5 1.5 1.5.82843 0 1.5-.6716 1.5-1.5 0-.8284-1.5-3.5-1.5-3.5z"
     transform="translate(0-1030.3622)"
     class="ColorScheme-Text"
     id="path4" />
  <path
     style="opacity:1;fill:#ff0000;fill-opacity:1;fill-rule:nonzero;stroke:#ffffff;stroke-width:0.06853583;stroke-opacity:0.94117647"
     d="m 16.942056,15.845873 c -0.520248,-0.225345 -0.890966,-0.764237 -0.890966,-1.295149 0,-0.172317 0.06385,-0.505088 0.141886,-0.73949 0.149298,-0.44845 1.0745,-2.393008 1.240712,-2.607687 0.08863,-0.114476 0.139876,-0.03968 0.586967,0.856697 1.03081,2.066685 1.13764,2.582284 0.67631,3.264092 -0.383563,0.566875 -1.134805,0.790135 -1.754909,0.521537 z"
     id="path817"
     inkscape:connector-curvature="0" />
</svg>
