<?xml version="1.0" encoding="UTF-8" standalone="no"?>
<svg
   xmlns:dc="http://purl.org/dc/elements/1.1/"
   xmlns:cc="http://creativecommons.org/ns#"
   xmlns:rdf="http://www.w3.org/1999/02/22-rdf-syntax-ns#"
   xmlns:svg="http://www.w3.org/2000/svg"
   xmlns="http://www.w3.org/2000/svg"
   xmlns:sodipodi="http://sodipodi.sourceforge.net/DTD/sodipodi-0.dtd"
   xmlns:inkscape="http://www.inkscape.org/namespaces/inkscape"
   viewBox="0 0 22 22"
   version="1.1"
   id="svg10"
   sodipodi:docname="format-text-capitalize.svg"
   inkscape:version="0.92.2 (5c3e80d, 2017-08-06)">
  <metadata
     id="metadata14">
    <rdf:RDF>
      <cc:Work
         rdf:about="">
        <dc:format>image/svg+xml</dc:format>
        <dc:type
           rdf:resource="http://purl.org/dc/dcmitype/StillImage" />
      </cc:Work>
    </rdf:RDF>
  </metadata>
  <sodipodi:namedview
     pagecolor="#ffffff"
     bordercolor="#666666"
     borderopacity="1"
     objecttolerance="10"
     gridtolerance="10"
     guidetolerance="10"
     inkscape:pageopacity="0"
     inkscape:pageshadow="2"
     inkscape:window-width="640"
     inkscape:window-height="480"
     id="namedview12"
     showgrid="false"
     inkscape:current-layer="svg10" />
  <defs
     id="defs3051">
    <style
       type="text/css"
       id="current-color-scheme">
      .ColorScheme-Text {
        color:#f2f2f2;
      }
      .ColorScheme-Highlight {
        color:#3daee9;
      }
      </style>
  </defs>
  <g
     transform="translate(-421.71429,-525.79074)"
     id="g8">
    <path
       style="fill:currentColor;fill-opacity:1;stroke:none"
       d="M 5.0351562 7 L 1 19 L 1.9746094 19 L 3.4199219 15 L 8.453125 15 L 9.8945312 19 L 11 19 L 6.9101562 7 L 5.0351562 7 z M 12 7 L 12 15 L 12 19 L 13 19 L 13 17.638672 A 4 4 0 0 0 16 19 A 4 4 0 0 0 20 15 A 4 4 0 0 0 16 11 A 4 4 0 0 0 13 12.361328 L 13 7 L 12 7 z M 5.9433594 8.0292969 L 8.0917969 14 L 3.7832031 14 L 5.9433594 8.0292969 z M 16 12 A 3 3 0 0 1 19 15 A 3 3 0 0 1 16 18 A 3 3 0 0 1 13 15 A 3 3 0 0 1 16 12 z "
       transform="translate(421.71429,525.79074)"
       class="ColorScheme-Text"
       id="path4" />
    <path
       style="fill:currentColor;fill-opacity:1;stroke:none"
       d="m 424.71429,531.79074 3,-4 3,4 z"
       class="ColorScheme-Highlight"
       id="path6" />
  </g>
  <path
     style="opacity:1;fill:#3daee9;fill-opacity:1;fill-rule:nonzero;stroke:#ffffff;stroke-width:0.06853583;stroke-opacity:0.94117647"
     d="m 1.0298423,19.004505 c -0.0337529,-0.03375 0.497713,-1.639013 2.86454,-8.652169 L 5.0335219,6.976947 h 0.9511518 c 0.5231335,0 0.9511518,0.011486 0.9511518,0.025523 0,0.014038 0.9098131,2.6956817 2.0218069,5.959209 1.1119936,3.263527 2.0218066,5.96606 2.0218066,6.005629 0,0.04416 -0.209114,0.07194 -0.541581,0.07194 -0.5285652,0 -0.543225,-0.0045 -0.6099001,-0.188473 C 9.7903838,18.747118 9.481451,17.891277 9.14144,16.94891 8.8014297,16.006542 8.5018794,15.181166 8.4757728,15.11474 8.4314664,15.002006 8.2617258,14.995162 5.9259647,15.011936 l -2.5023419,0.01797 -0.7222331,2.004672 -0.722233,2.004673 H 1.5218733 c -0.2515059,0 -0.4729198,-0.01564 -0.492031,-0.03475 z m 7.0025565,-5.080974 c 0,-0.03261 -1.695083,-4.7733435 -2.0439211,-5.7163426 -0.032233,-0.087134 -0.3802033,0.7931685 -1.0929189,2.7648876 -0.5750963,1.590997 -1.0452282,2.915852 -1.0447375,2.944123 4.907e-4,0.02827 0.9415463,0.0514 2.0912348,0.0514 1.1496884,0 2.0903427,-0.01983 2.0903427,-0.04407 z"
     id="path821"
     inkscape:connector-curvature="0" />
  <path
     style="opacity:1;fill:#3daee9;fill-opacity:1;fill-rule:nonzero;stroke:#ffffff;stroke-width:0.06853583;stroke-opacity:0.94117647"
     d="M 12.007477,13.011102 V 6.976947 h 0.514018 0.514019 v 2.639418 2.639418 l 0.380775,-0.310146 c 0.774424,-0.630777 1.58359,-0.927643 2.537309,-0.930888 0.749766,-0.0025 1.132682,0.08226 1.810888,0.401101 0.712679,0.335044 1.478157,1.097167 1.815526,1.80757 0.583302,1.228268 0.573712,2.369149 -0.03021,3.594522 -0.482647,0.979295 -1.404123,1.734926 -2.504938,2.054103 -0.499225,0.144748 -1.432833,0.162883 -1.953271,0.03794 -0.545707,-0.13101 -1.286443,-0.510288 -1.695567,-0.868179 l -0.355284,-0.310794 -0.01975,0.636986 -0.01975,0.636986 -0.496885,0.02014 -0.496884,0.02014 z m 4.934579,4.811711 c 0.475088,-0.156442 0.840732,-0.396329 1.227614,-0.8054 1.376531,-1.455479 0.941946,-3.777439 -0.875667,-4.678637 -0.447025,-0.221641 -0.577182,-0.253431 -1.138073,-0.277962 -0.787006,-0.03442 -1.230724,0.08325 -1.828258,0.48486 -0.783765,0.526772 -1.213705,1.290142 -1.276043,2.265649 -0.135176,2.115322 1.87844,3.674015 3.890427,3.01149 z"
     id="path823"
     inkscape:connector-curvature="0" />
  <path
     style="opacity:1;fill:#00ff00;fill-opacity:1;fill-rule:nonzero;stroke:#ffffff;stroke-width:0.06853583;stroke-opacity:0.94117647"
     d="m 3.2803638,5.685986 c 0.824455,-1.1150507 2.7260383,-3.635501 2.7340458,-3.6238364 0.00547,0.00797 0.6626434,0.8857476 1.4603868,1.950623 L 8.9252389,5.9489097 H 6.0056 3.0859612 Z"
     id="path825"
     inkscape:connector-curvature="0" />
</svg>
