<?xml version="1.0" encoding="UTF-8" standalone="no"?>
<svg
   xmlns:dc="http://purl.org/dc/elements/1.1/"
   xmlns:cc="http://creativecommons.org/ns#"
   xmlns:rdf="http://www.w3.org/1999/02/22-rdf-syntax-ns#"
   xmlns:svg="http://www.w3.org/2000/svg"
   xmlns="http://www.w3.org/2000/svg"
   xmlns:sodipodi="http://sodipodi.sourceforge.net/DTD/sodipodi-0.dtd"
   xmlns:inkscape="http://www.inkscape.org/namespaces/inkscape"
   viewBox="0 0 22 22"
   version="1.1"
   id="svg6"
   sodipodi:docname="borderpainter.svg"
   inkscape:version="0.92.2 (5c3e80d, 2017-08-06)">
  <metadata
     id="metadata10">
    <rdf:RDF>
      <cc:Work
         rdf:about="">
        <dc:format>image/svg+xml</dc:format>
        <dc:type
           rdf:resource="http://purl.org/dc/dcmitype/StillImage" />
      </cc:Work>
    </rdf:RDF>
  </metadata>
  <sodipodi:namedview
     pagecolor="#ffffff"
     bordercolor="#666666"
     borderopacity="1"
     objecttolerance="10"
     gridtolerance="10"
     guidetolerance="10"
     inkscape:pageopacity="0"
     inkscape:pageshadow="2"
     inkscape:window-width="640"
     inkscape:window-height="480"
     id="namedview8"
     showgrid="false"
     inkscape:current-layer="svg6" />
  <defs
     id="defs3051">
    <style
       type="text/css"
       id="current-color-scheme">
      .ColorScheme-Text {
        color:#f2f2f2;
      }
      </style>
  </defs>
  <path
     style="fill:currentColor;fill-opacity:1;stroke:none"
     d="M 11.996094 3.0019531 L 4.6699219 10.328125 L 4.6679688 10.324219 L 3.2539062 11.738281 L 3.2558594 11.742188 L 3.0058594 11.992188 L 3 11.992188 L 3 16 L 4 16 L 6 16 L 7.0078125 16 L 7.2597656 15.748047 L 7.6132812 15.394531 L 8.3203125 14.6875 L 8.6757812 14.333984 L 15.998047 7.0039062 L 12 3.0039062 L 11.996094 3.0019531 z M 11.412109 4.9980469 L 14 7.5878906 L 9.7324219 11.855469 L 7.1445312 9.265625 L 11.412109 4.9980469 z M 6.4375 9.9726562 L 9.0253906 12.5625 L 8.3183594 13.269531 L 5.7285156 10.679688 L 6.0019531 10.408203 L 6.4375 9.9726562 z M 5.0214844 11.386719 L 7.6113281 13.976562 L 7.6152344 13.978516 L 6.9082031 14.685547 L 6.9042969 14.683594 L 4.3144531 12.09375 L 5.0214844 11.386719 z M 3 18 L 3 19 L 19 19 L 19 18 L 3 18 z "
     class="ColorScheme-Text"
     id="path4" />
  <path
     style="opacity:1;fill:#3daee9;fill-opacity:1;fill-rule:nonzero;stroke:#ffffff;stroke-width:0.06853583;stroke-opacity:0.94117647"
     d="M 2.9607477,14.018808 V 12.013941 L 7.4839879,7.49109 12.007228,2.9682392 13.995002,4.9551268 c 1.093276,1.0927881 1.980014,2.0100093 1.97053,2.0382694 -0.0095,0.02826 -2.036913,2.0716338 -4.505396,4.5408308 L 6.9719853,16.023676 H 4.9663665 2.9607477 Z M 6.3025298,12.683672 5.0191881,11.40033 4.6743609,11.739972 4.3295336,12.079615 5.6147995,13.366217 6.9000653,14.65282 7.2429684,14.309917 7.5858715,13.967014 Z M 8.6680986,12.886654 8.9902345,12.5596 7.7043951,11.275097 6.4185556,9.9905927 6.0791443,10.335185 5.739733,10.679779 7.0053088,11.946743 c 0.6960667,0.69683 1.2824684,1.266964 1.3031149,1.266964 0.020646,0 0.1825002,-0.147174 0.3596749,-0.327053 z M 12.675615,6.3090934 11.390847,5.0243259 9.300408,7.1139223 c -1.1497416,1.149278 -2.0904392,2.1203225 -2.0904392,2.1578768 0,0.037554 0.5626633,0.6315612 1.2503628,1.3200149 l 1.2503629,1.251735 2.1248435,-2.1248443 2.124844,-2.1248439 z"
     id="path817"
     inkscape:connector-curvature="0" />
</svg>
