<?xml version="1.0" encoding="UTF-8" standalone="no"?>
<svg
   xmlns:dc="http://purl.org/dc/elements/1.1/"
   xmlns:cc="http://creativecommons.org/ns#"
   xmlns:rdf="http://www.w3.org/1999/02/22-rdf-syntax-ns#"
   xmlns:svg="http://www.w3.org/2000/svg"
   xmlns="http://www.w3.org/2000/svg"
   xmlns:sodipodi="http://sodipodi.sourceforge.net/DTD/sodipodi-0.dtd"
   xmlns:inkscape="http://www.inkscape.org/namespaces/inkscape"
   viewBox="0 0 22 22"
   version="1.1"
   id="svg6"
   sodipodi:docname="format-list-unordered.svg"
   inkscape:version="0.92.2 (5c3e80d, 2017-08-06)">
  <metadata
     id="metadata10">
    <rdf:RDF>
      <cc:Work
         rdf:about="">
        <dc:format>image/svg+xml</dc:format>
        <dc:type
           rdf:resource="http://purl.org/dc/dcmitype/StillImage" />
      </cc:Work>
    </rdf:RDF>
  </metadata>
  <sodipodi:namedview
     pagecolor="#ffffff"
     bordercolor="#666666"
     borderopacity="1"
     objecttolerance="10"
     gridtolerance="10"
     guidetolerance="10"
     inkscape:pageopacity="0"
     inkscape:pageshadow="2"
     inkscape:window-width="640"
     inkscape:window-height="480"
     id="namedview8"
     showgrid="false"
     inkscape:current-layer="svg6" />
  <defs
     id="defs3051">
    <style
       type="text/css"
       id="current-color-scheme">
      .ColorScheme-Text {
        color:#f2f2f2;
      }
      </style>
  </defs>
  <path
     style="fill:currentColor;fill-opacity:1;stroke:none"
     d="M 4 3 C 3.4477153 3 3 3.4477153 3 4 C 3 4.5522847 3.4477153 5 4 5 C 4.5522847 5 5 4.5522847 5 4 C 5 3.4477153 4.5522847 3 4 3 z M 10 3 L 10 4 L 19 4 L 19 3 L 10 3 z M 10 5 L 10 6 L 16 6 L 16 5 L 10 5 z M 4 9 C 3.4477153 9 3 9.4477153 3 10 C 3 10.552285 3.4477153 11 4 11 C 4.5522847 11 5 10.552285 5 10 C 5 9.4477153 4.5522847 9 4 9 z M 10 9 L 10 10 L 19 10 L 19 9 L 10 9 z M 10 11 L 10 12 L 12 12 L 12 11 L 10 11 z M 4 15 C 3.4477153 15 3 15.447715 3 16 C 3 16.552285 3.4477153 17 4 17 C 4.5522847 17 5 16.552285 5 16 C 5 15.447715 4.5522847 15 4 15 z M 10 15 L 10 16 L 19 16 L 19 15 L 10 15 z M 10 17 L 10 18 L 16 18 L 16 17 L 10 17 z M 17 18 L 17 19 L 19 19 L 19 18 L 17 18 z "
     class="ColorScheme-Text"
     id="path4" />
  <path
     style="opacity:1;fill:#3daee9;fill-opacity:1;fill-rule:nonzero;stroke:#ffffff;stroke-width:0.06853583;stroke-opacity:0.94117647"
     d="M 3.611838,10.923813 C 2.9406248,10.62549 2.7875396,9.8230523 3.3034226,9.3071693 3.7145755,8.8960164 4.3078874,8.8882163 4.6901814,9.2889381 5.0412955,9.656977 5.1031446,10.060146 4.8716714,10.471997 4.6117815,10.934409 4.0715743,11.128144 3.611838,10.923813 Z"
     id="path817"
     inkscape:connector-curvature="0" />
  <path
     style="opacity:1;fill:#3daee9;fill-opacity:1;fill-rule:nonzero;stroke:#ffffff;stroke-width:0.06853583;stroke-opacity:0.94117647"
     d="M 3.4609597,16.848881 C 3.0332695,16.588103 2.8735832,15.931458 3.1316255,15.494627 c 0.1534646,-0.259795 0.5616648,-0.498988 0.8515583,-0.498988 1.0028148,0 1.393421,1.275798 0.5608865,1.831967 -0.2976731,0.198858 -0.7764402,0.208262 -1.0831106,0.02127 z"
     id="path819"
     inkscape:connector-curvature="0" />
  <path
     style="opacity:1;fill:#3daee9;fill-opacity:1;fill-rule:nonzero;stroke:#ffffff;stroke-width:0.06853583;stroke-opacity:0.94117647"
     d="M 3.4322876,4.8224932 C 2.9975491,4.5270807 2.8752354,3.9183937 3.1585087,3.4600479 3.5570476,2.8151983 4.553173,2.867618 4.8967782,3.5515219 5.3546729,4.4629049 4.2780875,5.3972291 3.4322876,4.8224932 Z"
     id="path821"
     inkscape:connector-curvature="0" />
</svg>
