<?xml version="1.0" encoding="UTF-8" standalone="no"?>
<svg
   xmlns:dc="http://purl.org/dc/elements/1.1/"
   xmlns:cc="http://creativecommons.org/ns#"
   xmlns:rdf="http://www.w3.org/1999/02/22-rdf-syntax-ns#"
   xmlns:svg="http://www.w3.org/2000/svg"
   xmlns="http://www.w3.org/2000/svg"
   xmlns:sodipodi="http://sodipodi.sourceforge.net/DTD/sodipodi-0.dtd"
   xmlns:inkscape="http://www.inkscape.org/namespaces/inkscape"
   viewBox="0 0 22 22"
   version="1.1"
   id="svg6"
   sodipodi:docname="dynamic-amarok.svg"
   inkscape:version="0.92.2 (5c3e80d, 2017-08-06)">
  <metadata
     id="metadata10">
    <rdf:RDF>
      <cc:Work
         rdf:about="">
        <dc:format>image/svg+xml</dc:format>
        <dc:type
           rdf:resource="http://purl.org/dc/dcmitype/StillImage" />
      </cc:Work>
    </rdf:RDF>
  </metadata>
  <sodipodi:namedview
     pagecolor="#ffffff"
     bordercolor="#666666"
     borderopacity="1"
     objecttolerance="10"
     gridtolerance="10"
     guidetolerance="10"
     inkscape:pageopacity="0"
     inkscape:pageshadow="2"
     inkscape:window-width="640"
     inkscape:window-height="480"
     id="namedview8"
     showgrid="false"
     inkscape:current-layer="svg6" />
  <defs
     id="defs3051">
    <style
       type="text/css"
       id="current-color-scheme">
      .ColorScheme-Text {
        color:#f2f2f2;
      }
      </style>
  </defs>
  <path
     style="fill:currentColor;fill-opacity:1;stroke:none"
     d="M 16 5 L 16 7 L 13 7 C 10.784 7 9 8.784 9 11 C 9 12.662 7.662 14 6 14 L 3 14 L 3 15 L 6 15 C 8.216 15 10 13.216 10 11 C 10 9.338 11.338 8 13 8 L 16 8 L 16 10 L 19 7.5 L 16 5 z M 3 7 L 3 8 L 6 8 C 6.8536128 8 7.6168144 8.3572581 8.1621094 8.9257812 C 8.2578781 8.5814037 8.3956215 8.2568349 8.5742188 7.9570312 C 7.8779048 7.3680394 6.9875937 7 6 7 L 3 7 z M 16 12 L 16 14 L 13 14 C 12.146387 14 11.383186 13.642742 10.837891 13.074219 C 10.742121 13.418597 10.604379 13.743165 10.425781 14.042969 C 11.122095 14.631961 12.012406 15 13 15 L 16 15 L 16 17 L 19 14.5 L 16 12 z "
     class="ColorScheme-Text"
     id="path4" />
  <path
     style="opacity:1;fill:#3daee9;fill-opacity:1;fill-rule:nonzero;stroke:#ffffff;stroke-width:0.06853583;stroke-opacity:0.94117647"
     d="m 2.9748791,14.498754 0.020137,-0.496885 1.8504673,-0.03849 C 5.9159813,13.941109 6.7890063,13.892809 6.916724,13.84879 7.6527088,13.595119 8.3456015,12.987612 8.6768168,12.305596 8.8447284,11.959844 8.9031791,11.668203 9.0565043,10.411141 9.2519046,8.8091192 10.552563,7.4214935 12.178817,7.0800571 c 0.34479,-0.07239 0.946778,-0.1010597 2.139913,-0.101915 l 1.660161,-0.00119 0.01897,-0.9907974 0.01897,-0.9907975 1.404985,1.1679293 c 0.772741,0.642361 1.445787,1.2072273 1.495658,1.2552582 0.07433,0.071585 -0.178977,0.3119637 -1.404985,1.3332984 L 16.016822,9.9978073 15.997857,9.0013959 15.97889,8.0049844 h -1.605386 c -0.937622,0 -1.756455,0.032331 -1.968573,0.077726 -1.404138,0.3005028 -2.384993,1.5101399 -2.384993,2.9412866 0,0.50026 -0.2097549,1.312172 -0.4744744,1.836578 C 9.0870785,13.768631 8.085622,14.576772 7.0742747,14.85474 6.6172342,14.980357 6.3660336,14.995639 4.7581881,14.995639 H 2.9547426 Z"
     id="path817"
     inkscape:connector-curvature="0" />
  <path
     style="opacity:1;fill:#3daee9;fill-opacity:1;fill-rule:nonzero;stroke:#ffffff;stroke-width:0.06853583;stroke-opacity:0.94117647"
     d="M 7.7689446,8.623521 C 7.0561198,8.0879148 6.8635222,8.048804 4.794081,8.0194153 L 2.9607477,7.9933796 V 7.4851633 6.976947 l 1.6962616,0.00119 C 5.8622721,6.9789826 6.487095,7.007686 6.8155947,7.0773 7.3496792,7.19048 8.03521,7.5015397 8.3612084,7.7786225 L 8.5872144,7.9707166 8.4126103,8.3301937 C 8.3165783,8.527906 8.2380062,8.7188429 8.2380062,8.7544978 c 0,0.1561559 -0.138331,0.1175295 -0.4690616,-0.1309768 z"
     id="path819"
     inkscape:connector-curvature="0" />
  <path
     style="opacity:1;fill:#3daee9;fill-opacity:1;fill-rule:nonzero;stroke:#ffffff;stroke-width:0.06853583;stroke-opacity:0.94117647"
     d="m 15.982555,15.998222 v -0.993044 l -1.936138,-0.02368 c -1.848814,-0.02262 -1.954683,-0.03104 -2.347352,-0.186737 -0.34965,-0.138642 -1.267912,-0.661514 -1.267912,-0.721968 0,-0.01078 0.07205,-0.18535 0.160108,-0.387937 0.08806,-0.202588 0.180776,-0.425339 0.206037,-0.495002 0.04164,-0.11484 0.06957,-0.105902 0.299262,0.09577 0.139333,0.122337 0.455262,0.31812 0.702063,0.435073 l 0.448729,0.212641 1.865741,0.02202 1.865741,0.02202 0.01899,-0.990311 0.01899,-0.99031 1.455198,1.212687 c 0.80036,0.666978 1.473444,1.230932 1.495745,1.253233 0.03418,0.03418 -2.644618,2.32234 -2.899541,2.476712 -0.06698,0.04056 -0.08567,-0.164753 -0.08567,-0.941167 z"
     id="path821"
     inkscape:connector-curvature="0" />
</svg>
