/* XPM */
static char * hide_pressed_35p_xpm[] = {
"35 35 4 1",
" 	c None",
".	c #00001a",
"+	c #007899",
"@	c #ffffff",
"...................................",
".+++++++++++++++++++++++++++++++++.",
".+++++++++++++++++++++++++++++++++.",
".+++++++++++++++++++++++++++++++++.",
".+++++++++++++++++++++++++++++++++.",
".+++++++++++++++++++++++++++++++++.",
".+++++++++++++++++++++++++++++++++.",
".+++++++++++++++++++++++++++++++++.",
".+++++++++++++++++++++++++++++++++.",
".+++++++++++++++++++++++++++++++++.",
".+++++++++++++++++++++++++++++++++.",
".+++++++++++++++++++++++++++++++++.",
".+++++++++++++++++++++++++++++++++.",
".+++++++++++++++++++++++++++++++++.",
".+++++++++++++++++++++++++++++++++.",
".++++++++++@@@+++++++++@@@++++++++.",
".++++++++++@@@@+++++++@@@@++++++++.",
".++++++++++@@@@@+++++@@@@@++++++++.",
".+++++++++++@@@@@+++@@@@@+++++++++.",
".++++++++++++@@@@@+@@@@@++++++++++.",
".+++++++++++++@@@@@@@@@+++++++++++.",
".++++++++++++++@@@@@@@++++++++++++.",
".+++++++++++++++@@@@@+++++++++++++.",
".++++++++++++++++@@@++++++++++++++.",
".+++++++++++++++++@+++++++++++++++.",
".+++++++++++++++++++++++++++++++++.",
".+++++++++++++++++++++++++++++++++.",
".+++++++++++++++++++++++++++++++++.",
".+++++++++++++++++++++++++++++++++.",
".+++++++++++++++++++++++++++++++++.",
".+++++++++++++++++++++++++++++++++.",
".+++++++++++++++++++++++++++++++++.",
".+++++++++++++++++++++++++++++++++.",
".+++++++++++++++++++++++++++++++++.",
"..................................."};
