/* XPM */
static char * hide_prelight_xpm[] = {
"18 18 6 1",
" 	c None",
".	c #000000 s active_text_color",
"+	c #80BFFF s active_hilight_1",
"@	c #004080 s active_shadow_1",
"#	c #007FFF s active_color_1",
"$	c #000000 s active_border_color",
"$$$$$$$$$$$$$$$$$$",
"$++++++++++++++++$",
"$+++++++++++++++@$",
"$++############@@$",
"$++############@@$",
"$++############@@$",
"$++############@@$",
"$++############@@$",
"$++############@@$",
"$++############@@$",
"$++############@@$",
"$++############@@$",
"$++#..........#@@$",
"$++#..........#@@$",
"$++############@@$",
"$++@@@@@@@@@@@@@@$",
"$+@@@@@@@@@@@@@@@$",
"$$$$$$$$$$$$$$$$$$"};
