/* XPM */
static char * right_active_xpm[] = {
"8 2 5 1",
" 	c None",
".	c #000000 s inactive_border_color",
"+	c #BFBFBF s inactive_hilight_2",
"@	c #808080 s inactive_color_2",
"#	c #404040 s inactive_shadow_2",
".+@@@@#.",
".+@@@@#."};
