/* XPM */
static char * stick_toggled_inactive_xpm[] = {
"18 18 6 1",
" 	c None",
".	c #000000 s inactive_text_color",
"+	c #BFBFBF s inactive_hilight_2",
"@	c #404040 s inactive_shadow_2",
"#	c #808080 s inactive_color_2",
"$	c #000000 s inactive_border_color",
"$$$$$$$$$$$$$$$$$$",
"$++++++++++++++++$",
"$+++++++++++++++@$",
"$++############@@$",
"$++############@@$",
"$++#.########.#@@$",
"$++#..######..#@@$",
"$++#...####...#@@$",
"$++##...##...##@@$",
"$++###......###@@$",
"$++####....####@@$",
"$++#..........#@@$",
"$++#..........#@@$",
"$++############@@$",
"$++############@@$",
"$++@@@@@@@@@@@@@@$",
"$+@@@@@@@@@@@@@@@$",
"$$$$$$$$$$$$$$$$$$"};
