/* XPM */
static char * maximize_pressed_xpm[] = {
"19 19 5 1",
" 	c None",
".	c #4A956D",
"+	c #5ABA84",
"@	c #6BD69C",
"#	c #000000",
"                   ",
"...................",
".+++++++++++++++++@",
".+++++++++++++++++@",
".+++###########+++@",
".+++###########+++@",
".+++###########+++@",
".+++#+++++++++#+++@",
".+++#+++++++++#+++@",
".+++#+++++++++#+++@",
".+++#+++++++++#+++@",
".+++#+++++++++#+++@",
".+++#+++++++++#+++@",
".+++#+++++++++#+++@",
".+++###########+++@",
".+++++++++++++++++@",
".+++++++++++++++++@",
"@@@@@@@@@@@@@@@@@@@",
"                   "};
