/* XPM */
static char * title_2_active_xpm[] = {
"8 19 3 1",
" 	c None",
".	c #000000",
"+	c #FFFFFF",
"........",
"++++++++",
"++++++++",
"++++++++",
"++++++++",
"++++++++",
"++++++++",
"++++++++",
"++++++++",
"++++++++",
"++++++++",
"++++++++",
"++++++++",
"++++++++",
"++++++++",
"++++++++",
"++++++++",
"++++++++",
"........"};
