/* XPM */
static char * top_right_active_xpm[] = {
"3 19 2 1",
" 	c None",
".	c #000000",
".  ",
"...",
"...",
"...",
"...",
"...",
"...",
"...",
"...",
"...",
"...",
"...",
"...",
"...",
"...",
"...",
"...",
"...",
"..."};
