/* XPM */
static char * br_un_xpm[] = {
"29 6 2 1",
" 	c #000000",
".	c #4C7BA6 s inactive_color_1",
"                             ",
"............................ ",
"............................ ",
"............................ ",
"............................ ",
"                             "};
