/* XPM */
static char * title_1_active_xpm[] = {
"4 25 24 1",
" 	c None",
".	c #909090",
"+	c #FFFFFF",
"@	c #EBEBEB",
"#	c #DCDCDC",
"$	c #DBDBDB",
"%	c #D9D9D9",
"&	c #D8D8D8",
"*	c #D6D6D6",
"=	c #D4D4D4",
"-	c #D2D2D2",
";	c #D0D0D0",
">	c #CECECE",
",	c #CCCCCC",
"'	c #CACACA",
")	c #C8C8C8",
"!	c #C6C6C6",
"~	c #C5C5C5",
"{	c #C3C3C3",
"]	c #C1C1C1",
"^	c #C0C0C0",
"/	c #BFBFBF",
"(	c #BEBEBE",
"_	c #868686",
"....",
"++++",
"@@@@",
"####",
"$$$$",
"%%%%",
"&&&&",
"****",
"====",
"----",
";;;;",
">>>>",
",,,,",
"''''",
"))))",
"!!!!",
"~~~~",
"{{{{",
"]]]]",
"^^^^",
"////",
"((((",
"((((",
",,,,",
"____"};
