/* XPM */
static char * hide_active_xpm[] = {
"12 21 6 1",
" 	c None",
".	c #000000",
"+	c #00E4FF s active_hilight_1",
"@	c #0C00FF s active_shadow_1",
"#	c #FF0000 s active_color_1",
"$	c #FFFFFF",
"            ",
"            ",
"            ",
"            ",
"            ",
"            ",
" .......... ",
".+++++++++@.",
".+########@.",
".+########@.",
".+########@.",
".+########@.",
".+########@.",
".+#$$$$$$#@.",
".+#$$$$$$#@.",
".+########@.",
".@@@@@@@@@@.",
" .......... ",
"            ",
"            ",
"            "};
