/* XPM */
static char * close_active_xpm[] = {
"10 21 5 1",
" 	c None",
".	c #000000",
"+	c #90B8DC s active_hilight_1",
"@	c #3678E5 s active_color_1",
"#	c #FFFFFF s inactive_mid_1",
"..........",
"++++++++++",
"@@@@@@@@@@",
"@@@@@@@@@@",
"@@@@@@@@@@",
"@@@@@@@@@@",
"@@@@@@@@@@",
"@##@@@@##@",
"@###@@###@",
"@@######@@",
"@@@####@@@",
"@@@####@@@",
"@@######@@",
"@###@@###@",
"@##@@@@##@",
"@@@@@@@@@@",
"@@@@@@@@@@",
"@@@@@@@@@@",
"@@@@@@@@@@",
"@@@@@@@@@@",
"@@@@@@@@@@"};
