/* XPM */
static char * top_right_active_xpm[] = {
"4 21 4 1",
" 	c None",
".	c #000000",
"+	c #90B8DC s active_hilight_1",
"@	c #3678E5 s active_color_1",
"....",
"+++.",
"@@@.",
"@@@.",
"@@@.",
"@@@.",
"@@@.",
"@@@.",
"@@@.",
"@@@.",
"@@@.",
"@@@.",
"@@@.",
"@@@.",
"@@@.",
"@@@.",
"@@@.",
"@@@.",
"@@@.",
"@@@.",
"@@@."};
