<?xml version="1.0" encoding="UTF-8" standalone="no"?>
<!-- Created with Inkscape (http://www.inkscape.org/) -->

<svg
   xmlns:dc="http://purl.org/dc/elements/1.1/"
   xmlns:cc="http://creativecommons.org/ns#"
   xmlns:rdf="http://www.w3.org/1999/02/22-rdf-syntax-ns#"
   xmlns:svg="http://www.w3.org/2000/svg"
   xmlns="http://www.w3.org/2000/svg"
   xmlns:xlink="http://www.w3.org/1999/xlink"
   xmlns:sodipodi="http://sodipodi.sourceforge.net/DTD/sodipodi-0.dtd"
   xmlns:inkscape="http://www.inkscape.org/namespaces/inkscape"
   width="4.2333336mm"
   height="4.2333336mm"
   viewBox="0 0 4.2333336 4.2333336"
   version="1.1"
   id="svg3837"
   sodipodi:docname="audio-ready.svg"
   inkscape:version="0.92.1 r15371">
  <defs
     id="defs3831">
    <linearGradient
       inkscape:collect="always"
       xlink:href="#linearGradient4249"
       id="linearGradient4555"
       gradientUnits="userSpaceOnUse"
       gradientTransform="translate(0,-18.999997)"
       x1="2"
       y1="319.875"
       x2="9.0017433"
       y2="319.875" />
    <linearGradient
       id="linearGradient4249">
      <stop
         style="stop-color:#10a2ff;stop-opacity:1;"
         offset="0"
         id="stop4251" />
      <stop
         id="stop4253"
         offset="0.47000003"
         style="stop-color:#12b3ff;stop-opacity:0.78431374;" />
      <stop
         style="stop-color:#1591d2;stop-opacity:0.51724136;"
         offset="0.75125003"
         id="stop4255" />
      <stop
         style="stop-color:#028ff2;stop-opacity:1;"
         offset="1"
         id="stop4257" />
    </linearGradient>
    <linearGradient
       inkscape:collect="always"
       xlink:href="#linearGradient4461"
       id="linearGradient4467"
       x1="6.84375"
       y1="313.75"
       x2="9"
       y2="317.48718"
       gradientUnits="userSpaceOnUse"
       gradientTransform="translate(0,-19)" />
    <linearGradient
       id="linearGradient4461">
      <stop
         style="stop-color:#0f7bff;stop-opacity:0.92156863;"
         offset="0"
         id="stop4463" />
      <stop
         style="stop-color:#067ff2;stop-opacity:0;"
         offset="1"
         id="stop4465" />
    </linearGradient>
    <linearGradient
       inkscape:collect="always"
       xlink:href="#linearGradient4249"
       id="linearGradient4599"
       x1="18.001677"
       y1="292.28323"
       x2="18.001677"
       y2="309.51492"
       gradientUnits="userSpaceOnUse"
       gradientTransform="matrix(1,0,0,-1,0,600.72139)" />
    <linearGradient
       inkscape:collect="always"
       xlink:href="#linearGradient4249"
       id="linearGradient4597"
       x1="11"
       y1="294.65607"
       x2="11"
       y2="306.06265"
       gradientUnits="userSpaceOnUse"
       gradientTransform="matrix(1,0,0,-1,0,600.72139)" />
    <linearGradient
       inkscape:collect="always"
       xlink:href="#linearGradient4249"
       id="linearGradient4595"
       x1="11"
       y1="295.45349"
       x2="11"
       y2="305.26187"
       gradientUnits="userSpaceOnUse"
       gradientTransform="matrix(1,0,0,-1,0,600.72139)" />
    <linearGradient
       inkscape:collect="always"
       xlink:href="#linearGradient4461"
       id="linearGradient2967"
       gradientUnits="userSpaceOnUse"
       gradientTransform="translate(0,-19)"
       x1="4.3583236"
       y1="322.93573"
       x2="4.8440728"
       y2="321.04025" />
  </defs>
  <sodipodi:namedview
     id="base"
     pagecolor="#ffffff"
     bordercolor="#666666"
     borderopacity="1.0"
     inkscape:pageopacity="0.0"
     inkscape:pageshadow="2"
     inkscape:zoom="0.35"
     inkscape:cx="400"
     inkscape:cy="560"
     inkscape:document-units="mm"
     inkscape:current-layer="layer1"
     showgrid="false" />
  <metadata
     id="metadata3834">
    <rdf:RDF>
      <cc:Work
         rdf:about="">
        <dc:format>image/svg+xml</dc:format>
        <dc:type
           rdf:resource="http://purl.org/dc/dcmitype/StillImage" />
        <dc:title></dc:title>
      </cc:Work>
    </rdf:RDF>
  </metadata>
  <g
     inkscape:label="Layer 1"
     inkscape:groupmode="layer"
     id="layer1"
     transform="translate(-1.034895,-292.93614)">
    <g
       id="audio-volume-high"
       transform="matrix(0.17638889,0,0,0.17638889,1.034895,242.07225)">
      <g
         id="g3970">
        <rect
           style="opacity:0.8;fill:#272727;fill-opacity:0;stroke:none"
           id="rect3170"
           width="24"
           height="24"
           x="0"
           y="288.36218" />
        <g
           id="g4770">
          <path
             id="path4450"
             d="m 8,294.36218 c -0.3282132,0 -0.7656476,0.0547 -1.15625,0.375 l -3.1875,2.625 H 3 c -1.0909648,0 -2,0.90904 -2,2 v 2 c 0,1.09096 0.9090352,2 2,2 h 0.65625 l 3.21875,2.625 c 0.3629663,0.29358 0.7678965,0.375 1.125,0.375 1.0909648,0 2,-0.90904 2,-2 v -8 c 0,-1.09096 -0.9090352,-2 -2,-2 z m 0,1 c 0.554,0 1,0.446 1,1 v 8 c 0,0.554 -0.446,1 -1,1 -0.1857529,0 -0.3658187,-0.0477 -0.5,-0.15625 L 4,302.36218 H 3 c -0.554,0 -1,-0.446 -1,-1 v -2 c 0,-0.554 0.446,-1 1,-1 h 1 l 3.46875,-2.84375 C 7.6124536,295.40058 7.7995824,295.36218 8,295.36218 Z"
             style="fill:#000033;fill-opacity:0.75392671;stroke:none"
             inkscape:connector-curvature="0" />
          <path
             sodipodi:nodetypes="csccccccssccc"
             id="rect3635"
             d="m 8,295.36218 c -0.2004176,0 -0.3875464,0.0384 -0.53125,0.15625 L 4,298.36218 H 3 c -0.554,0 -1,0.446 -1,1 v 2.01282 c 0,0.554 0.446,1 1,1 h 1 l 3.5,2.83093 c 0.1341813,0.10853 0.3142471,0.15625 0.5,0.15625 0.554,0 1,-0.446 1,-1 v -8 c 0,-0.554 -0.446,-1 -1,-1 z"
             style="fill:url(#linearGradient4555);fill-opacity:1;stroke:none"
             inkscape:connector-curvature="0" />
          <path
             style="fill:url(#linearGradient4467);fill-opacity:1;stroke:none"
             d="m 8,295.36218 c -0.2004176,0 -0.3875464,0.0384 -0.53125,0.15625 L 4,298.36218 H 3 c -0.554,0 -1,0.446 -1,1 v 2.01282 c 0,0.554 0.446,1 1,1 h 1 l 3.5,2.83093 c 0.1341813,0.10853 0.3142471,0.15625 0.5,0.15625 0.554,0 1,-0.446 1,-1 v -8 c 0,-0.554 -0.446,-1 -1,-1 z"
             id="path4459"
             sodipodi:nodetypes="csccccccssccc"
             inkscape:connector-curvature="0" />
          <path
             id="path4605"
             d="m 19.5625,312.34639 a 0.97236903,0.97236903 0 0 1 -0.46875,-0.1875 l -1.6875,-1.25 a 0.97236903,0.97236903 0 0 1 -0.21875,-1.3125 c 3.708501,-5.50816 3.71013,-12.96249 0,-18.46875 a 0.97236903,0.97236903 0 0 1 0.21875,-1.3125 l 1.65625,-1.25 a 0.97236903,0.97236903 0 0 1 1.40625,0.25 c 4.665051,6.92347 4.695926,16.1654 0.03125,23.09375 a 0.97236903,0.97236903 0 0 1 -0.9375,0.4375 z m 0.125,-0.96875 c 4.438491,-6.5924 4.409556,-15.44059 -0.03125,-22.03125 L 18,290.59639 c 3.935722,5.84106 3.933671,13.68865 0,19.53125 z"
             style="fill:#000033;fill-opacity:0.75392671;stroke:none"
             inkscape:connector-curvature="0" />
          <path
             id="path4574"
             d="M 19.6875,311.37764 18,310.12764 c 3.933671,-5.8426 3.935722,-13.69019 0,-19.53125 l 1.65625,-1.25 c 4.440806,6.59066 4.469741,15.43885 0.03125,22.03125 z"
             style="fill:url(#linearGradient4599);fill-opacity:1;stroke:none"
             inkscape:connector-curvature="0" />
          <path
             id="path4616"
             d="m 16.28125,309.94014 a 1.0237486,1.0237486 0 0 1 -0.5,-0.21875 l -1.625,-1.21875 a 1.0237486,1.0237486 0 0 1 -0.21875,-1.375 c 2.722101,-4.04308 2.7232,-9.52096 0,-13.5625 a 1.0237486,1.0237486 0 0 1 0.21875,-1.375 l 1.625,-1.21875 a 1.0237486,1.0237486 0 0 1 1.46875,0.25 c 3.690939,5.47777 3.688695,12.77126 0,18.25 a 1.0237486,1.0237486 0 0 1 -0.96875,0.46875 z m 0.125,-1.03125 c 3.45216,-5.12742 3.45396,-11.99893 0,-17.125 l -1.625,1.21875 c 2.960537,4.39378 2.958994,10.29257 0,14.6875 z"
             style="fill:#000033;fill-opacity:0.75392671;stroke:none"
             inkscape:connector-curvature="0" />
          <path
             id="path4629"
             d="m 13.03125,307.47139 a 1.0005882,1.0005882 0 0 1 -0.46875,-0.1875 l -1.625,-1.21875 a 1.0005882,1.0005882 0 0 1 -0.25,-1.375 c 1.741743,-2.58698 1.742336,-6.07043 0,-8.65625 a 1.0005882,1.0005882 0 0 1 0.25,-1.375 l 1.625,-1.21875 a 1.0005882,1.0005882 0 0 1 1.4375,0.25 c 2.6981,4.00429 2.696381,9.33887 0,13.34375 a 1.0005882,1.0005882 0 0 1 -0.96875,0.4375 z m 0.125,-1 c 2.465828,-3.66244 2.467114,-8.55727 0,-12.21875 l -1.625,1.21875 c 1.973691,2.92918 1.972663,6.85129 0,9.78125 z"
             style="fill:#000033;fill-opacity:0.75392671;stroke:none"
             inkscape:connector-curvature="0" />
          <path
             id="path4578"
             d="m 16.40625,308.90889 -1.625,-1.21875 c 2.958994,-4.39493 2.960537,-10.29372 0,-14.6875 l 1.625,-1.21875 c 3.45396,5.12607 3.45216,11.99758 0,17.125 z"
             style="fill:url(#linearGradient4597);fill-opacity:1;stroke:none"
             inkscape:connector-curvature="0" />
          <path
             id="path4582"
             d="m 13.15625,306.47139 -1.625,-1.21875 c 1.972663,-2.92996 1.973691,-6.85207 0,-9.78125 l 1.625,-1.21875 c 2.467114,3.66148 2.465828,8.55631 0,12.21875 z"
             style="fill:url(#linearGradient4595);fill-opacity:1;stroke:none"
             inkscape:connector-curvature="0" />
          <path
             sodipodi:nodetypes="csccccccssccc"
             id="path2965"
             d="m 8,295.36218 c -0.2004176,0 -0.3875464,0.0384 -0.53125,0.15625 L 4,298.36218 H 3 c -0.554,0 -1,0.446 -1,1 v 2.01282 c 0,0.554 0.446,1 1,1 h 1 l 3.5,2.83093 c 0.1341813,0.10853 0.3142471,0.15625 0.5,0.15625 0.554,0 1,-0.446 1,-1 v -8 c 0,-0.554 -0.446,-1 -1,-1 z"
             style="fill:url(#linearGradient2967);fill-opacity:1;stroke:none"
             inkscape:connector-curvature="0" />
        </g>
      </g>
    </g>
  </g>
</svg>
