<?xml version="1.0" encoding="UTF-8" standalone="no"?>
<svg
   xmlns:dc="http://purl.org/dc/elements/1.1/"
   xmlns:cc="http://creativecommons.org/ns#"
   xmlns:rdf="http://www.w3.org/1999/02/22-rdf-syntax-ns#"
   xmlns:svg="http://www.w3.org/2000/svg"
   xmlns="http://www.w3.org/2000/svg"
   xmlns:xlink="http://www.w3.org/1999/xlink"
   xmlns:sodipodi="http://sodipodi.sourceforge.net/DTD/sodipodi-0.dtd"
   xmlns:inkscape="http://www.inkscape.org/namespaces/inkscape"
   version="1.1"
   id="svg2"
   width="16"
   height="16"
   viewBox="0 0 16 16"
   sodipodi:docname="kdeconnect-tray.svg"
   inkscape:version="0.92.1 r15371">
  <sodipodi:namedview
     pagecolor="#ffffff"
     bordercolor="#666666"
     borderopacity="1"
     objecttolerance="10"
     gridtolerance="10"
     guidetolerance="10"
     inkscape:pageopacity="0"
     inkscape:pageshadow="2"
     inkscape:window-width="640"
     inkscape:window-height="480"
     id="namedview6"
     showgrid="false"
     inkscape:current-layer="svg2" />
  <metadata
     id="metadata8">
    <rdf:RDF>
      <cc:Work
         rdf:about="">
        <dc:format>image/svg+xml</dc:format>
        <dc:type
           rdf:resource="http://purl.org/dc/dcmitype/StillImage" />
        <dc:title></dc:title>
      </cc:Work>
    </rdf:RDF>
  </metadata>
  <defs
     id="defs6" />
  <image
     width="16"
     height="16"
     preserveAspectRatio="none"
     xlink:href="data:image/png;base64,iVBORw0KGgoAAAANSUhEUgAAAgAAAAIACAYAAAD0eNT6AABctElEQVR42u29e7QsWV3n+f3tiMiM zHPPfdZ91OPWk6pCBORRCBQUFFBlM4y67HFJi0sF6RJY2jO2Ou1rGh1te3Rm7B6btp1Gl9pAUT5R BMUBkuLwEBGwaIpXvajnrbrv57nnZGRGxv7NH5l5bmRk5DMy8sQ5+c217jp1TkV+IvKXO36fvSN2 7B/AF1988cUXX3wt3EuyAu6443ZJcLRWW1HyyCOPPPLII6+4PDej/J3k32q1FUseeeSRRx555BWb 5065YwHgJHseACLyyCOPPPLII6/4PHfKnbtpO5/mUgZ55JFHHnnkkTd/njvFzkspOw8zfBjyyCOP PPLII2+OvIk6AJ2dl1N23szwYcgjjzzyyCOPvDnyukx3zA0NAD9l540pPwx55JFHHnnkkTd/ngAw ANQdc+eVlJ0H08xgJI888sgjjzzyNoXXnUCowIhbALGdxx83sADqGT5MtdP7II888sgjjzzy5sOT mPOHdwA6G8cvO0jnTesZPsyOlJ4MeeSRRx555JGXH687gVC78segWwBDJhxcnPGHIY888sgjjzzy 8uWV4iN/AKjVVvo7AAMeNbA59GT45ZFHHnnkkUdevjw/OfKv1VYiIHELYMgiA3UGmzzyyCOPPPK2 FK+SGPn3rBiYvAKQtrxgwGCTRx555JFH3pbiVVPk34o/OujG3pAm/waDTR555JFHHnlbjge0b993 eX2LBrmdNyTLAmdZsYhfHnnkkUceeeRtLk8Tg/k+n3evAMxqrWJ+eeSRRx555JFXHF4wyOduysg/ ovzJI4888sgjb0vzRi4aZBK/U/7kkUceeeSRt/V5Ix/d31gWcJodM9jkkUceeeSRtzV5ggwvBps8 8sgjjzzytiZv6g4Ag00eeaN5S0stc/uVJ6rXXra6fGgp2HHTgQtScaOKVSyJYIcASwosiaAKRUWB iggqACoK+ApUjKJsIf7FpluxipKj8ACUxNGS70WOgbpG4AJwoXCgcNXAVQsXgAMDgYUAkI3/FpGg ZaB66eOKKMrGqohaGFhYKAwsgEiASCwiCFpQhNa0f4oiFEHTWgkvtpzIqoQCNKBoiiBYKrUuOqLr AAIVrIuiDsG6KtYFWIPBugXWjOKiVVx0LS5GHi6eOV5Z+4Xad8jxhq9sf+SRlw9vqg4Ag03eIvH0 k3BXT2BPKcBl1sU+Vewzin0q2KPAHlHsVsUeEey2gt2wsmut6ew2BjsssGwAI6LwXQsjE0+xgVVB mqy3Oy+KRMVgDcAFUZwvl6KzLvScFZw3inMqOCvAWVGcsYozIjhtgNOh4tSOwzgjr0GL7Zk88mbY AWCwydsOPH03qsEOHGo0zRUn18rXOo4ecozud43ud0T3VUutfcbofmOxHwZ7KOstyLM42xI5ud50 zqrKKWvlZEvlhEJO7PGbT3quPSoGR/0LOCpvxzrPD/IWjScMDnnbjWffh51riqvFwdWiuBrAVQCu guJKCK4EcKUAOylX8mKdhfNq8AyAZwAcAfA0gKdU8ZQKnlxSPPFd77n9Is838rYLb6IOAINNXlF4 r33W8cptNxy/9kAluOby5foVrqPXQHEtBNfC4loY7KIMyZs5r+lciCBPWsVTkZUnIiuP76qGDziu fWTHKh4b9yoC8wF5RZD/HXfcLsLgkFdEnr4bXmMHbogUN9tIbr4Yus9R4Fku9AYxOLRw8jICv+TA mBJgSoBTgooHmBJEXMC05/9BHMC47Z/S/mkVaIRmYx4gIDBG4HuCSxmgc5yqACxULQTt/4aNAO3+ a0FtC0EzgrURYJsQbUE0hG8CiDYgtgloaxE7E09bxSNG8DAUD6ngIUfxQHkdj8rbETIfkFcQnqC9 BpDKmDuvol0pkMEmb+Y8+6eoBE3cAsF3WouXiMHzFXiWAbwtJQcxgLME8XbCr+6AeMuAuwPwdgLu MtTZAXjLgFOFOlWIuwR1qoC7BDhVwKnAShmNUGClDDhlwKlAHB9+pQoRM/HxqVoEQQBVjX1ege/7 +fLUQmwDagMgCiA2gLbqEBsA0ToQ1YHWGtBaR339ArS11vnbKpxoDb5Zh7QuAK1VSOsCNLwACc8D 0UVA7ZbqTFiLlhg8JIqvR1a+8tS5pS9/8JuH77v3kYN15gPyNkH+TocxvAMQqyccrxTIYJOXmXf+ PdhXcvB9CnyvtbjTmI261QVI5tIWc/kyoHQZUL4MWtoHlPYC3l5oaS9Q2gN196Buq1B354bkxTj5 y3WhedruFITnoc2zkOZZIOz8a5xGcPE0bPN0++/NMzDNM/D1OEy0dukqRwE6ixYIrJXP1lvOh7Sk f3zDWxunmF/Im4P8u4v/2aEdgM7Glc6lAoNL1YUYbPKm4qlC6vfgFWrxDlX8gDEozTX5Rh60tB9a Pgj4h2D8QygvHwIqB4HyQcBv/9TSZYDjU9bbiRcFkOYpoHECaBwHghOQ4BikcRwIjgLBUUjjGBCc ALQ1184nVJsw+KBR/E7lh/FZkdE9FeYX8qaQf6k78u90AKwM2bgcG/l3z0gGm7ypePW78ZoI+HUD 3JrbyMvbBVSvgVavhlYOA5WroJWroP6VqOMyaPmy9r1xypW8gTALDY6hce4x2PWnIcEzQP1pOI0j 8MMjMPUngfDcRFcTJmnPVvEPDvC/+z+Mjw/qCDC/kDcFrxQf+QOwtdpKJEN6CvGRPzBGYQEGm7wk L3g/nh0pfkeA12VOlsZA/SuhO26ALF0PXboOWr0OWr0WWLoGcHdShuTlzpPWKnTtccj645D1xyBr jwFrjwIXvwUJnm5PlszYmVVFzQF+yv8RfIP5hbyMPD858q/VVlpI7CR+jyA58q8z2ORNwvvYz6x4 9TP4JQV+0QDeJPK3pgrsuAm6fCPMjhtR3vtsyPKN0KXrAFOmvMgrLs82IWuPAhcfAVYfRHDmIejq Q8DFhyBRfaLbCJ3Jg79RLeHX5Y1oMr+QNwWvkhj5RwBa3aq/yQ6Amxj5C4CAwSZvEt6Hf2zlWlX8 OYAXjZV43WXo/jtQ3/VqRDtfACzfCIihbMjbRjyFWXsclfX7YE6tQE58HAjPj4u7L2i5P/TGu195 lPmFvAl41RjHdv41u/Lv6QDcccftTkz83RbfZLDJm4T3129e+W5RvHfkYjziQPe/Fvbat8LuvxNB s0XZkLc4PBtCTnwM5on3QE58bOSjjfWWs3pitXzXT33oJR9lviJvTF5y5N+Iy3+jAxBbGCA+8m8m N2awyRsh/3eo4neMGbLCpDiwV70RevMvtO/fUw7kLThP1r4Fefg/wDz1J30LKCUeHbRrDffn3/aB l/0e8xV5Y/DiI/96ms8l9qb4yL9F+ZM3Lu8Vrzi19nPP+to7RfArQ5Pj/lfDPve3oMs3Uw7kkZdM xqsPwHzt5yAnV/rkf4mnKDv2l5d/VP8d8xV5I3jdkf/AOXzJVqmUP3mT8n7+xq/9r0Pl7+6EfeF/ RfTyD1P+5JE3iLH8bEQv/xDsC34X1lke+PSAY/TX1u/GLzJfkTeCZzFiAn+yZUaUP3mT8D745pW3 AvjNgW/e9XxEr/407OEfohzII2+MV3T4h7D+sk9Al5/bJ//Y0wP/R/1u/EvmK/KG8EY+ur8xB2Aa 8TPYi8370FtWXmkt7jWmp07EpY0u/25EL/rDnlX1KAfyyBuTFwUwX/lXMMf/v/RFgyxaxuB11R/G p5mvyJuGJ8jwYrAXl/fXb105JC3cB4ODqYnsmrcgev5vtwvkMJmTR950PADVB/8NnKfuHvS2EzbE d+z4MRxjviJvUt7krZTBXnjexz++omjh7kHyt4ffhOg73kX5k0deVl6lAn3hf4E9/KZBbz0gHt6j 2remC/MVefl0ABjsxeatvR93icFrUhPZge+CfcHvMpmTR97MeAL7gt+F7n/doMu437X2ftzFfEXe pDxhcMibhHfxfbhcBA8I0Lfwvi5dj+jVn+5Zk5/JPD8eIDh//jxWV1cn4CkajUYfr1wuQ2SydLBz 507s3Lm8cN9HvR7g/vu/gs9+9u9x6tRJ7Nq1G7feeituu+02GGPyO77WBTifelV7qeH+17nI4uZ/ /t7bTzFfkTfuy2VwyJuEZ9qP+/VX3TFlRC95P+U/B1657OPzn/9H/N3f/R2OHz8+IbN/ru+k4o+/ Dh48gDvv/C686EUvhIjMJX5HjjyNkydPYc+e3bjmmqsHHn+Xd/r0aRx5+ih838cN11+HHTuWMh3f 3/zN36BWq238/ezZc3j88cfxwAMP4G1ve9vY8Zy4vbg7Ed3yHrifeR1gm8n/uxuQXwXw88xX5I37 chgc8sblBe/HjZHFH4r03zqyN/8S9Irvo6znwPvgBz+ID3zgA1hbW9tU+asqLl5cw/333w8AuOmm G3OP36c/8/f43D98Hk8/8wy+9a1HcfbcOdxw/XUDeQ8//C187OOfwNGjR/HUU0dw5OlncNONN8J1 namO7/HHH8c999yTGr+jR49i//79uOqqq/JrL/6h9raneif+WxXUQ/PCmw+t/vlnHj1wjvmKvDGY 452pDDZ5ABAp/m3qI387vx32xp+mrOfAO3v2HD72sY9NJetZyz/++tjHPoZGo5lr/M6cOYtvfvOB nvc++uhjOHr0WCrPWot//MKXukQ4joPz58/jG9/45tTH9+Uvf3lo/L74xS/m3l7ss356Y0GtrvyD loGIODftvfAzzFfkjRJ/p/bP6NYWqyrEYC8wb/W9OKAWP5jGiJ7za4C4lPUceCdPnkyV+WbKv/s6 ffp0rvEbNNch/vc4r9lsodlsbMi/+5kvTDRnovf4Ll5cGxq/Cxcu5N9ejAf7nH/XI//uioGesf/i J17+4D7mP/IGyR+xK/9mjJ1XEtsx2AvIcwR3GYNSX0Lb9wrogTsp6znxrr766s4EwOLIX0SwtLSE w4cP5xq//fsvg+M4ffs+ePBgKq9c9rBnz54e+QPAFZcfmvr4Dh48MDR+l19++Vzaix58Pezul/Qt F+w4WrrzxmNvZP4jb4D83TjPjNjYZ7DJU4VYwY+lX478XyjrOfIqlQruuusulEqlwsi/VCqNfUxZ 4letVnH7q2+D67od2Tl45Stvxa5dOwfyvuvO12F5ecfG377t227Gs551w9TH96pXvRrlcjn1PSKC 17zmNXNrL+uHfzK1VoAx+pbkugDMf5Q/gFKSJ0M2LncuFcSrBDLYC8hbvQfPdyy+0peEqtcguuN+ qCplPWfe6dOnce+99+LBBx/EhQsX+uRsbX+zmPQRtWE8EcHu3bvx7Gc/G6997Wuxd+/eucUvDEOc P38By8vLKJdLI3nWWpw5cxa+72PHjqXMx/eNb3wD7373uxEEQWzk7eBNb3oTbrvttvm1FxvBrLwc Un+mr1ZAZPAdyz+E+5n/yOvwur1z22HZWm0lkiE9BdP5191mncFeTN7a3fg1Ad7ZJ4WbfxHRTT9P WZO3cLzV1VV84QtfwIkTJ7B7927ccsst2L9//9yPTx76v+F86z+l1Qp4Z/WH8evMf+R1ruRrV/wd +beAxDoAafcIOm+qM9iLy1PFHWlXjqND30s5kLeQvOXlZbzuda/b9OPD5d8D/4n/J61Q0J3A8A4A 899C8CoxTvdntHFVMPEeh/Inryfp/BF8KF7cN/qvXIugdB3lQB55m8k78EKY6pVpb3mZ/QjKzH8L zUt7eq8Vr/xrYm9Ik3/AYC82r+7gRcnZ/1YF9eWXM/mSR14BePay/nkHxqBUP43nM/8tNC/59F4z Lv+NDkDn0j8SGzcYbPLUwXOT8g9aBtHuFzP5kkdeAXi6+5bU9xrgecx/5MV8riltpN2mRvUUGOwF 5Vlcn5S/qgA7n8PkSx55ReDteu6AUxc3Mf+Rh/aV/FSfuykj/4jyJw+XeobX98kfAKrXMPmSR14B eLqUvq6BCq5m/ltonsWIOXzJlkn5k5ccRRxIyl8dH1Lex+RLHnlF4JUPAKaU1nk/wPy30LyRj+53 rwBohopCDPa2rholS8nlRo27Ax6TL3nkFYfn7QYaJ5IdgD3Mf+QNexkAmGbUz2AvBm89dJb7lhtl 8iWPvELx1PTXh7BWysx/5I3sAFD+5A3iWXvpEcDucqPilJh8ySOvSDzTO53LqmC95ZSY/8ibeQeA wV48XnKtcSZf8sgrJu/SnJ3e3TD/kZe5A8BgU/5MvuSRV3T5C+VP3mw7AAz2IsoflD955FH+5G0z 3kQdAAZ7MXkVL7KUP3nkFZ2HPvl3Cngx/5E3iCkug0PeMB7lTx55W4AXJuWv8F1rmf/ISxN/Z/Cv ZsydVxls8ph8ySOvmLz4iZplzg7z30LI3+n+bsbYeQX9VYUYbPKYfMkjr3A8yp+8ofJ34zwzYmOf wSaPyZc88ih/8ra8/PvWhXCHbFxmsMlj8iWPvOLzDED5kzeMV4pxALRXADZj9hQsg00eky955BWU 51H+5A3k9V3Jr9VWIiBRDjjtHkFn53UGm7xpk9t/fUDx8AUdBwgbBoDGDkUMjFfuHLGd9ADJI29L 8p69S/DjN8sE59vE7mf+WwxeJTHyVwBRd5vkLQAnZecBg01elpHN508AnzsxOlmaVgCJJUWFgXV9 TJXdyCNvC/POHtSeDsCsryQw/y0Er5oi/1a8+J8be0Oa/BsMNnkpuW2myYhyII+82XS2ma/Ii/Hi l5kUQDNZ+dftvCHZKlM3ZrDJsyoIQqH8ySOP8iev2DxNDOb7fN5tQUL5kzeW/FsGFkL5k0ce5U/e 1uAFg3zupoz8I8qfvEHy711ulPInj7y8eEHQoPzJy8KzGDGBP9kBoPzJo/zJI2+TeRoGiLmf8idv Gt76KF63A6AZKgox2Ntc/s2oV/4GCo/yJ4+83HjtRwcN5U9erjwDtFcEovzJS+PVQ8f0VRnzlPIn j7w58LLI37bPW+Y/8oZ3ACh/8gbxei9Dttcanya3MZmTR9585V8PHcP8R97MOwAM9uLxshQaYTIn j7zJeBCTSf7tOTu9e2H+Iy9zB4DBpvwny20WGlIO5JE3CU+8rPIXyp+82XYAGOxFlD8yyT8IetdC pxzIIy8fHuVPXm4dAAZ7MXkVL7JZ5B9/jpnJnDzy8uGpIuVRXYD5j7whTHEZHPKG8Sh/8sjbAisG hkn5K3zXWuY/8tLE3xn8qxlz51UGm7xp5Q9hMiePvNzkHwQ9hYWzzNlh/lsI+Tvd380YO68ktmOw yRtb/iIC8ZjMySNvPrUCKH/yhsrfjfPcERv7DDZ5WeTv+93kNmZCWg+Ak2fbqTFqQOK3EURgnXLi kMc+QvLI21zeHh9SKVP+5G2W/EsdxkaVQHfIxmUGm7ys8m8/yjRBQqoH0CNHYWwTgMbqWQqsKU2f fMkjb7N5/jVApwMwa/kbgPInbxivFOMAaK8AbIb0FJJVhRhs8qaQ/xSXSW0TgvgEwuzJlzzyisPL oUSwR/mTN5DXdyW/VluJgMQtgLR7BJ2d1xls8uYi/yjouWJA2ZBH+Y9zvk1+dMx/C8GrJEb+CiDq bpO8BeCk7DxgsMmbi/xbAWTGl10pL/KKxNNc5M8qgeSl8qop8m/Fi/+Z2Bsof/LGdXVO8reUDXnb l+dQ/uTNlZd8eq+ZrPzrdt4gfS04ZWMGmzyrgiAUyp888iblUf7kzZcXH/k30nzebUFC+ZM3lvxb BhZC+ZNHXs48yp+8GfGCQT53U0b+EeVP3iD59y43Omv5m/ZlUsqBvEXnqSIIGpQ/eVl4FiMm8Cdb EuVP3ubJf9oV1igb8raZ/DXkyJ+8zLz1UbzuFQDNUFGIwd7m8m9GvfI3UHiUP3nk5SJ/0+qW0DaU P3m58lygvSIQ5U9eGq8eftaYGE1E4XsKWxD5H1oGBF7sbwJ1pk/mEjWBLcxbb0S4UI8o1y0s//j5 kUX+tt1pZ/4jb+QVAMqfvFSe6iVid63x6Vydz8j/np/8duxbdjMny1lPuNos3t2fPYFf/cBTlCvl j3roGOY/8oa9phjGMdiLyMtSaGQel/0pf8p1O8kfYjLJvz1nJ3HQzH/kZe0AMNiU/6Ty0pDyp/zJ m6RzLF5W+QvlT95sOwAM9iLKH5nkHwTdCU2UP+VPXp5Xxih/8nLrADDYi8mreJHNIv+4vPKY7V+m /ClXyr+9PHffo7oA8x95Q5jiMjjkDeMVWf7WlCAFWF6V8idvc+VvEYRJ+St811rmP/LSxN8Z/KsZ c+dVBpu8aeUFKc5z/pQ/Zb3t5B8E8emDmebsMP8thPyd7u9mjJ1X0F9ViMEmb2x5iUf5U/7k5SX/ 3vZC+ZM3VP5unGdGbOwz2ORllRflT/mTpzAR5U/epso/2XjTbwF0Ni4z2ORtB3lR/pR18Xizlb8B KH/yhvGSPketttLfARjQU7AMNnlzkZdS/tl4lOuiyV9E4HuUP3kDeX1X8mu1lQhILAWcdo+gs/M6 g03eXOQfBZ1Dovyn4UVhg7JeNPn7/lR32Zj/FoJXiXG6PzeKhSQfA3RSdh4w2OTNRf6tAAKNtVTK PwuPsi4eT3ORP6sEkpfKq6bIvxUv/mdib6D8yRvX1TnJ33LkT/lvX55D+ZM3V17y6b1msvKv23mD 9LXglI0ZbPKsCoJQKH/Kn7xJeZQ/efPlxUf+jTSfd1uQUP7kjSX/loGFUP4F5lHW24NH+ZM3I14w yOduysg/ovzJGyT/3uVGZy1/075MSvlPzXO8MuW6HXiqCIIG5U9eFp7FiAn8yZZE+ZO3efIvyASp rc2jXLeD/DXkyJ+8zLz1UbzuFQDNUFGIwd7m8m9GvfI3UHiFkb9S/lw0aFvJ37S6JbQN5U9erjwD tFcEovzJS+PVQ8f0VRnztBDyBxQNyp/y32byj58fWb5f2z5vmf/IG94BoPzJG8TrKerXWWt8OlfP Xv7GNil/yp/yHyD/eugY5j/yZt4BYLAXj5el0Ehe8o8nX8qfct1O8oeYTPJvz9lJHDTzH3mJl8vg kJen/FUtNMxP/l98dBW7ljx4JR8irSmOTxE2++W6VXnfOt6gXLe4/BUG4mWVv1D+5M22A8BgL6L8 kUn+QdCd0JTPyP8X/+RJyoa8bSX/ac8Pyp+8SV+GwSFvGK/iRTaL/HtXqJut/Ckb8ij/DVzKo7oA 8x95Q5jiMjjkDeNR/uSRV3T5WwRhUv4K37WW+Y+8NPF3Bv9qxtx5lcEmb1r5Qyh/8sjLTf5BEJ8+ mGnODvPfQsjf6f5uxth5Bf1VhRhs8saSv4hAPMqfPPLmswIm5U/eUPm7cZ47YmOfwSYvi/x9v5vc NJ/ke/XlEMcZL/naBiR+W0IEasrTLZ+bgadBAzh6knJdNF4UQOBR/uRtlvxLHcZGlUB3yMZlBpu8 rPJvP8qkuSVfObQP8LwxR15LM0m+WXly/iK0pwNAuS4eb7byNwDlT94wXinGAdBeAdgM6Skkqwox 2ORNIf9pRtbFvew6j0WNKFfKf+LzzaP8yRvI67uSX6utREDiFkDaPYLOzusMNnlzkX8U9FwxoPzJ o/zHOd8mPzrmv4XgVRIjfwUQdbdJ3gJwUnYeMNjkzUX+rQACjbVUyp+87cXTgpS8Zv5bCF41Rf6t ePE/E3sD5U/euC7MSf52MUb+ShkuJM+h/MmbKy/59F4zWfnX7bxB+lpwysYMNnlWBUEohZG/fuWh RFJtJ1/M6kpCDjxnlrc5KNetw6P8yZsvLz7yb6T5vHsLILnzkPInL1X+LQNbluKM/BvNMZN5c8Zy mJ5H+ZNH+ZM3R14wyOduysg/ovzJGyT/3uVGZy1/075MSjmQt+g8VQRBg/InLwvPYsQE/mRLovzJ 2zz5c0IdeeQBqtCQI3/yMvPWR/G6VwA0Q0UhBnuby78Z9crfQOFR/uSRh7yWC26X0DaUP3m58gzQ XhGI8icvjVcPHdNXZcxTyp888uZQKyCL/G37vGX+I294B4DyJ28Qr6eoX2et8elcTfmTR9485V8P HcP8R97MOwAM9uLxshQaofzJI2+y8wNiMsm/PWcncdDMf+Rl7QAw2JT/ZLnNQkPKnzzyJukci5dV /kL5kzfbDgCDvYjyRyb5B0F3QhPlTx55eV4Zo/zJy60DwGAvJq/iRTaL/OOPMlH+5JGXj/xVkfKo LsD8R94QprgMDnnDeJQ/eVuGt2cXpFpu86JGfyEepwyZ9vjSePCAY6cLIH+LIEzKX+G71jL/kZcm /s7gX90xd15lsBeU9+bs8ocYWLdM+ZOXL2//buCyPXMrBKXN1uQdgDzkHwSQWLQuPa0zeeed+W8h 5O90GMNvAcTqCRsGm7xp5C8iEI8jf/LmwNsKVSBzkH/v+Tb9hF3mv4WQvxvnmREb+ww2eVnk7/uU P3lz4kWN4sofChNR/uRtqvyTJ5eaIRuXGWzyssp/qhUDKUPyMvMKJv8ZHl/a+WYAyp+8Ybykz1Gr rfR3AAb0FCyDTd5c5K+UF3mU/8Tnm0f5kzeQ13clv1ZbiYBEOeC0ewSdndcZbPLmIv8o6BwSZUge 5T/++Tb50TH/LQSvEuN0f0bdbZJPATgpOw8YbPLmIv9WAIHGWiplSN5kPC20/Kc/vlmfb8x/C8Gr psi/FS/+Z2JvoPzJGzdX5iR/SxmSNz3PKRda/tah/MmbKy/59F4zWfnX7bxB+lpwysYMNnlWBUEo lD95xeMVWf5THh/lT14GXnzk30jzebcFCeVP3ljybxlYCOVP3tbnFbxKJeVP3ox4wSCfuykj/4jy J2+Q/HuXG521/E37MinlRd6Cyx+qCIIG5U9eFp7FiAn8yZZE+ZO3efJnrQDyKH9AFRpy5E9eZt76 KF73CoBmqCjEYG9z+TejXvkbKDzKnzzKP7fja5fQNpQ/ebnyDNBeEYjyJy+NVw8d01dlzFPKnzzK X/M/vizyt+3zlvmPvOEdAMqfvEG8nqJ+G1XGsPnJlzIkb7PlHwWFln89dAzzH3kz7wAw2IvHy1Jo hPInb9vJvxVANL/jg5hM8m/P2UkElfmPvKwdAAab8p8st1loSPmTt83kP6tHVwccn3hZ5S+UP3mz 7QAw2Isof2SSfxB0JzRR/uRR/nkeH+VPXm4dAAZ7MXkVL7JZ5K86o0ItlCF5RZO/FOf4VJHyqC7A /EfeEKa4DA55w3iUP3mU/6BFq7yCyN8iCJPyV/iutcx/5KWJvzP4VzPmzqsMNnnTyh9C+ZO3zeRf EF73fIufqFnm7DD/LYT8ne7vZoydV9BfVYjBJm8s+YsIxKP8yaP885J/7/lG+ZM3VP5unGdGbOwz 2ORlkb/vU/7kzYkXNYorf3TXDaD8yds0+SdPrvRbAJ2Nyww2eVnlP9WKgZQheZl5BZP/DI8v7Xwz AOVP3jBe0ueo1Vb6OwADegqWwSZvLvJXyos8yn/i882j/MkbyOu7kl+rrURAohxw2j2Czs7rDDZ5 c5F/FHQOiTIkj/If/3yb/OiY/xaCV4lxuj+j7jbJxwCdlJ0HDDZ5c5F/q722ulKG5E3J00LLf/rj m/X5xvy3ELxqivxb8eJ/JvYGyp+8cXNlTvKf0QprlOFi8pxyoeVvHcqfvLnykk/vNZOVf93OG6Sv BadszGCTZ1UQhEL5k1c4njz2NPSJo1PxMM2VJ53w81L+5M2XFx/5N9J83r0FkNx5SPmTlyr/loEt C+VPXuF42ooQu72Zkdfa9M9L+ZM3I14wyOduSp82ovzJGyT/3uVGZy1/075MShmSt+g8VQRBg/In LwvPYsQE/mRLovzJ2zz5c7lg8sgDVKEhR/7kZeatj+J1rwBohopCDPY2l38z6pW/gcKj/MkjD3kt Z9wuoW0of/Jy5blAe0Ugyp+8NF49/KwxMZqIwvcUlvJfON4Ve0rYu8Md+v3CNgF14g0GmHICXNF5 kVU8+NS5XGsZZJG/bXfamf/IG3kFgPInL5WneonYXWt8OldT/lud9447DuFNt+4f8PXOdsLaVuA9 cXwVr/+Ns4WVfz10DPMfecNe0yzUzmAvIC9LoRHKf3vzFlH+Sd6s5Q8xmeTfnrOT+NKZ/8jL2gFg sCn/SZOlhpQ/5U/5T9I5Fi+r/IXyJ2+2HQAGexHlj0zyD4LuhCbKn/Kn/PO8Mkb5k5dbB4DBXkxe xYtsFvn3JkvKn/LfXryiyF8VKY/qAsx/5A1hisvgkDeMR/mTR/mn88rlKRetmrn8LYIwKX+F71rL /Edemvg7g381Y+68ymCTN22yhFD+lP925BVE/kEQnz6Yac4O899CyH/jOVgzxs4r6K8qxGCTN3ay FI/y3x7yV8q/QCtgph8f5U/eUPm7cZ4ZsbHPYJOXNVlS/tuD1woblP+08ofCRJQ/eZsq/+TJn34L oLNxmcEmb9OSJWVdOB4o/xm259nK3wCUP3nDeEmfo1Zb6e8ADOgpWAabvLldJqWsC82j/IslfxGB 71H+5A3k9V3Jr9VWIiCxFHDaPYLOzusMNnlzkX8UdA6Jsi4a7z2fPoEP33d2BmvxxyeIypblNSOd 4vvIQf6+P9XHZf5bCF4lxun+jLrbJB8DdFJ2HjDY5M1F/q0AAo21VMq6SLwjZ5p48hwAtGZ8fIvD 01zkzyqB5KXyqinyb8WL/5nYGyh/8sYeKOU/O5qyJm+b8RzKn7y58pJP7zWTlX/dzhukrwWnbMxg k2dVEIRC+ZNH3qQ8yp+8+fLiI/9Gms+7LUgof/LGkn/LwEIof/LIy5lH+ZM3I14wyOduysg/ovzJ GyT/3uVGc1gUxfFBOWxjnusDxpmeF3vvTI4vK6/Vyid+qgiCBuVPXhaexYgJ/MkOAOVP3ubJ3/UB aVCu25l3+QHItVfMpL2oO9vleCflaSMEvvS1XOSvYZB4GIHyJ29i3vooXrcDoBkqCjHY21z+zahX /gYKryDLoVKu25w36/ZS9PbXOb52CW1D+ZOXK88A7RWBKH/y0nj10DF9VcY8pfzJo/w1/8+bRf62 fd4y/5E3vANA+ZM3iNd7GbK91vh0rqb8ydtm8o+CQsu/HjqG+Y+8mXcAGOzF42UpNEL5k7ft5N8K IJrf54WYTPJvz9lJfEnMf+QlXi6DQ16e8le10JDyJ6/zWg+AE2dGjKwbKYvolAGpTzlSz4enrSi3 zo54WeUvlD95s+0AMNiLKH9kkn8QdCc0Uf7kATh7Hnr2/FAeZrwcdGF5M74yQfmTN+nLMDjkDeNV vMhmkb/qbAqhUK7kbSvejOWvipRHdQHmP/KGMMVlcMgbxqP8ySOv6PK3CMKk/BW+ay3zH3lp4u8M /tWMufMqg03etPKHUP7kkZeb/IMgPn0w05wd5r+FkP/G8pdmjJ1X0F9ViMEmbyz5iwjEo/zJIy8v +feeb5Q/eUPl78Z5ZsTGPoNNXhb5+z7lTx55QHfdAMqfvE2Tf7Lxpt8C6GxcZrDJyyr/qVYMpGzI 2/a82crfAJQ/ecN4SZ+jVlvp7wAM6ClYBpu8uchfKQfyKP+JzzeP8idvIK/vSn6tthIBiXUA0u4R dHZeZ7DJm4v8o6BzSJQNeZT/+Ofb5EfH/LcQvEqM0/0ZdbdJPgbopOw8YLDJm4v8W+211TW35Ese eZvL01zkzyqB5KXyqinyb8WL/5nYGyh/8sZ1dU7yt5QNeduX51D+5M2Vl3x6r5ms/Ot23iB9LThl YwabPKuCIJT85L93J/Cdz4e6PiRT4Zf+kRd55G0qzzFT4Ch/8qbmxUf+jTSfd28BJHceUv7kpcq/ ZWDLkuPI34EtZSnR2kD7UKQ7FstY8pU88jaHR/mTNyNeMMjnbsrIP6L8yRsk/97lRmct/wKWfCWP vE3iBUGD8icvC89ixAT+ZAeA8ieP8iePvE3maRigZzVtyp+8yXnro3jdDoBmqCjEYG9z+TejXvkb KDzKnzzycuO1S2gbyp+8XHkGaK8IRPmTl8arh47pqzLmKeVPHnlz4GWRv22ft8x/5A3vAFD+5A3i 9V6GbK81Pt3S/kzm5JE3T/nXQ8cw/5E38w4Ag714vCyFRpjMySNvMh7EZJJ/e85O716Y/8jL3AFg sCn/yXKbhYaUA3nkTcITL6v8hfInb7YdAAZ7EeWPTPIPgu6EJsqBPPLy5FH+5OXWAWCwF5NX8SKb Rf7x55iZzMkjLx+eKlIe1QWY/8gbwhSXwSFvGI/yJ4+8osvfIgiT8lf4rrXMf+Slib8z+Fcz5s6r DDZ508ofwmROHnm5yT8I4tMHM83ZYf5bCPk73d/NGDuvoL+qEINN3ljyFxGIx2ROHnl5yb/3fKP8 yRsqfzfOMyM29hls8rLI3/eZzMkjj/InrwDyT9a3Tr8F0Nm4zGCTl1X+XDGQPPLyl78BKH/yhvGS PketttLfARjQU7AMNnmUP3nkFXHkL/A9yp+8gby+K/m12koEJKoBpt0j6Oy8zmCTR/mTR14B5e/7 Ux0e899C8CoxTvdn1N0m+Rigk7LzgMEmj/Inj7yiyp9VAslL5VVT5N+KF/9zY29Ik3+DwSYvJbdR /uSRR/mTV2wegI1GqACaycq/bucNyVaZujGDTZ5VQRAK5U8eeZQ/ecXmaWIw3+fzbgsSyp+8seTf MrAQyp888ih/8rYGLxjkczdl5B9R/uQNkn/vcqOzlz88H2V3+uQLp7ekatZkTh55s+KFEWB1fF4Q NCh/8rLwLEZM4E92ACh/8jZN/tb1sXfJ4Fn7J0zAaqHNRt9FLSn5wFTHRx55s+c9dEJxbl3HOj80 DNCzmjblT97kvPVRvG4HQDNUFGKwt7n8m1Gv/A0UXmEu+1toM8Cl212zSObkkbdZvM6VBLUbnQnK n7y8eAZorwhE+ZOXxquHjumrMuYp5U8eeTnJP35+ZJG/bZ+3zH/kDe8AUP7kDeL1XoZsrzU+jasp f/LIm6/866FjmP/Im3kHgMFePF6WQiOUP3nkTXZ+QEwm+bfn7PTuhfmPvMwdAAab8p8st1loSPmT R94knWPxsspfKH/yZtsBYLAXUf7IJP8g6E5oovzJIy/PK2OUP3m5dQAY7MXkVbzIZpF//Dlmyp88 8vKRvypSHtUFmP/IG8IUl8EhbxiP8iePvKLL3yIIk/JX+K61zH/kpYm/M/hXM+bOqww2edPKP9sK a5QNeZT/qPMtfqJmmbPD/LcQ8ne6v5sxdl5JbMdgkze2/EUE4lH+5JE3n1oBlD95Q+XvxnlmxMY+ g01eFvn7PuVPHnlQS/mTt9nyLyV5ZsjGZQabvKzyF8qBPPLaPM1P/gag/Mkbxkv6HLXaSn8HYEBP wTLY5M1H/krZkLetebmUCPYof/IG8vqu5NdqKxGQqAaYdo+gs/M6g03ePOQvrQZlQx7lP/H5Nvnh Mf8tBK8S43R/RvErR/GXQ/mTt1nyN60AopayIW978iQv+bNKIHmpvLSn91rx4n8m9oY0+QcMNnkp rs5H/qD8ydu+PMqfvDnzkk/vNZOVf03nDclWqQAaDDZ5yZdVQRAK5U8eeRPzKH/yNo3XSMo/fgVA RvUUGGzyumuNW0hu8lcxlA155FH+5M2OFwzyuZsy8o8of/IGyb93udEZyx8G6lIO5JEHVQRBg/In LwvPYsQcvmQHgPInb9Pkz+WCySOvfX5oGKBnNW3Kn7zJeeujeN0OgGaoKMRgb3P5N6Ne+RsoPMqf PPJyWy64vWiQofzJy5VngPaKQJQ/eWm8euiYvipjnlL+5JE3h1oBWeRv2+ct8x95wzsAlD95g3i9 lyHba41P42rKnzzy5iv/eugY5j/yZt4BYLAXj5el0AjlTx55k50fEJNJ/u05O717Yf4jL3MHgMGm /CfLbRYaUv7kkTdJ51i8rPIXyp+82XYAGOxFlD8yyT8IZlcFjbIhbxHkP+35QfmTl1sHgMFeTF7F i2wW+cefY6b8ySMvH/mrIuVRXYD5j7whTHEZHPKG8eYt//WG4vHT/dlNwgDoWS7YQL0uTyfOluSR N29ePdSc5G8RhEn5K3zXWuY/8tLE3xn8qzvmzqsM9oLy3pxd/u0qaOWxklvQAoJVHWOkVAYamCqZ k0de8XjZagVI7AS+9LTO5J135r+FkL/TbbhmjJ1X0F9ViMEmbyz5iwjEm/ay/6yfHiCPvO3DSz/f pp+wy/y3EPJ34zwzYmOfwSYvi/x9n8mcPPIof/IKIP9SkmeGbFxmsMnLKv9irBhIHnnbW/4GoPzJ G8ZL+hy12kp/B2BAT8Ey2ORR/uSRV8SRv8D3KH/yBvL6ruTXaisRkKgGmHaPoLPzOoNNHuVPHnkF lL/vT3V4zH8LwavEON2fUXeb5FMATsrOAwabPMqfPPKKKn9WCSQvlVdNkX8rXvzPjb0hTf4NBpu8 lNxG+ZNHHuVPXrF5wKXFKxRAM1n51+28IdkqUzdmsMmzKghCofzJI4/yJ6/YPE0M5vt83m1BQvmT N5b8WwYWQvmTRx7lT97W4AWDfO6mjPwjyp+8QfLvXW6U8iePvLx4QdCg/MnLwrMYMYE/2QGg/Mmj /Mkjb5N5GgboWU2b8idvct76KF63A6AZKgox2Ntc/s2oV/4GCo/yJ4+83HjtEtqG8icvV54B2isC Uf7kpfHqoWP6qox5SvmTR94ceFnkb9vnLfMfecM7AJQ/eYN4vZchu1XGsBDJlzzytrL866FjmP/I m3kHgMFePF6WQiNM5uSRNxkPYjLJvz1np3cvzH/kZe4AMNiU/2S5zUJDyoE88ibhiZdV/kL5kzfb DgCDvYjyRyb5B0F3QhPlQB55efIof/Jy6wAw2IvJq3iRzSL/+HPMTObkkZcPTxUpj+oCzH/kDWGK y+CQN4xH+ZNH3hZYMTBMyl/hu9Yy/5GXJv7O4F/NmDuvMtjkTSt/CJM5eeTlJv8giE8fzDRnh/lv IeTvdH83Y+y8ktiOwSZvbPmLCMRjMiePvPnUCqD8yRsqfzfOMyM29hls8rLI3/eZzMkjj/InrwDy LyV5ZsjGZQabvKzy54qB5JGXv/wNQPmTN4yX9DlqtZX+DsCAnoJlsMmj/Mkjr4gjf4HvUf7kDeT1 Xcmv1VYiIFENMO0eQWfndQabPMqfPPIKKH/fn+rwmP8WgleJcbo/o+42yccAnZSdBww2eZQ/eeQV Vf6sEkheKq+aIv9WvPifG3tDmvwbDDZ5KbktN/k7NkRZAwDSTpY2nJp3qd1jKC9wqojg5pLMHTOA FwWA9K79bl0fzrSyifGs5iOvUtmH52Qocev2f95Rx7ca5iVXhbZsX3u5lCkF1vWAyGZqf3GelsuU P3nz5AHYOEkUQDNZ+dftvEH6zo6UjRls8qwKglByG/m/+MK9+OlHfwolE2GqooMAmtZJqB9DeT/3 bR/GgztenMtI7oWHDUxP5C202ej8YjaOUEo+MFX8enknVxVPnpVcRq6/9AKDH7xeJsRZBEGjU5hm svr2qyHw4r+2uYys9cI68NWH2u+2TQjii1YJrElOgxq/BQ7kPfsGyL5dlD958+JpYjDf53MTy5GU P3mj5d8ysJBc5N9tivOU/3wvC1tos//KRDb5J3nb97L1zL+PecofHPmTt2m8YJDP3ZQcGlH+5A2S f+9yo7NP5uK4lH8Gnnr+lO5aMPlrseUP1c6VE8qfvKl5FiMm8CdbEuVP3qbJf2rZUP4xHkf+Y/Gi oNDy15Ajf/Iy89ZH8bpXADRDRSEGe5vLvxn1yt9A4VH+48s6nJf8TeLvlP8gHrS48m8fn8WkcyaY r8iblGeA9opAlD95abx66Ji+KmOeUv5j8jBX+W+vkb+qncOjecWTf/z4ssTPts9b5j/yhncAKH/y BvF6ivp11hqXItxj3gLyT440Kf/JeZT/9PKvh45h/iNv5h0ABnvxeFkKjSyq/JNPN1D+0/NmLn8p tvwhJpP823N2+k4b5j/ysnUAGGzKf9JkrmFx5a8AEDUp/0WSPwys4xdW/goD8bLKXyh/8mbbAWCw F1H+yCT/IOhOaCqm/JvW6XHrzOUvlH/h5F+UdQNmfHyUP3mTvlwGh7xhvIoX2Szyn1Uyz0v+ivzk rzCAR/ln4Vm3TPmPh0t5VBdg/iNvCFNcBoe8YTzKP2syp/yz8IqwqFHx5W8RhEn5K3zXWuY/8tLE j/bVfzVj7rzKYJM3bTIft/DLZskfggJVkaP8t/VywTl9Hz0zTjLM2WH+Wwj5O93fzRg7ryS2Y7DJ myiZi1dc+QsAOCXKfyycUv4FlH9v/Ch/8obK343zzIiNfQabvOyXcYsr/5KJKP8xea0G5Z/p0cGI 8idvU+WfbLzptwA6G5cZbPI25bLwHOW/PWsF5LSo0YwWqWGVwNnL3wCUP3nDeEmfo1Zb6e8ADOgp WAabvHklc8q/ePIXyr+w8hcR+B7lT95AXt+V/FptJQISjwGm3SPo7LzOYJM3j2SuUYvyz7BugISU /8LJ3/en+rjMfwvBq8Q43Z9Rd5vkY4BOys4DBpu8eSXzuAwp/2l4ea5oaCj/jDwtyNMXzH8Lwaum yL8VL/5nYm+g/MkbN/fmnswp/2y8PNY1cMuUfyaeQ/mTN1de8um9ZrLyr9t5g6Tl0GnKBPPL2948 q4IgFMp/weRvXR9SAHltWfmbEuVP3rx58ZF/I83nJpYjKX/yRsu/ZWAhuSVzQCj/TLzirJ1P+Wfj Uf7kzYgXDPK5m5JDI8qfvEHy711udPbJXByX8s/AU68Yy+cWXv5abPlDFUHQoPzJy8KzGDGBP9mS KH/yNk3+RVkueKvKv83jyH8sXhQUWv4acuRPXmbe+ihe9wqAZqgoxGBvc/k3o175Gyg8yn98WYfz kr9J/J3yH8SDFlf+7eOzG+Mzyp+8vHgGaK8IRPmTl8arh47pqzLmKeU/Jg9zlf/2Gvmr2twXNSqi /Ge17oJtn7fMf+QN7wBQ/uQN4vUU9eusNS5FuMe8BeSfHGlS/pPzKP/p5V8PHcP8R97MOwAM9uLx shQaWVT5J59uoPyn581c/lJs+UNMJvm35+z0nTbMf+T1vFwGh7w85a+de+DjyubJys14/5U/NzRZ Wmv7ZGOMmVoOp519ucn/mfMKgWnPzl8XTHOPXsLeFf4whLfW1Nzk/4lnFMfqSZzCNgOoxkeuBqbU XTdAJ/y4l3ihzWvkb6DVZeDqK6bj2QYk3jkRgTXlkccn1fLYxydeVvkL5U/ebDsADPYiyh+Z5B8E 3QlN4yXzI/6N+LMr/vWmjdRnzTt2QWDdcieis5qgN2veeJ/3U8eATx3Twh7fRDxPIIcPzaYzMeUi SbP+vJQ/eZO+DIND3jBexYtsFvnnehmXPPLI6+JSHtUFmP/IG8IUl8EhbxiP8iePvKLL3yIIk/JX +K61zH/kpYm/M/hXM+bOqww2edPKH8JkTh55uck/CHqnm2aYs8P8txDyd7q/mzF2XkF/VSEGm7yx 5C8iEI/JnDzy5vP0BeVP3lD5u3GeGbGxz2CTl0X+vs9kTh55lD95BZB/8jnV9FsAnY3LDDZ5WeVf pOVfySNvu8rfAJQ/ecN4SZ+jVlvp7wAM6ClYBps8yp888oo48hf4HuVP3kBe35X8Wm0lAhLrAKTd I+jsvM5gk0f5k0deAeXv+1MdHvPfQvAqMU73Z9TdJvkYoJOy84DBJo/yJ4+8osqfVQLJS+VVU+Tf ihf/c2NvSJN/g8EmLyW3Uf7kkUf5k1dsHnBpDXEF0ExW/nU7b0i2ytSNGWzyrAqCUCh/8sij/Mkr Nk8Tg/k+n3dbkFD+5I0l/5aBhVD+5JFH+ZO3NXjBIJ+7KSP/iPInb5D8e5cbpfzJIy8vXhA0KH/y svAsRkzgT3YAKH/yKH/yyNtknoYBelbTpvzJm5y3PorX7QBohopCDPY2l38z6pW/gcKj/MkjLzde u4S2ofzJy5VngPaKQJQ/eWm8euiYvipjnlL+5JE3B14W+dv2ecv8R97wDgDlT94gXu9lyPZa49Pk NiZz8sibr/zroWOY/8ibeQeAwV48XpZCI0zm5JE3GQ9iMsm/PWendy/Mf+Rl7gAw2JT/ZLnNQkPK gTzyJuGJl1X+QvmTN9sOAIO9iPJHJvkHQXdCE+VAHnl58ih/8nLrADDYi8mreJHNIv/4c8xM5uSR lw9PFSmP6gLMf+QNYYrL4JA3jEf5k0feFlgxMEzKX+G71jL/kZcm/s7gX82YO68y2ORNK38Ikzl5 5OUm/yCITx/MNGeH+W8h5O90fzdj7LyS2I7BJm9s+YsIxGMyJ4+8+dQKoPzJGyp/N84zIzb2GWzy ssjf95nMySOP8ievAPIvJXlmyMZlBpu8rPLnioHkkZe//A1A+ZM3jJf0OWq1lf4OwICegmWwyaP8 ySOviCN/ge9R/uQN5PVdya/VViIgUQ0w7R5BZ+d1Bps8yp888goof9+f6vCY/xaCV4lxuj+j7jbJ xwCdlJ0HDDZ5lD955BVV/qwSSF4qr5oi/1a8+J8be0Oa/BsMNnkpuY3yJ488yp+8YvMAbDRCBdBM Vv51O29ItsrUjRls8qwKglAof/LIo/zJKzZPE4P5Pp93W5BQ/uSNJf+WgYVQ/uSRR/mTtzV4wSCf uykj/4jyJ2+Q/HuXG6X8ySMvL14QNCh/8rLwLEZM4E92ACh/8ih/8sjbZJ6GAXpW06b8yZuctz6K 1+0AaIaKQgz2Npd/M+qVv4HCo/zJIy83XruEtqH8ycuVZ4D2ikCUP3lpvHromL4qY55S/luAd3lV GL8tzssif9s+b5n/yBveAaD8yRvE670M2V5rfJrcxmQ+X96P3ADUXi+480ph/BZU/vXQMcx/5M28 A8BgLx4vS6ERJvP58n78ZsE7X2jgGeBdLxO84bAwfluMBzGZ5N+es9O7F+Y/8pIvl8EhL0/5q1po SDmMy3MNsG+HoOwAFwLFufXJeK+/SvBvnnfp744A//E7BU+sKr5+bvzjEwD7loBqWVAPgVOrCp3i 8+6pCJZ9oBkpTl4EIrvY3++4PPGyyl8of/Jm2wFgsBdR/sgk/yDoTmii/Ee9HAGec7mB77V/P7RT 8czJBo6eH593WVkTzQEwAuwtT3Z81+832Ld06fd9S8CDxxKdgBG8w3sEl++SjS7F/mXFN47q4E4A 5Z+JR/mTN+nLMDjkDeNVvMhmkX/8OWYm8+Gv/cvYkD/UQpsBDu1UGJnv8VU96ZE/AOz0BTsr4/Nc Axza1cuteIJ9S5yTkAdPFSmP6gLMf+QNYYrL4JA3jEf5z4/nOtIjf0AhArgO0GhlW1Fuktswntt/ FQEASk5nddExPq/rpBEAz6Gsc1kxMEzKX+G71jL/kZcm/s7gX82YO68y2ORNK38Ik/k4rwv1XvkD QCMEmq3sy8lOchvmYqP/Xr0qcKGhY3/e9nH3s88HlH8eywXHv64sc3aY/xZC/hvdcDPGziuJ7Rhs 8saWv4hAPCbz8ToAFkdOXIpfIwQePS2IZriW/DjHF1ng4ZMWYXTp90dPKRrN8T+vAnj4hEWj0wmw qnjijOJioJR/rrUCKH/yhsrfjfPcERv7DDZ5WeTv+93kptsq+ebFO37B4uRqe0JgaA0itzwR76+f BD5z3AKqkNalkf/J+mTHd6EO/PcjFp4DhC1Ap/i8a03g/g6jZQGr/H4pf/I2Uf6lDmOjSqA7ZOMy g01eVvm3H2Wi/CfhWQUinY63GgKrzdkcn2rnMn6Gz6sAmhG/37zlbwDKn7xhvFKMA6C9ArAZ0lNI VhVisMmbQv5M5uSRl3uJYI/yJ28gr+9Kfq22EgGJWwBp9wg6O68z2ORR/uSRV0D5+/5Uh8f8txC8 SmLkrwA2rsklbwE4KTsPGGzyKH/yyCuq/FklkLxUXjVF/q148T839oY0+TcYbPJSchvlTx55lD95 xeYB2GiECqCZrPzrdt6QbJWpGzPY5FkVBKFQ/uSRR/mTV2yeJgbzfT7vtiCh/MkbS/4tAwuh/Mkj j/Inb2vwgkE+d1NG/hHlT94g+fcuN0r5k0deXrwgaFD+5GXhWYyYwJ/sAFD+5FH+5JG3yTwNA/Ss pk35kzc5b30Ur9sB0AwVhRjsbS7/ZtQrfwOFR/mTR15uvPYKjobyJy9XngHaKwJR/uSl8eqhY/qq jHlK+ZNH3hx4WeRv2+ct8x95wzsAlD95g3i9lyHba41Pk9uYzMkjb77yr4eOYf4jb+YdAAZ78XhZ Co0wmZNH3mQ8iMkk//acnd69MP+Rl7kDwGBT/pPlNgsNKQfyyJuEJ15W+QvlT95sOwAM9iLKH5nk HwSXStJSDuSRlx+P8icvtw4Ag72YvIoX2Szyjz/HzGROHnn58FSR8qguwPxH3hCmuAwOecN485Z/ M3oAa82/6vmbKGCiCPFDUQGs40Bb4x+X796GivfKTMn3NvMJvM15V1/yDVuAxs4mEcBzJ8vlfxK9 BX9r/3mm47tz92fw5oMf6D++pk08Vw54JTPR8f23Y29E7fyt2eR16iz0+Olki4GJGhuNrvvTOuVE kxz+kisPAruXMx3f918r+J6rk+1ZETa6i/JIJ34GXtmHTBDAd31dcd9p5LNiYJiUv8J3rWX+Iy9N /J3Bv7pj7rzKYC8o783Z5Q8xsG55rORm9QKara/3yN+JFFG8HyJA5Ag0muzYSs7NmZPvQTmOV8in ei+7RgYK2YjgtHMmPi13ZD6+K0on8Irlf4odHxA0BOr1yt8vK8yErvm7s7dnl1ejCZxb7ZW/bUIQ 7ywKrCkBCCdrewf2QjIe39VLwK0HZEB77sp/utn5dz8CQG0uywVL7AS+9LTO5J135r+FkL/T7Wub MXZeSWzHYJM3tvxFBOJNl9y68kea/AvwKGL6ConFeVpiQ/6aXf65XAYfKv/ttxb/fI5v+vbH/LcQ 8nfjPDNiY5/BJi9rsiyC/EUBp9UqrPytCqJWVFj5WwWisFVc+XduIxRV/rN+GobyJ28K+SdPLjVD Ni4z2ORtRrLMRf6RApjNhMQ85B+0TM/nLZr8g4YAs5rQmYf8+3jFkv8sn4ZJOz4DUP7kDeP1Taip 1Vb6OwADegqWwSZvXpdJc5H/jOQK1VzkH+dlPr4c5K8zjF+x5a+5yH9WT8MMPN88yp+8gby+K/m1 2koEJKoBpt0j6Oy8zmCTNxf5t5qFlr9ttaCmuPKPwlbB5d9IXIkpjvyhiqjZ2Hry9/2pPi7z30Lw KjFO9+fG9OnkUwBOys4DBpu8ecjftIKEwWcrf0CyV2kzyE3+EMygipzmJn9I9viJaiwTzVr+Ap1J /CRze876NEze5xvz30Lwqinyb8WL/5nYGyh/8sbNlbnPjp65/AWIXHeGhVpmK38RheM6Mzy+2cpf BHA8d4aL3sxe/tYpF6IQz6yfhqH8yZuSl3x6r5ms/Gs6b5C+MwxoMNjkpcorlK0nf0cKLX/ftYWW v1/WYsvflAot/2mfhqH8yZsRr5GUf/wKgIzqKTDY5HXlZSH5yR/5yH9W6wYgQ22EeawbAJFc5D+z dQMkJ/lj86vw5fX0AOVPXkZeMMjnJmXk36L8yRtPXrNfFCVyS4WVv8LAuG5h5a8wcDy3uPKHgTWT Le87T/krDJxSMWSNGT+NwPy3kDyLERP4ky0povzJ2yz5TzvBjCsGcsXAWR2fFGTFQA0pf/Iy89ZH 8bpPAWiGikIM9jaXfzPqlZeBwqP8Kf9tJv8iLRfcXjTIUP7k5cozQHtFIMqfvDRePXRMn7w8pfwp f8p/DrUCsvBsu90x/5E3vANA+ZM3iNcrh26Vsc2XA+VP+VP+w9tfPXQM8x95M+8AMNiLxyuSvCh/ yn+7yz/L0wiX2l8iqMx/5GXtADDYlP+kyXKWVdAof8p/u8tfYSBeVvkL5U/ebDsADPYiyh+Z5D/L KmiUP+W/CPKfZftj/iNvJh0ABnsxeRUvslnkP6tCKJQ/5U/5D8WltD+A+Y+8IUxxGRzyhvEof8qf 8i+6/C2CMLX9WeY/8tLE3xn8qxlz51UGm7xpk2W7ChrlT/lT/nkdX/xEzdL+mP8WQv5O93czxs4r 6K8qxGCTN3aynLYKGuVP+VP+kx4f5U/eUPm7cZ47YmOfwSYva7JsJ7fxElLZfQH27/idWLJMyCFD vXcnkszJ92+i/wmfil4HqEJaDSR7J+qWgXC646u3vMzH9+en/kd85Oztl44vYX91py+Zu95ws8vr 8v2Q/XsHfr865XK8UIXRVubj+70HFXd/Szvx653ACjGd+AGAnfj4LtYpf/I2Vf6lDqPbQNQdsnGZ wSZvNiOl8ROSoASBBxMFECn1JEt1fZhp5RDNJvkG8BFoebYj4RmODNetj/Woe3yVfl5rk0fWxgCe tHklZ8bxyz7nZK0FrIVDPm9UzCsTBqD8yRvGK8U4ANorAJshPYVkVSEGm7wtd5mUPPK2E2/g+eZR /uQN5PVdya/VViIgcQsg7R5BZ+d1Bps8yp888goof9+f6vCY/xaCV0mM/BVA1N0meQvASdl5wGCT R/mTR15R5c8qgeSl8qop8m/Fi/+5sTekyb/BYJOXktsof/LIo/zJKzYPuDRbVQE0k5V/3c4bkq0y dWMGmzyrgiAUyp888ih/8orN08Rgvs/n3RYklD95Y8m/ZWAhlD955FH+5G0NXjDI527KyD+i/Mkb JP/eRW8of/LIy4sXBA3Kn7wsPIsRE/iTHQDKnzzKnzzyNpmnYZBYw4nyJ29i3vooXrcDoBkqCjHY 21z+zahX/gYKj/Inj7zceO0VCA3lT16uPAO0VwSi/MlL49VDx/Stde8p5U8eeXPgZZG/bZ+3zH/k De8AUP7kDeL1XoZsrzUuRSgkQx55lP9Q+ddDxzD/kTfzDgCDvXi8IlW5I4+87c6DmEzyb8/Z6d0L 8x95mTsADDblP1lus9CQciCPvEl44mWVv1D+5M22A8BgL6L8kUn+QdBbUpVyII+8fHiUP3m5dQAY 7MXkVbzIZpF//DlmJnPyyMuHp4qUR3UB5j/yhjDFZXDIG8aj/MkjbwusGBgm5a/wXWuZ/8hLE39n 8K9mzJ1XGWzyppU/hMmcPPJyk38QxKcPZpqzw/y3EPJ3ur+bMXZeSWzHYJM3tvxFBOIxmZNH3nxq BVD+5A2VvxvnmREb+ww2eVnk7/tM5uSRR/mTVwD5l5I8M2TjMoNNXlb5c8VA8sjLX/4GoPzJG8ZL +hy12kp/B2BAT8Ey2ORR/uSRV8SRv8D3KH/yBvL6ruTXaisRkKgGmHaPoLPzOoNNHuVPHnkFlL/v T3V4zH8LwavEON2fUXeb5GOATsrOAwabPMqfPPKKKn9WCSQvlVdNkX8rXvzPjb0hTf4NBpu8lNxG +ZNHHuVPXrF5ADYaoQJoJiv/up03JFtl6sYMNnlWBUEolD955FH+5BWbp4nBfJ/Puy1IKH/yxpJ/ y8BCKH/yyKP8ydsavGCQz92UkX9E+ZM3SP69y42Ol4xecRA4WJG+ZGnDRvt+QvcQxcBkWDSIPPK2 C++mnUr5k5eVZzFiAn+yA0D5kzdT+QPAj98sQ0Y2kjm5kUfe9uVR/uRNzVsfxet2ADRDRSEGe5vL vxn1yt9A4RUkuZFHHnnMV+RNxzNAe0Ugyp+8NF49dExflTFPmXzJI6/gPNs+b5n/yBveAaD8yRvE 6ynq11lrfLpbpEzm5JE3T/nXQ8cw/5E38w4Ag714vCyFRpjMySNvvvJvz9np3Q3zH3mZOwAMNuXP 5EseeUWXv1D+5M22A8BgL6L8QfmTRx7lT942403UAWCwF5NX8SJL+ZNHXtF5SHlUF2D+I28IU1wG h7xhPMqfPPK2AC9Myl/hu9Yy/5GXJv7O4F/NmDuvMtjkMfmSR14xefETNcucHea/hZC/0/3djLHz SmI7Bps8Jl/yyCskj/Inb6j83TjPHbGxz2AvOE97av90XpbJd848WX8McuQvIKc/C7n4ELR5DpeK faXxgKDlQPTSF2wE8N1o2qXuh/AEUtoDu+Mm4LLboFf9ALRyNb/fefJsq0/+omgx/5EX83mpw9io EugO2bjMYJNnDBrJ90sUMPnOiWeCIzBffyfkmQ/2CH+Yw+OzwSU5MrSTjwzH4tXXYOpHgJP3At/8 Ndgrvx/2Ob8GVK7i9zsHnrFB/8hf+s9d5r+F5ZViHADtFYDNkJ5CsqoQg72APKs415eAmqeZfOch /6Mfgrn3pZBn/mroaH+QrGdxWXg6nsI8/RdwPvlSyLGP8PudBw+n+74PBc4y/5GXdiW/VluJgMQc gLR7BBizqhCDvT15RnC8/wpAHQjPMfnmyHOeej+cL/0oJFrLWdb58aS1CucLb4I58if8fnOV/wUY DVO+wP5zl/lv4XiVFF60kd8T73FSNq4z2AvNeyr1rxcfYfLNa+R/+rMwX/mf5yrr/HgK8+WfAE5/ jt9vXu1l/dH0Nxk8yfy30Ly0p/da8eJ/buwNafJvMNiLzVPgQUmTw4mvQA9/G5P5rJO5DeB8+R2A Dvla/EPQpesBcTo8IAiB+O19I4DvtReD0YmPb0KebUHWHwWC9AGntRGa//gT0NvuBZwy28useRe+ lu5/i4eY/xaa174OdInXTFb+dTtvkP68378xg714PAG+mjoyPPtPwOEfZPKdMU8e+z2gfiT9vbtf CPvtvwHdd+tInuf7sDM8vnF4cuozMF//Jcj5r/S3l/BJyFPvh177VraXGfPk7BcHXMXpPXeZ/xaO p4nBvPZfJNrI85Q/eSmDTYv/bm37nlHPbPAzn2PynTlPIY/9fvp7D/4PiF5ZG0v+m/V59bLbEN32 CeiBO5FsLwAgT/w3tpcceOb0Z9Lk36hWcD/zH3kAgkE+Nykj/xblT95GA/lRrBmDL/Ul8/UnYda+ xWQ+S975r0LqKVMu/MthX/wHgPGK/3lNCdEtfwRb2t83h8CsP4pK+CTbyyx55+8H6s/0X40R/IO8 EU3mv4XmWYyYw5dsmRHlT17y1bLy8bQJYZXTH2EynyFPzv1T+qXca++Cuju2zud1dqB+xVvSJxCe v4/tZYY8c/SDqQxRfJz5b+F5I5/e67YmrdVWKH/yUnmPnFn+eGoyP3IPk/kMeTLo3v9lr9pynzfa 8/L+9iIKrD/J9jIrnlqYp/44lRMpPsT8R97IC3ZAe0UgTPFisBeD96uffP79keLRZDKX9cchxz/K ZD4rXmKFxY1Xac/W+7zenn75A4AN2F5mxJOjHwbqT/dzgG/u+BF8nfmPvLE6AJQ/ecN4a2uuNkLn nrTnwM3D/5HJfFY8t5r+98bJLfd5pXkifd0Ap8r2MiOeeST93BPFH9155+3C/EdeLh0ABnvxeF89 tvu9JdeGyUVg5Mw/QE5+gsl8FrxBBXRO3Lv11qY/9an0RYOWrqX8Z8CTY38LOfflvr9bIDgZlN7D /EdeLh0ABnsxeb/92W/7lgN9f9p7nK//b4C2mMwz8nTPS/oTugoaD/8RtHF663zexglUjr4vdcXA tM/I9jIhzzZhvvHOATx577/801sD5j/yZt4BYLAXm+dY/IZNqwV84Rswj7yLyTzrc/TLN0N33Ngj /6BloM1zMPf9ONBaK/7nba1i6f63wkSr/W/Y+Vxo9TrKPyPPPPwfIBcf6ft7K5LWl57e95+Zr8ib eQeAwSbPfzMeMhZ/kNqQHvwN4PxXmcwz8QT2urf3yr+77sKZL8D9+9ejcuajEG0V7/PaJpyjH8LS 5++AOT/gccbr30H5Z+TJuftgHv6t1CtFF5veH/z72nOfYr4ib0ymCIND3iS81Xtw0GnhQRjs6ktq O54F+6pPwTpLTObT8mwD5pO3Ijj36OBCPE4FWrkKElsYaChSgSAUaLxUvAC+pzAyeeJI8lRbMMER +LI+uFDQzueg9erPAuJS/tPywnNwPnUbZP2JPvkHoXPmbx+44pb33Xf9GeYr8kaJvzP4Vxlz51W0 KwUy2ORh7W68Q4D/N1UO++/E2ne8BwphMp+S1zj+Bcjnvg+wzX75TyzrAlQJdCpovbIG7Hoev99p edqC8/nvh5z8ZOr3cb5e+sm3/+VL3898Rd4Y8nc6DDVj7LyC3lsFDPaC86oP4/dUUUuVwzP3Avf/ DJN5Bp7d+TxEL/hdQNytL39TQnTLeyn/TPK3cO5720D5h5H56M989MX3MF+RN4b83TjPjNjYZ7DJ S77kV2Hh4M1QnEyTgznyF5D7fxYCMJlPyzv0z6AvvQf+0r6tK3//EKJbPww9+M/4/U4t/wjmvh+H PP0Xqd+HVTn26UcP/Ku1NVeZr8gb4fNSkmeGbFxmsMkb9Fr6ITwjwButRStNDs7Tf4qlr94FsQ0m 8yl55StfC/vaL8Be9zbAlLeO/J0K7PU/idZrvgDd+3J+v9NO+IvW4fzjv4B5+s9Tv49IJXzmfPUt v/+FG08yX5E3gpf0OWq1lf45ALGegun8626zzmCTl3ytvlfuakTm9wfKYdfzEL3k7qGPf1EOY/Ca ZyBHPww59RnIxYeA8CygNoUHBKHpeVbTAPA9C5liwt9YPDFAaS90x03AZa+Cvfx7AG83v98s8r/4 MJwv/jCw+s2BnbHzde8n3vFXL72H+Yq8ETy/w1C0H+O2tdpKC8keQewegdP5f90WWmewyRvE+4Mf +PzPVr3WLw8aGaq7DH3ub8Je/SOUP3nkjZL/438I8/VfgkTrA+W/1nT/7V1/8bLfYb4ibwSv0m0+ HVYEoNWt/xOf2Y/rr7/WjY36uwcRMNjkDeN96BtX/cMbnv10VHLtq9IuC4ttQo59BHL676G7XwiU 91MO5JGXfF34GpwvvRnm8d+HaDhY/g33l+/6wMv+M/MVeSN41RivewUgjBf/k9gbnJj8uy20yWCT Ny7vAz/6qR91jP4nM2yBKXFgr3oj9MafbV8yphzIW3Te6jdhHvotmGc+kHpbZ+OefyTRWtP712/7 y5e+j/mKvDF4yZF/I1n5Vzpv6Eo/PvpvTlMmmF/eYvMuvh9vMBHuSVsoqLcjYKCXvQbR1W9Gffft UPEoB/IWhxcFkGMfgXnyPZCTK51TCAPlr5GcPXHRf+tP/c0tn2S+Im9M3sY9f7Rv4/c1Mom9KT7y b1H+5E3Lq/8xbtAIfwxgaOWXjUeZnB3A/lfD7r0Nsvc74e9/HsS4lA1524cHBVa/CTnzjzAn7wVO 3AuJ1jDO+RFG5gtfO7Hnrv/z3uc8yfxC3gS87sh/4By+ZAdAAESUP3lZefpuePUqfsEK3mkAb+DI Ju3pAdcHdtwIu+MmYMdN0B03Qnc8C7LjRuiAevKUDXmF4LXWgIuPAmvfgrP+KCrNR2HWHgQuPgJE 9bF5VgXrTadZb7m/+Zuf+fZ3PXxsucX8Qt6EvAgjnt5LdgAs5U/eLHnB+3CzFfw2gNePJf+hz6kL 4B+ELt0AXboOqF4PLF0LW7kGdXMIWtpLeZGXP69xArL+BGT9cWDtcejaY2icewy69igQnAKgmddd WGu6H/3GsV2/+O8/+dxHmV/Iy4u3MQdgGvEz2OSNy6m/F6+NgF+ByKvyWqRGnQpQuQqmehj+rsNA 9SqgchXUvwKoXgUtXw44PmVI3mBeVIcER4H6EUjwDLB+BBIcAdafAupPAutPQmIj+VkvuhRFsvLk haX/66f++pbPMb+QlzdviqVBGGzypuf91hv+6fb9Oxpvd137vQbw57s8rbQXqKlcAS0fglYuB/xD QPkQtLwfWjqAALthvb2At5My3E688DwQnEBw4QhscALSPAkEJ2CaJ+BHx+A0jwH1Z9rbQXNqfwM4 FnUx+PNGw/kvb/zj2x5gfiFvXrypOwAMNnlZeD/wvMd33XnjsTccWG68AaKvNcBSvvKfkGdKkPI+ +Et7gfI+oLS386/733ug3l7A2wV4u6He7vZ/mxJlnSev5EBaFyDhOaDzT5pn2isjNs8CzdNA8wzQ PA3TPA00TwGNU7BRuPm1EXqlf9EY1AD8ZVDCh974e7evMr+QN2/eVB0ABpu8WfL0z1CqB7gFBreq xQtF8FwL3GwE5U2Rfxae48O6uxDorvbTDd5OwF2CODtQWdoJuDsApwp4O6DOEsRdgppK+6fjA04F MO2fakqA40OljKBpt06JZY0g2oJfAsQ2ILbZngBng/Yl9qg9WU7sOrS1DmldBFprQLQOiS7CNlfR CFZhwzUgvABEF2Faq/BxFsYGm/v9TsGzQGCAB1XxNRF8GYLPVTz8k7wRTeYD8jaTJwwOeUXk6Z/B CQJcHRk8WxQ3CXCzAjdGVm4MrDkseslUW75k7rg8caDGg3HK8EsGxvGgUgKM2ykd7ELFATb+uZ2f 0l6vHwZWgSCUDq99jAaKsteeuCZdZaltFwLQCNBW52cE0QiqrfbfbAtqmwgaEdS2oLYBsSEErcX4 PmK8kmutEX1CgEcEeFiBB9XiIcfDA/4DeFJ+FZb5gLyi8YTBIW+r8V505dnyd9905Oo9OxvXLJda 1+ytNq5wRa8FcC2A6wDs286yIW+TeJGcWo+cJ1uRebJl5YlQzZNhaB49sNz45p5q67HuiJ7nL3lb gTdRB4DBJm+r8PTdqDaqOKwGhxHhsAoOA7gSwFUQXAmLK63IZZQhebGWdBKKp2HwNIAjUDwtiiNw 8JRYPPXM0aWn3/axlxieb+RtF/nfccft4xUIZbDJ2268l159es/Lrz558OBy/eBSuXXQd6LL9i81 9jhGD0BxUAX7ARwQxX4r2DesvgHlWjzeestYWDmjKqcscEqBk8vl1tOO6HGrOAbBMVEcB3C0uo7j 8naEPD/IWxBed9VflTF3XkVv5UAGm7yF4emvwJy/Cbt84LLIYp8a7DWKfQrssVb2rgbeQRXsMtBd Cux2RZf9crTDVd1lDZbTVkKkrEfzIBoa4IK1OG+ACxa4YARnVXBOgHMAzipwVoCzVnBaIpxuWPfc hx+4vP5391+1eqpZtmzP5JHXJ3+nwxjeAYjVE3bQu74wg00eeWPy7EdQvriKnV4Lyy3BDkexJBbL FlgSYEmBJQiqNpLquYa3SyFVI1oG4BtRf2ep5RijJVWUVVDudChKAEoWKMHCBeAZAxcKFwoHgNMS cYOmYxQwEBgAjoiiYqw4Tu+5by0UZuMB+AgKC4WFgTUWLQCRhUT1lhNFFhGAEIKWI2hWvCgwok0L hKJoiKABRcMKGgLURVFXRQBBXYC6CupQrEdW1o9drERhy9Qb1lyst5y1KDIXrz20evyqA81z5g1o sP2RR95M5d8tsmKHdgA6G1fQWyWQwSaPPPLII4+8rSf/Unfk3+kAWHfIxmUGmzzyyCOPPPK2PK8U 4wAAarUVdYf0FOI7txhRVYjBJo888sgjj7zC8fzYyB8AtFZbiYBL9wPi8ndTdl5nsMkjjzzyyCNv S/EqiZG/ol0mGH0dAPRO9utuHDDY5JFHHnnkkbeleNUU+bfilX/d2BvS5N9gsMkjjzzyyCNvy/EA IP4obDMu/40OQOfSPxI779uYwSaPPPLII4+8LcHTxGC+z+fdKwDJnYeUP3nkkUceeeRteV4wyOdu ysg/ovzJI4888sgjb0vzLEZM4E+ub075k0ceeeSRR97W5418dL97BUAzVBRisMkjjzzyyCNvi/EE GV4MNnnkkUceeeRtTd7UHQAGmzzyyCOPPPK2Ls/NIP/kIgNZlwsmjzzyyCOPPPLmxJMpd17BbJcL Jo888sgjjzzy5siTKXbuY7bLBZNHHnnkkUceeXPkTdQBGFIiuDHlo4PkkUceeeSRR96ceV2mTLDz UsrOmxk+DHnkkUceeeSRN3+eAaAy5sZpJYJbGXZOHnnkkUceeeTNn+d0GOqMuXFy51HGnZNHHnnk kUceeZvDU2D0Y4Cm21Po/qFWW4kw/Ys88sgjjzzyyNt83uArAGklgqedaUgeeeSRRx555BWKp/8/ c3fg5n4kWiEAAAAASUVORK5CYII= "
     id="image10"
     x="0"
     y="0" />
</svg>
