/* XPM */
static char * left_inactive_xpm[] = {
"6 28 4 1",
" 	c None",
".	c #848284",
"+	c #FFFFFF",
"@	c #CECFCE",
"..+@@@",
"..+@@@",
"..+@@@",
"..+@@@",
"..+@@@",
"..+@@@",
"..+@@@",
"..+@@@",
"..+@@@",
"..+@@@",
"..+@@@",
"..+@@@",
"..+@@@",
"..+@@@",
"..+@@@",
"..+@@@",
"..+@@@",
"..+@@@",
"..+@@@",
"..+@@@",
"..+@@@",
"..+@@@",
"..+@@@",
"..+@@@",
"..+@@@",
"..+@@@",
"..+@@@",
"..+@@@"};
