/* XPM */
static char * maximize_toggled_inactive_xpm[] = {
"18 18 4 1",
" 	c None",
".	c #FFFFFF",
"+	c #848284",
"@	c #CECFCE",
"..+@@@@@@@@@@@@..+",
".@+@@@@@@@@@@@@.@+",
".@+@@@@@@@@@@@@.@+",
".@+@@@@@@@@@@@@.@+",
".@+@.........+@.@+",
".@+@.@@@@@@@@+@.@+",
".@+@.@+++++.@+@.@+",
".@+@.@+@@@@.@+@.@+",
".@+@.@+@@@@.@+@.@+",
".@+@.@+@@@@.@+@.@+",
".@+@.@+@@@@.@+@.@+",
".@+@.@+@@@@.@+@.@+",
".@+@.@+.....@+@.@+",
".@+@.@@@@@@@@+@.@+",
".@+@.+++++++++@.@+",
".@+@@@@@@@@@@@@.@+",
".@+@@@@@@@@@@@@.@+",
".++@@@@@@@@@@@@.++"};
