/* XPM */
static char * bottom_right_active_xpm[] = {
"22 22 6 1",
" 	c None",
".	c #6F6F6F",
"+	c #FFFFFF",
"@	c #DADADA",
"#	c #B4B4B4",
"$	c #5D5D5D",
"                .+@#$ ",
"                .+@#$ ",
"                .+@#$ ",
"                .+@#@$",
"                .+@#@$",
"                .+@#@$",
"                .+@#@$",
"                .+@#@$",
"                .+@#@$",
"                .+@#@$",
"                .+@#@$",
"                .+@#@$",
"                .+@#@$",
"                .+@#@$",
"                .+@#@$",
"                .+@#@$",
".................+@#@$",
"++++++++++++++++++@#@$",
"@@@@@@@@@@@@@@@@@@@#@$",
"####################@$",
"$$$@@@@@@@@@@@@@@@@@@$",
"   $$$$$$$$$$$$$$$$$$ "};
