/* XPM */
static char * close_pressed_xpm[] = {
"14 25 39 1",
" 	c None",
".	c #8F8D80",
"+	c #8F8D82",
"@	c #D6C357",
"#	c #8F8E85",
"$	c #D6C45D",
"%	c #FFE551",
"&	c #8F8D81",
"*	c #D6C564",
"=	c #FFE75B",
"-	c #8F8C7C",
";	c #D6C669",
">	c #FFE863",
",	c #8F8B77",
"'	c #D6C76F",
")	c #FFEA6B",
"!	c #8F8A72",
"~	c #D6CA76",
"{	c #FFEE75",
"]	c #8F8A71",
"^	c #D6D18F",
"/	c #FFF899",
"(	c #8F8970",
"_	c #DED69A",
":	c #FFF49E",
"<	c #8F896E",
"[	c #E6DEAA",
"}	c #FFF4A9",
"|	c #8F896D",
"1	c #EEE7C0",
"2	c #FFF5BE",
"3	c #8F8766",
"4	c #E6DA9B",
"5	c #FFEF93",
"6	c #8F8967",
"7	c #DECD71",
"8	c #FFE763",
"9	c #8F8866",
"0	c #8F8869",
"              ",
"              ",
"              ",
"              ",
"              ",
" ............ ",
"+@@@@@@@@@@@@+",
"#$%%%%%%%%%%%#",
"&*===========&",
"-;>>>>>>>>>>>-",
",'))))))))))),",
"!~{{{{{{{{{{{!",
"]^///////////]",
"(_:::::::::::(",
"<[}}}}}}}}}}}<",
"|122222222222|",
"34555555555553",
"67888888888889",
" 000000000000 ",
"              ",
"              ",
"              ",
"              ",
"              ",
"              "};
