/* XPM */
static char * bottom_right_inactive_xpm[] = {
"19 19 17 1",
" 	c None",
".	c #EEEEE6",
"+	c #000000",
"@	c #999999",
"#	c #888888",
"$	c #6C6C6C",
"%	c #878787",
"&	c #868686",
"*	c #858585",
"=	c #838383",
"-	c #828282",
";	c #818181",
">	c #808080",
",	c #7F7F7F",
"'	c #7E7E7E",
")	c #7D7D7D",
"!	c #7C7C7C",
"             .+++++",
"             .+@@@+",
"             .+@#$+",
"             .+@#$+",
"             .+@#$+",
"             .+@#$+",
"             .+@%$+",
"             .+@&$+",
"             .+@*$+",
"             .+@=$+",
"             .+@-$+",
"             .+@;$+",
"             .+@>$+",
".............+@,,$+",
"+++++++++++++@''$+ ",
"+@@@@@@@@@@@@)))$+ ",
"+@!!!!!!!!!!!!$$+  ",
"+$$$$$$$$$$$$$++   ",
"++++++++++++++     "};
