/* XPM */
static char * top_right_inactive_xpm[] = {
"60 21 19 1",
" 	c None",
".	c #000000",
"+	c #989898",
"@	c #888888",
"#	c #7E7E7E",
"$	c #858585",
"%	c #868686",
"&	c #7B7B7B",
"*	c #828282",
"=	c #797979",
"-	c #808080",
";	c #818181",
">	c #767676",
",	c #747474",
"'	c #727272",
")	c #6E6E6E",
"!	c #6C6C6C",
"~	c #696969",
"{	c #686868",
"                                                            ",
"                                                            ",
"                                                            ",
"                                                            ",
"                                                            ",
"                                                            ",
"                                                            ",
"                                                            ",
"                                                            ",
" ......................................................     ",
".++++++++++++++++++++++++++++++++++++++++++++++++++++++..   ",
"+@@@@@@@@@@@@@@@@@@@@@@@@@@@@@@@@@@@@@@@@@@@@@@@@@@@@@@##.  ",
"@$$$%%%%%%%%%%%%$$$$$%%%%%%%%%%%%$$$$$$$%%%%%%%%%%%%%%$$&.  ",
"$********************************************************=. ",
"*---;;;;;;;;;;;;;;---;;;;;;;;;;;;;;;;;;;;;;;;;;;;;;;;;;;;>. ",
"-########################################################,. ",
"#&&&&&&&&&&&&&&&&&&&&&&&&&&&&&&&&&&&&&&&&&&&&&&&&&&&&&&&&'. ",
"&========================================================). ",
"=>>>>>>>>>>>>>>>>>>>>>>>>>>>>>>>>>>>>>>>>>>>>>>>>>>>>>>>>!. ",
"!~~~{{{{{{{{{{{{{{~~~{{{{{{{{{{{{{{{{{{{{{{{{{{{{{{{{{{{{{. ",
"........................................................... "};
