/* XPM */
static char * top_right_active_traditional_35p_xpm[] = {
"4 35 6 1",
" 	c None",
".	c #000000",
"+	c #8d979b",
"@	c #4d575b",
"#	c #384246",
"$	c #0d171b",
"....",
"++@.",
"##$.",
"##$.",
"##$.",
"##$.",
"##$.",
"##$.",
"##$.",
"##$.",
"##$.",
"##$.",
"##$.",
"##$.",
"##$.",
"##$.",
"##$.",
"##$.",
"##$.",
"##$.",
"##$.",
"##$.",
"##$.",
"##$.",
"##$.",
"##$.",
"##$.",
"##$.",
"##$.",
"##$.",
"##$.",
"##$.",
"##$.",
"$$$.",
"...."};
