/* XPM */
static char * maximize_active_xpm[] = {
"14 27 6 1",
" 	c None",
".	c #D69D00",
"+	c #F1FF15",
"@	c #F5F300",
"#	c #FCCB00",
"$	c #EDB500",
"              ",
"              ",
"              ",
"              ",
"              ",
"........      ",
".++++++++     ",
".++@@##.+     ",
".+@@#@#.+.....",
".+@#@##.++++++",
".+#@##$.+@@@.+",
".+##$$$.+@@$.+",
".+......+@#$.+",
" ++++++++#@$.+",
"   .+@@@#@#$.+",
"   .+@@#@##$.+",
"   .+@$$$$$$.+",
"   .+........+",
"   .++++++++++",
"              ",
"              ",
"              ",
"              ",
"              ",
"              ",
"              ",
"              "};
