/* XPM */
static char * menu_pressed_xpm[] = {
"17 5 4 1",
".	c #6D84AF s active_shadow_2",
"+      c #EEEEEE s active_hilight_2",
"#	c #BFDAFE s active_color_1",
"&	c #657EAD s active_color_2",
".................",
".................",
".................",
".................",
"................."};

