/* XPM */
static char * bottom_right_active_xpm[] = {
"54 40 8 1",
" 	c None",
".	c #000000 s active_border_color",
"+	c #E7E7E7 s active_hilight_1",
"@	c #D0D0D0 s active_color_1",
"#	c #686868 s active_shadow_1",
"$	c #C1B6AC s active_hilight_2",
"%	c #826D58 s active_color_2",
"&	c #41362C s active_shadow_2",
"                                    ...........       ",
"                                    .++++++++++.      ",
"                                    .+++++++++@@.     ",
"                                    .++@@@@@@@@@@.    ",
"                                    .++@@@@@@@@@@@.   ",
"                                    .++@@@@@@@@@@@@.  ",
"                                    .++@@@@@@@@@@@@@. ",
"                                    .++@@@@@@@@@@@@@@.",
"                                    .++@@@@@@@@@@@@@#.",
"                                    .++@@@@@@@@@@@@##.",
"                                    .++@@@@@@@@@@@@##.",
"                                    .++@@@@@@@@@@@@##.",
"                                    .++@@@@@@@@@@@@##.",
"                                    .++@@@@@@@@@@@@##.",
"                                    .++@@@@@@@@@@@@##.",
"                                    .++@@@@@@@@@@@@##.",
"                                    .++@@@@@@@@@@@@##.",
"                                    .++@@@@@@@@@@@@##.",
"                                    .++@@@@@@@@@@@@##.",
"                                    .++@@@@@@@@@@@@##.",
"                                    .++@@@@@@@@@@@@##.",
"                                    .++@@@@@@@@@@@@##.",
"                                    .++@@@@@@@@@@@@##.",
"                                    .++@@@@@@@@@@@@##.",
"                                    .++@@@@@@@@@@@@##.",
".....................................++@@@@@@@@@@@@##.",
".++++++++++++++++++++++++++++.$$$$$$.++@@@@@@@@@@@@##.",
".+++++++++++++++++++++++++++#.%%%%%%.++@@@@@@@@@@@@##.",
".++@@@@@@@@@@@@@@@@@@@@@@@@##.%%%%%%.++@@@@@@@@@@@@##.",
".++@@@@@@@@@@@@@@@@@@@@@@@@##.%%%%%%.++@@@@@@@@@@@@##.",
".++@@@@@@@@@@@@@@@@@@@@@@@@##.%%%%%%.++@@@@@@@@@@@@##.",
".++@@@@@@@@@@@@@@@@@@@@@@@@##.&&&&&&.++@@@@@@@@@@@@##.",
".++@@@@@@@@@@@@@@@@@@@@@@@@##........++@@@@@@@@@@@@##.",
".++@@@@@@@@@@@@@@@@@@@@@@@@##.      .++@@@@@@@@@@@@##.",
".+@@@@@@@@@@@@@@@@@@@@@@@@@##.      .++@@@@@@@@@@@@##.",
" .@@@@@@@@@@@@@@@@@@@@@@@@@##.      .++@@@@@@@@@@@@##.",
"  .@@@@@@@@@@@@@@@@@@@@@@@@##.      .++@@@@@@@@@@@@##.",
"   .@@@######################.      .++##############.",
"    .@#######################.      .+###############.",
"     .........................      .................."};
