/* XPM */
static char * hide_inactive_xpm[] = {
"18 18 6 1",
" 	c None",
".	c #000000 s inactive_border_color",
"+	c #C0C0C0 s inactive_hilight_1",
"@	c #7F7F7F s inactive_color_1",
"#	c #3F3F3F s inactive_shadow_1",
"$	c #010101 s inactive_text_color",
".............     ",
".++++++++++++.    ",
".+++++++++++@@.   ",
".++@@@@@@@@@@@@.  ",
".++@@@@@@@@@@@@@. ",
".++@@@@@@@@@@@@@@.",
".++@@@@@@@@@@@@@#.",
".++@@@@@@@@@@@@##.",
".++@@@@@@@@@@@@##.",
".++@@@@@@@@@@@@##.",
".++@@@@@@@@@@@@##.",
".++@@@@@@@@@@@@##.",
".+@@$$$$$$$$$$@##.",
" .@@$$$$$$$$$$@##.",
"  .@@@@@@@@@@@@##.",
"   .@@@##########.",
"    .@###########.",
"     ............."};
