/* XPM */
static char * bottom_right_active_xpm[] = {
"21 21 3 1",
" 	c None",
".	c #003333",
"+	c #F4F4F4",
"                  ...",
"                  .+.",
"                  ...",
"                  .  ",
"                  .  ",
"                  .  ",
"                  .  ",
"                  .  ",
"                  ...",
"                  .+.",
"                  .+.",
"                  .+.",
"                  .+.",
"                  .+.",
"                  .+.",
"                  .+.",
"                  .+.",
"                  .+.",
"...................+.",
"         .++++++++++.",
"         ............"};
