/* XPM */
static char * close_inactive_xpm[] = {
"14 18 14 1",
" 	c None",
".	c #000000",
"+	c #212121",
"@	c #F4F4F4",
"#	c #EDEDED",
"$	c #E8E8E8",
"%	c #E2E2E2",
"&	c #DBDBDB",
"*	c #D5D5D5",
"=	c #D0D0D0",
"-	c #C9C9C9",
";	c #C3C3C3",
">	c #BDBDBD",
",	c #003333",
"              ",
"              ",
"              ",
" .++++++++++. ",
" +@@@@@@@@@@+ ",
" +##########+ ",
" +$$$$$$$$$$+ ",
" +%%%.%%.%%%+ ",
" +&&&&..&&&&+ ",
" +****..****+ ",
" +===.==.===+ ",
" +----------+ ",
" +;;;;;;;;;;+ ",
" +>>>>>>>>>>+ ",
" .++++++++++. ",
"     +$-+     ",
"     +$-+     ",
",,,,,,,,,,,,,,"};
