/* XPM */
static char * left_active_xpm[] = {
"6 32 5 1",
" 	c None",
".	c #000000",
"+	c #313131",
"@	c #4A4A4A",
"#	c #888888",
" .+@#.",
" .+@#.",
" .+@#.",
" .+@#.",
" .+@#.",
" .+@#.",
" .+@#.",
" .+@#.",
" .+@#.",
" .+@#.",
" .+@#.",
" .+@#.",
" .+@#.",
" .+@#.",
" .+@#.",
" .+@#.",
" .+@#.",
" .+@#.",
" .+@#.",
" .+@#.",
" .+@#.",
" .+@#.",
" .+@#.",
" .+@#.",
" .+@#.",
" .+@#.",
" .+@#.",
" .+@#.",
" .+@#.",
" .+@#.",
" .+@#.",
" .+@#."};
