/* XPM */
static char * right_active_xpm[] = {
"6 32 6 1",
" 	c None",
".	c #000000",
"+	c #888888",
"@	c #5E5E5E",
"#	c #313131",
"$	c #5D5D5D",
".+@#. ",
".+@#. ",
".+@#. ",
".+@#. ",
".+@#. ",
".+@#. ",
".+@#. ",
".+@#. ",
".+@#. ",
".+@#. ",
".+@#. ",
".+@#. ",
".+@#. ",
".+@#. ",
".+@#. ",
".+@#. ",
".+@#. ",
".+@#. ",
".+@#. ",
".+@#. ",
".+@#. ",
".+@#. ",
".+@#. ",
".+@#. ",
".+@#. ",
".+@#. ",
".+@#. ",
".+$#. ",
".+$#. ",
".+$#. ",
".+$#. ",
".+$#. "};
