/* XPM */
static char * top_left_active_xpm[] = {
"6 25 36 1",
" 	c None",
".	c #000000",
"+	c #FFFF50",
"@	c #FFF032",
"#	c #FFEF30",
"$	c #FFEC2D",
"%	c #FFE92A",
"&	c #FDFE4F",
"*	c #FFE626",
"=	c #FCFC4F",
"-	c #FFE322",
";	c #FAFA4F",
">	c #FFE11D",
",	c #F8F84E",
"'	c #FFDD19",
")	c #F6F54D",
"!	c #FFDA16",
"~	c #F4F34D",
"{	c #FCD416",
"]	c #F1F14C",
"^	c #F7D015",
"/	c #EEEE4B",
"(	c #F0CB16",
"_	c #ECEC4A",
":	c #EAC517",
"<	c #E9EA49",
"[	c #E3BF18",
"}	c #E7E748",
"|	c #DDB91A",
"1	c #E5E548",
"2	c #D6B31C",
"3	c #D1B01D",
"4	c #B07C00",
"5	c #888888",
"6	c #4A4A4A",
"7	c #313131",
"    ..",
"   .++",
"  .+@@",
"  .+##",
" .+#$$",
" .+$%%",
" .&%**",
" .=*--",
" .;->>",
" .,>''",
" .)'!!",
" .~!{{",
" .]{^^",
" ./^((",
" ._(::",
" .<:[[",
" .}[||",
" .1|22",
" .1233",
" .1344",
" .14..",
" .1.5.",
" ..65.",
" ..65.",
" .765."};
