/* XPM */
static char * bottom_right_active_xpm[] = {
"21 21 4 1",
" 	c None",
".	c #000000",
"+	c #8B9EB2",
"@	c #708090",
"                .    ",
"                .    ",
"                .    ",
"                .    ",
"                .    ",
"                .    ",
"                .    ",
"                .    ",
"                .    ",
"                .    ",
"                .    ",
"                .... ",
"                .++. ",
"                .++. ",
"                .....",
"                .@@@.",
".................@@@.",
"           .++.@@@@@.",
"           .++.@@@@@.",
"           ....@@@@@.",
"              ......."};
