/* XPM */
static char * hide_pressed_xpm[] = {
"14 17 4 1",
" 	c None",
".	c #000000",
"+	c #708090",
"@	c #FFFFFF",
"..............",
".++++++++++++.",
".++++++++++++.",
".++++++++++++.",
".++++++++++++.",
".++++++++++++.",
".+++++@@@@+++.",
".+++++@@@@+++.",
".+++++@@@@+++.",
".+++++@@@@+++.",
".++++++++++++.",
".++++++++++++.",
".++++++++++++.",
"..............",
"              ",
"              ",
".............."};
