<?xml version="1.0" encoding="UTF-8" standalone="no"?>
<!-- Created with Inkscape (http://www.inkscape.org/) -->

<svg
   xmlns:dc="http://purl.org/dc/elements/1.1/"
   xmlns:cc="http://creativecommons.org/ns#"
   xmlns:rdf="http://www.w3.org/1999/02/22-rdf-syntax-ns#"
   xmlns:svg="http://www.w3.org/2000/svg"
   xmlns="http://www.w3.org/2000/svg"
   xmlns:xlink="http://www.w3.org/1999/xlink"
   xmlns:sodipodi="http://sodipodi.sourceforge.net/DTD/sodipodi-0.dtd"
   xmlns:inkscape="http://www.inkscape.org/namespaces/inkscape"
   version="1.1"
   id="svg2"
   width="64"
   height="64"
   viewBox="0 0 64.000002 64.000002"
   sodipodi:docname="folder-cloud.svg"
   inkscape:version="0.92.1 r15371">
  <metadata
     id="metadata8">
    <rdf:RDF>
      <cc:Work
         rdf:about="">
        <dc:format>image/svg+xml</dc:format>
        <dc:type
           rdf:resource="http://purl.org/dc/dcmitype/StillImage" />
        <dc:title></dc:title>
      </cc:Work>
    </rdf:RDF>
  </metadata>
  <defs
     id="defs6" />
  <sodipodi:namedview
     pagecolor="#ffffff"
     bordercolor="#666666"
     borderopacity="1"
     objecttolerance="10"
     gridtolerance="10"
     guidetolerance="10"
     inkscape:pageopacity="0"
     inkscape:pageshadow="2"
     inkscape:window-width="640"
     inkscape:window-height="480"
     id="namedview4"
     showgrid="false"
     inkscape:current-layer="svg2" />
  <image
     width="64"
     height="64"
     preserveAspectRatio="none"
     xlink:href="data:image/png;base64,iVBORw0KGgoAAAANSUhEUgAAAIAAAACACAYAAADDPmHLAAAAAXNSR0IArs4c6QAAAAZiS0dEAP8A /wD/oL2nkwAAAAlwSFlzAAAN1wAADdcBQiibeAAAAAd0SU1FB+EDHgwbAqiIaykAACAASURBVHja 7X1dj6xJctYTke9bVX26+3zP7Mx42V0wBtkYsch8SFjIl8ANXHKHhISQ+AlccMc1d/4D/AOExAUy QoBkQFphBEYI24jF1toez65n5pyZ091VlRFcZERmZFZVd/XHOXts9oxq+qM+uurNyIgnnngikvCw /+iI+/WIx/3/+E/D9bnPYx50we77WvSW/+YfRyN4iN+/cwOor/P8Z//WI55WJ8gb/dFv/fsvdf3q J7v/Hl7g5c//nedQpe3l6y+/+N//9uohF/8hDCA+n1bPvkWXn/82ffTdv/tzr37w33/ryXd+4V8Q +BdURfUdX0m6w3aht7XN7vze6bPf+94///Pnn3x3Xr386T+bNxe//Yf/8199Pryte4UFeoD3SX47 /fBn56ff+Sv/mNL8T4ioviuFguQne//W7kDVbhmSt/96e/XqH/7w1//lD+pl7Y3gTv+m++76eFuc vzhJ0/yM0wwwgZSgUEAVSPf4M/T+x5DexekDvaZARSBCgOpEwLzn48dLom/bAA4tPgNg5rTkaT5L 0xLIawAZIAYRgchXkQAiEAhEsO/Ly5HdB8Tf2XP8t2SG4M+rj+9Nwx+rR7m6way0eK2dx6htu261 i4EryL4qAAGUoCptVew5qlJfpzweAAQq5is1vqZCGWAibIUusL0ilK2k5eLuWNytQ8F0TyOtiw8g pWnxaErzizTNyJpVFcR10driAuVDYVxEX2xFNZL63Gpy5X67Nyxd+79S+z3VS1KMRKsFxSs2XDcC SMmDV/srpM24zBCIAFWqf5cAQBlKAFMqxqJq71sBYnu14L2Vwhs1Q2OApP5uS4knntKZrZkvfr6v 25nusfs5fE0AZmZ+zCl9xClBt0SqNCwkl+sQvQGaIRQPEHZ83Pn2c3nJBj/8KfXlbNs3W7OF0+hZ 7F1r/VPo3AXUFrMZY9ma/r61/R4K4rKb3cTKn9TBr1STBJFAlftQTmqGJGaVDCUBFf+gE/NLmRYf APg/9kJbe7IMi38rL3BXDEDD4k8AJk7plBO/KAvJILIr7Itvq8Tmwjm6/LCQiCHDjaZbcGqOAkOI AGxB4qVggPdcmfg3VQFuu53cQ9hiqy+2ewb2RW4GpvX+4DtIQeYFtBpGApFCpXksf10QmSEUbwFV sKqC8JI5PUPBAQgL/04wAB1w/SkYwKyqpwR+Uj11XUiqu5OIQMx9jAeF3Y4OCyA4BTIfqxE3VJuh tlk7/NDvCwpGo7arCVqfXz1BfWCJywTbodXLKJQJrBbD3Q5AUAiYuIQIJSip3enGpfW9CgisWh5T XZOHBjHDIyLmJ0R4YgaggwHoXb3AdI/djxD/JwAzFI9AfOYxuu5ku/EQrcvFtN1pi9sBxgEDEJvn cByB4OYdV/gu5B4b6JhUkBuLhSjV3koq7iMwWdQmhNhPNY4r2JyAmqGyh/vyuurGSYBo26oEsEOA EGocGhKxGWNmKJ1B9dQMINvGE7vRXb3AfUJAXHzzAHlFRMsaB4kHkFd2v6p2vyuLa/dbeAAVN1x3 nBkDD+7eV7OCKkqda9fg6h02KjWv0Vw9QfyVHbGH5zk67+K6P8DBYP2vGI1qdV0W5gnKClEpC9/h EweLAJsXKcYpIGICNInkFYCFGYDfOBjBW08D96H/CgIBWlWE68BOGcRm/Y7emewi+Tbg6viap7Bd bF6Cadi+FRj677l6kQi7OOAvYupzpujqVcF1Pdu1JA8BFMIAK1QKDkAND+5L7PHmvsv3xeiUymPY jU7UNkO5nyuOKO9BNAOUkADKW4GILmzNPPTysPtx2zAw3SH+j/cFEDg/byDb3L4j9wrE+vRvHxBU /37wEjU9q89voaQsTP+x3ehqOBg8fGcsDk4ruG9exX9WCowm22L7Y0lDXg8QpfJaYvjAQpP5hxIZ uPAFpFKxgjuEssMSoIpctwc9CR53NIA78WPHGIAeIIA4vIHEabHgafVBT8RwSNsiqePuvl9oDwXu rH33U8UBxYU299/SR+reIXXgjzzHrj49fCSNub22/0fXHMKIcjQ6rbvbX54NKxSPAAt5RgDRCNi5 ZZiqFXNQdf9GCTBTZoam9JTnk5VsLq6G63+nFPAuPADtAYMJAPO8WvC8/KBGZ+YKAIl6UFiRfkF/ gSsIC9oRSO5TtAAj7HIBGLOBivRDqkhxi8NXrLdzDVex7nxz477TMRhbyCYU5bGgYUsSm3tvGYCB DgCe81MIXA0KEimYCAR+PC/PTq42F68HA+BACr11HmCfF2CeFotpXn3DFlvJWZ1xpxOFBaa2sMw7 u3p8/j5OoBpc8OsUUDUF0qaxdXZxx9BSswUFWYD3xW98hlHB1SgKV+Ag0bOBSv1WHiBykWYEjAYU pXimnpnUiu+IeJum+em0PD29+uqzNCx+XJO3mgUc8gKcpuWC0+LDsljOow38PrWd34eDsKstFqM+ r+3gyAxSRxHTsNs6dGiFKe1TyggHteWUjdxpuWOJ9RoIwEAYkT1eNLCEFEhmavWBjnouIJGsBgDm kveDOg8i5g2IkKd5+cG0Oj0dFh5vGwPcVArmgnmmmaf5eeT9yXPZyt5RKw7VRUVHB1ej4EAQaaCJ QSEs9GBw2NTQjvql4Ol7V9ulBAEotqSiBuoWwQNEIH991f71Kugr18GJp/K7BKjU5xUjY9vwuRkf UXkcEVKan6dpeTLs/nsVR6d7Ln4lhJjTxJwexx3Xu/yWhnXArzMOMu5Am1HEimFXI6Cw2APfT7qD DeLjKvlTAV/0BpFB1C6jUK1lvPq+vTJYU72aEbS9Dvs9CFCRkhmp1BhQH6kKsEKV6+uRGSoTk6b0 hNO0fMiK+ENUAy1kp4konbdf9Duf/WfiUN+n4PbDgiM+t4E5Zm4pH/VpobtRCoCOQopHoY4T6/dM Vj10ttY5/mrAZjD+POMAYsEH8flONpnj7126QJ0IA1fix/0CEVkkYcBSxIp4KDEonRLxNHAw9C5D AB2kg4kIzMtI55Ln+fC8edzxzhaGnwfm0Hcfh9SOw2s1GJAKiNK+7NzVF4JvJ9YOLnFbj/a/mgFG etiIICe7atVPQ0gosVwr0VNSO1EOC63B0LSqf7xQpgYbyCtG5YKySWvowFrQbcmgh8gCPGhPBnCD AUTw1owCkd0jHip8bjT+fAdB3Lt8d/uBI4g4AWOJOF4f7or3O26/Ur8V3Ue/os3jKBqqJ6eQC9FT /o5hAlEoOCR3jk5y8W4SbY5s0bk8Xyx9ZGYrKqYbFv1W0qTpnu6/GsO8Oj9vNQAKN95l9aJn8JTQ QB93nMEA+hwfeGoIanV76qr9xgdobywamcayaFCt5eOK+VXBXL76fU7stCtrr18FIVoxf7zulTyS JiiplWdwwXykIXWUHpzatykloxPmsxt2/lvhAWjPH0HY/TydPHnZUj/ujACx4BOrhMP3TIMSaCd9 3A0NXWmoKy1bDFcKbr/QrcX7246khto9hlNQ/kSjrnIwDZ6guvCgC1AZtqWX/YItKqDEpRQckxFw xQ9hJZU5ERGB59VT4pRU8oMYwV1qAft4AJqXZx/4hWLqS8GNCOIB8aMLDZ0CiNpz2gLuz/2JenkP hephMz70opFK73r6xrVYU4kiDcRPUwsYKJWA8D1nL8YjkrBfuDvcNKaazbMQaQkDHcGZQMRI0/IZ T8s5r9/QLULB2xWFMk9pXp19wkQgLrwlxZgfFxnof8+7u7wzBgregHbFoj0nMJaIBzGIp3LcCB7U EnFz36pkYFKDsSlk0PZVKzFJV63ycaACPB20dL4rrlQQqW4+EHIBCgXqWcxD0nparD5I88loAHRX NvA+eoAQAojTYvUxEYOYiQOzVzUBTAHIhZyf2i6uYJBphxyq7ABRnyJ2BBANdQJ0mYXGwpEGooh6 7R/VjKCVZ2uF0zyNVAqYAhUsUHUtABm1q5BA5pSfCzCsMjGvFYg22lm5ZBvmnYwuz/Pi0SdpWszX hOR3JgoNHABTmpYfEAHJ3HwBddyne4Or56E6yES1nwAxd3eMwFZWpl763UnDmHZ4wFE97EodHUrE ne6z8gbUBJsu+vB0LRaAKttXKn9RR0qe2yczJlEIm+ClQQMIG+upCmHtjRQEZtZpsfgwGADvit5+ DCHAmMBnvsjgWO41DWBw/woKuXwPFjm4/AYGo+cYdn+lA7iLp15f6FnALp0PhVlbmNQkXzWHUrTy jAIMLbvfdfvu5gNhVJXgkNITwwoVB3cCTslqBw39q2iBf1Y15MIcdFkFc2JK8zNK03SABKK3bQDY S0IQMXE6N064pmjd4ofdztSKQTwUh3ot4Uga9XGedsrIA8zr0Dx1hA51tX4aOisUQGwOoVb1A5As VlMgcTx9LEUj9vVtGj/W5gk8Q4G0ngFubGIrXzBUpPoYYmYiPmumen9K+KF4AFbwie9wZq6LGDOC vgg0ZApxsavxUCcF78DijpqYMGDAQCk72qcq1R7dAe0R1TrP0CjCxhD6SzQMYM7aYr3vY1f3Nl5C LVuQGutxqHXWa8b+fmjiUjEiGjwA39UL3BcEcjHUxEQ0qVntvsXfSQuZhpSwDxulpsQ9wKMhgwjG 1LeGUQVcY6VQq1yt5QE71C+13h0KbF/b5S2jKEsjgTPg0AnkmQA3USlJAXpW/vUE0r/qgXirADgl lhJ20jXl+XdWC6hChMWjZ6cV9TP3BFAUgEQpGHqmsIWDwWDqrncmEDutZkQNAzB1wvP+SqppFCNT NwreNLSDKULVzwUfWgmhmhEqd6yg1ucOeb9JxsVDR2X8GGOTm5ivAAFkarJpmovtzKvTQQjyVkPA da6FAdDq/BsvtCHVXRaw0wFyQfPBU/TsYJCIuwcITR4dvxAbQ2tFEX3X4KAEU1DwAL1390bNruJY d+7QOlA9gFaBR59SNITv3kcCT1CV8RIvNJsPUJODE0SqNEA5TUREmFbnL3ZqMfvTwnvXAqJy4iAQ XJy9+ISIwcwGAhFq++UTs+kEGAMj2O3wsjg7mkAEFjD0G/Q1gj5L6OResdWrrxKF1q+C8FVTYwKh tUBTijpBsOWW425AvYlDKqbQ8LfcWAAFV8m4gqhg/V4xVMKUaCdlpFTK6jovzz60nJNu2KQPXg3c V4ak5cmTbzIRUkqmBQxq3sjbh8JQ28WNAGKmvmG0k4gFLmHI/2PrOUUVT6cT1J4ZaqtT6gNhL8di UhVseIsXXL7d7lc0TQGU+8WPK+GPCZ1IGlrba2+AZIglgmNZjwiXi0fnHxNPrHmD+6qC7qsKRqkE PvopKru/QK9QDq7unQfOn/piDnNqnT+2q9k6d9R+H/kAoqbHq8SSCUtJB12glvyaRpVQl/vZoglV Yag53rIjVWuJWETqgooCLMUoSut/AXp17Soj1KI7OEEl1wY3ghS2UEqwV06gnEOXqzRlUErbxfL0 W0TMuhsC6G1lATTE/U4PmOblR4UNSrt8PxESc2XygFjkse+7sEFduZe4KYFaaTikjTVljHKu3v3H rhAapYEx+6eYDHhoCKIOi+kpsa2VFtqXXTns+oRkJJHUrKFWem1REzNEQq3BFEjiCiJOUM0hIS3X MKWEebH6hIjSgbj/1qqBh7hn5jS/YC4L3fP4NHT3BE+APkOg4CVi+Ojp4749HEFlzACUW6evE0G0 hyirgt9Ycw2YQJtOJHT8aufHE2sxgs79U63iCQW5t7l54aYsdjZUpMwKINLS9CKlFiGqYOHemwDg NDOl6QUR8wEO4K3zANhVA6XHBetxv0gcQgHv5vrEXFO4tvgmCqnUMA9EEXZ7DbxxFEPFkHnP9qBK tdYegKDLa8V56pQ+XtWLi80sVczp/Tz+YsyAqKl6VDu5iCuASRRMDCGpNQCXgzHIMCcXYGlGmThN IF42f/VuZeG0/0arJtoc+f0+3YuLz4EFZOzTEPR4gYkOLr6LP4i1Ub+xmNR1f7vBoE7qKGxe6VRi y/s1cgFRv1f1mtwmg5CCxVU+WrMU7/Nt1X5vJ9e6jUjKIitZoy8VF9KpGi0ccZpYBRO1qhe9KxB4 0CCUaAUAiaducerujwbATTHk5E8tAQ8uv6eRvRLY0kaPi25nxWez9W7GEDA0DLSu7lBGbhKx6iHM 9/Z4jqqLhjWLqu3gOnamLrNWQliIC8gbqJ/C9qqVf30iWLfu1lZevqZpkaRMDzvUGfROmUDitJiL JBfgxABT3/HTuWzqqOKOKAoL7lxC9CLcoX/sys2qETVtYa+PaPJx78TliNDN9VZhiKJ28SbYyDZP 3zR4CQefvteJwGIOWrweoWA1XUDD/d7uGkSnoRM6qJSVyaKAYpoWJKKYT56c5M0FX6PWfiuawB1J +OmLb71wBJ9SCmldI2U8ppMViXin/BuYPx68xUDuRLBInT4QnTK4Lw4xBplwnTKCSPOSF/Bac4mH AlIjZszd1zKxlP1cRB7sNWPLXYu0y8E+M9dxcJ7lc2X/pHowlw5VLTK1kXfTNIMALM5evrx89fu/ e2DRj54YMt1CC7jXIE6efPwxE4NNs+YXcieWcxj8MKJ7z/G5l4qzj1Tz5yuAxF1VkLrOYepbzamv BTSZV39t3HhqRc8EIM73l3tL34GKAT4SkHEGDhS9X6Ckd9J0gp04VEBSev7Z9AI+/0hCCqsiRhV3 +EV5SgTm7fL02ccAfv2Gnf9WZOE9C3j+4ttEhGlOYVATh8odt90dDSIYAkcRSagEUqgLsHsH5xOo p4yZTIjpz6M+7evmw9WooLUPvJZmvIbvTZ/150IGIRVkwCbzVhJv7a+pZWJCtm3fqBw0ZMAAiwUB e11xN2+aRQYVQyKuCiOwEkjBhDfL02ffweFm3aPp4NvyADu3xersEyJCSlMv4sSoBkafAtKwsOSy cFv80Rg6UMl9/8HQPt5NIQkUcajkBL0WhQpgoxEd9Xe6Ecd6ai1iRMXtx6ECWsp3zKmKOcgAoTQ4 adckA0yFByiUos3+MkNm8wTeo6BFKDpNc16enH17b4POLXHAXWXhgQU8+YgISGnqKd6xMYR5qPeb R2B0+T6PWQAPRFFnQMG4eF/DKPoWMg2gsZvw2Vq82JXDFFJBsVTOixKiVrmDCTcNvZMYeKMK3tia Skr3DzU6mDz+o6V+QX/ofY/sw6vUZevANE2YFqtv7ln8TkryEAYQq4H7So7EafqgIPc0SLl9HmDk ANAh+DHNw55FrjUBalPCeoAYvELwQBwWvsZ+oq70qqSxFFBFHUzU1fs1EZKW6V4F6xXlT+0IFy6k kDoHwN08MVEuCiBr+1KyeO9aZ58PZL6CWIE6W8goaFbrFQTSNE+c5g9uaNg5aoz8/YkgTo/VW5eC 6+cQi3txZ/EKPABBGmRho65gZ9d3XwdRSP17QSmsvLMnaGdAdCsKETWAVlG8pXRF1d1au4VCuidt mJwjfWKAhSEQqCt/qY6LgjCBtej/yHsSmQrItGvIZiRKAKdFAvjsGg7gwUPAIdqRAT4BFJxS754H /R5jjwvnsX+Qq2foHoNGJxe1uWcJw1whavl/N3vYikqtVZuCYof6MS8WbxWpjHGrhE6c5dfKxwq1 3U8QFZva56P7QpI39C4WsCqh9Vx7RhP9+yxUdPmrKS2mXNqP7hX/H4QIArBUKSxgLcYT9vQCNLKG KYSCUdsX6wc7reY+cLqfOcTdsOl++kgUh3RjaAPwqxyCLYQ4s2/GV1q5jQzSNtHDw760thVoXX/v BS7G4F5AIchW+XPRRykCufuXRiCFyWKVHlBgWsxJRNOPkwquRqCKSQ2YdCVaHkbF8tDiFauDkSsI qaNrBOPMQWLuMw0eNYYRDwxdQh0lTN0k7zCmv3buen0/WawX4aoAFrW0zQadFZBnkz0M3aMCewpD yNjukjYP0Qo+bUIpgzR3c4pqHYGAOS1YxIOL0n00AXf1AFykYC/PnAZOaYpzDPaodrkBuEr5UvAK qXUH+31DCbmOnqvsYj9vKOoGXElUUX4Yt1LdfxAHePwXI2dK4b+lg6U1qzSFCriEhaDld6q/zvmP AiQfRyfWWOKDpOtA1GJQLgFnWGFIXUUcppyoYrFakari5Nk3X1x8/juvb9AFvhUqGABoefr8rFSB h06doZkzdgHVGQ0U5wW1cbIu7hjB3wgKuwyCCQzuBktR2OUcd/zgEbTm/kbiaCGUJKiE1IwIKmW3 amP7DJKE4dBlwqd0DR0FSVZU7xVL0dopVUJE6TqqNQEyYVgNEbFuoNt59fjxxT27g6YjW8D2EkKL kydPTQiqxKEvh1oxtA2ERCcFjyphCiNkQRSqfO4duCeOKq+AMI+gbzAdZwxVjiBgqzgwgsNpIgqb IeB139rm09o9YO1eEmTfBEsTqRg9hOrwaKFA/TrfwI782+kkHusZhGzl4drHUg+oSGDm7Xxy9vRI 138wHbxXGnjy5MNvMRNP00wYx7c21FX63dGoYEZPE7M2KpgD4geNwyZ4YBZ5t7Dku2mcMhKPFaHG 5lXpX2wH1zajj9zVA00B5PiebYaPNXy6iIO6MbDSlEbhFBC1odFOB9fmU+splGqwFMBqA67zlNYn 5y/+FIBfvWsKeCwRdCjPpMXq7GMC0zQtgrKqp3kJUR2EPUjfFw9dYSh0GPbFI24hYKwKduEDvLP4 8aSRsWKoUKjEzsDQ+qVlNkCiQs6Iy7xIwNkXsXH2RKUWUNvbqlzMSCbRSk4R289M0Iw6uoa0KYXj YRZevpjnpS5PHn/nmlT97cvCp/nkQxBomtJAq1AnuAyn5YSsYFcFhGhAPGYGg7iEaacNrdUJtP68 UyKO4yNrzd52VmpVQIXWSW1qaF4t2DMLRAo5I1zGvIigtqhV5o/KIBrRXD1TGRhFbaxMeD9M1nlM TYKOeDhF0IbPiyVvFic/hcPK4KOygemWu7/jAShNL6CgaZoqA8dRtzdqAQfFL7o2gH0C0H7SWASA THuURxxYSO4FJIEe6sq/ym3go5Ox4rUBNh4fUg56cGbOgBzEuD5PHWO9X0vcR3ccTdscLQVsuAPG /lHoPKphxUOB6RgLHZxeHlEOvnc1UA/SwJTOQQS2FNAacCsxM072BA2HSQTlnGcGfb3A5V2oqaG7 fsSxs3uKSK3NLLRjx3FwiuaegbrrVUzU7XUAUZvXW9xzKQNQpWx9GIYGiXexjcbdE/khEYXiFWmS Y4oqpSr+0ApWJZJWfl0V4LRkETp9230BdF0WIKAT1UID98Ohh1o8WhGnaQJKGTgubl9Aimwhd3Iy jgwg97RzzRg4ZgHcScnjG9Oh108tDNQpD+bi1cga8XjOrf8P4voFQbauX5Ly2ZwC9pPBtBp36zKq EnYNHgZh7K22qee+G9M0T1lkicMDI+mhMMDB0TAKWqgIzWluR8QB4dAmR/aRmRtz8SoiC8fGoE8V edAAElsm4cLEYjiJ9lQJ0ZeiY8zVUMfX2vVL5bjWKhuOvtR2N9Uyjw119HOIfPeH9q94JBzbdHBq B1XR0Lq+c6CVaidqcfHJPC15m/P0LjuDdm4EmkSBNE1mpc7Yocu/K+vWFYlCoYj7YVBjLaCkVLwz eDqSQzzOHgiP5VGcinhWn194qVMAlK1XX0pOLt4aRkX7RyxgsWf4QCeSQCrZ7vfUrhZ5mu7fD8EM bFRoSqG+pYz6VJUAnZdLylnuXQvgu9YCptX5iggTEQoGoMZXm1Cus2YKwxw7P9UG+A1oPWIDGJfQ 8EAcJulun0N10YEiW7dSIayo3aybmexnYtMkhvtrtsGNeOL4N119bB6KgX4WAvprgGHKuYem8QRV DBlTf2BtecY8LwAolmcfnONwqzjdxQDomCrg2cs/+RGI52maWlMmBaQa1EHaHeQ8TAZBSNViRa96 +1EBTF19gYbGU464Iixy/ZkYRGkwBEIKz2uZBneEFYKu0RcdRDvGXTMP7inobnXiTOvIktcPruHC E/rSVTHoRHR5+vyb37xGtqc3EUR8B9cPAHRy/sHHxDxN06KP5S4Fx3iWd1tIpfjReqIjkHXDTrcL xdjDC2CHJyipYFjkZIuc7MYETmwLT06v1ud1NLSDUCCUpWlv6tqPu2EntXthqqJrQ6cBMrdTy9CN ywP1hjDP83p1/sG3rsEA9FAYYMcYFo/OP0rE0zTPnWisH8MWpndRP6ptnOZHGtI7YEfvHwrNtrto VyvgaJ+pTxuJwvkFAwhlH9VeSrXCWuK7t+SxdfELwrlDjZqlMIaI7ShYleF4mCo0pQCWfaRcf1JZ PJamNqJ01ez2mHm54OWj829j/wli91YF0zVNoZzm05fglKZp3n0KjYejxe+Dz8NABGF3LJzPXaIw N6BDCWN6yYEoirMJuk6jru/K6vtq6ZwJQiScQ2GvI2FiWDscog2JpjCupo6AreVhraGutpIRwmki 7ayD8nJSO4sRjEPC5PN5Ppm2y0ef3JUFPLYauLcWkObFM2JK07zoaNYqcQrcf02hIjkVNXs+pDEa TigQ+VNs/ETnHSgeAENtBmGHCdA4hzETQDj7R2BNmQQwK5CtL6Ml9MXLeLdvAKTeIBLEY+VvCWqP IdA6i+Pw6XGOcGxKdbKhcAhNvQwAabGaeFo8v09vAN8BANohUYtzThOnwQPUXab7j7PW7q9Q65Ad /iRzPA94PP1j5AVQC0rhAZYmcocbEiekZPOMqOCABhAHgMltV/vLMulwwHWL6QG7daebqobpZmH+ YU3/hitfMZF6qkrdYYaOA0r8TWMWcKtGUb6tCAQA/fRf+3v/YPHoyS8xz6S6O6ko7o5IpIAw4Nn+ vKaGpLUVaKLnH6EzwtTtcPRsSEJ6GplTAIUcFr+FiEQRzFBnUNUUwoJ3J8x1p5vtAuPxPCPnCBr7 p2FhhtkGdZyZhoLQaqJp9ad/5q///X96YPffOD/o2Cwgvhgp8RKUiDhhmhYVptaLU5lU7aZ3doc6 xN68MW2tZElQGelIIMYeatqdJYwh3xpqCREgmotoWoEOwFIrckRGBklJPwAAFS1JREFUbji2rvs9 7enLpFGT6M9vI6eVKEAKHY4+ip/Jzo5JSzb2cnFXdfBtmUAPAScqQqrA+ctv4vzsDFebTdEFsos0 Uq8ANoCWaCBfkOouTYnx+OwcsMcxA6vlCilNlrqVJtTk31d3bikeo94SFDyVXtI0lfeRGOW5U4Ec W1FIBrYCyBbY5lLWzQJILl+zs4GiyFmwzYLN5hLrq8tSKFKb6EWFDRXJyCqQLBDJWG9yeYwqJJfz AF9ffI20zdhqBmeB5NI+7uaSVTEBUHueZkUWgcgW201G3qyxSoINA/J7iqxYYM8Az2Mygtv2BZQi kMgq5y2SZL26uiLmhGm+76yJn/y7zb83VxvdrEGSFZLzErtnCT+IHmDfjS9f/+g30+L8zWa7ffT9 3/g1rE4fY3lygpTmpvwJMXmc8UPuBaIs29QyJycn3R9fLJeY02QxOxUQx9wfHxOBoXHHhD3VwsAv qCq2OVtjB3fjYL0nsJSDxcrEqNPA6+hOC3M2sQNZtJ4XoAqIZlytN6W4lItnUFFcXF1BJJff5QwR 7zp15pJrw4pAoVkgIsh5i+1mjavLC1x+/YquLr7GRMjry69+54YM4NYY4LqGUN7m/OT1689XP9mH 74En+Pp1yjk/sUSabygPX+sB6EgvwKL0je3VBf/tv/U3t4+fPg0nKusoyyY7SXzo2OlGvxfqg3zG aHm8e4qchcQ0tTuDJrGrLRxnFAHoRCJKDZdExYuX//0bPxnEd3ljC9shj62MrG2ugN+MEUmJNL4O oPYLo6C0nj9Iqm3yaLmrAEERbROJRfxz6XazwS//8j+bEuQJ+tNE+RpdQIcDbiMK5YYBtqS6xR98 9tn05vKqMm5Vo8e7AyDaFHHe2w9Y5VxhiJQPlNpR+zjQ9GpeKB7VHgTs9hUwt9fy6iBQLrColAtt 32vV/tvAxyocLayhu/ryHCnP70KGQlQI/nh/nVx6gvxU0TpMUvufIVKAoxtFvA/l76w3G2OQMvbE /qMqvdMNi449L8oQJUzAD3/0Q3z95sIWK7W2Ll+4uuipI1y6BfTZQmFhvdWcveZvRZouhw+VvsTJ Mrny2MRtwZPl/mrHsiAla+Swnn6QxfByf865GkND88UocpayCGL3Z8sC7PmSpRlSfa6YwYTvzWiy 5GZEqmVGsC22ZIGq318yAjeaMlyy4AciwsRpPgAA97n+o7IAulYNZFM7fvjZZ1iuvq7zfeqi+4Il mx3ki5GcmUt1qiinhEQJnIqhpOR1eUvxiJHYASDV53LyBWaklOrfa48tFcCJxR6bkJLRS2LvBU0P mO2iiwiy3TQLtpIhWQqAszSwALKygCLtZxGBSrb0cmveIVsKZ8/XbKDOvE4u92s1sGyPNWNwQzEv o/Z+VAXb7RbTxIBinh89O928+fyrI9D/0SGADmkBio6D8MWXX2J+c2k5/WRMG1tp1fP1ZLsygVMK +XtqbjnZ4+0+TraonDCl/vEp/DxZZsApY+KElBPyxEgikJSQlKGp9PNMHqNT4Qt8EITH8Wy7M0su i1vSq/CzINvPIoLtNtfFy5bz55zD91IRfs5uBBkiGdtsC1wXtz3PjUllWw0i5xw8ihvdFpKz1T50 sTh58mTz5vM/uKEmcG8iqKv1MfWnerXGDwyFl90TRLBXJr47TUQDwdzVydEaOv1nISldRkAXV8uI FwmNIGLj/xtVLe5aLRSgxmb0B0TGEi7tJktxMlk/Kr/VMJkImWKxbBx4BWTySSElnJW+Ax2GZNQi U+I0rwYAeFQaeNtp4Z1lOfWr2DeqWhul2bTX9QweBzbtVA3tLnRF5D6GQX2Qo7ZJHg7GBBBSJG2x XqmAuFLe9Rld2Tp4TPvfZQEl13dP0OKyx33tjErCZ8ghn+9Cg3mEbt5Q97n6yKyxgqYauAYcPFhK wynmN9Rw7tUadsCtaBdQ6nINvD0Nb5iDCrdtsT71aruYIEJ2hErzChqIElKxCVpaiRn/OZtEW2IB KfQXItQt1IZBOZjLAYl3RmH9AlVJDGkgTwq49A4j/xzRwHXIPXU4cVyjx0E0Ft29pnWwwd06hO8i Cx/2ufmc7kPGFdd2PErnTu3hrOGgRUW7HFoHJSznMrIFYafWOf4xTRJFtoMYyVI4IjV1j5RhL5ot 9GhtUdeY1lkqV9I6R+7mBaAVpVdPo40lLL5YMXHG1dqOhTEtQOMH2uev3ICOS+2nkI97PRqd9r0/ h3f/vQxA94cBaUqKunph7k4lSQRKKVQFG2lSlfl23HodjtvtDALpBs+XF3i1eYK1ciBmUHNjUZva pUV373N4G83MSOxdSVxLzhoukZMt1ROIpXuqBsr25O5dPl9+XvAWj+cv8ftXJ1DMgdhplLdfm2AK 1ooejUH764EBi3TiQiKblHk0+r9LCNhvHcMpG8Z1tXq+zdlTapM2yswdxwAthrX52k0fT7rBSl/h 5NmH+N0vYdO040KkmtPncIq3iNqkLzauvZzoqRx1CW1Em7vdkmKFnZ5bWBEzDBEPCxLODSKkBHzj yRL6+hVIJigtwlKNpE6I353zDEwkgg20q1KHSdaTTEReffXpb/72NTT+vfsC9r4o+U6Q8AmiS1R0 AKVSphVAtXgnDrY6VgygzStMWOMXf/4ZThYUqFetZVoRQ/o1BjfixnNwT8O2eYu83VaAtg0pW956 uqYN0GnuXrMnc7Qxf6o4WRB+8eefYcIatHnVikWWVbQtIoFObt4D0vBPxEZWWaoZSMCIJiqhxXzy +NEBzHbteh5bDdxjNxTm6mmdfRewaY3pJc2SMn4lxDAKiJ+iQYSLw+vPkHTG88cTri63ZWKmGZXA T9pgiErd+TFb9fEuhQ1s6ZZQHtJJO7czVPh8p2swCM8IIl3s7/nqMuP54wlJ1+D119Dpo7DIqF9F tN/pGpG8dgA5IKIe+Qc3zMTT4uTp+ebi1ad4y0OidryBh31Rb4vWNvdOI9ptH4OGXe6u3I/iiLuD tq8BPAMA/Oj1BstFQhIBb500UjBrifGsRibBKOUywTu2lPfj43o+wRepOBSpNG2ldq3kKwMDmPMG OQterXPLjravu88hdaNoHQccC02CljGonVAqGt+XYyUNWMKfIxOnxfIuofx+Kg4djkatCluttfMu 9w1YIAInP5QpYoOSy0v3GX7pL7zAPKc6YJr3nEXI4yDpSMYESVZUbemYtYSvfUjaf/O0cbPJ3bUW EdhZ89VbiIM9A9ItRXTSKnjAQFVHfkTt+XUMldaxVofKv/pQBkBjYkLmOpMzZH64cohvTA3aUWe5 bbHNjdj4dbJc3sKHZFxeXOJv/OWXWKyWdv7vkbnLTgbd8XZ7jngcPyzduI/ImMT15RX+4LPPIZLD 57MhT/459xhQn/lYaCE0VnK8Vmqy+ZFXuAOQv6cHKIvP8aBkm6apdkhyanXwhtxRjkvjZF00TO1A ZVGIHbHihpK3Ga9evUKaElarFaZ5QuKEzXbT7ZTb/HPad5qmTrx6q91AhClNEBVsN1tcXl7i1atX yNu8k/u7t5MaEgrfgJBNCKReK3LQ6YDRHS61tGHPZ39nx8Z1qN6BDAmgKWIDY+XAxbUlVG4ejCFM aD2IiZ2CLSco4PLqEp9++ikA4OTRCRaLBVJKWK/XwUWOunrduyt8EETOGdvtFsvlsvv9oYXe9zcA YJ5niAjW6zUu3lzg008/xeXVZc1sfLSYqClNY+iI9X4LF05tRx7AM4QYKjS22u7MXHhHBtDereXS du5Ndf8U8n0qhA2DkFWRCoFfj2JN5B/cDl9KDEjG/Og5vnz1Kf7Dr34P3/1zfwZPnj3FcrnC6mSJ i4s3hWvfQaV7XCL19+fNFlvJxQBUsdPPtk9DM1xjZsbJ6gRXV2tcXV3iy8+/wH/9H7+B5ZwwP/oG dJMbNnKaWVvtH1F11BPi3cYaFUoVT8UBFHecEDDd1fX7YKOY7zcWUOp4NTXrJ02Fjk02iNkmYoto nbVf+glCEYYyeHGGLBu8+eoz/Jdf/y0QERYTYzETMmZsN9vaPwhC1+TRAcA6hKJkBfM0YbVgvLnY IMehkBbPVeL8YOlSRW/jSlPCxIr1eov1trjqyzUwnz5HWpxBrnLhSsADdRyYTLS470qgkhXlrpbg TKFT0q0SOpyO8m49gM9IFCvwcMvrq3H4Ts9QSnYQQmrVOj9owYCTj10Va8+dlo+RRXGx+UO8uVyD AMxTKQZluWrjYKkfDMmdDnFUEBOINnbgA3VxGhUYhmxAxsxA6k704RWbrSHytMCTxVNMy8fQLy2m U67PUReHOKCTVmmEys5Or6lfyAzKffkAUw99JwZAfsF853hoD2keDAcU989gH8kjNimbCzBojJnU Axr81A7RMpp1ozMuLrfYbrfmsYdzBUjDuFndc6Rc35m0lx7XrrWzq0p26WGXIraDJVJKWK4mO1u4 1DeIqDKJRdYlDel3haVWeVRpr6uVJW26QkD2lIj1x+ABIB0vT0p1wrXW07jK2PWSC0uZo2vMnZ+k wKyFCLLQUIYpSiVMgOKyt/Pc9H2qVQpGoUG0H8vCOwtPYUQcMUOy9NXJroiErmRdd2VA+DlvKx7g lDDPU62TRlfeaf+q4QT6GyG2G8NZRaBd1bMJT0UjsXZc2vfABuBcQIj5sdBj7qwodWwwsq1AF/P8 jB0u6Rnb6HWxghAzYbVaGnKnuiPKGQUUDoY6cHDELqyvquBMue120r6ZNVbwgP6rsXfuXZLJ01ar ZRmZo4osdlrYsMvbDpdWVHIvgZAaVkHK4C00lt/rffouPID79a6e7eyfWEm2XaAyTYvY8nvWyoKR lhm5ytqeW4UbhTwCKS43wKN5wun5U6gqrq7WVXGzmBfdaeLdkSv7BkXvM4CUe7oo9O5Hlx8ZuYrQ RbHhLYiAKSXMiwXOHz9FmmdcrtXCoprQU6vIs6mQpcV+7YthCNSxM38REzSDAqC63ly+fv0OQ0C/ E+LRiDUzELVDkaWeyAUVqJDN3BUfsl2IJC3TuVkznBGFAl9fMhYpYTo5w5luMS82yLKFiGCe5rLb qJ1KWv4m1SPeaMjbawpn2kXJupc8HGcItkptq2xKFmy3myJ6TQmLxQLzyWMIFF9dNmAnEqRlttub zKyFBgTPgLFnQCJnEFNDAKo5by6u3hUI1KoH0XZUKttRahA76dpBnAiYyolZrFyNAHCPYLN2q6cw dpELgXK5UXzxJmGaFKePHmNeqRV7BJst1aNqgDD6leJQtX06JpQjWURAaWqTzbT16ms8rxWDEdjX bd6CIYWVlGJUFxvB6y1wtRUjf4K7D2BOgjEghofq0qVqEToAGDIFgwro3+DDYYCh0jPcRy1FIpYq Yapx32I5qKR4KU3lAwhBWeqY1ZICFm8hIqUnQHJJKRPw5opxtc44OyEQyslkiwlQTdgKYbNtAx7A fh4P1ZO5vR2MtM3xLw2eqSAP4XBmIDVZGrUhTvUs4brj3PXOIBIkATa5lHkvN4rXbwQZaHRuAH5+ 2ogrkATNSypyY0UtWxBf9FCprDWDtiyqVZTxsB5A9xnE9vLL/8aL0790eXXxspRkJzBPoMQAtnVA xMnJCSZMNa8uTSJF+UPKELGSLgmUpY5oEx8FLwzojMyEN+uE9VaQ2I6pd3PnOF8PSMNhkhoPrEQw Dkq1EhnlY6LDOUKBkpXKznEgjsqrZltUyYp1brrCvN10GoLGAUgoOQfAJ0GLaA0hF5cXXva1TuMt JG+hpbPoUjaX36/lxX6tbgwJt5kWXg3gqx98798tXn/yg7NP/uI/QpqfQBIrJ6att3uWx1/I9ozT vNKuvBknAgYKtpOXNxHJR598B4vlCleXqTsYqpvhwwfGzIex9HFMfJzVX/FBPCc4aBe6wksAf77o XZHLUzdb7M36Er//g++DOB2QdetwRYZJSaVeIrJ+84cAkfo/yaoiWfJ2c/XVp7+y/vJ3/qNKztd4 7IO6QLqmETSZgSwArACcADgrN3oM6Hn7GSf2mAWA2Z7LT775Cz938vxP/EwpClY5mNKBAubQxkqA bqeT598hpily8Tv8lx5IT2+gSeL+p+vTnv3D+OlQ3dXVxpK3F19835oRdtU84am6B60wEbbrrz7/ 0f/6lX9jO3wLYA3gCsAFgK8BfAXgdbh9BeANgEt73KY0RED2GcgxBjADWAJ4BODUbud2O7OfowFM dmOAEnYbFm4lQn367b/63bQ8fXJEYUrHV9prABo5vjjXcj+hvtdU6bjSW16/efXF9//Tr92kWLgG f7kE1FuAt7agl3b72m5x8b8OBrAeDEDGv38bEOhvwt+Iv5k12nCC+DhG1eAeNb9urzF+8X//8/du ULreeVL2A/27jo/VA19vMoRD134Trvk6fL8Na3Not9/q1LAx7u+zwrU9Py6+35/QT6zgGyTLdM3i 0oHH/rgXHkcu9nVGcNP3Eq5rvPZXwcVHY9gOu/1GIHisB5A9u/4qLHBc/CkYwLFjzK9b5JtGnbxP HmAfAtcjjeG63b9v841GsBk8gRyTFk633P0be846LDCCgUzXGADfgDtwzeIfMgR9TwyArln461yx XuNB5IABbMOuv9xjBNED3GgE054PMn64Mfav0c9/dsOYewBYQ8ChsSXXeYGbbu97CLjpdhMekAMb MIedfhWM4CpgATeCo/7uMSFAwg6nQVwVU5N5wATHnG9PR+z+60IIvYeLvy983uQFrov/+3BA9ALj Le9B/UeHgFENp+GP0x4DyDe4/oTjx5bFmUTYEzb4AC54nzyA7lnAfd/flDGMtzxsxIgH4s2N45D7 P6o5VIfY7hc9D4/JAy44tPM5LOx16Rvv8QyjF8B7GgYOUbByTU1FjgwjMoTiiAeiR9juAYG4DQa4 DtzIHlyQ7A+lId7zkYt3CAccgwXwnhrATRjgGE7gOiOSARPIkP+PGcCNqeB0xOLjgCUHwmdnTi0O LPx1wyhxixTwfUkFj13Em+I/XZMR7PMEozFIAH6yZ9M+WDFoBIc3HVx8zI6lG/iAY4zofcYCN+1+ vaNHkQMe4hhvc/TOOTY/xzVp3rFu+zZs4PtMBB3yBDiSBKIjjEcPgMqbAOadLt5N+foxlO6++3QP CNQjnve+EEDHEEKHFoP2uOh9YYCO8B56JL18ZwPAkYuKG+L8bV//fdztD+EVjlqYI6jiY7AIHtoA buPGH8rjjDvkjwIGuO6svvss/rEGhrdtAG9zZ/5R2eUP6R1+bK/1ti/2H/fF/KNoNN2//wfnycCi 0j6atAAAAABJRU5ErkJggg== "
     id="image10"
     x="0"
     y="0" />
  <image
     y="6.3452764"
     x="20.312704"
     id="image10-3"
     xlink:href="data:image/png;base64,iVBORw0KGgoAAAANSUhEUgAAAIAAAACACAYAAADDPmHLAAAABHNCSVQICAgIfAhkiAAAIABJREFU eJztnXlcHMeZ97/V3TPDwHCIG4SEbtAFIwmBLFmx4mwcO85F8u4mb47tvJtks1ey2bw5nOTzepPs ehNn/cZO4tdO4sRJO4njXTs2sXzKlmXrsE4jIck6kQRCAkkgEDcMPd3vHz09zCAQDBpmQOb3+YwE PU13VT2/+tVTVU9VwTSmMY1pTGMa05jGNKYxjWlMCiiqlhLvNEQLiqolxjsNI0HEOwFDoahaGfAL YCVwGvi4rqn74puq8UFRtXXAb4BC4BXgS7qmnolvqsIxaQigqFoy8G3gLoC0JBdXuvsBuoBv6pr6 UByTFzEUVfs6cA/gSExw0tPnAysvPwR+qGuqP57pszEpCKCo2s2ABsxTZImPrlvG6sXz2HPkFE9u O2Tfdp+uqV+PXyrHBkXVAH4KfEkAH1jrZX7hbPYfPc7WA8cxrdsOAJ/WNfXtuCU0gLgSQFG1dOD/ AF8BKCrI5GPvWkmKJwlJgCzgTOMFHnlxD/0DfoA/An+na2pHHJM9IhRVywEeAT7odjn40PrV5GRl IQmBLKC9s52Xdu7nXPMVAB+WGvxA19S+eKU5bgRQVO39wENAYYJD4cPrlrN8QSGSEEiCIAEkAc1t 7fzqxV1cau8BOAq8X9fUunilfTgoqrYQeAmYl5nq4c71FSR7PIG8WASQJJAxOXC8llf2HcFvmADH gL/WNXVvPNIdcwIoqpYLfB/4AsCS2Tl86OYVuBPcltElriKALMA34OPnz+2ktqkV4CJwu66pB2Kd /uGgqNoaYCOQWZibye03VyDJSjD94QSw/u/u7mLj9v2cvnDZfsy9wD26pnbGMu0xJYCiav8DeACY 6Ulw8oG1JSycXYAQIAdq/kgEkCQQpsHjr1Wz42gDQDvwL7qm/iaWeRgmT18H/g1weRfNobykBCGJ sPQPRwDre5NDtXU8t/MwPt0PVq/nb3RNfSNW6Y8JARRVywPuBz4OUDIvn9sqSnE4XSFGHp0AEiBL Jq/tP8l/bQv6T/fqmnpXLPIxJE8E8vQVAbynvJTCWXOstEuMkQAgSYLenh6qtu/nWMMl+/E/Bb6n a2rrROdjwgmgqNrngH8HclMTXdxxk5dZeXnBgoqcANa1o/UXePC5PXbN+S3wT7qmdk90fgJ5Sgd+ DXzE5VC4bW05GRlZVtqInADWNZO3T53lmR2H6OkfAKjHGjfYOJF5mTACKKo2C/glcDvAyoWzWb9y ObLiGCyY6yCAJOB8yxV+9uwumjt6AQ4BH9A19exE5SmQr6Czl5GSxLtvWkNiomcw7YyXAAFfx9fP k29Uc/DMBfuVvwG+rWvqheFTdH2YEAIoqvZPwHeBjPTkRN5bUUp2VvagkaNEAElAT18/91e9SW3T FYAm4DZdUw9PUL4qgGeB7IKcDN5VXo4kO4I9l2gQwLrf5Hh9I0+8foCOXp+dr6/qmvpEtPMUVQIo qjYHS45vAVhdPJfykqUg5EAGo08ASQCmwS9e3Mebx84DtAH/qGvqH6Octy9jeeoJS+cVUrKsBBHs skaZAIH7dN3HU1tr2HX8nJ2Mp4Ev65p6Plr5kqPxEEXVkLyV38QaqFmUlerhzvXlzC2ci5AkBCAC BSECmRSCsJ+v/V3gGuHfB++TBBVFM3HKgsNnW9zAxyRvpWLUVG2JUv7uB74HKOtXljBvfjEikF7r E5J2rk6/TRQhLIKEfy+C18LyDiiKTOn8mSzMncHJxsv0+vTFwKclb2WnUVP1VjTydt0KoKhaMfB7 YBVAxdKFLC8uBiFdVSsmSgFCa+H+2vPc/+xeBvwGWD7IP493pC3g7P0KqHQ5FG6pKCMlLXvEd0db AULvM/w6T207xJZDdXbyNgFfuF6fZ9wEUFTNgTV5803AnZOews0rV5CckhZWOLEmgCSg7mIb9/5p J61dfQB7gcpIZVNRtQXAC8DC9OQk1pSVk5CYfM13TyQB7Hedamzmt6/u50JbN0Ar8H1dU38yXjuO iwCKqq3AmrxZLglBxbIiFi5YiIkUlth4EUAS0NHdy388tZNTF64AnAPep2vqkTHmrwx4HsjOzUxn TVkFyA4rH3EmgCTANPxU7TzCc3tr7STvwBpOPh2pLSMigKJqScC3sKZs5fzMNCpWrCDBnRxIrJg0 BBACDL+f+5/dw87jTWDVFlXX1OdGyeOXgB8BCcVzZ1NUXIppP5vJQQD7c/ZSK4+8VM3Zlk6AbuAH RDjVPGYnUFG1tcDLwEcUSZJuKl1KybJSZIcrxPEZdHbCHB0m1gkMdcRCP7IkcfOSAgQmh89edgOf lLyVplFT9cYIefy/WPMUyprSZcycsxiTkOdy7XdLQ+6RQr4P5uWq70d2Aq9+TvhnhsfNe0rn4pDh SEOLE7gV+JDkrdxh1FRdGi6PQzGqAiiqloY1ZftVgILsDFaVrkBxJQ6yESalAoTW2DePNnDfn/eh WzNwP8fqTg0E8jgDKwrpL52KzE1lZSSm5gQNatfEyaYAoe9ubGnn4ZfessdDxjzVfE0CKKr23kDB zHUqMuUly8jKmw2EF/ZUIIAQcPL8Zb7/5C470mgr1txEEvAisDDVk0jZygocCclhNXoqEMBKq8kL +07yu9ffHvNU87AECAQ2fBf4O4DZudmULPMiORKCBTMVCSABl7t6+e4Tb3L6YjtY4+1uIDs3cwZe 7xoM4Ri8f4oRwP5cauviwRfe4u2G0aear/IBFFX7KPAMcGuC00GF10vh/CUISRmh/WPS+gCD6Rr8 PdHl4LbSQuoutnOutSsNSFowexaLl6/GQBn2byarDzBSvpPdTm4tKSQzOYGD9c34DfNm4OOSt7LG qKmqH1YBAlO2/wl8CqAwP4+lS0oxZWdYbZrqCkDgXjD57ebD1HY4SMudP2jgIfkUU1ABQgnV1tnD T56vpvp02FTz93VNvRxUAEXV/hp4CliblOCifMVK8mYvwgyt9SOyf2opAIF7ExSJj5UVUJibyZk2 P33+QQJMdQUITUNigoNbl89iZrqHg/XN+HSjAviE5K08ZdRUnRCKqn0I+DPAvFkFLCxajl84rkrU jaIAQoKZyQ7ykhUkIWjqMvDpJi+e8rGtfgDTvLEUIJRMnb39/OS5at60xkUA7pAlb+U9wJJ1q1aS WVCEiTxi7ZnqCpDikliU6SQjUUYIAUCXz0SRBMVZCsuyFc53+OnoN28YBQj9PcHp4JalBaQlOthb exGgS8KKsuXIieOYfZMy2vq6oUgwb4aT4iwXboc04n0FKRL/vCaRysUuXEoMExhDnDjfyhM7Tti/ HpWwHL8n2zq72b5zG772ppH/egoiK0mmNDeBrCRL2UaDJATrZzu5a10Sy7JvHBaYwKsHzvAvv3mD y519YM2UPhQsEkXV7gW+AVBatJD8wmIMwqVrKvkAiQ7BgnQHaW452NWxCSBC/m3qMgadw8B1EXLv 0WadqmN9dPjMKesDYBo8/NIBXqiuA/ADd+ua+h8QMg5g1FS9KnkrTwDvvni51d3X2cbM3FxMMYJP MGybE38fQBYwK02hKNOJ2yEF/24kAnT5zGsSIDtJoqLAgW7AuXb/lPMBOnr6uPvxHew80QRwCbhD 19THbbvbZROEomqLsYZGC9OTkyhbuRrFnTIlFGBGgsSiTAdJTimYudEIMJoChP7c1OWn6mgfjZ3G lFCA2sbL/ODp3bbkHwE+pGvqqVB7X+UR6Zp6FKgANrZ2drNlxzb6rkxuv8AhC4oyHZTkuki8hpN3 vcj3yPz96kQ+WOTCGZVguonD64fq+MZjW23j/wooH2p8GEYBQhHqF6xcvJDZc4sxh04ExVkB8pNl FmY4ccoiTP7szEVTAUKf1+kzeP5EP8da9EmlAJgGj75ygBf318GQ9n44XJPHAb/gFLChqaXV3dt5 hYK8XEwhxd0HSHIKlue4mJ3mQJZEmHEiIcBoPsBIz0tQBMtzHMxMkTnX4affH38foKu3j3ueDGvv 79Q19Q/XsrG41pc2Qv2CjJQk1paV4wyNjyN2CqDIMH+GwtwZDpRAiYshxomFAgSvCRjwm7xe52Pf +QEIlkVsFaDuQiv3Ve2yJf8o8MHhJH8oxtSSGTVVLZK38gmguLd/YFFdQwMz01NwJXpiqgAZbolV +S5yPQpSoNZfLwHGqwChBFAkwYJ0hUUZMhe7DLoGzJgqwJtH6vnRM7vo7tfBWrL2UV1TL47FtmL0 W8KhqNp/Al8DKF+6iAULijBNMaEKkKDAkmwns1KUcMKFGG68BIiGAoS+3zRNqpt0ttb3oxsTqwAC k9+/VsOmA2cADKz2/p5I7BmxL2vUVL0ieStPAxvON192d3VeoTA/F4Q0IQowO01m9cwE0gMDOtEm QDQUIPT9khDMTJEpyVbo6Ddp7TUmRAG6+/q57+kd7DkZbO/fr2vq7yO1Z8QKYCPUL8hM9bBhzWrc iSlRU4AUl2BFrpPMJPmqQp7MCjD0nafadDaf9tHtM6OmAA2XWvnZxt0Rt/fDYdy92RC/YGlPv29h bX0DBZkpJNp+wTgVQJGgOFOhbKYLj0savZAnmQIMfWdGokRpjoIBXAyQ7XoUYO/xeh748267vX+U CNr74TBuBQiFomr3Af8bYF1JEcWLihBc3Te+lgJIQpDrkViV7yTFJY29kCe5AoRea+422Hy6n+Ye I2IFEBg8ufUgm2vOgDW3c7euqf8+fqtZiMp4llFTtUnyVtYBGxouXk7oaG9jfkEe9vrA0RQgQYGy fBfeXCcuhwgrUJjaChB6zeMULMtRSHQImrr8mObYFKCvv58H//wm+2qbAJqx+ve/G7/FBhEVBbCh qNoSLL9gdlaah9vXlePxJF9TARamy6zIc5GgDN+tgxtHAUKv9fhMtp3t50ybMdhDGEYBGptb+eUL u+11jsewNsEYV3s/HKJKAAjuAqYBt7kcMh+8uYyc7NyrCJCaIFg7y0WuRw4z4juFAPbPZ9v9bD/r o2fADCOAhMnB2gYe21xtx/g/irXSuStSm1wLUSeAjcAyq68CbFhRRGmxtabeIUFproPlOQqKJKzi fgcTQAjQ/SbVTQO8fUkPNAUGz+6o4Q1rKXjU2vvhMGEEAFBU7bNY28KlFs3K4TPvXcOGeW7SEqQQ w00TwH52a6/Ja7Vd3PfMdmobW8Fq7/9yIreNm7C508BK4puBVEkICvJnsvG0wabTA/hNc6JeO2Xh N0xOXvbRpQtK5+bZl7OASkXVJqyiTsiDFVWbj7Vz5uLkxAQ23FROamoGR1p0OvoMZqVI/MPqRJZk ytMKIKChXeeNM310+UxciiDRKXGy4SKPvLiHHp8O8DrwKV1TGyM0xaiIOgEUVVuPtcgkOy9zBu9a U4HiSEAIESSAPaL1nrlO1JIEPHa/P5CidwoBenwGW+v7OdmqIwvLObYJIAlo6+ji4ed3c66lA6xN Lm6P9g7jUY1rUVTtO1g9AM/S+YXctLocITsCBSBo7jHo162ZMgTUtfvZUjdAeoKgME2OCwFiOQ4Q eu3gBR9/Pt7Lpe7w8DJFEjgCwS2eBCfrlxZyobWDptauFKwNolqMmqrq8VnoakRFAQLt/QPA5yUh uGW1l5z82QgROqgTrgDCzjRW17AkR+HzKxLIS5ZvaAVo7vbz8qk+mrr8KMLqGsuBMYChCmB1CwUC k01vneC/twcr//1Y+waOz2AhuG4FCLT3rwHv87hdvGfdWtKz8hCIIYUTrgDBT+C+5l6DLXU+ABal y8FRQ7gxFEA3TF6v62fj8T46feZVAR3DKUBwrkAIFs3MpCh/BvtPNzHgN24C1kveyk1GTdV1jQtc lwIEzsR5GsjOzZjBzRUVyI6EQaMMIcC1FMAeCRPCWqHzOa+bxZlKWCFOVQU41arz/IleOvutwR5Z tuZIxqoAoQRpbu/kJ3/eRYO1L1ADVpj3uP2CcSuAomrfBh4DkhfPm82a1dZOWmFGiUABBhkP3QOw o2GAy70GRRkKTkVMGAEmUgE6fQbPHO3l1dP99OshU7phga2jK0BoeSW7XWxYVsj51g4aW7tSgU9J 3spLRk3V/vHYMWICKKqWKHkr/x/wdSGEdEuZl7nzijGFNaoXDQLY8t/QYbC9YYAZLsGs1KkREGK/ a9e5fh6r6aGpy7jKyNdDACFAkSVuKi7ApUgcqm9OAD4seStTjJqqTZHaU4x+yyAUVZuHtVnyUo/b xbsqyklMTrcKwzZmSGGOtwmQpZBjYwKFtTRT4TPLE8j1SFElQLSbgKZOP0+93cu5Tj+ysOIbFEkE f77eJmDo5+CZC9z/7B56rPiATVhb4Y15Z/FIt4l7BZibmzGDW9auw+lOHiyMMRAgUgUIvdbaa7Kj YQATWDBDnlRBoQIrMnjj8T7+eKiX9n5ziKGiqwChn7z0ZG4qyudwXTMdvb75WFvBvGzUVDWPxa5j IkBoe188dzarV5aD5Agz9EQTQAqU+Ik2P/svDlCQLJHhDp1TiB8B3r40wEN7ujna4kcw1MATSwAh BMmJLt5TWkhDczvnLb/g05K38oJRUzXqmUrXJEB4e4+0flUpc+YtDhZerAlg/9zjgz2NOq19Bgtm KNaqoDgQ4EqfgXagh2ePX8vJm3gCCAEOWWL94lk4ZcFByy/4iOStTB7NLxAjfaGo2lys8fylHreL tWWrSUrNCBp0PAS4Hh9AFlY7KgLBErJk/U2yU/CxIhfl+Y6Y+QAAm0/388zRXgYMy2iKCGnX5cH2 fqJ9gNAoKwnr/7dqm/hR1R56rXmEF7EOohrWLxhWAQLHoG0G5uZmpLF+zc04E1PCDDoeAkRLAeyM CgF+Q3C42c+ZK37mpMp4nCIiAkSqAPXtOg/s7GbbWR+GOZYaHhsFCCX/zIxk1hXnU3OmmY5e30Lg rwKDRlf5BcPtE/gt4HdA8qLCWaxaYfXv7QKcbASw723rM9ndOIBpmsxJC4wkRpEA/brJ44d6+XV1 L219kTh5sSeAEJCa6OK93kLOXAr6BZ+UvJWNRk3VwWEJoKiaW/JWPgh8UwikdStKKJy3GJCCJTiZ CSAEmALOtBscuqST55FJd4+8QYQQArdD4JQFvbqJGUKMoQR4q2mAH2zr4tAlay+54WR4shFAYPkF G5bNQhZQU9/iBiolb6XHqKl6JcSEwfb+WWBZUoLV3rtTQtr7KBFgInwAObQA7cDKwPdleQp3LnDh cYgwAjhlQYJijbGD1YW71GPQ7TPDCNDSY/BodS97GweQ7DY7pG2XA79PNh/AriShFWj3iUZ+8PRe 2y94Hvi8rqkXROBkjO1ATk56GuWryhEO92BNmaIEsGuZxwEfWOBiZa4DWQK3IuGQgzkIQ6fPpLnb QDdg4/E+Hj/Ux4B/8F1TmQACaGjp4Lv/vZOGli6w9km+WQK+COQsKpzFTRXrg8a/UdCjw5PHfPzy QC/dA4xofLB6FF0+g6++3MEj1b306jFMaAwwOyuFh//2VioW5gIUAp9VsHbLxkRgGgG630AwTPAb cLzV4Lvbunn/Aid3zndZewuEoNtn8uOd3fzhkLW9viRClO4GwoBu4HIEXb8kBXgY+NjJ+rO5TZcu saqkhJT0XOydNKcydMNaMy2wJFE3YWOtj32NA3x6mZuiDGu6+ZVT/dy9pdtasoUl9zDoUN0IMDF5 /VADD754gI7eAbBCzH4p4OrDnecW5FOytBRk55T0AcCq+aE9jWBbGNI+bpjt4PVTA7x8yjf4DEK9 9JB1/WKwzZ9qPkBbVy/3b3yLPbXBNaQPYe0YflEB0DW1CfiEompPAQ+cOdc480JzC2Uly8nImsmU EUMTBsxw8o2EZAekOgzOths4ZUstRsIUyf1VME2TTQfq+Pmmg3Z08Rngi7qmBruBYQ2+rqlPAWXA I739PrbtfYvq6t0YA+M6dzGmMALGH8uKg5xEuK1QIsUpSHQIFmcqJDmnqpmHx8UrXXz791v58XPV tvF/DKwMNT7AVZvhBsaM/1ZRtSrgobMXLhZevLyZsuXLyM63zguaTDABf2AUZyzu64I0wepsKczX dciC4gyZ+nY/V3rHtmhlsi5tMUyTl/bV8uvNh+3TU2uBz+qaumO4+0csM11TXwBWAg/0D+jsqD7A nj1vovf3TEjCI4UJmKZl/LEYQwArswRl2dKwjp0QgvkzFGamjL0XZKdhsqDxcgd3PbaFn286yIDf 8AP3ACtGMj6MsTorqnYzVrz/PFmSqChZRv6sOdaZesTeCZQI/B/iJAWfN8wgiFMSrMuXyE8SYcOw iiS4f9dA8F57dW57v0H9FT8mIujo2d/L0pD/A+l1SAGHLw5OIKbBxj0n+MPWI/ZK4sNYp4WNGic4 Jrrrmrod8AI/9BsGbx44yI6d2/D1XnUI1YTCDPmMFR4H3DpLIidx7E1XuluiOEuJaDtY07T8kFgL Qv2lNu7SXuMx66i4PqzT3laNxfgwjgY9cK6uBiyRhGD1smLmzF2IIUYPCr1eBZBCFEAagwJkJ8La PBm3ErIxxRgUwH6nYZicavPTq4+uAKHDxA7Z+kykApiGQdWuo/zpzeM26aqBTwf2eh4zIh720zV1 H5Zv8D3DNH27Dx3l9e1v0NvZHumjxgwxDsdzTopgbZ6MU4r8b204ZMGSLJkMd2TPsEcfJwqnmy5z l7aZpyzjdwHfAcoiNT5cp0uvqNpSrNiBFQBlSxaxcGExhpCiogCyFKIGMCYFkAUszRAsSpMCtUyE teGRKIBdayUBF7oMGjuNMSmAlW7rZ6dszT5GQwEMw8/TOw7z/L7gDjHbgc/omlo3Xhte18B/YEVK GRYDu/YdOcGm11+jq731eh5rJUxEzk5FwOocifmp0Z/PKEiRKcqQiVRQDNMaZLpe3+DEuUt8W3vF Nn4r1nYx66/H+BDFTn0gpuAxrE0h8BbNZ+niJdaJI4xdAWQJZDmk1o9RAZIclvHTXCJ8mDZKCqBI 1nN7dZOTl3X85tgUQAmomK0GDsna8HqsCuD3+3ly60G2WNvFgBX7/wVdU89GxW7ReAiArqlngPWK qn0Z+NcDx0+l1zc2sXblCtLSs0b9eylQkOOZfJnhgpXZEomOqPF5RHicgpIchROX/fTpkdVrWw3G OuF6rP4Cj712gMudvWBtB3u3rqm/iDTN10LUz70waqp22zuI9vkG5p+sb8Ac6CUvO5PmXnF1SJgQ lpccGtotQvwHO+SJodetz0yPhDdLwimFqEXYJ9xHCH2+JAS7zhnDhJ+F9ypEyHMkYY0r5Hkk+v3Q p5tj6quH/g5WHiyluTokzPQP8Mct1Ty544gdwfMM8BFdU7dE214TWmUUVfsi8H0gOyUxgcUr38Vl 3+Dp3HYXSRIieB6ACJVpRm4CZAkWpgnmpUqDgy5Dna0JaAJs6VYCM5HnO/2c7zTG1AQow3zvkgWK bDcHYA70cN+fttLR4wNoAr4WeshTtBF9bykEAblaCRzt6OnDI/nITpQCo2YieNJHpFAkWJouMTt5 QpM/OgQUpskUZ0buHNrQDevjUqAoS8Zh9NrG34k1eTNhxocJJgCArqnngdNgyU2aS7AgTWZGwvhK zCVDaaZEZoR984lEdpJEaW5kI4c2hLD2Q/DmKqS6wvJ0NJJFnuNFTKuQS7EGVyQhyEm0arAjgkJL doI3UyIpBs5epEh2ClbkKnhcY0+bxylYlSczf4Yc8AUEsR5MjikBhhaNWxHMTZXIcI/eFGS6BUsz ZBzXMbI30UhQBN5cmcxR5h0kAXPTZMryFJKd8W3G4tyIWuMAOW7B3BRBwghqUOARLEiTxt3OxhKy ECzNVigcYTAq2SUoy3cwN23wBPN4YtKcjpygCOanCS73mbT0WTIoCViQKiZVez8WCGDeDJkUl6C2 1Q9YHv78GRJzZ8hXRSTHE5OGAGAVXE6iID1BcKnXZKZHkDKFQ7VyPBLJTsG5ToPijMDC1Xgnaghi 1QQcBzhx6hQyo6+2SFAE81IkEpXJVlyRIzVBYnm2gnsMjmt7dx/P7A5O9JyZ0IQFECsFeBhQT9Q3 ZFxoaaa8pITUjFwmW3xhvGCaJi8fqOMXmw7aZwE1AL+NxbtjogC6ptZiDQg939Hdx6s791BzYC/4 +2Px+kmN85c7+cZjb/DjjdW28X+CNQB0Lhbvj5kPEJi9+oCiah8H7qs911TQcLGZtaVLKSgo5J2m Bn7D4Mmdx3hi+zE7ju848L90Td0Zy3TEvBuoa+p/YcUQ/LR/QGfLvhpe37Gd/p7YxhfGE8caWvjK r1/lD1uP4jfMXuBfAW+sjQ9xrnaBrWYfBRYJAWuXF7Fs0SKQ5MGlVtLgpFF4pG34Jy6TQYFrSti1 kDRJ4AhMZikS6AMDPL71EK8cqLOLYDtWzH7UDoGKFHHXXUXV3MDXgbsAd1aqh3ev9pKVkXkDEcCk 5lQj2uYDtHX3gzW3/z1dUx+KZ9nDJCCAjcCu478lEFG0YuFs1q9cjqI4pjQBenr7+N3m/ew/HZzX eRz4RmCSLO6YNASwoajaP2C1idket5M7KkqYN6sgWNhThgDCZOeRMzy57TD9uh+gDviSrqnPxbN8 hyLqEUHXC6Omaq/krXwcyPPp/uVH6hppaWtlXm4mTqfj2pE3MYoIGinSx/40t7XzyIu7eONwne3h 34cVs3/w2rmPPSadAoRCUbU7gZ8Bcx2yxB0VSygrXhBe8yaRAkj4eW3/MV5564Q9qXsIq2v3VhyL 8ZqYdAoQCqOm6qTkrdQA2TDNtccbLonT55sozE7Dk+ieVApw9sIlHn1pJ4fOXADoBP4Na33epGjr R8KkVoBQKKq2EqvLWArwF94F3F6+BIcix1UBTL+PV/YcZN+JBjuprwKfi1bY9kRjyhAAQFE1Gfga 8C0gNSslkU9sKKV4dm5cCHC64Rwv7jpIV18wgPNuXVN/Fc8yihRTigA2FFWbDfwSeB9AxaKZ/M8N XjyJrpgQwNfXw6u793PyfHDr3UeB78Qihi/amJIEsKGo2meAHwL5SS6lPqzfAAAB6ElEQVQHn9yw nHVLCoNh2NEmgEMyOVZby5bqo+iGAcPsuTPVMKmdwNFg1FQdDHQZkwb8xurqU02cON9M8cwMPG5X VJ3Aro4rvLB9FzWnGjBMUwfuZRzLsScbprQChEJRtVuwpHieLAn+al0xH15TjEOSrksBHMJPzZEj 7Dt22n5VNdb4/aG4ZTaKmNIKEAqjpqpe8lb+GtBNkzWHz7Yoe06cZ35uKpkpieNSgLbLF3h5xy5O NzYDtAF3Y/XrL14zMVMIN4wChEJRtWKsXUzKAe5YMYe/+YsSEp2OMSmAZPTz1sGDnGwIHtb9AvD3 U6VrFwluSALYUFTtS1i1NjPd4+Ifb/eydvHMoF8wlACKMLl04Sy7Dx6mz1qUeR5r4mZCl2fFEzdM EzAcjJqqPQEncU6vz79465Hz1Da14p2TRaLLEdYEGL4u9lbv5dDJM+jW/i4PYjl5u+Kbi4nFDa0A oVBUrRJrP+RCl0Pmi+9dxkfKF/CzPT7O1p9k/5HjGNamf7VYI3lb45rgGOEdQwAARdXSsbaz+SpA cf4MWrp1Wto7Afqxunb36po6OXbDjAHeUQSwoahaOVaXcWng0h6sI1ePxS9V8cE7kgAAiqo5gVVA u66pR+KdnmlMYxrTmMY0pjGNaUwjZvj/Nc8LxyelBGEAAAAASUVORK5CYII= "
     preserveAspectRatio="none"
     height="24"
     width="24" />
</svg>
