<?xml version="1.0" encoding="UTF-8" standalone="no"?>
<!-- Created with Inkscape (http://www.inkscape.org/) -->

<svg
   xmlns:dc="http://purl.org/dc/elements/1.1/"
   xmlns:cc="http://creativecommons.org/ns#"
   xmlns:rdf="http://www.w3.org/1999/02/22-rdf-syntax-ns#"
   xmlns:svg="http://www.w3.org/2000/svg"
   xmlns="http://www.w3.org/2000/svg"
   xmlns:xlink="http://www.w3.org/1999/xlink"
   xmlns:sodipodi="http://sodipodi.sourceforge.net/DTD/sodipodi-0.dtd"
   xmlns:inkscape="http://www.inkscape.org/namespaces/inkscape"
   version="1.1"
   id="svg2"
   width="64"
   height="64"
   viewBox="0 0 64.000002 64.000002"
   sodipodi:docname="folder-tar.svg"
   inkscape:version="0.92.1 r15371">
  <metadata
     id="metadata8">
    <rdf:RDF>
      <cc:Work
         rdf:about="">
        <dc:format>image/svg+xml</dc:format>
        <dc:type
           rdf:resource="http://purl.org/dc/dcmitype/StillImage" />
        <dc:title />
      </cc:Work>
    </rdf:RDF>
  </metadata>
  <defs
     id="defs6" />
  <sodipodi:namedview
     pagecolor="#ffffff"
     bordercolor="#666666"
     borderopacity="1"
     objecttolerance="10"
     gridtolerance="10"
     guidetolerance="10"
     inkscape:pageopacity="0"
     inkscape:pageshadow="2"
     inkscape:window-width="640"
     inkscape:window-height="480"
     id="namedview4"
     showgrid="false"
     inkscape:current-layer="svg2" />
  <image
     width="64"
     height="64"
     preserveAspectRatio="none"
     xlink:href="data:image/png;base64,iVBORw0KGgoAAAANSUhEUgAAAIAAAACACAYAAADDPmHLAAAAAXNSR0IArs4c6QAAAAZiS0dEAP8A /wD/oL2nkwAAAAlwSFlzAAAN1wAADdcBQiibeAAAAAd0SU1FB+EDHgwbAqiIaykAACAASURBVHja 7X1dj6xJctYTke9bVX26+3zP7Mx42V0wBtkYsch8SFjIl8ANXHKHhISQ+AlccMc1d/4D/AOExAUy QoBkQFphBEYI24jF1toez65n5pyZ091VlRFcZERmZFZVd/XHOXts9oxq+qM+uurNyIgnnngikvCw /+iI+/WIx/3/+E/D9bnPYx50we77WvSW/+YfRyN4iN+/cwOor/P8Z//WI55WJ8gb/dFv/fsvdf3q J7v/Hl7g5c//nedQpe3l6y+/+N//9uohF/8hDCA+n1bPvkWXn/82ffTdv/tzr37w33/ryXd+4V8Q +BdURfUdX0m6w3aht7XN7vze6bPf+94///Pnn3x3Xr386T+bNxe//Yf/8199Pryte4UFeoD3SX47 /fBn56ff+Sv/mNL8T4ioviuFguQne//W7kDVbhmSt/96e/XqH/7w1//lD+pl7Y3gTv+m++76eFuc vzhJ0/yM0wwwgZSgUEAVSPf4M/T+x5DexekDvaZARSBCgOpEwLzn48dLom/bAA4tPgNg5rTkaT5L 0xLIawAZIAYRgchXkQAiEAhEsO/Ly5HdB8Tf2XP8t2SG4M+rj+9Nwx+rR7m6way0eK2dx6htu261 i4EryL4qAAGUoCptVew5qlJfpzweAAQq5is1vqZCGWAibIUusL0ilK2k5eLuWNytQ8F0TyOtiw8g pWnxaErzizTNyJpVFcR10driAuVDYVxEX2xFNZL63Gpy5X67Nyxd+79S+z3VS1KMRKsFxSs2XDcC SMmDV/srpM24zBCIAFWqf5cAQBlKAFMqxqJq71sBYnu14L2Vwhs1Q2OApP5uS4knntKZrZkvfr6v 25nusfs5fE0AZmZ+zCl9xClBt0SqNCwkl+sQvQGaIRQPEHZ83Pn2c3nJBj/8KfXlbNs3W7OF0+hZ 7F1r/VPo3AXUFrMZY9ma/r61/R4K4rKb3cTKn9TBr1STBJFAlftQTmqGJGaVDCUBFf+gE/NLmRYf APg/9kJbe7IMi38rL3BXDEDD4k8AJk7plBO/KAvJILIr7Itvq8Tmwjm6/LCQiCHDjaZbcGqOAkOI AGxB4qVggPdcmfg3VQFuu53cQ9hiqy+2ewb2RW4GpvX+4DtIQeYFtBpGApFCpXksf10QmSEUbwFV sKqC8JI5PUPBAQgL/04wAB1w/SkYwKyqpwR+Uj11XUiqu5OIQMx9jAeF3Y4OCyA4BTIfqxE3VJuh tlk7/NDvCwpGo7arCVqfXz1BfWCJywTbodXLKJQJrBbD3Q5AUAiYuIQIJSip3enGpfW9CgisWh5T XZOHBjHDIyLmJ0R4YgaggwHoXb3AdI/djxD/JwAzFI9AfOYxuu5ku/EQrcvFtN1pi9sBxgEDEJvn cByB4OYdV/gu5B4b6JhUkBuLhSjV3koq7iMwWdQmhNhPNY4r2JyAmqGyh/vyuurGSYBo26oEsEOA EGocGhKxGWNmKJ1B9dQMINvGE7vRXb3AfUJAXHzzAHlFRMsaB4kHkFd2v6p2vyuLa/dbeAAVN1x3 nBkDD+7eV7OCKkqda9fg6h02KjWv0Vw9QfyVHbGH5zk67+K6P8DBYP2vGI1qdV0W5gnKClEpC9/h EweLAJsXKcYpIGICNInkFYCFGYDfOBjBW08D96H/CgIBWlWE68BOGcRm/Y7emewi+Tbg6viap7Bd bF6Cadi+FRj677l6kQi7OOAvYupzpujqVcF1Pdu1JA8BFMIAK1QKDkAND+5L7PHmvsv3xeiUymPY jU7UNkO5nyuOKO9BNAOUkADKW4GILmzNPPTysPtx2zAw3SH+j/cFEDg/byDb3L4j9wrE+vRvHxBU /37wEjU9q89voaQsTP+x3ehqOBg8fGcsDk4ruG9exX9WCowm22L7Y0lDXg8QpfJaYvjAQpP5hxIZ uPAFpFKxgjuEssMSoIpctwc9CR53NIA78WPHGIAeIIA4vIHEabHgafVBT8RwSNsiqePuvl9oDwXu rH33U8UBxYU299/SR+reIXXgjzzHrj49fCSNub22/0fXHMKIcjQ6rbvbX54NKxSPAAt5RgDRCNi5 ZZiqFXNQdf9GCTBTZoam9JTnk5VsLq6G63+nFPAuPADtAYMJAPO8WvC8/KBGZ+YKAIl6UFiRfkF/ gSsIC9oRSO5TtAAj7HIBGLOBivRDqkhxi8NXrLdzDVex7nxz477TMRhbyCYU5bGgYUsSm3tvGYCB DgCe81MIXA0KEimYCAR+PC/PTq42F68HA+BACr11HmCfF2CeFotpXn3DFlvJWZ1xpxOFBaa2sMw7 u3p8/j5OoBpc8OsUUDUF0qaxdXZxx9BSswUFWYD3xW98hlHB1SgKV+Ag0bOBSv1WHiBykWYEjAYU pXimnpnUiu+IeJum+em0PD29+uqzNCx+XJO3mgUc8gKcpuWC0+LDsljOow38PrWd34eDsKstFqM+ r+3gyAxSRxHTsNs6dGiFKe1TyggHteWUjdxpuWOJ9RoIwEAYkT1eNLCEFEhmavWBjnouIJGsBgDm kveDOg8i5g2IkKd5+cG0Oj0dFh5vGwPcVArmgnmmmaf5eeT9yXPZyt5RKw7VRUVHB1ej4EAQaaCJ QSEs9GBw2NTQjvql4Ol7V9ulBAEotqSiBuoWwQNEIH991f71Kugr18GJp/K7BKjU5xUjY9vwuRkf UXkcEVKan6dpeTLs/nsVR6d7Ln4lhJjTxJwexx3Xu/yWhnXArzMOMu5Am1HEimFXI6Cw2APfT7qD DeLjKvlTAV/0BpFB1C6jUK1lvPq+vTJYU72aEbS9Dvs9CFCRkhmp1BhQH6kKsEKV6+uRGSoTk6b0 hNO0fMiK+ENUAy1kp4konbdf9Duf/WfiUN+n4PbDgiM+t4E5Zm4pH/VpobtRCoCOQopHoY4T6/dM Vj10ttY5/mrAZjD+POMAYsEH8flONpnj7126QJ0IA1fix/0CEVkkYcBSxIp4KDEonRLxNHAw9C5D AB2kg4kIzMtI55Ln+fC8edzxzhaGnwfm0Hcfh9SOw2s1GJAKiNK+7NzVF4JvJ9YOLnFbj/a/mgFG etiIICe7atVPQ0gosVwr0VNSO1EOC63B0LSqf7xQpgYbyCtG5YKySWvowFrQbcmgh8gCPGhPBnCD AUTw1owCkd0jHip8bjT+fAdB3Lt8d/uBI4g4AWOJOF4f7or3O26/Ur8V3Ue/os3jKBqqJ6eQC9FT /o5hAlEoOCR3jk5y8W4SbY5s0bk8Xyx9ZGYrKqYbFv1W0qTpnu6/GsO8Oj9vNQAKN95l9aJn8JTQ QB93nMEA+hwfeGoIanV76qr9xgdobywamcayaFCt5eOK+VXBXL76fU7stCtrr18FIVoxf7zulTyS JiiplWdwwXykIXWUHpzatykloxPmsxt2/lvhAWjPH0HY/TydPHnZUj/ujACx4BOrhMP3TIMSaCd9 3A0NXWmoKy1bDFcKbr/QrcX7246khto9hlNQ/kSjrnIwDZ6guvCgC1AZtqWX/YItKqDEpRQckxFw xQ9hJZU5ERGB59VT4pRU8oMYwV1qAft4AJqXZx/4hWLqS8GNCOIB8aMLDZ0CiNpz2gLuz/2JenkP hephMz70opFK73r6xrVYU4kiDcRPUwsYKJWA8D1nL8YjkrBfuDvcNKaazbMQaQkDHcGZQMRI0/IZ T8s5r9/QLULB2xWFMk9pXp19wkQgLrwlxZgfFxnof8+7u7wzBgregHbFoj0nMJaIBzGIp3LcCB7U EnFz36pkYFKDsSlk0PZVKzFJV63ycaACPB20dL4rrlQQqW4+EHIBCgXqWcxD0nparD5I88loAHRX NvA+eoAQAojTYvUxEYOYiQOzVzUBTAHIhZyf2i6uYJBphxyq7ABRnyJ2BBANdQJ0mYXGwpEGooh6 7R/VjKCVZ2uF0zyNVAqYAhUsUHUtABm1q5BA5pSfCzCsMjGvFYg22lm5ZBvmnYwuz/Pi0SdpWszX hOR3JgoNHABTmpYfEAHJ3HwBddyne4Or56E6yES1nwAxd3eMwFZWpl763UnDmHZ4wFE97EodHUrE ne6z8gbUBJsu+vB0LRaAKttXKn9RR0qe2yczJlEIm+ClQQMIG+upCmHtjRQEZtZpsfgwGADvit5+ DCHAmMBnvsjgWO41DWBw/woKuXwPFjm4/AYGo+cYdn+lA7iLp15f6FnALp0PhVlbmNQkXzWHUrTy jAIMLbvfdfvu5gNhVJXgkNITwwoVB3cCTslqBw39q2iBf1Y15MIcdFkFc2JK8zNK03SABKK3bQDY S0IQMXE6N064pmjd4ofdztSKQTwUh3ot4Uga9XGedsrIA8zr0Dx1hA51tX4aOisUQGwOoVb1A5As VlMgcTx9LEUj9vVtGj/W5gk8Q4G0ngFubGIrXzBUpPoYYmYiPmumen9K+KF4AFbwie9wZq6LGDOC vgg0ZApxsavxUCcF78DijpqYMGDAQCk72qcq1R7dAe0R1TrP0CjCxhD6SzQMYM7aYr3vY1f3Nl5C LVuQGutxqHXWa8b+fmjiUjEiGjwA39UL3BcEcjHUxEQ0qVntvsXfSQuZhpSwDxulpsQ9wKMhgwjG 1LeGUQVcY6VQq1yt5QE71C+13h0KbF/b5S2jKEsjgTPg0AnkmQA3USlJAXpW/vUE0r/qgXirADgl lhJ20jXl+XdWC6hChMWjZ6cV9TP3BFAUgEQpGHqmsIWDwWDqrncmEDutZkQNAzB1wvP+SqppFCNT NwreNLSDKULVzwUfWgmhmhEqd6yg1ucOeb9JxsVDR2X8GGOTm5ivAAFkarJpmovtzKvTQQjyVkPA da6FAdDq/BsvtCHVXRaw0wFyQfPBU/TsYJCIuwcITR4dvxAbQ2tFEX3X4KAEU1DwAL1390bNruJY d+7QOlA9gFaBR59SNITv3kcCT1CV8RIvNJsPUJODE0SqNEA5TUREmFbnL3ZqMfvTwnvXAqJy4iAQ XJy9+ISIwcwGAhFq++UTs+kEGAMj2O3wsjg7mkAEFjD0G/Q1gj5L6OResdWrrxKF1q+C8FVTYwKh tUBTijpBsOWW425AvYlDKqbQ8LfcWAAFV8m4gqhg/V4xVMKUaCdlpFTK6jovzz60nJNu2KQPXg3c V4ak5cmTbzIRUkqmBQxq3sjbh8JQ28WNAGKmvmG0k4gFLmHI/2PrOUUVT6cT1J4ZaqtT6gNhL8di UhVseIsXXL7d7lc0TQGU+8WPK+GPCZ1IGlrba2+AZIglgmNZjwiXi0fnHxNPrHmD+6qC7qsKRqkE PvopKru/QK9QDq7unQfOn/piDnNqnT+2q9k6d9R+H/kAoqbHq8SSCUtJB12glvyaRpVQl/vZoglV Yag53rIjVWuJWETqgooCLMUoSut/AXp17Soj1KI7OEEl1wY3ghS2UEqwV06gnEOXqzRlUErbxfL0 W0TMuhsC6G1lATTE/U4PmOblR4UNSrt8PxESc2XygFjkse+7sEFduZe4KYFaaTikjTVljHKu3v3H rhAapYEx+6eYDHhoCKIOi+kpsa2VFtqXXTns+oRkJJHUrKFWem1REzNEQq3BFEjiCiJOUM0hIS3X MKWEebH6hIjSgbj/1qqBh7hn5jS/YC4L3fP4NHT3BE+APkOg4CVi+Ojp4749HEFlzACUW6evE0G0 hyirgt9Ycw2YQJtOJHT8aufHE2sxgs79U63iCQW5t7l54aYsdjZUpMwKINLS9CKlFiGqYOHemwDg NDOl6QUR8wEO4K3zANhVA6XHBetxv0gcQgHv5vrEXFO4tvgmCqnUMA9EEXZ7DbxxFEPFkHnP9qBK tdYegKDLa8V56pQ+XtWLi80sVczp/Tz+YsyAqKl6VDu5iCuASRRMDCGpNQCXgzHIMCcXYGlGmThN IF42f/VuZeG0/0arJtoc+f0+3YuLz4EFZOzTEPR4gYkOLr6LP4i1Ub+xmNR1f7vBoE7qKGxe6VRi y/s1cgFRv1f1mtwmg5CCxVU+WrMU7/Nt1X5vJ9e6jUjKIitZoy8VF9KpGi0ccZpYBRO1qhe9KxB4 0CCUaAUAiaducerujwbATTHk5E8tAQ8uv6eRvRLY0kaPi25nxWez9W7GEDA0DLSu7lBGbhKx6iHM 9/Z4jqqLhjWLqu3gOnamLrNWQliIC8gbqJ/C9qqVf30iWLfu1lZevqZpkaRMDzvUGfROmUDitJiL JBfgxABT3/HTuWzqqOKOKAoL7lxC9CLcoX/sys2qETVtYa+PaPJx78TliNDN9VZhiKJ28SbYyDZP 3zR4CQefvteJwGIOWrweoWA1XUDD/d7uGkSnoRM6qJSVyaKAYpoWJKKYT56c5M0FX6PWfiuawB1J +OmLb71wBJ9SCmldI2U8ppMViXin/BuYPx68xUDuRLBInT4QnTK4Lw4xBplwnTKCSPOSF/Bac4mH AlIjZszd1zKxlP1cRB7sNWPLXYu0y8E+M9dxcJ7lc2X/pHowlw5VLTK1kXfTNIMALM5evrx89fu/ e2DRj54YMt1CC7jXIE6efPwxE4NNs+YXcieWcxj8MKJ7z/G5l4qzj1Tz5yuAxF1VkLrOYepbzamv BTSZV39t3HhqRc8EIM73l3tL34GKAT4SkHEGDhS9X6Ckd9J0gp04VEBSev7Z9AI+/0hCCqsiRhV3 +EV5SgTm7fL02ccAfv2Gnf9WZOE9C3j+4ttEhGlOYVATh8odt90dDSIYAkcRSagEUqgLsHsH5xOo p4yZTIjpz6M+7evmw9WooLUPvJZmvIbvTZ/150IGIRVkwCbzVhJv7a+pZWJCtm3fqBw0ZMAAiwUB e11xN2+aRQYVQyKuCiOwEkjBhDfL02ffweFm3aPp4NvyADu3xersEyJCSlMv4sSoBkafAtKwsOSy cFv80Rg6UMl9/8HQPt5NIQkUcajkBL0WhQpgoxEd9Xe6Ecd6ai1iRMXtx6ECWsp3zKmKOcgAoTQ4 adckA0yFByiUos3+MkNm8wTeo6BFKDpNc16enH17b4POLXHAXWXhgQU8+YgISGnqKd6xMYR5qPeb R2B0+T6PWQAPRFFnQMG4eF/DKPoWMg2gsZvw2Vq82JXDFFJBsVTOixKiVrmDCTcNvZMYeKMK3tia Skr3DzU6mDz+o6V+QX/ofY/sw6vUZevANE2YFqtv7ln8TkryEAYQq4H7So7EafqgIPc0SLl9HmDk ANAh+DHNw55FrjUBalPCeoAYvELwQBwWvsZ+oq70qqSxFFBFHUzU1fs1EZKW6V4F6xXlT+0IFy6k kDoHwN08MVEuCiBr+1KyeO9aZ58PZL6CWIE6W8goaFbrFQTSNE+c5g9uaNg5aoz8/YkgTo/VW5eC 6+cQi3txZ/EKPABBGmRho65gZ9d3XwdRSP17QSmsvLMnaGdAdCsKETWAVlG8pXRF1d1au4VCuidt mJwjfWKAhSEQqCt/qY6LgjCBtej/yHsSmQrItGvIZiRKAKdFAvjsGg7gwUPAIdqRAT4BFJxS754H /R5jjwvnsX+Qq2foHoNGJxe1uWcJw1whavl/N3vYikqtVZuCYof6MS8WbxWpjHGrhE6c5dfKxwq1 3U8QFZva56P7QpI39C4WsCqh9Vx7RhP9+yxUdPmrKS2mXNqP7hX/H4QIArBUKSxgLcYT9vQCNLKG KYSCUdsX6wc7reY+cLqfOcTdsOl++kgUh3RjaAPwqxyCLYQ4s2/GV1q5jQzSNtHDw760thVoXX/v BS7G4F5AIchW+XPRRykCufuXRiCFyWKVHlBgWsxJRNOPkwquRqCKSQ2YdCVaHkbF8tDiFauDkSsI qaNrBOPMQWLuMw0eNYYRDwxdQh0lTN0k7zCmv3buen0/WawX4aoAFrW0zQadFZBnkz0M3aMCewpD yNjukjYP0Qo+bUIpgzR3c4pqHYGAOS1YxIOL0n00AXf1AFykYC/PnAZOaYpzDPaodrkBuEr5UvAK qXUH+31DCbmOnqvsYj9vKOoGXElUUX4Yt1LdfxAHePwXI2dK4b+lg6U1qzSFCriEhaDld6q/zvmP AiQfRyfWWOKDpOtA1GJQLgFnWGFIXUUcppyoYrFakari5Nk3X1x8/juvb9AFvhUqGABoefr8rFSB h06doZkzdgHVGQ0U5wW1cbIu7hjB3wgKuwyCCQzuBktR2OUcd/zgEbTm/kbiaCGUJKiE1IwIKmW3 amP7DJKE4dBlwqd0DR0FSVZU7xVL0dopVUJE6TqqNQEyYVgNEbFuoNt59fjxxT27g6YjW8D2EkKL kydPTQiqxKEvh1oxtA2ERCcFjyphCiNkQRSqfO4duCeOKq+AMI+gbzAdZwxVjiBgqzgwgsNpIgqb IeB139rm09o9YO1eEmTfBEsTqRg9hOrwaKFA/TrfwI782+kkHusZhGzl4drHUg+oSGDm7Xxy9vRI 138wHbxXGnjy5MNvMRNP00wYx7c21FX63dGoYEZPE7M2KpgD4geNwyZ4YBZ5t7Dku2mcMhKPFaHG 5lXpX2wH1zajj9zVA00B5PiebYaPNXy6iIO6MbDSlEbhFBC1odFOB9fmU+splGqwFMBqA67zlNYn 5y/+FIBfvWsKeCwRdCjPpMXq7GMC0zQtgrKqp3kJUR2EPUjfFw9dYSh0GPbFI24hYKwKduEDvLP4 8aSRsWKoUKjEzsDQ+qVlNkCiQs6Iy7xIwNkXsXH2RKUWUNvbqlzMSCbRSk4R289M0Iw6uoa0KYXj YRZevpjnpS5PHn/nmlT97cvCp/nkQxBomtJAq1AnuAyn5YSsYFcFhGhAPGYGg7iEaacNrdUJtP68 UyKO4yNrzd52VmpVQIXWSW1qaF4t2DMLRAo5I1zGvIigtqhV5o/KIBrRXD1TGRhFbaxMeD9M1nlM TYKOeDhF0IbPiyVvFic/hcPK4KOygemWu7/jAShNL6CgaZoqA8dRtzdqAQfFL7o2gH0C0H7SWASA THuURxxYSO4FJIEe6sq/ym3go5Ox4rUBNh4fUg56cGbOgBzEuD5PHWO9X0vcR3ccTdscLQVsuAPG /lHoPKphxUOB6RgLHZxeHlEOvnc1UA/SwJTOQQS2FNAacCsxM072BA2HSQTlnGcGfb3A5V2oqaG7 fsSxs3uKSK3NLLRjx3FwiuaegbrrVUzU7XUAUZvXW9xzKQNQpWx9GIYGiXexjcbdE/khEYXiFWmS Y4oqpSr+0ApWJZJWfl0V4LRkETp9230BdF0WIKAT1UID98Ohh1o8WhGnaQJKGTgubl9Aimwhd3Iy jgwg97RzzRg4ZgHcScnjG9Oh108tDNQpD+bi1cga8XjOrf8P4voFQbauX5Ly2ZwC9pPBtBp36zKq EnYNHgZh7K22qee+G9M0T1lkicMDI+mhMMDB0TAKWqgIzWluR8QB4dAmR/aRmRtz8SoiC8fGoE8V edAAElsm4cLEYjiJ9lQJ0ZeiY8zVUMfX2vVL5bjWKhuOvtR2N9Uyjw119HOIfPeH9q94JBzbdHBq B1XR0Lq+c6CVaidqcfHJPC15m/P0LjuDdm4EmkSBNE1mpc7Yocu/K+vWFYlCoYj7YVBjLaCkVLwz eDqSQzzOHgiP5VGcinhWn194qVMAlK1XX0pOLt4aRkX7RyxgsWf4QCeSQCrZ7vfUrhZ5mu7fD8EM bFRoSqG+pYz6VJUAnZdLylnuXQvgu9YCptX5iggTEQoGoMZXm1Cus2YKwxw7P9UG+A1oPWIDGJfQ 8EAcJulun0N10YEiW7dSIayo3aybmexnYtMkhvtrtsGNeOL4N119bB6KgX4WAvprgGHKuYem8QRV DBlTf2BtecY8LwAolmcfnONwqzjdxQDomCrg2cs/+RGI52maWlMmBaQa1EHaHeQ8TAZBSNViRa96 +1EBTF19gYbGU464Iixy/ZkYRGkwBEIKz2uZBneEFYKu0RcdRDvGXTMP7inobnXiTOvIktcPruHC E/rSVTHoRHR5+vyb37xGtqc3EUR8B9cPAHRy/sHHxDxN06KP5S4Fx3iWd1tIpfjReqIjkHXDTrcL xdjDC2CHJyipYFjkZIuc7MYETmwLT06v1ud1NLSDUCCUpWlv6tqPu2EntXthqqJrQ6cBMrdTy9CN ywP1hjDP83p1/sG3rsEA9FAYYMcYFo/OP0rE0zTPnWisH8MWpndRP6ptnOZHGtI7YEfvHwrNtrto VyvgaJ+pTxuJwvkFAwhlH9VeSrXCWuK7t+SxdfELwrlDjZqlMIaI7ShYleF4mCo0pQCWfaRcf1JZ PJamNqJ01ez2mHm54OWj829j/wli91YF0zVNoZzm05fglKZp3n0KjYejxe+Dz8NABGF3LJzPXaIw N6BDCWN6yYEoirMJuk6jru/K6vtq6ZwJQiScQ2GvI2FiWDscog2JpjCupo6AreVhraGutpIRwmki 7ayD8nJSO4sRjEPC5PN5Ppm2y0ef3JUFPLYauLcWkObFM2JK07zoaNYqcQrcf02hIjkVNXs+pDEa TigQ+VNs/ETnHSgeAENtBmGHCdA4hzETQDj7R2BNmQQwK5CtL6Ml9MXLeLdvAKTeIBLEY+VvCWqP IdA6i+Pw6XGOcGxKdbKhcAhNvQwAabGaeFo8v09vAN8BANohUYtzThOnwQPUXab7j7PW7q9Q65Ad /iRzPA94PP1j5AVQC0rhAZYmcocbEiekZPOMqOCABhAHgMltV/vLMulwwHWL6QG7daebqobpZmH+ YU3/hitfMZF6qkrdYYaOA0r8TWMWcKtGUb6tCAQA/fRf+3v/YPHoyS8xz6S6O6ko7o5IpIAw4Nn+ vKaGpLUVaKLnH6EzwtTtcPRsSEJ6GplTAIUcFr+FiEQRzFBnUNUUwoJ3J8x1p5vtAuPxPCPnCBr7 p2FhhtkGdZyZhoLQaqJp9ad/5q///X96YPffOD/o2Cwgvhgp8RKUiDhhmhYVptaLU5lU7aZ3doc6 xN68MW2tZElQGelIIMYeatqdJYwh3xpqCREgmotoWoEOwFIrckRGBklJPwAAFS1JREFUbji2rvs9 7enLpFGT6M9vI6eVKEAKHY4+ip/Jzo5JSzb2cnFXdfBtmUAPAScqQqrA+ctv4vzsDFebTdEFsos0 Uq8ANoCWaCBfkOouTYnx+OwcsMcxA6vlCilNlrqVJtTk31d3bikeo94SFDyVXtI0lfeRGOW5U4Ec W1FIBrYCyBbY5lLWzQJILl+zs4GiyFmwzYLN5hLrq8tSKFKb6EWFDRXJyCqQLBDJWG9yeYwqJJfz AF9ffI20zdhqBmeB5NI+7uaSVTEBUHueZkUWgcgW201G3qyxSoINA/J7iqxYYM8Az2Mygtv2BZQi kMgq5y2SZL26uiLmhGm+76yJn/y7zb83VxvdrEGSFZLzErtnCT+IHmDfjS9f/+g30+L8zWa7ffT9 3/g1rE4fY3lygpTmpvwJMXmc8UPuBaIs29QyJycn3R9fLJeY02QxOxUQx9wfHxOBoXHHhD3VwsAv qCq2OVtjB3fjYL0nsJSDxcrEqNPA6+hOC3M2sQNZtJ4XoAqIZlytN6W4lItnUFFcXF1BJJff5QwR 7zp15pJrw4pAoVkgIsh5i+1mjavLC1x+/YquLr7GRMjry69+54YM4NYY4LqGUN7m/OT1689XP9mH 74En+Pp1yjk/sUSabygPX+sB6EgvwKL0je3VBf/tv/U3t4+fPg0nKusoyyY7SXzo2OlGvxfqg3zG aHm8e4qchcQ0tTuDJrGrLRxnFAHoRCJKDZdExYuX//0bPxnEd3ljC9shj62MrG2ugN+MEUmJNL4O oPYLo6C0nj9Iqm3yaLmrAEERbROJRfxz6XazwS//8j+bEuQJ+tNE+RpdQIcDbiMK5YYBtqS6xR98 9tn05vKqMm5Vo8e7AyDaFHHe2w9Y5VxhiJQPlNpR+zjQ9GpeKB7VHgTs9hUwt9fy6iBQLrColAtt 32vV/tvAxyocLayhu/ryHCnP70KGQlQI/nh/nVx6gvxU0TpMUvufIVKAoxtFvA/l76w3G2OQMvbE /qMqvdMNi449L8oQJUzAD3/0Q3z95sIWK7W2Ll+4uuipI1y6BfTZQmFhvdWcveZvRZouhw+VvsTJ Mrny2MRtwZPl/mrHsiAla+Swnn6QxfByf865GkND88UocpayCGL3Z8sC7PmSpRlSfa6YwYTvzWiy 5GZEqmVGsC22ZIGq318yAjeaMlyy4AciwsRpPgAA97n+o7IAulYNZFM7fvjZZ1iuvq7zfeqi+4Il mx3ki5GcmUt1qiinhEQJnIqhpOR1eUvxiJHYASDV53LyBWaklOrfa48tFcCJxR6bkJLRS2LvBU0P mO2iiwiy3TQLtpIhWQqAszSwALKygCLtZxGBSrb0cmveIVsKZ8/XbKDOvE4u92s1sGyPNWNwQzEv o/Z+VAXb7RbTxIBinh89O928+fyrI9D/0SGADmkBio6D8MWXX2J+c2k5/WRMG1tp1fP1ZLsygVMK +XtqbjnZ4+0+TraonDCl/vEp/DxZZsApY+KElBPyxEgikJSQlKGp9PNMHqNT4Qt8EITH8Wy7M0su i1vSq/CzINvPIoLtNtfFy5bz55zD91IRfs5uBBkiGdtsC1wXtz3PjUllWw0i5xw8ihvdFpKz1T50 sTh58mTz5vM/uKEmcG8iqKv1MfWnerXGDwyFl90TRLBXJr47TUQDwdzVydEaOv1nISldRkAXV8uI FwmNIGLj/xtVLe5aLRSgxmb0B0TGEi7tJktxMlk/Kr/VMJkImWKxbBx4BWTySSElnJW+Ax2GZNQi U+I0rwYAeFQaeNtp4Z1lOfWr2DeqWhul2bTX9QweBzbtVA3tLnRF5D6GQX2Qo7ZJHg7GBBBSJG2x XqmAuFLe9Rld2Tp4TPvfZQEl13dP0OKyx33tjErCZ8ghn+9Cg3mEbt5Q97n6yKyxgqYauAYcPFhK wynmN9Rw7tUadsCtaBdQ6nINvD0Nb5iDCrdtsT71aruYIEJ2hErzChqIElKxCVpaiRn/OZtEW2IB KfQXItQt1IZBOZjLAYl3RmH9AlVJDGkgTwq49A4j/xzRwHXIPXU4cVyjx0E0Ft29pnWwwd06hO8i Cx/2ufmc7kPGFdd2PErnTu3hrOGgRUW7HFoHJSznMrIFYafWOf4xTRJFtoMYyVI4IjV1j5RhL5ot 9GhtUdeY1lkqV9I6R+7mBaAVpVdPo40lLL5YMXHG1dqOhTEtQOMH2uev3ICOS+2nkI97PRqd9r0/ h3f/vQxA94cBaUqKunph7k4lSQRKKVQFG2lSlfl23HodjtvtDALpBs+XF3i1eYK1ciBmUHNjUZva pUV373N4G83MSOxdSVxLzhoukZMt1ROIpXuqBsr25O5dPl9+XvAWj+cv8ftXJ1DMgdhplLdfm2AK 1ooejUH764EBi3TiQiKblHk0+r9LCNhvHcMpG8Z1tXq+zdlTapM2yswdxwAthrX52k0fT7rBSl/h 5NmH+N0vYdO040KkmtPncIq3iNqkLzauvZzoqRx1CW1Em7vdkmKFnZ5bWBEzDBEPCxLODSKkBHzj yRL6+hVIJigtwlKNpE6I353zDEwkgg20q1KHSdaTTEReffXpb/72NTT+vfsC9r4o+U6Q8AmiS1R0 AKVSphVAtXgnDrY6VgygzStMWOMXf/4ZThYUqFetZVoRQ/o1BjfixnNwT8O2eYu83VaAtg0pW956 uqYN0GnuXrMnc7Qxf6o4WRB+8eefYcIatHnVikWWVbQtIoFObt4D0vBPxEZWWaoZSMCIJiqhxXzy +NEBzHbteh5bDdxjNxTm6mmdfRewaY3pJc2SMn4lxDAKiJ+iQYSLw+vPkHTG88cTri63ZWKmGZXA T9pgiErd+TFb9fEuhQ1s6ZZQHtJJO7czVPh8p2swCM8IIl3s7/nqMuP54wlJ1+D119Dpo7DIqF9F tN/pGpG8dgA5IKIe+Qc3zMTT4uTp+ebi1ad4y0OidryBh31Rb4vWNvdOI9ptH4OGXe6u3I/iiLuD tq8BPAMA/Oj1BstFQhIBb500UjBrifGsRibBKOUywTu2lPfj43o+wRepOBSpNG2ldq3kKwMDmPMG OQterXPLjravu88hdaNoHQccC02CljGonVAqGt+XYyUNWMKfIxOnxfIuofx+Kg4djkatCluttfMu 9w1YIAInP5QpYoOSy0v3GX7pL7zAPKc6YJr3nEXI4yDpSMYESVZUbemYtYSvfUjaf/O0cbPJ3bUW EdhZ89VbiIM9A9ItRXTSKnjAQFVHfkTt+XUMldaxVofKv/pQBkBjYkLmOpMzZH64cohvTA3aUWe5 bbHNjdj4dbJc3sKHZFxeXOJv/OWXWKyWdv7vkbnLTgbd8XZ7jngcPyzduI/ImMT15RX+4LPPIZLD 57MhT/459xhQn/lYaCE0VnK8Vmqy+ZFXuAOQv6cHKIvP8aBkm6apdkhyanXwhtxRjkvjZF00TO1A ZVGIHbHihpK3Ga9evUKaElarFaZ5QuKEzXbT7ZTb/HPad5qmTrx6q91AhClNEBVsN1tcXl7i1atX yNu8k/u7t5MaEgrfgJBNCKReK3LQ6YDRHS61tGHPZ39nx8Z1qN6BDAmgKWIDY+XAxbUlVG4ejCFM aD2IiZ2CLSco4PLqEp9++ikA4OTRCRaLBVJKWK/XwUWOunrduyt8EETOGdvtFsvlsvv9oYXe9zcA YJ5niAjW6zUu3lzg008/xeXVZc1sfLSYqClNY+iI9X4LF05tRx7AM4QYKjS22u7MXHhHBtDereXS du5Ndf8U8n0qhA2DkFWRCoFfj2JN5B/cDl9KDEjG/Og5vnz1Kf7Dr34P3/1zfwZPnj3FcrnC6mSJ i4s3hWvfQaV7XCL19+fNFlvJxQBUsdPPtk9DM1xjZsbJ6gRXV2tcXV3iy8+/wH/9H7+B5ZwwP/oG dJMbNnKaWVvtH1F11BPi3cYaFUoVT8UBFHecEDDd1fX7YKOY7zcWUOp4NTXrJ02Fjk02iNkmYoto nbVf+glCEYYyeHGGLBu8+eoz/Jdf/y0QERYTYzETMmZsN9vaPwhC1+TRAcA6hKJkBfM0YbVgvLnY IMehkBbPVeL8YOlSRW/jSlPCxIr1eov1trjqyzUwnz5HWpxBrnLhSsADdRyYTLS470qgkhXlrpbg TKFT0q0SOpyO8m49gM9IFCvwcMvrq3H4Ts9QSnYQQmrVOj9owYCTj10Va8+dlo+RRXGx+UO8uVyD AMxTKQZluWrjYKkfDMmdDnFUEBOINnbgA3VxGhUYhmxAxsxA6k704RWbrSHytMCTxVNMy8fQLy2m U67PUReHOKCTVmmEys5Or6lfyAzKffkAUw99JwZAfsF853hoD2keDAcU989gH8kjNimbCzBojJnU Axr81A7RMpp1ozMuLrfYbrfmsYdzBUjDuFndc6Rc35m0lx7XrrWzq0p26WGXIraDJVJKWK4mO1u4 1DeIqDKJRdYlDel3haVWeVRpr6uVJW26QkD2lIj1x+ABIB0vT0p1wrXW07jK2PWSC0uZo2vMnZ+k wKyFCLLQUIYpSiVMgOKyt/Pc9H2qVQpGoUG0H8vCOwtPYUQcMUOy9NXJroiErmRdd2VA+DlvKx7g lDDPU62TRlfeaf+q4QT6GyG2G8NZRaBd1bMJT0UjsXZc2vfABuBcQIj5sdBj7qwodWwwsq1AF/P8 jB0u6Rnb6HWxghAzYbVaGnKnuiPKGQUUDoY6cHDELqyvquBMue120r6ZNVbwgP6rsXfuXZLJ01ar ZRmZo4osdlrYsMvbDpdWVHIvgZAaVkHK4C00lt/rffouPID79a6e7eyfWEm2XaAyTYvY8nvWyoKR lhm5ytqeW4UbhTwCKS43wKN5wun5U6gqrq7WVXGzmBfdaeLdkSv7BkXvM4CUe7oo9O5Hlx8ZuYrQ RbHhLYiAKSXMiwXOHz9FmmdcrtXCoprQU6vIs6mQpcV+7YthCNSxM38REzSDAqC63ly+fv0OQ0C/ E+LRiDUzELVDkaWeyAUVqJDN3BUfsl2IJC3TuVkznBGFAl9fMhYpYTo5w5luMS82yLKFiGCe5rLb qJ1KWv4m1SPeaMjbawpn2kXJupc8HGcItkptq2xKFmy3myJ6TQmLxQLzyWMIFF9dNmAnEqRlttub zKyFBgTPgLFnQCJnEFNDAKo5by6u3hUI1KoH0XZUKttRahA76dpBnAiYyolZrFyNAHCPYLN2q6cw dpELgXK5UXzxJmGaFKePHmNeqRV7BJst1aNqgDD6leJQtX06JpQjWURAaWqTzbT16ms8rxWDEdjX bd6CIYWVlGJUFxvB6y1wtRUjf4K7D2BOgjEghofq0qVqEToAGDIFgwro3+DDYYCh0jPcRy1FIpYq Yapx32I5qKR4KU3lAwhBWeqY1ZICFm8hIqUnQHJJKRPw5opxtc44OyEQyslkiwlQTdgKYbNtAx7A fh4P1ZO5vR2MtM3xLw2eqSAP4XBmIDVZGrUhTvUs4brj3PXOIBIkATa5lHkvN4rXbwQZaHRuAH5+ 2ogrkATNSypyY0UtWxBf9FCprDWDtiyqVZTxsB5A9xnE9vLL/8aL0790eXXxspRkJzBPoMQAtnVA xMnJCSZMNa8uTSJF+UPKELGSLgmUpY5oEx8FLwzojMyEN+uE9VaQ2I6pd3PnOF8PSMNhkhoPrEQw Dkq1EhnlY6LDOUKBkpXKznEgjsqrZltUyYp1brrCvN10GoLGAUgoOQfAJ0GLaA0hF5cXXva1TuMt JG+hpbPoUjaX36/lxX6tbgwJt5kWXg3gqx98798tXn/yg7NP/uI/QpqfQBIrJ6att3uWx1/I9ozT vNKuvBknAgYKtpOXNxHJR598B4vlCleXqTsYqpvhwwfGzIex9HFMfJzVX/FBPCc4aBe6wksAf77o XZHLUzdb7M36Er//g++DOB2QdetwRYZJSaVeIrJ+84cAkfo/yaoiWfJ2c/XVp7+y/vJ3/qNKztd4 7IO6QLqmETSZgSwArACcADgrN3oM6Hn7GSf2mAWA2Z7LT775Cz938vxP/EwpClY5mNKBAubQxkqA bqeT598hpily8Tv8lx5IT2+gSeL+p+vTnv3D+OlQ3dXVxpK3F19835oRdtU84am6B60wEbbrrz7/ 0f/6lX9jO3wLYA3gCsAFgK8BfAXgdbh9BeANgEt73KY0RED2GcgxBjADWAJ4BODUbud2O7OfowFM dmOAEnYbFm4lQn367b/63bQ8fXJEYUrHV9prABo5vjjXcj+hvtdU6bjSW16/efXF9//Tr92kWLgG f7kE1FuAt7agl3b72m5x8b8OBrAeDEDGv38bEOhvwt+Iv5k12nCC+DhG1eAeNb9urzF+8X//8/du ULreeVL2A/27jo/VA19vMoRD134Trvk6fL8Na3Not9/q1LAx7u+zwrU9Py6+35/QT6zgGyTLdM3i 0oHH/rgXHkcu9nVGcNP3Eq5rvPZXwcVHY9gOu/1GIHisB5A9u/4qLHBc/CkYwLFjzK9b5JtGnbxP HmAfAtcjjeG63b9v841GsBk8gRyTFk633P0be846LDCCgUzXGADfgDtwzeIfMgR9TwyArln461yx XuNB5IABbMOuv9xjBNED3GgE054PMn64Mfav0c9/dsOYewBYQ8ChsSXXeYGbbu97CLjpdhMekAMb MIedfhWM4CpgATeCo/7uMSFAwg6nQVwVU5N5wATHnG9PR+z+60IIvYeLvy983uQFrov/+3BA9ALj Le9B/UeHgFENp+GP0x4DyDe4/oTjx5bFmUTYEzb4AC54nzyA7lnAfd/flDGMtzxsxIgH4s2N45D7 P6o5VIfY7hc9D4/JAy44tPM5LOx16Rvv8QyjF8B7GgYOUbByTU1FjgwjMoTiiAeiR9juAYG4DQa4 DtzIHlyQ7A+lId7zkYt3CAccgwXwnhrATRjgGE7gOiOSARPIkP+PGcCNqeB0xOLjgCUHwmdnTi0O LPx1wyhxixTwfUkFj13Em+I/XZMR7PMEozFIAH6yZ9M+WDFoBIc3HVx8zI6lG/iAY4zofcYCN+1+ vaNHkQMe4hhvc/TOOTY/xzVp3rFu+zZs4PtMBB3yBDiSBKIjjEcPgMqbAOadLt5N+foxlO6++3QP CNQjnve+EEDHEEKHFoP2uOh9YYCO8B56JL18ZwPAkYuKG+L8bV//fdztD+EVjlqYI6jiY7AIHtoA buPGH8rjjDvkjwIGuO6svvss/rEGhrdtAG9zZ/5R2eUP6R1+bK/1ti/2H/fF/KNoNN2//wfnycCi 0j6atAAAAABJRU5ErkJggg== "
     id="image10"
     x="0"
     y="0" />
  <image
     width="24"
     height="24"
     preserveAspectRatio="none"
     xlink:href="data:image/png;base64,iVBORw0KGgoAAAANSUhEUgAAAIAAAACACAYAAADDPmHLAAAKRWlDQ1BJQ0MgcHJvZmlsZQAAeJyd U2dUU+kWPffe9EJLiICUS29SFQggUkKLgFRpohKSAKGEGBJA7IiowIiiIoIVGRRxwNERkLEiioVB sfcBeQgo4+AoNlTeD94afbPmvTdv9q+99jlnne+cfT4ARmCwRJqFqgFkShXyiAAfPDYuHid3AwpU IIEDgECYLQuJ9I8CAOD78fDsiAAf+AIE4M1tQAAAbtgEhuE4/H9QF8rkCgAkDACmi8TZQgCkEAAy chUyBQAyCgDspHSZAgAlAABbHhsXD4BqAQA7ZZJPAwB20iT3AgC2KFMqAkCjAEAmyhSJANAOAFiX oxSLALBgACjKkYhzAbCbAGCSocyUAGDvAICdKRZkAxAYAGCiEAtTAQj2AMCQR0XwAAgzASiMlK94 0ldcIc5TAADwsmSL5ZKUVAVuIbTEHVxduXigODdDrFDYhAmE6QK5COdlZcoE0sUAkzMDAIBGdkSA D8734zk7uDo72zjaOny1qP8a/IuIjYv/lz+vwgEBAITT9UX7s7ysGgDuGAC28YuWtB2gZQ2A1v0v mskeANVCgOarX83D4fvx8FSFQuZmZ5ebm2srEQtthalf9fmfCX8BX/Wz5fvx8N/Xg/uKkwXKDAUe EeCDC7MyspRyPFsmEIpxmz8e8d8u/PN3TIsQJ4vlYqlQjEdLxLkSaQrOy5KKJApJlhSXSP+TiX+z 7A+YvGsAYNV+BvZCW1C7ygbsly4gsOiAJewCAOR334Kp0RAGADEGg5N3DwAw+Zv/HWgZAKDZkhQc AIAXEYULlfKcyRgBAIAINFAFNmiDPhiDBdiAI7iAO3iBH8yGUIiCOFgAQkiFTJBDLiyFVVAEJbAR tkIV7IZaqIdGOAItcALOwgW4AtfgFjyAXhiA5zAKb2AcQRAywkRYiDZigJgi1ogjwkVmIX5IMBKB xCGJSAoiRZTIUmQ1UoKUI1XIXqQe+R45jpxFLiE9yD2kDxlGfkM+oBjKQNmoHmqG2qFc1BsNQqPQ +WgKugjNRwvRDWglWoMeQpvRs+gV9Bbaiz5HxzDA6BgHM8RsMC7Gw0KxeCwZk2PLsWKsAqvBGrE2 rBO7gfViI9h7AonAIuAEG4I7IZAwlyAkLCIsJ5QSqggHCM2EDsINQh9hlPCZyCTqEq2JbkQ+MZaY QswlFhEriHXEY8TzxFvEAeIbEonEIZmTXEiBpDhSGmkJqZS0k9REOkPqIfWTxshksjbZmuxBDiUL yApyEXk7+RD5NPk6eYD8jkKnGFAcKf6UeIqUUkCpoByknKJcpwxSxqlqVFOqGzWUKqIuppZRa6lt 1KvUAeo4TZ1mTvOgRdHSaKtolbRG2nnaQ9orOp1uRHelh9Ml9JX0Svph+kV6H/09Q4NhxeAxEhhK xgbGfsYZxj3GKyaTacb0YsYzFcwNzHrmOeZj5jsVloqtCl9FpLJCpVqlWeW6ygtVqqqpqrfqAtV8 1QrVo6pXVUfUqGpmajw1gdpytWq142p31MbUWeoO6qHqmeql6gfVL6kPaZA1zDT8NEQahRr7NM5p 9LMwljGLxxKyVrNqWedZA2wS25zNZ6exS9jfsbvZo5oamjM0ozXzNKs1T2r2cjCOGYfPyeCUcY5w bnM+TNGb4j1FPGX9lMYp16e81Zqq5aUl1irWatK6pfVBG9f2007X3qTdov1Ih6BjpROuk6uzS+e8 zshU9lT3qcKpxVOPTL2vi+pa6UboLtHdp9ulO6anrxegJ9PbrndOb0Sfo++ln6a/Rf+U/rABy2CW gcRgi8Fpg2e4Ju6NZ+CVeAc+aqhrGGioNNxr2G04bmRuNNeowKjJ6JExzZhrnGy8xbjdeNTEwCTE ZKlJg8l9U6op1zTVdJtpp+lbM3OzGLO1Zi1mQ+Za5nzzfPMG84cWTAtPi0UWNRY3LUmWXMt0y52W 16xQKyerVKtqq6vWqLWztcR6p3XPNOI012nSaTXT7tgwbLxtcmwabPpsObbBtgW2LbYv7Ezs4u02 2XXafbZ3ss+wr7V/4KDhMNuhwKHN4TdHK0ehY7XjzenM6f7TV0xvnf5yhvUM8YxdM+46sZxCnNY6 tTt9cnZxljs3Og+7mLgkuuxwucNlc8O4pdyLrkRXH9cVridc37s5uyncjrj96m7jnu5+0H1opvlM 8czamf0eRh4Cj70evbPwWYmz9szq9TT0FHjWeD7xMvYSedV5DXpbeqd5H/J+4WPvI/c55vOW58Zb xjvji/kG+Bb7dvtp+M31q/J77G/kn+Lf4D8a4BSwJOBMIDEwKHBT4B2+Hl/Ir+ePznaZvWx2RxAj KDKoKuhJsFWwPLgtBA2ZHbI55OEc0znSOS2hEMoP3Rz6KMw8bFHYj+Gk8LDw6vCnEQ4RSyM6I1mR CyMPRr6J8okqi3ow12Kucm57tGp0QnR99NsY35jymN5Yu9hlsVfidOIkca3x5Pjo+Lr4sXl+87bO G0hwSihKuD3ffH7e/EsLdBZkLDi5UHWhYOHRRGJiTOLBxI+CUEGNYCyJn7QjaVTIE24TPhd5ibaI hsUe4nLxYLJHcnnyUIpHyuaU4VTP1IrUEQlPUiV5mRaYtjvtbXpo+v70iYyYjKZMSmZi5nGphjRd 2pGln5WX1SOzlhXJehe5Ldq6aFQeJK/LRrLnZ7cq2AqZoktpoVyj7MuZlVOd8y43OvdonnqeNK9r sdXi9YsH8/3zv11CWCJc0r7UcOmqpX3LvJftXY4sT1revsJ4ReGKgZUBKw+soq1KX/VTgX1BecHr 1TGr2wr1ClcW9q8JWNNQpFIkL7qz1n3t7nWEdZJ13eunr9++/nOxqPhyiX1JRcnHUmHp5W8cvqn8 ZmJD8obuMueyXRtJG6Ubb2/y3HSgXL08v7x/c8jm5i34luItr7cu3HqpYkbF7m20bcptvZXBla3b TbZv3P6xKrXqVrVPddMO3R3rd7zdKdp5fZfXrsbdertLdn/YI9lzd2/A3uYas5qKfaR9Ofue1kbX dn7L/ba+TqeupO7Tfun+3gMRBzrqXerrD+oeLGtAG5QNw4cSDl37zve71kabxr1NnKaSw3BYefjZ 94nf3z4SdKT9KPdo4w+mP+w4xjpW3Iw0L24ebUlt6W2Na+05Pvt4e5t727EfbX/cf8LwRPVJzZNl p2inCk9NnM4/PXZGdmbkbMrZ/vaF7Q/OxZ672RHe0X0+6PzFC/4XznV6d56+6HHxxCW3S8cvcy+3 XHG+0tzl1HXsJ6efjnU7dzdfdbnaes31WlvPzJ5T1z2vn73he+PCTf7NK7fm3Oq5Pff23TsJd3rv iu4O3cu49/J+zv3xBysfEh8WP1J7VPFY93HNz5Y/N/U6957s8+3rehL55EG/sP/5P7L/8XGg8Cnz acWgwWD9kOPQiWH/4WvP5j0beC57Pj5S9Iv6LzteWLz44VevX7tGY0cHXspfTvxW+kr71f7XM163 j4WNPX6T+Wb8bfE77XcH3nPfd36I+TA4nvuR/LHyk+Wnts9Bnx9OZE5M/BMDmPP8/xAzEQAAAAlw SFlzAAALEgAACxIB0t1+/AAAIABJREFUeJzsvXmQbetVH/Zba317OEN3n77De/e+e58lAQ4gZCIF LMfIGKhiCMhQDEYBAshg4jgYG2RmQQViMFNRFUOMYghFjDGyYgZTQBIntoMwBWYQpgixXFgSmt6g 994dum8PZ5+9v7VW/ljf3qfv9N69L8G2YnbV6XO6+5y9v/2t6bd+a33fAf7o+KPjj47/cA/6dz2A D5Ljznnyfyej+EM4/kgB4qAzz2cffOa1n/lbLg/DB7ky/IeiAPcSMGMr4PHgT/rMv7nzhq/6wpUc /9Rlyu+94vmJxxK6y/DjS0T16VD9p//7a1/3Pb8MYF0eGR/ESvD/FwU4K+CzVsvl79PzF//lH937 wj//8Xs4fMsV0acf0+GJxxI2j7keXSbkS0cH71vcuvXszDJggDoAIpgQQELO7umxj/zKf/ipn/em HwdwA8AJQgk+KI8PFgU4a7nAVshnLZgAyF/75p9ZvfZTPmylN3/qcdZnLmF48irR8Cjy0RWgf+Tw xrsXx7duNjnDzGE5wzXDhwz0GZjPEs49+iHY21vg4sU9Orffkhrzb/zav8Tp0Qe8bWG7e7v4hh98 +Ve/5w9+/Z0AngPQ4YPUC/z7ogAvJODx79Ubv/Mfrz7xT8/O55v/25Vkzzzm+ZnHCP1l2PFl6Obi zZvvnq+PD+qcoaqwrPCcgfHRLmd+/pGXYmdZ+f65Je0ua98/v+t7O8n3LuwR5Iigz8Y1GQSuCUKM +RX6hz/0m/zke99uyxnwa+/8pB/6u2/+pbcCeD+AIwQe+KA70r+FazwIwCog66Xt3/qRn1m9/CVP XshHb72a7LnLPlx7TGTzGHR9KefjC4fXP3/21K8eVdmhprBsQC4WrAosd1Z+7vwrNjs7yfbPLWlv l23//BLLZfKd/bljuA7tnvE+G+XhpmclmF73fg167glyZqHEQlWTqG0q4VoZTQJOn6HXffkn441f +fY6XUI+PDrcA7AEUOHBDOn55mH8u93x+EM//r9QgPsBrDtvFNj5c7Mf/eHvXz2+etsjfvrbV0k/ cAl6cFV4/Si0u9JvDlYHN/7M/KnfWotqsWALCx56wAHf2btg+xdfttlbiu2fX9Duku3c+YXv7og1 qxrYPO3onvF+cAzDLWSFqwq6I8fxAbk5XFVJFW7Obgq4wR0gEIOFqU4Vp0q5bdWWi0Yap4RGGHun ppS432Q5OelaADUAwe1e6n7zwCiZxMd9+9ctv/Vr3rDb/Z23XLV3vvdy/56nH+d5e/zPX/n4P33T 3/iuawhw2ePfQpbxYhVgRNCCMxr8x1/1Vcvv+PZv2t2Xn3vMT995GfmJK+QnlwlHjzHype7k7XuH 7/8T8yffObAZsio8K1wzMGSAGL67fzmvLnx43t1lO39ugZ0dsQvn59jdSSZ7UgR8DTqo9f115Mye 3XBy0+3wmiO7umbAVN1QwxSe3cgcbhluBrjDVRnZzeFMpuYgATGRsFBKmeq6kpwrMQV2jdEkSbDM /QDZDPC+72sADYC2PHScm8/+oe/Z+arP+4LVrb/zliv5D564Orz/yatYbx7Tg6MrYn756Ht/Zu/3 vv1Nc40EQhliBqOP+sVHvvorP+vPf9Wbfv6n/xWAAwCbM+f9QzkeFgMQQujym7/8Qx9/65l/+krN 68fIbl0R8ksnx0/s3rr55GzTm6tBLYeAx/hLCb5//nHsrfZ9f7/x1V6D1X7t51at7a1qx8KA7mnH 5iZ0MM/ZPCu5KlyzIhvMLHy/mrtldXP3nN1NDerumt3NzTUb1EJH3Qmq7g7ADVAjuMMNDNMxvyeA iRInSilx1aQ0axuZz5q0s6jSzl6TZhev8ld+2f+8d+kR99954uP+jyd/+wPv+PQP/fD+pb3stWaX 7ODoClQvHb7niZ3D4dm5Qc3gCrA54A7A4GRQKIwAUIVENSowyBjA1Ve8+l1f/H+/9esBPA3gEOEJ /tCOh/EARfj78//zp1/zpt9761/5k+rIrgVBb4C6rX3n3IcOF87t2Opci73d5Ku9pKtV43ur1tFu gO4pw3CMoT/ynN2zETzDbzyj7g7P6jBzNzNodlcP4Zq7WXaom6u6uyqyw1XN3c01Oxzumg3m7qoO B5xRUXYCDIh3Epm5m4NMQepwV4LBmblyTiLLnT1ZpHkzHNNc19zqgc/kpjW4ftrM1qlpnxiw+6v/ 5nXpuWunR+//g837UPcMdgegUMrIyPDNmBuu+LI9+tLHsVzM7cL5fayWO/7IxfNYtA09ce06/9xP /VQt6KQC2ebJZx4D8BiAY0SK+e+FAlB5b/uzP/kV/7VtfuljP/Y1n6r7q5ZW+wvs7FSGvblBDxyn Txk2Rz5sjmzI7kN/S3Xj/tzTcDOHxey7OmDZzdwiH7PyLzOYAWpmYa3Z3eAaP9zcYWquANzMTeFZ DQ5zz5G4R3wHaYaDMqsDpvE/kkSpnidB0+jaW2xo5p22kqWljBaG+ri7Ua31WZ5VybsmYZgJbK/h K4926NcDbSp4n1VvAXoE6IXZJbtw+ZLvLOZ6bm8XO/OF7q9WvrdsbWexQPfMNeSDQ4CJAKaamNLh MfPxGh9JyV/2DV+/+bbv+5bZPlqoKgDsA5hhiy9eLA54QQr7QRWAAcgb/toXfPOn/Zlnvnj+xy6f Ak5Abzg6VqwH7Z8etOt62/SD5axuObua+ZCzau5d1QyAmzrUHa5m4RfN1eBFyrD4k6sZ3N3V4VAv 7yveQQELQZMqkA2eFcgKZwHXDVfI0tipz2ioZtjIjDJa6dHqxqrT46NK8y2K2SAHiYMBIoaIg4ms TuJOmbgRLJdLSueXhqtXMNt5O632Ov+IV31U/8hRdfyaqy/ZXDjeDH584j0MWbPb8TH0+NivM+Ea YqaI2CHMKQk1MK5hvOBGIMl3n37Orl79aNx84u2c3QmBLRK2+OqFBPwC2dX0eqSwfVSGB1EAAlB9 /dd9zX92/cm3fP58+XEDIID1hsNeh6M+n647PT3tte972/RZNatlUzN1qJpvupPs7uWSIXA4YOpu cMDh5uZmDnd39wmsAQ5XwC2D+wwDI9VNXekGjXc8s7XOvEPLvTd1j1k+zfWtY0s6GNzhoAxKcFCJ wQ5ywOCAAiQVvJrXXqfa67qiJiWftRV25zVW89Z3W6ZdOO1BGZYpqZJkQI+O88333NL3Hq77zXw+ MLMrKMKQw50AY4ITFTExRIhSSrxJyi1qcTCWJMis7ClRB4W5jt72LFV9vxR6UpCv+dyLyzd+23fv /P23PX7l3dd3HnviZv34OtePHW/kaiU4fc3V3/8H3/m1n/vbiAyjQ4BLf1AFkIbf+1l50AGEGsiG o177W/1wdNzpyckmr7uNbjaDDkP2nLPlnNXcATP0/ZBV1QOGbZE4EM9h7CiqAIwK4oCbA5bBzDzz 98nL861heXzaJws3X94G9+15SRXqHi5fKvhsmZCEUVe1J2KkOiGRWEriyAbd9HHlnEmgkF6RraeT viOaV8Qz8Vorm+WBFBA1eKdZh64bbvWnQ8vUC4u7A0aAM0HHWygKQCwkiSmpc3ZnI3amHikztSlR NqMeTtmcEdzC2SwD3/mXXr7zpX/5jauf+K1Hrjx5sHflievyeO/t5VtrumpUXfqZ59arN31dNx+y Au5G1FuSHNcH/Dd+/yWf8OV/9bu+5sf++ze+DUFhdw+qAAygItZ9JgCDA6dZ9bjPxycbPT7uh+PT jXbrXjebXoecNQ+DqwckN6jnwSxnNw/BFjUo/sC2gi/CJBuVw+BqYCck/b/s1UNnBANUYRFFAG7h 9QKeAK9SghC8ShWEYVUS902kIgaG50wOOA0DMgE9ShQIQ3IWphxpIYgdycg3Sr5xot6VZ7mHWYDP LmdDHvLxaTfMIEMiQcGaDqFwOQAgAhCIyEFKnBIwQCkDHkjGvIGRwSSBGe1yvn/l41994fFPfMXF D/mEmbeXLyiaS2965nT3279hPc/ZDZaVeDDg1GEOdwWyA5o3MCXA0exU3t1yqRYzkAjlAfkd+eM+ B8B7ivB7APagGCABIAMwDGrVOtvpabaTtdpJN1jXZT3teu02Qx6GwVyzq2VThbkqAPZubUpUosAo YBpfAaPQYQAY7gZSA3UdaDftfFiaD7y7qj2JoKoqowRLkmBdZ5ubN0wVbkMmA9z7jAHAULwCAEgd TFsZhLuDAPYwzwwiBtw8aSKSDLNE2ZyyK7IJeosR5sCmyKaWN4OezoZ80m20TuIx9SAN+E9adIsJ mC2XVWrbep3m875Ztse8nNftbnOj2WuvNxerA3miehaPkuRH7eb6w15786kL3TtOT3uqr6lHHgtk 7WCZAPcLFxt//PLS5/PK9/dnWC4au3BhyXu7Mz93bocHA3k/6N/+0V9JT93okeoZhoH2AJwHcA0B MPMDhwBCRNGudxOYdX22bjPoZpOt67L23ZCHzWBDzppzNjV1hzsK1FOHecaIBEL0W4w6ApUQVw7h DxlVwrk/U53w7PL+Uk0V2cz7PLj12dbm7m7oI7ODGgwcnsPKWUeFM1MG4MYAm7ixE8wdLGUEBgbB YDADZRgpK5kRa1ioAS7wkbjKOLXOj9cnPmcA7SJx3dadtG0vbduhnVmqmw3qmXPVnA4kec1cp+RV l9BWFc06YN4o7VanlLMCyO6WHfnUZ/PBXvpSsZ39Rd7dm3nbVrZaLTCbJ10uZnTtqPfD4w1gSgJ3 TcQ3Twc6zkTPHhvquuKqqugvfemf0v/m2/9xYytWzTkh6OsGxe09MA/gFgg9Z8fA2freLA9qw0at Hwbrs9omq+Yhm2lWdQPcvGR5cMCHDKWt0InC0kE8KcF0uZyBhJ1XnF4/qlfLPXcHenfPph7+xd1c 45EE/SZrkeOILagMO2heMwUTYHBFJpiESZMBziACAY4IFgQzg5tAEaAUDIEQG7EoDFqvVsOqXd5c XeWu3UtdpjT0ICJ3EIEZTgQiUjgbiNgFZApDVSnamrBsK+zO2R9ZVrSYCe2gwiMXZ/ayj3hs3Zx/ /IRWlzZ5ua8HyJ42hoNnj0CsLnAwDEJOQg4WggtgVWIdKvbcGvsiJQIevbog9IeseWk55xFfTFXU B1cAADC4ZfPMDs1mQ3ZTMzVVy9nNsnpWM49c34Bw7THv5TwOEBXgFsInGHzEswxADZwNIGsuQjZw AhQOI/fMsKyhVxancKOwTQ/k5YYt0i9KYdlAQk4RmskBc2MGwzn4ObaCq4nZ3RkMkbTGauk+S8Np RXRrhd4STnOPwyEtb22qPDt12819hHziKezPU3KpyEUExGypFqSUUKXK66pmoEKPmjoD3eoyZTMe YDhdb+yJp2/kHX2m3+O9HjZkYSCTgShcELMjMUhgEAESMVliqlIia2ohmDM7qiSUFQzdiNtGXe+q uj4EE+ilRGWAGsLBW8TYyN7iVwa7hsGPbt2tCKJY/51khENKNKaSM4fQhMHMZVKdbMSLU+JgIVt3 wKkCssJK5hsJ5Ig5uGQdEjc+6VsAZDcC2A3mDDF3AzEMdCsvdxJYUlayOo2wLlgxUsxbYHdBttuy 1VXlxOSSBNkIfXbfuIMt4p1sMrgHkijqZKiTIlVO1oPANbuaGzJMM4buOPfro7w+PugBylJwRBIC wygluBGIiZAEMCEyEyJPQjAfCEgp0TBs2B0Mz4EhwLcJ/+EUACEVH6O300Rvu0e6O7qJ8vfJ+qeL JVDOcBqtvQyHtsoBYSB71OIZABGBmBAAy9wQQnaBk5rFp9UlsWc2n4aAKdUk2yrF9oIe6Bwg42L6 TCBiIjcHzdqWKaXlTHxnXuPcXoOL51pva6FZC6QkVjesJqLrATqMyI8HTJoS+D+GJOwkzu7kkfUa GRE7J1juzTzDYQ7Nhr7Lm/XJUHenA0udhYAkoBzWDu0BTaDEBE8gVyEGcyZ3EkhtiTz3rDq4jfnV dlS3GeADK0BUTHm8LWcq88cAcYQUJoIzHEYgDpjp5mCOq6Y6ijHgiRuJZ9p6gBBJgGcmAXibUYEB cgPYjLRoGdzB7G7qUoHyBhaAHiNVYmzTTYDFA/ETwEyImMBnbYOo3j03eF0tlq2nJoESA0QehHMo tg0btx7WkAJ5Y67kEI5wRiAicnCMXIlMlMlh6iLkCoKIe84GyQzPcDUDMrkZMPQ2bNbar08z101O IGhiShmAEHmikrgUE0lOOScnypxSYrPs6uYFuN3pcV+8B2AKIRETiAQkQW8zCEwAC4cbJYaSgdxB QuAx3XaQpjPnwtblQ4rgOYyTefQMcW5wxHcQe1hvdggcSk4UOE8qQDX0Qkbc4XE+eDkHERHi/Fa0 avRIYCKu5ousLKmChz4bMZIT1Dm82ziBnvvO4eoViUcakg0QAsEgRFCYUTEbkaCFDA4Sc+0JlAiu 7sH+QUfuU7MhZ825t7zJCiEkMBkTOYgcTM7klozEGK4GI3VU7O7qpagS2e5W/H6vDpMHVgAuisNg MDGEMQkeEkiei7BcCAIGmY0cy/aCiiBj4mQQYOuVU+E/DeDioZngYAITOxE7sUEKyDcTiGjkmASI EDQ5IcNdALHtlY0BGIhTQXoU90EI5i48EQFIFQtNCkoAiNUjWjCmCXXzoRsMalZXhK4bjJgois0A MpuHsRCIQO5ORR1IjAgVUxCHRVcj2YAZkNWh6tndggQgsBmUODylmTsLTUhrTHzKx4vVOxRnw9E9 i/8P7gHKh8P6w8VTSD1+JwFxBglBQFADSGLWQ20KY1sDXuqkk8u/QxnYw0Mw2JmlCIvATGAnciaw MwANfz+GGwApGWUEQimevhg/QIATS/EADCUKLpBGZWMiKQJjHr2QU/FyIKCpaq/qDMDc8+Cu6qkl MJPD3J3d4QyQxXVItjE4gGnkIfEjwmnxgzRKcaSqIu66q1PwVoF8YzA+9Y15hF8nYgdTkCFAmdD7 SP5hFaCExxA2EIIPy4zJolAIooipEmkLfPId4YASOeVSI0ER/AgUx7pJhBOAnKawwyJgZBDISZlY 3J2oWHk4Z3IH1Yk85ymjQOHnC/wPbBJxDDLyT5MnGP9XxkIEllBfkjhBPVtiNg+lBIDcD465e52E +pyNtpPtobaFES6wU8AkRfqCyHCISmIMIjvjtAukLTxy8UllcgyEhFGLmEYVZzCYqcS4s4K/cwnE QyrAWWEFeBIwEaQ8SAhsYZkuhVzBqAQO8eINmKBmUxpGZ5/H8/tIPSI8ClMoAQsETpEMEAiBNSCY zq8KT3XU/6nYnhTgGZfwmDrGBAAjgyEKT8YAl/BAAJGACS4Uk9zOF2jnNeDkRHDdbIyYvK4FOefJ 1It1ONEdkx4xJcTBRUUgk0FEoCaApChmhKwyGFBoIpjZjYjTqK2BYmlyqyhW9ALHgysAFx0SbC1e tiFBiJEROMBKTsg0hgBMEiYGEhuN2OxsJjA+c8EUYgVLMEV8dwIxOQkRq7hJKJaaBcnnAiElTkzZ zIlKjBzbKgAQzEWIply0TGDoABe5RXYgxeNx8XYQQjNb0nzhIFIQATpkkMMlMYiY4OxUsh4ZDTPY JRBLzBdTeDQKmxXhcXaCvLAAtWCBk0TKVcBWcRQAiJgpQuAo8Hjt8SwgRKh+vv7ihwsB44DHSSIu HoG3N2blxs2LcBlONtXdQICkMqhR6BLAb1R095IFFIEIM0gE4hrFrtAOkAoUiiQRHEOk7MY1sXbh ExylRLdVthBE+XsBgA4JAFryQSlulCWsVIoHbtsF2gUBOCjvhXs2SGI0VU39oIUNDMsdPQAzF6wU c4eiZMSMbRoSY0RWA1C8w/j/MS7FawO5gWl093YmlbldIcZ5vzcOeCgQyOPpicCTF5ApXgoYzhTu WAKk8BhcCSAqRJ0wKcxvi/9lJMThulkAVgphEQewJAFLqLOrwYQgTiXnD7NTKYAwx4lFvbiaUScN JX2Oj9xhQcQMKlnCCP4kOEmAgdlyhXYGpOqECAQhIR2y04xQ1UyabcphAwRjcuU8Zh4kJWxK+T08 AkGcSIBsHnF+yoWLAMIgAAIzT2AlIj9tc+c7Y+tZ4u1FKwDGSSvAjLdaLcVDEYcSZLMSoQEguAAa pQtAkODeTwoqJSeXMQ5yvGYmMAPBc8X5RJmczFgYpAYtsYmgcAte3B2OlEg1+5hkEYeXMS+WJQAs JjR41S2ZBSKQhBWLFIWPtAeLnRXahSGla6EkQrC+d2KiihNtxKIKNN5/kFkFNJeYzjLhjADRgna+ oAV2sNhbEp7tfQvaBASZSBgfJwzkATGnHDaueJsSjBI/E+5evAKMplo0sWhngJmtR3COmAni4vat 4BPHxByCwRrjGoWeyjMzRbGeAfYQPEk5vxOM2IWFYO4qDFYvYSMSf3MK/iElAtxdrSD4AjqiZggm iYv76DJGgwptlhLiiAUsNLGHTbtEOyvKGe7cLRuYBeaOVCUyKwlIMRgQICwTDhAq4a0ATgF7uzvH cndFs50l8OwNoDcDCWi0rpLT0QTyCooljsoG8USXEgtthR4yuJfwH0oBtqlaWBwLQ4RBwlNci8EJ mKLrnccBCQAzlI/GhMhEkxf3RZOSRNy3YAbPnDtSQR+5VoiiMGxWgA6DYY6xepIHQHii48gQ/Z/k JZ2VyEc9lNiBKSZTyW54THXDJaFtl2gXcWfEAiYmZnLLSpwEdUq0GbKHmhdXSYhsAmcAZixEgRQ3 OFsu0O3tod3ZIeAAGNTAHJUyyDRxPgqft0GdJozA43tK9sH3k/vDKwAKsSJFG2gEhNhOEAlD1GAS KeB2gF5iXGlRYwN5IkcuDFtRgxLG3AESA3lxk8yRBWhx0cJwFRhrGK8ySIKENy0hxAAkhimC/3dM dWkq+cJYAJgoYQQP4AXjjOGOhQs/QKjbOdp5gzHj4gL0bMhIdY2UjPo8xjaZQmNcQiYgGDIUQBhC gna5pOX+DmZ7yxD2Ro3PpH8TRhnJEiJYSSN9cqVjh1NRnMlq+XaH8GIUIFygFJe2xQIjSCWcCQEe bFRcU6cbJhtvnGEsIJQ4gBLWQJMSjJ4vaNlQMiGGMZObG0tYsLpCBNHGoQBJ1CtVAOZEjOwwmcgg p+KJhAsNNObaOAO0ixcimbIdkRBGO1+inbflfkPpIQIdsjMRcRJi3rpcKvly3E+5OY64PnoZCFFT z6CrFbV7S4IRMNiUzp1F/14EXIigMkmjIAqyRcE4o+eoEqpKiHiqYzy8AmC8pXJDUxo4kjSFDKJo gt/yTgWjMHmpk8S0p8RkFhrLBbRwIQbYo9GBbUTIoQjkhGDDjWDsKorkDDeDFGLBLKpK4g5OCTo4 xn4DAKUo4BAZYyZhLFkYEziKEBP5FDF763lS1VJVzzExBUIQCDybU2giUnIytfBUo4PDOGcjecaY aHSwt4sFaLVL853lNNu5ZANFAxyCsQIYHgBcBDjiApr45bFm5QakeUXLWUWJh7tk+lBEUChWwQBT KEIJAQrSEKYyF3I2WBjhkoyjxE0YjATkJbZPVOuIMc/giuIqqeTicdagTNgKqmOGWfQBSSBjuBlM hMyyM+L/Z6siY37uTpCRuKHxxiRitmyJIB456TPWMI2NKVqOCshNzNQbjCd/PXoVnsAlCAUHCIiI 2uUCvNmg3VtSWUkCbMZ+B/ICTlBqAuCohowVhzK20ezGUBHedWde0XJRU5K7GaEHV4DyWR5RHEe8 JJQQUOImODo2CssNmtC/AOQTY50IsIKuaZJ83IIwIkfOYSlEgAhDo08rFMsJYI9+MGyFaAhASCUL 8RxXFBkreQbzEuvBAVZ9pM1pKhOPtLCUVK3Eja23KpnP6AmYAM/qUiVKSSiX3jcqVjLm72EA8Qxg pNO9Xc6pUo0sAAAgQG9GRJGLTmGKizgIxkAaQ8QIDEu6GjPNcMB3Fg3tLitKqf9/EwJGK8CZHDbQ bSlBTFrHbNFnw1vNOWtAJQUvwhyzgCI0AowjBGDkGeRMNRBhtSQca27Dn8CthB1nhxhcCUbh6lHy /3AOHG1apQNFYvnQmGTBKSjgid2MnC2YPSL0fed54DJq3lLFBmjOkLpGSiAadBJ+KOgWwIUSbOcu lgMsYAS0iyVNE7ZRI5IiYR4bTTD+nzEmeGe9wKgo2wnf22l5Z9lwReu7pPrgIHDiF4qwRpQm2zRN cEbKY/GqgDwiC+BYThH5fyKQRrQq7lcQQhKMnPlIOY/lYIGJQywadRUazrC0/VhJBynakYCUyNVc SruwKUVPyaSIpSSMsTMohDumn0wxhsIMYehOsVnnMQUv4UoiG83mXOr/IkyGkVgqTCDG4k8JMyNu I0bVNEhVQlW3KH4QyGNzM3tM5BYEhvBLF9aE8tnDzRLGAogBWO02tLOsyTbBy74oBZiO0ZUV8DZS wyJlDwAmsDKIbSy2AnDISI/CCpew7dnicl6eLGSMmQWlF9TOzpBi3cqx2E+49B6UZg3h6ABUoIxD oBY5LLkV2tEmZR4j2jZ+nlXqsdRdQkAidN0J+tN+Uu4o5oQH8EIIwQGmUvAgKdnHyAFI8QSFXSw8 Q3iJERAXK8nw7PBEY8455nIEbKnWaR7jpFMFCsEjADvzGstlzWu9Oxd8eAUoroDLBISrDPdDHELy 0P3I9zHeuBfihwsXHwUed9/GVQphO9vkMkkKIQMGC0GVichKjmxwYsgIUKIm4OaRFYAADzN2N8BI irIxmOBc4IeXAOAoLr9Yt4ylaBktjDB0J+jWJfYTT+MUASybB7UMT4koazRohLeJ3Da8WuFNCsaY eIIiWZT4DSFab9zbauTSz7wlKiZFVUKhtqVnOvMAFvOad2cVDcdnUezDKgBhq3ITkh01uQybCoBl QjTIMLg0hoSRFa8xjjGG7GN+TNi6RCp0csgjuHlWghA7mAnmTsKxCrQ4RKeCl43daPQwAiGDSalI mm+zCGaYR+gKFRobPbbFoDEsxQAEm80p+m6LaaIczpH+QksLMiAiMI+OJSlzxmPvHJVzjoYAgZuj 6zuf07zIroSDlhkKAAAgAElEQVSdIYp+Y1oXuIphRKODDMDnVNp/x3FvewGWbYX5PNGB3CX/h6wF jAPjwmfw6HhoAmxgKnzU2M2zbbpkssnFhdMQuObgyIuWcPl8pHw0gcCROycuDKEYTKPV3wUwDQDp MGcGyAReiLFsGWyRmI6NgqPwpAiMpx809Q/IVBksOEwE65MD9A3DLI95vAtz0NbOsTNFEghAQ7RH llA4MoeFeiJBIYfBTNicnsCPT5xzU1z9qABmxcgdVNpruci9WOPEBBeiZerCovA+VSXUJIks7cUr QODtkHjMEDFNYGhi+8YcFtviTyhJxGHeOhEQKTDWEqbzcABG4lI0k6JM0YfgznBRuMa5yrYTJQ30 QHUwN4lU0c1R2tULTpTSM1nmVfgMLKKJ4Cg9GgXt0KixOD2+hc08wdU8uH2Z2owpdp9yqVJZFTxS TWXKeIz/BQ8VhQcTNienPhzcIqZ2agaJTMCdWBxl/RoImOrsIYCpPhBYNnoep65bbLPDex0P0RU8 /qRpriJOYRsGSmpozHDoFpoUywpN9WlCGAKzPLGJhCBK8sR505TNBIYsvINGzFVFIHRnmNqZgTK4 LAs2BkiidVoLbzRapRR0rihZiWNqrBhLwGMtIG6mZAFdyf2LgkSYARQShBDR5BljmgptPL4e72Ts BSDG+vgEw+EtT7zExIqBgFwaA89ab6G+E5UKzZhZMAEevZITmQRATZEzth3NL0YBtnFp+xyX5TNC RgGCDpsQQ8lSueyVULzDOCFjp80EhggQD8EaRoAV7oss2q6ExNS1xF4LgxCONWulzZc42EAGwYjJ CS4w2Fj6RemzLBXHMXaOBBGTlLatFA5VEsCMTX/q/anDaVXid7Gw0sQSC8sCkwjzti+TaRJ8tBeO HEFwKJuTNbqDI9TViW/zeQEGBJc92t1o3gKyuAWnQFq4jQsIlwNiYL3JVvXZ9R4rA17cPoFjrCxI iMc8lwAr5Hcxdozec1SaKQSAEAs6OG6i8OJMiHZtChTOU/pYeAAjdyaiiLhTw78D7iKQcaMBMhiF Wy59CQTA2Yk8tiRCSg0BsZ8GOEhaTw1ACamuwKmJ5yoBqQGkhdsAzRlNXcGrDKkTkiSCu5fFOFFr jjw/KAcqa91GuU41lLE6yNSvT3F6eORtezJW9kbL8+yAhNAxYYAR542kKI3NJgWIbRWGjk8G0Cy7 3WPHwYfqCRzBxqhsXEDNGBmoUFNhWXybJwv5l3rAmEWwlVx6DB+RhrE7CdfRAkYMkQQRgXJkAmAB mZJ5gjmIC89fdn3wEeO5xpI2T0YS6k/mBCYXc/I0Wwb1F9ZCALPLnIgTqrpG3e5C2hrSMqGugbRE lVqQdJjv7hGvGpotdqmtWoKDVBUugnrRsma1hgQ5W2E9g1kQEY8wPaakBAihO+5wcvOQ5vPTsRc8 HhabXzUpsGQJ+mVDjVHQAZidRlu4rezhx+vsdNp7n+8OAi/CA5QcdSpTjvfAyJQiFjpAzOHpaGyo dICC2AxPEO3W8OxEsaYmGj4IRCz1rJec56StUarmSE3DpoOzG+XYdyJ2FvNJJS0WSxBF8SemoZTH oIOGW/EIB6rEdbskc6HSVUMEYuNZaGGqkNOCMhLWRj4bEqETl2YJrhosz+9T0/W8nO/zPLWxM5Sq mwHL3SX12bka1Ies0wItgkCYOElCRRVSU1GqapJUod90vjnpvDs5daS6lAwL+5jNqa3jFs+4UDuD DBmF0RyXNY0ugIHD441bO7jo3SDgvgowrk+Yz+e0Xq9ZUqLEFcBVmCE3xKKcEnNKzOq9OzJMnARq ZO6xLrC0Qo8RQyRo3gn9qxeXSBxtUyTKktFXOe8RUFM1WxKnCjWUcnYmhyucXM0d7OW+2CNJid8d VBZpwR1QcmeuwKmhVNXUSIOq3WFHYuOaGEzqzE61gBOlVFOqZ6A6QeZLYG/Hce5D5SP/VPK9eoP2 /Llq80yHPWmlUsq5G3x9dOynR6fOqyXXll0yXNSnMiRZGEOiRBUJtXXLTWpRtS2JSKmgMWG1w1gs BDttQlVrVQu1bWKBkUQBEXXALYh4zJuUPBPTxis+ZmAHR51rM9hupVty9oUUoBz0OZ/zOfLmN79Z qrrldr4gpBkDwqiT1FVtfTN4ZR0gzpRUY1mqlVBVKM6xsxLkEaqYhMKnwa2wQQI1IRgoO4lhqExW BO4405xyasUlMbXJq1R7kgRVeM4E07Ls2omygdyEHLGHoILIXSirQ7Mi50xDlzFkJQXI1QB0bjCK HQ2i80OIkeoKVRLs7Cz9sUsX6dG9l+D4FOhPDddOjmWTO+pYra2btponbx59BBeq2tvFzD27Q+E6 qEHVGGxRMFLPpwOszwBVjKohr2uiWQOZtUizilZXVpXO9iosl7VWC1zan6ULO3UCEK1yCEaAEDBC CKiEqE6JU5W4SkKVEKcI03R8OjidZJ/vPIQHKJrCn/iJn5je9ra3tbN2mRbL/QTsCqAVdCDFho00 OfdZSc3IzUjdnEo4EmIWh9RcVy2n1FJqWiaqqe8tnR73qR9UHEQwpj6b9L2nIatsulxhqOuu2/jN 48TvN7eu36DrjtH3A/o+mhvKqsqIAUQ+rjwlkLsDm00HSRF3WOpAamEezlHum5weAGIZ30uQ1KBJ gm4TGx0/+rIO124eIuEUN2623h10fpJOUEsK4hExmGrWMoKWIC3rFaLsTdQ0DZazORarhefUYEi1 dynh/H/0uDRt5ecvXManNOeWg1yyYyzT4Qbdss2y2uHk0UHhQYyNrXPsAiAlIebEIklSU0nT1ty2 4HkVadqgGinzFsU9kAfg3d3d5iM+4iP2zl+4upOStbA/lrC2dOvwBAe3Nn5yMvh6PfjJyYZOTza8 GTLlwX3IKpuNyUcPj/Erv+S/JZwD/v61n7UP/MDfpT5n6vuBN70yx1peSBWMG4dqk2ajRBXlYcCi bTFLFTnK3oAj3olNflDVDc4/chm7O+fo4Pozfv3aB1xzxmd83l+Uj3r1a1O5Yf/uv/5Z63Y2G4Oj CzO8EE3xp8Lts4SrToZcV+CUMDvdYLPe4PikQ8091p1hvV4jU/JakiP2UCI3g2y6kYf2XLZQKXy/ E41+kZFEqCKhRip615Pv4O7aIRYHz/FzXD1Szy+c2z9/aXh8Zz83zcJ36oVS1VrdznNKbU7tXKvZ zpANdnK6sa7P8Fg8zqkWrutNqpsmzRLSLBGJONVCgtu3uH9BDyBVVc2Xu7vnDq4NH/u2X//95tb1 Z1y7E5ysOxt6900/eM5mph4bfwKmZs6AEbNftBN75etiMp7MJ/L009eh5lA17gerRGSWkh1XkrTv O99ZneNP/pTXNR/+UR9TX7x4mWfzXTz31Hvxm2/9Rf21f/6L3rQzdyvVRmMHA5/06X9O/uxnfFkF AL/1yz8z/Ppb/xf963/zxxrcEe/6zQag5MKAkxSCJ1rEg6QpC3sZhYkzsGp0F8WKbWRziBuyxn73 jBF0WNnX0ECx9tEVhlz21BldDBzONK4yIE+SqKLkt45vebc+Rk/kx0iK06w3Dg6dOHFixqxJTWzT BYpc20EwbprWV6uV761W3s6W3iz3tJ4vsdy9YG1zgXbsKn3MR56vNjSHD8czAIuiBA+mAIeHh/OU 0uWTkxO9eeMAB9ecuk2HrsvSD4qsI8sU23GZjcl/nGRgAwwZgB6r2s2DU3i4Z2cmUbUE1Hvznb3N 137L/1A9/rKPbu8cyMXHX47XfsnL02u/6K/4N3zFpw6paktZnAlGODo8mN67WO7SX/22H5vOsTl6 xp56/7vs6PDASRIcTgoCu5VNBYBx1yAab5vuHMF2Qu77u8dZYuciRVmbCs0a/EBsPwfAx2zYE4gG HjBQQjf0dLrp3DihQ6xVoEoB1JQYRJnJ3DlIbeOC9ag7PaLDm88GiU5EPC7SICaRCqvdJf3O77wH 8+UKn/2Fn3/un83b8wDPTk9P+YUUAAC47/sGwP4wZByvOxweVdj0HbouI+fYBlDVoH4m+Swrcb6R Pg+v/l+/a7wOf8eVv2D46b8wnfyLfuNbmb/3F8gcCYdH9TAM+L3f+SX8/D/6e/g3//p3IVCcP/co 3vgdP4z9R14GyIK+8Cu+qf6pH/9bPpacmMhv3Hh2ksXLP+ZTEgCc3Hif/eB3v2HouzU4JTCJS6pp LAMYR05NvpX7XQLf6jHd9lQwh0dzEs6sw3aMtdFSlinxhUbzB0CFG2ID4GogZMrZYKo8WHY133Xr oEMmNwDuyG3CuK8uuZctmsYRjQxfIZt4ZDIToBv0mxNQatB3R4t5O7vQZ11UVcXDMLxwFqCqFQPz IWdoVgx9xjAYcg4FyAaYjrh/lL6ANVqwz54LW3pr/J3cHZYHnJ4qvuXrvgRV1UAKfJ21uzg9Pca3 fs3r8ENv/i0AwKte85n4iR/+bmqatpC7ftfeJ8PpdfyNb3w9t+28GckUx7hoU4I8M6Bsu1A6L83T tKMCT+LcHmUD41GIDjZ3dncoEWLLcyPVcdUrQd2Rc572NbNxm8wyXvEz02Ieu22Zk1qEHacMK8uZ XKnsFzB6mWCDULacuq0Ah7GbusKmFgxDBwwdNHd1StWeOmZjb9kLEkHuXuqhsenW6Oa8qH905KFU 5CcoDBDwPf6z+JJP/3187v/4j4CrwNc98WN473/1/YUGJS80L5kDbIaqabYTt+kwMNBULebLFWJr 2xoAkFJ1RtnuLnP9yH/3RjT1rCw4jPFoeadObUtlmA4eV9EYOepGIu4nCc+WDEEilj15Q1ngDoo9 mGyyQvOYG4Js2zWmg3Hnt7+UrH9SND7zHzfAhCdLv4vFn4gu3865xTZK4NiuPLbRyXA3mPZwy4mE G++9EpEHU4Dbj/sEx4d471gQiuR/LFtGz4yqYbU6jy96/VfhNR//6QDP7nv2ac+He1S4PvDU+4uL Hi2iHI6ycDPaQCcIgDuFRXe8Lr0J9xtMocDHd0ePit81tjNvw9glcI/hlzfbNtSckb4DQQGOrqQk 3Nu1eOMot3c0ftxs+w8vweshFOC+Qz07atxDV+93Ojo7p/3Q4cv/y2/Cp33m66e3PP2+t+OpJ96N 44Mb+ITP+C9w9qbuU96+Yzh3CvL+9zA6izuPwiVufwb/es8j7C8oALqHcB9wZu5x3tvHs+0yOPvf B5HP3ad9QQWgcQWnPYz1j+e/nxeY6mLT8cmf9rmT8P/Bj38ffvotP4xHzj0CApCY8Ko/+Wexe/El t51n8gL3O8obbPIy9/70/Uc6jXj7km9/73TWcWNU0gDpD6ShD3+4I0qMd2nT8yv4/Y4HHaY/2DvP jmpEzNN0hdTprOOOp6Hf4Iu/7GsBAO979+/hF3/uJ7DcWSFNzZiApNt19azw775tx7jl3njce/i3 B9d7Td8I3ovfvGMEZ17SmBfc4yT3M/1SI7v7gneP4rbxP58xTmh8vOiZ5mHoPcPS8x6q6jlnn3bX RKn/j40oYw3ittOVzIpKxWJ7lI2Yxv7VAp/cMZvvAAAOD25AUgpMgxLvTLHYv/JCQ73ruGuazvid MUy/sNWMlRxg7IjDGY+y3QNzu/v9fV39vYQ9Lud7no/cFsjobAg60wAydl3JyKgKRMalZwyWBI+s xItMxzM872Hr9dpOTk60SgltXaNtazRtQlNXaJqEqkpIkpAqRkqMlBJSCi49pbTdJgXAf371y50/ ibedQRxLtJqqwb/63X8BAPgTr/oEXLr8ODbdMfpujaad4Qf+p39y26DoHsj/fpN350FnDOR2Qdk9 Xt1+sunvd/j3s3p0z88+z3DPOioDirRLMjfOE6Tsx1CeWSBJIGmc+wrV+Eg1qqpG3bSoqxZtO0NV tWiqOYYh+7o71c1m4+OOZs+HARyAHx8fDwcHB5u6SjSfz7BaLbHpErqqRzcYclZoRnyBoKKUkYs7 JMLb6B347N98r+PqS/CxAN78ht91vCFu+ct+69uYvv8XqaqAH/i+b8SP/GQowff94M/fNZjDZ/4A e49+CAAg1RUsn/nG9ntY1oj/x9GMnpHHlrE77/QsTmAf97iKX8+8z0DwM5BxRON25zD8jDcej7Mp HxPIYnUHMYMlLDYJx15LSDBJSGCYOFJVTbuC0qRx48KWccOLWN0c2w4GEbRY7CHVR2jbGbJ6Pjk5 7dwxjCN5XhB4cnJiBwcHm2vPPXe0Ore/fvkrPjy96pUX6OjgOm5cO8TBzSPcOjzGJivUU/mCRyr7 MBDqJDhkwo//whf461/6L4D/ZJpuB0A7SQjLFoATsfhX/8WPx5d+xTfwx/zpT03xpRY9v/1f/or/ 3E/+bbzio1+Nz3r9NxMAvPRlH2ZPv//do9P1tq1uI5nqqoq+1LHXb5x+QtQpi3kxCUhSMbrpFMzx b2Iq/pkwdilT4WC99Pb5tPNHfLMdiDTOmxjiTsLiOvZiWexPyBbCklh1RDUS3WpaoG7RtgtfUMom C2Vpyx4B8J1Fw7EvvwFlBQQB1M5arPZWvlqtnFKCCJOkCiklcNVgd2fO2ryd1zrX3/7dP1i74xbi m8NeWAE2m41ev359fXh4+Nwv/+o/e+L6taceT/XVum1bT/XCzz++8kdeVsfm/WrQ8rUiI31KMCKG dwB+5K2vh/xK1N83/QbdZqCLJyfcL2uME0RE+Ok3fz/e8ve+uzNV2luuFkSCeWrw7rf/un/vGz4N qoZmNvfFclZyZMe1p99tv/AT3+XtYunL5YoWi8bG8Ara2sxo6TTyAWV5NkoXrxFREiYRISFxloSU ojmUZNrzxGOvH/bEYjUnT8TB3ZgjeYIIEVWJAFjWArziPbEwrLRpJwilUk28tZ5T6jaYL5ZoqbK6 Pa/L/UfzYndlIGA1S6zxfadxIUT/Yded4uDggJ585zs8thdM4FRRqhaU2jldOH8Ov/Lb76nRPDJc vbi8BeBZxLeS2n0VoHQD2d7eXr5x48bJ008//czezn98dHLUnb78j3O2fJJvHR/o8Vr95Fb2fqO2 GRw5q6sC5szhDQC1aV07oTRat/MW89kCO/vn/XzbhtsTpsRMLELFVnnRzOfQ7IuqpnlKLomdmDD0 OeoRfUbfb9D3huPn3mW3nmN8wM0unl8BdsfXkBigI23mo0yYgBTr7ON9LrEhQ6xIThWaKmG5nGF3 MUOdEpiAtq4wn7fOPfss1V5RdPZa2ciXE3uqa4cbqcbyYyndUU3V+HIxx3K2dGJQ7h0JIEuZblVz 1LMd23Ws+6HaPPXsU3r4znfakM12d+cce/8kZ0oOIQeSEYlDak/pkktqKFUtSTNHahfSLvf5wuOP yvHwniW3V3peyBHiK+PWz6sARLFTl4jgXe9612YYhuvLpZwsWl2/8hWLgdF1B4fQw1uWT06gxyeD 9YPaZpPL9wGP7BWRmpMbUdTKmdxAhiNyf46HY0J3BI45EnKN1YSmJJvB0kyW+/2m9zY1VEHiy6QB pFR729Y+m83Rtq03TY2UEuqUKKWIpVVKqKuEqgBRYUFbV1SlBJBj2CiyA8NglDUjK2ITibGLCQBX DZqasbOzxIULK6REqCvGaqcG8op66mmnajGrW29SQlO3Xte1Z3Ia8oDNkP3o5MQ3mw36offjdYdr 12/6wa0DOr11QglEtTSYpxbvfOJf4+TJZ7F37hF9a66Oc7pw4vX5ztO53pD8JatV5SzGlFySOEnl wgki4qmq3FNFVNfEszlXsznPF6s0X66qRz/kSgL+SW3pQs8trYv1PxgGICJDfNXoadty39bav+Tq TLml9cWbOhwc5OH4JA8nx9BuY9r1ZjlnN1U3DZ43UmTiUhInC/RNMKbSPADz2P/NXGAO6jNSt8l1 i/ZKd9L7smZekOtGtShYh0HNtTPv1sBp+V5gB0cbmAOmIDUgm0EN5ApXB1nZG7BtZ7RY7vlyvqCq adE0Fdq64badSaorkrpB21bYXcywu7NAEmBzeuSaO7DMYWq2WXeWjzv9wPrUT0463Lx5A4eHh2CJ 7wcig7tT+Uqj2N4mUaKaE85xS/O6wVxmtNfs0JPHv0f9s0e+lHP5NNdHaHYOML90gmbVo6qwbvcb SEKVBC7JUxJoYkhKoCSUqoqqpuG2bqSdL1M7X9p8tY/lLgCaOWRmKUERBYkpWbmvApzZ5NgAKDEM 7OAZO+aw+QD1jEzwnMhz05i2vaplNbNsEZAi4tK0Qc8WfMc+Yg43I8DKchbAnP6f9r6tV7IsOeuL WGtfMvNknVPV3dPjsbHAxggJYQmJn8BvQPILv4NXnnlF4hGJFyNAMvILYFsIIS5vlg3IHs0Y455L V09fq6vOJTP3ivh4iFg7s6pr3F3TM8BIs6WsPHXqVJ69V8SK+OKLWBGyNNTbu2Usx3f8fmr+1mzc i9rSzBc6T83YLEfHG2kGId3NoG2do0hBzFMUM6G5o7VQvlCSF8DxmR6PFfeAgCruEKmbSoqIKMo4 Eq6iapwHyM31Ff7bf/wf2M+OTz7+Zfdnrd3UjY9ltJKjQnd0zpsJk4wAFLa4iyiLCKpGNfAoo4x1 lKs6y/W41bfGG/xREz3giKujOlo9QB7dY/PkDnj7BB3Ftk9YRIGqIlUhJd60itRapNYipQ6idYBq pdQaEcbr+O2L641bxKw9+byXoPd/JBQEFZEjrU7J6ULZ2BJy0csga0QBNgJGgQKiogq0hjboQg70 gc1vNpS3Kv1IWmuNLaaU0fpgFCfcDTkyNmcQO5rFuXAnsJwW0nNgbgyaVqkOoopDQUBIKS46UVVr HTCMwFSFUx1wNRe+/dYef/Cf7vDWvMjt8q4tz49tv9m13aCmDCAIc87zrDPijN8SfUhZVFC0YtAq U5lkrpNeDRu5Gnd8PO91IwMnACMKgdGgQ0PZGspsGEcVGdmPCoAv5UDZEzuyUpZ+FthL5OUXmZE3 SAbpxWcl1RoVLjk6qqenuZImnfS1zNr2e3MQHRqu9ecSZVTBawmhRtGYsVKKoxbSzBC9HYmiFlXh MaMuK7IcdObsYQJoiEnjhNdGaxm1ewwz1HFQVRWL/yze24vBOU6UeaPcTAWbseLmSvH4mztc1YM8 mo6cjS4Hb7tB2r5UK67MaejY6+xjjaKkg2X7ClUWrVJrlalWjloxSOEQx8eZbTI6UX6mhiJXLuf8 b7KnrnmuIolYWoDerImPYLtLIQtULppLvrECsFNnPL/6RCJn5MFCJzwQuBJ9hlvv1uLKyJImMxO1 BLn/VGCI3kKW844Q+CDq8UpM1KEb+mgU5oC6HCgXIzsk1C+OqcW8qegxEApFIIkeRx1JFes6GwF/ jWKGaXZsN4LdFthvhPtdFdwMmEdiNzkGVdKVM4Qz6jqoyiioRUWh/aQSMmZLgYbyMScEkXnXSSY5 GDGJdybJABk6qo77d/RTVRIbMIgpyQ0pjJrB/mvlapLdbpTN+MWzYW9+MshT+lmUwkR1nncWxSo8 56w1anFi9ztcdX0YyDoZJRVCAO2fkY9rOZSw72QCNMuFO1uctAJwuIBZusGzUkbNIlOHe0xIOC3n ySZ76JYdRWNAo8BRhUAlUIFxGDBVy3Od8XndtNIBT06DdNiat0fWjsU9gAZ6CjVHmyIZQO2tUtcF JlBV6R51gtlJO/p/2WoRgp7uUW4/IBmKsd9NsttWmacvpgzfoFUsu1SyypXr9xzne4a/TKNKxuOu nsmXsAueBRPuUVkrRcM1eN9J0dHDkKgeRBy/Yjj6hPUMw5/r1St38j569WUc28qisMCmOekyBLQq D1a/FbOIo/vYKuRsPqnDBFjUQ9II1gA73tdENKxg38QwKCpohNec9eMGQ1YbuUFLxYAZdazAoa+1 xf0Wl27WY8MpXOO+KmKzZciBM1izvgH46GqQzXaQefpiGvEN5gZ2RUAKPUxZ7MqIu/ouozMO7fb1 TBPxUv6ezL0a5XmwaPJgcVgsZsMnmKMb3BRxyioWNk79dOBhCUfyX7sypCKQoTToIDCfpjJG0kp3 aeIrtiG71UAQPKGVKGVAqYIE/YH7kJ1KPUrHtYYCM/1w6H0cTdc0b1yVljAYy6AyDhup03jh7/NB V6vQN7BB2dvEaTxPH4/Rb/pio19tJ9lsqsxD+8kVYFUCrpqVJtizIDJNNLo18LRKWSNDAEKY9/Zs jgKIGb23uDcDVDzNffjLcAHxd7rDSHF374rG/rBk4oLsTtZpPxKW5jgW/qzIZgDjfAHQLSizf7FL FLsiLEiU83lk4KquIMtTUSyFmbX7IaY8LCoabkgoURyabnO1XoSUWjFuJuo0AH4AYIjO10T0tvI8 +dqhMtPievZV6DmCs/8HCDdgv62yuRpknpavpwCX3sO7dqdZvVQGB6JJhEXYYiAka9yUgGVu3RCm 3C06ZwEXJt/jmYzd5OcmdNKjcpaBA9JSIO/HujHMBUJXUF7gBAIoKGnF4mb0nDZUR8zodrgZopNh AdyhdUSEj32Xx6ERzb+nsKNhNbvZRuQknOBqqu1sOY2stWLazqjjAOAB511smAZBRJO5cAScChdh JZRgdEipuQvg0QA53dD+apR5LrIZ9WsoANN0ekinTyV168IJsNcXevVEtDgkmkDJtRdixIfS4jRO 1MdHDpymEaYxfCTNYeIwN/R59MydTesrnDgBiNPYF8KORJWtuAoZO3m6LAhAGoQlXHj4pHjGbmVy QYsOKBUJHlPpYfDc3VK0qx/ccoQ6AWXWT7PjD2ZEQxhi1sAwz1KnPl/X09oahtJr1zrGEGgMyhIP +UevksRA5/rzeHu0nWTeDTKNX2SF3jwK6J/rHUT1XZr4Oh8OubChNg5o9gO09HACSIZCkvOFgW4B /IzuE1RytQSx6y1rD176fUiz2sFdrj7pERakIK1bfPbauo4KDMoQKE1XFN8VQemIVGs+P2MXGw3F IxlUpEpkNxW29i0SuDukBHYIRrYi4xAgP3fczDLGdj9HWwKUEpYCRRIbKlDj8WqalzwzIKuZvsAB tYoMteUe2ewAABwmSURBVEhZM+NfQwGMRGHE3j2OTeebfEAegICfd7oQ4jHfR3SdaxlCMkfwF3ph AQBbTRjD93tMBjPrVsdg5zN56E2imYJFxuDmDjYLYXULYISX/DdePl1YHmo8JxjWw/M+YA4tVcpQ AZzSglgqQ1gjmWVF46QhuFgDWOLzIjeR3AXhLXBEqQXYjNRx6DcZCyGUKj1s6QJ0gEoNHRfQor1F j4uTV3j9tOCfUAHC3J1NYd/5HQS5A26eGDFchWVIla1sIlDytFAFQPpxSV+9RgGw3HGBI8LKn8M+ Mjlf+ksRSCqVxFG8BGNhOXjmC+KnBDl/MtunCriCVq4uxmJktAdfUOgodUQtFfTDusb0GNNLGrQU YWPQUkawGCSnljBb/kXUUmPtxOFO6lBRt1sZ5wlnX0Wgirg5S7oB6YAVLh7Z/xRQWhNQVnKB3Qr+ FBQggy54CjTYur77uPrT4Nrz5i2EbsIosUFnAgkx5K5kdAYH0UxQxFeT24VMGsxLuJp+DtE8Ubqt 5jJknlmofkrGA8j10JUWaShRiJnHs6wby1ES2a9I3R1Gjc3UDKUM0GHIZ46fczjUYkN0xO8e9yYU UArcDS7pAuiJIbp7MYzbWYSGYZrkTLYZMKn2yAIvhXz9lh1ASbffpd7/f3cH6x9fQwESvDFDjx6l cbUCZxYwzvD7WrsWChv3FnMfHeqICiL4GuoCCgtKIFye9RArtDtNtuRR9PTBSOGnSe0sj59Bq/Wq nMADsH5PHbtko2lIKDbSjcUrhhCZx2fUYUCp00v4JiIfiZ+pCpBiFnU7nbETKJyMmUrSwXIoOoxQ LajTlO4lF5oEBolBSJDYUBpgLz47FcEN0X4ihyimC3r1KNrXUwBokihMC2Orv/c0hZ4PRCeYhxcE QQqF1e8xMpPjiE/UImDGhiIBC2JdUvgNsBqfZ+Z0mtCZHilDQV6QK/CViva0VIDk0agM3QL6x6Ot YC1mELj4Cu4cZcUdcMMwbVGqQouIMc18zeojEqJF3CNxFSFuhJcBBQwUyc0SyuU0+MXhiZQo1ihg lE46pGJE7aJCoEGcAKyrcscPWOCB3PVGZ4u8yhfMwBukg3OHpXR63N+Fj26uPenNfl5cYrcLka4g UT9CeCKAGXNoVGxDWiqUn12As6QF6HRwgC6nrUg95J87oIedrSUJFMi8h6iVXTGAGHQd3UShidcs I5GGFFTwAKUOqGPN57ZUMs+twZw4YtK8ZYWYx+ZhNJDMoHHNY0Syy8jaQ+s09w7AG4dRld7BZKe5 He6KFVx1HqMGBBZ0giyu27sTWz35Tr5GMiiXc7UufcFxZugCpCU/HtmxDA2zTZwycEEnQzorCI2O qNlFBZbBQUkewJPoCARtiQXOCDxcgK1rAZyFa260zDd4xqBEhlOMjCXXmYaSAtCVZ2h0uEUYF5im LwhXK8EExVprRA8CtE4OOaCav1cAmgGlxr3n2jkvTuys/toAQqaK9E/twvdrunhlRQIU6eja89lj ZwqBF3cnttq4r+1rWIDuljLk6nG5dZ+fRaA9Zu/n4TUZMAFh2nccI+vmyQqmgntgxcjhd/RvGV0U yeRMKsNFfO4e1frnje8ZATnM8veQHR9DRcLXp98PPTYw+68CGXYaMwQsiTFiB/mlxTPCMt6tNQri rSF6BmqM+oJLKL0JWBHKagqv+Rmrib9c7PD/QZMnBgAQ8+98/TlfZygRgEX7GL6kTXh+f2QrRz6e v9go8I15AL8wtz07FwvfWTMLF5BhTGfCIH4e8xo7lOZZoq+IykOJ5/ME9mHi0x9bj6FT8fKH3D0x QNydO6ODRv9780tOKBS4KpjAytFZuljY0lO7vMQ3FtNH0zX1pY/wL3w9CIhWseANaLQYe1cMBkEx hReF0VB7YwszeO385aX8u/9XoXsmg0Lz+qkoDf8CNSNKMETnApuO1mMDvrhd2Grj4fg1LEAmLcIf I1Kllj6XF2SMZZ5dvOt1LwsJYHj2WRfQJnMGirByzq4ETAtAeOnC9zV8sgQg3tPT549eSaRmK2Bf XWsl0Nxy/hBWdwEtyWF4bqQI88ylh1lIxgBRzkKQZM80ljHG07XmpHmcA8k8vQuid60JUAxk7RsB bibns+kX1mCuCm+AhhWBFrCTSlFBKQ6NSlvpBXouXUt7Q4sXt0fasPCw+E+uALGLUgma9+K7MIHd xHb8tQLA/kARDrELShIQxz/Ev/Ns3axbAPcETN4TY9mOJostMjwMkH8GSEg+AtbWkLon0OAAq0jI 3OAWJlQR2b8EUmc80yMRY9xYdv8IywOEaaCQTqlF3IlmRtIFTOwAQErMLoBGqFk9IoAEuSQST2TO At6AIQ6CM+bfAm551jLuOyJnD+LPCNTkxyVjRgR1eHt/pI1HHg5nqby5AuRl3dpmDN61OCpgeoID K7Bi+lSmlCW1yTwPP55D3ABi7IKObKH3sjB01H8JCJlALnCC4pw3CF/ML3TIdiKmmznQlFEirJ0C ptACkFj1vsPhdOm5jjXSiNsWi98tEsOAACXaksOzjYISi06SLp5UeraTSd9NEu10gjwc2MqJvZhD pqLi9HM+vbs2zaoJiXEpSEKsD8PoLGIqX7s98XZsfDh+UZ5vRgWn+baeCEpCwj2ZwRQGs+4NBM49 hM5mH8DKbXSCCQkGTbLY48LidFrZaGtlT55Hi9+ZoDBmdmcEQMLbyj+tat/laAmUIjKJPAUSrMau lDT/kenzrAlw9LIMCmNqpRrIIfoXaDOnoVcmGsCiKsLU97BYjHjHjOIZ/h4fDix3DzjoAYAKouw7 XCi7+UDMFbZohb8eb088QEaSOIpiVvSFSDkbzdflf3MF6Fdn//oujwXu2bsQvCUNGyVdGQGsC5dA LIFZSaELwv8LzxjIEZnB5hGapWIIzdIiJ/mRZhoAyMjep1zJBJodN0Mhln6hw5GIqjyEZhQUF3OF NQeHIh5laDRvIKqQGoEMIE4qAZRpgNGlLd6NDIEoiXNVEXdQRDL9HGPM6EJQzB22LNIe7jEMx4iN N0OBwkQpjKnY2mcNMtxolonZOUEEinvOQw0w2Pu7AOjTBr+GAnQauCPzNQFErqjYMxZcCQ30+P5i 9zf0Ggm0FDoE0IwEbOWRsjooLQBpAiPPWTgXesr7bKIkQsMIufvv7conBprnosWBJKAnngAFXWAO FoO5i5nBTMToYlGIlFaB6mA1iDbSZKhwUk7W3Ny9zxgqfREYvS3Njc2q1EJxUI0mIMVbw+nugHk+ ApCCqVZxN0GUjIvk7G1BtthxZBv2nEwjOX8k3Wz2KaS4nLV//eLNFSD3V+casrQ5zb5l1i7NvvXY tgPzLvlUhNZNkSD7Ca4eAKKJMwygpG8LayOJM7Pqp1uSToEC9G56I8rzqNSE6MpJSVRYE5IVvTFs QsUAMYOgEVqI1kzYGporm0fiaWlUd4OFsSgGYaN7gyvGQZoZjy0zYe4QVRJCcRPXQpiBWlFAcSOa mjSjHJvh1JqcHg44Hk8CwYBNnYqCGqmkHC/hjFmNiJljETlJdBlADGGJ3RZtQ0VEeFHu9prrzaqC U5iRJPEgmla6toc05zKxburLqxYg/YEgK7G6BeiI/YwBxA3iNAA1NNkz7Ew2mRlAuKXKBf4Ta+hz q1Z3wgDhYkSfNJuUytrgQbJMXcyB4+leplFBF2mt0hxYliPaSdEcYmBphtJqYUOErIdGlujPQEn0 Hmx9Z+IprTUeVaXS0WCymLOdmtzfPchmfywoskFREovCT41a8zGVgkJBIdSgKMwzTRCgm4MSDak1 G5TnSmvYjJ9YAbx70k61kpJ1+tLr3TyVxPwsnWR/z3pkAfL6+JlLC9Cj+UZIawBrPxgCsDDMrgPu 6vAGI5QmRLLiwjNPY+2iBp5rcBF8bwCYgNeRrwXzMCS9NZgOkIzpj3dyQkErB+FhwHIYZDkpsdyp YlGR5sNYhQAflgCivfy8FKF4zDFc0hITRkqBNMcRjioNBxiW07EcHu54eDgohnIFbwOsTe6n5s0N UHcWQoIWg1a60FOEFCVUKNmfLI4iaulT9yQ51i/I9Y36BK6mnC9pkoCdxY/bA0U8Q5bclR0A93Me K/nTLYBKXzhoa9DWUEwozOEj1kyDgWa6A1njqB59Sigds3A5aT70dDq7JpOAiTMA1UWhJMF2uj9t ruZpTbwy8qyeEWNbTmxHR1uOOOEZD6ej7g4N7fmDnA4HSKnQMkC1AhyodUJwB4UWmV1BxBUoQpwa ZAGxnBoO7SSHwyKoukNrQ1uOcz0dzIvawuqV1Raok5WK5sIa8ZaYszjdFW4G0pX04vTiUb6hADpe uny9ydzAPFema6NPKUA2uvFsg0+nQNONC2Jza+aQVADvoZlmNlbSY6SVEHPIckI9HDHslEJnOZya NBQ0OM1NI9ceyVpmsJ4jhAQAbYFnJ/egmHP3l8AC4gIqBWYx2RPAOnxHRXm4+/RuM8+jlLEoqlaI VC2YpiLuB5g5REue5xObplHMXZZTCwcjx5h71gd5RdMIGeuIYRpQdZaCDUS20EKqDmLNseAgh8PJ MT+a4Kit0Y+LudPppDkb3arDmotVp7VAq5yyBkypoizthHZquixNlpNpbINW6K0CGFLuCkDeLAzM 1nA50FlKUa1apIiqaPFSqpo5UPKsrLs44X0hhFAnTHun2LAGa2xihFpDOZ4wHBfMNpk2Iz95eJBH 86awNVowgcXoDFTOIFmyRBEE2hG9MLe7gIjfa7gGAjlhJuNsjfq6zkcPtZDWFm/ufqyyoOmCe719 VuVw73oam+jpxXHAya5QcDOpuqCM+42gVDGHHpbGY7N1rjJY0MxEjgKWO/HlCMgLoHwiQMVy+6Ec 8TFwu1Hgwwq5q5vNnQ/1Hc712qFXVJ1wYnFvQcMNjAWA94AcTgilDIQeIOOCu/t7gK2infz4+Q8M wBbAnIqgbzQ4Mtw2ZaxFhrFoHYqUWrTWqmM1pVfAo3KntROlDxLMhl1GsPQJp9pnPUdCjg4RQugo ZqjLCaNF5k+Mrn9+eyvfmCZUAGwNtAzJOm+QwncDl0Pccg9EV0VQ0E8gskYDMTQuoDbIqmApHoON tIhCWSAYVHyaKrfjrLDn4m0hmh2OwIF4sLsPPwhCiB6FBbWU/XZX3tqM6qVq9JsZtJRRSx2kShFz B0+QohWDVHhQZTAYcHtH3DU+3D7DwzTJc0FFEWw3G+x2W2y2e+q057h7xDo+wlwfeZU9q440FL87 gqZOlgNePH9OnFqtky/f/f1/+EkqwC6V4P5N5wZKKYphUB2HKkMtdR4rrQ00b3CiiQDemtQKmMFB E/a6vYWGmv27+RI/02sdJQd2Si2QxuMd6DsFYI343vEgjoh5ikAKw5bV4JBQBVizq5cpdoIugC5J kkooIFYE7UCJBgbOEsdAigtNiAGBeSyax7g1+OmIqoUzsNxgYzfTaFI0BrYA4hCludrDAQHZoYCq K7QB6lrLo92m3Oz3uh3HclNHfe+g5RbAzXaLzc11K2WP20UdLbaJFJEGlbtDw+H0TGp5gfLZ0xjL V7XUotjME7bbDfaPboDt28T128T1Xyc++hfP2/f+8L1c7xHAJhWgvpELEETOW6vqPNdy3FQurRbz RvoIkRNao7cGd1M4m4NCosLMHDhh6MPCck9m2j5Og1vOnjT4Zof27PDw9N13Hv/aw8efZcP6wApu kEZwyVg/C5WlOeT0EDdaSyjEQKCWKJpCSefngES3kACOEvGf99PKJA0VTSDLQrQK2kKx04mn0wGn 04OIl1qAcTPMVqUsVQpjEDZIUQPQoCIUWQAVKQIR0VqKVik6Vi16aqX4XQEOxQ8PYwPk9v6H7eH+ 4fsAjirA2+9+s06bR/OwuR7n3dU47fbjbntTvYz102e3+Pz2DkWEpahQq5y88PPbB62Hp3j26VPM d99pePjDDwE8A/Ac0XefeAMMIEhoowq9vXV99Mh1qKjTVHU5VW1W1S2y5SriKupePcKWYM1Yq1B5 6rmknlboPno9XtAcogXUguWF4vbpZ5/9r/kRHothFuowuVZASg3aXw8PixzvgKagNkjPeFuDNET/ IDL/QzKNpYTzGyUWYCjAIMBUFVNM86GYUY4GQQEVagNhxwV+OqEdDoDPUwXgzdxkaUJSqRYzgeFF 1UXEpRQUFRatVFUfa+VQ1ecy2WYY9GqcypNadX72TLYAHmE+Ag/fBfAjJ+4//OADAh9MiMaJ4yvv m1/51i9trm7e3sy7m+nRo3en7fZqevTk7XG7vaqff/S923/9z//JewB+BOCHAL4H4AMAL7oifFUF qDSToar8wX/+uP6D35rNWoPAXKuVWlC1wquJEUJQ3YxUFLoKBU5rzbWKrxWODlITqoVCBIluQK2Q cYBPE467LXB3Bzs0DMfFh3bysjSU5iitoWw2qPUatQJFDWW3RzYQCfy1HCDHu3Bf7L7f4/GPChwB yUgBguhGMgyQeYLsyoDrAjxOzPxkKGje0GyBYFc2wCxcHCcl1em1kCpeRL2VSq1KNTcUpVRQUV3c WVlRBZxLkV2t2I8zNDg73wybI5bPvgfgu4iefg9huzBcCH5ViB+8/3TC+0+7Uoz5c0PKbcld/1Eq wYeINnGfArgD0L50ZlD/5Q+HdmzN9d/+++/o3/y1v737W3/jYTkcjliORmuNtIXNza05jVGJR4vC MQBsbemHYZMeEM+smidTQAhcYl4SVcBSIdMA225wWBpOy4LSGtQadGlQM+iyoDSDmsV7M5RlgTbG z9aKOn4Dup1RJELvmLVoIkWhbJTTgWineODa+yo52I6L3HERQNgggucDPrm/RTPgf7a78gLQ9yv8 G4PgehhxBeF+mrijcAKohyPhShYhizurs43O5qTR6fnQR4sclgP6wW58hmc4pJC+l+95d6si9HDu 8nUp/B7mLSnozxG7/g7AIV/Hr6IAnTAY/+TP2h9/69r+ruOk/+gf/5fhr//6N7e/+q2R+63z5mbk fls4T+KlPHcsLaLWBhpJN+J0ap2N7WRdno3uCgGXnjvOkggqoBU+V2BMhE8GDqMDFhPa0DyYQ2vQ ZtDWIC2/Noe6owhQjFA3lOZUa1TzGGE8XqHM86AVpVQVnUrRuYpshkGvpiIjjjLywM1QxBpgBagq dgT4SXvgXXuIfYrQbIHIVGeZtzvstzOvILieBt5I4eNpw8d14E4KpTVv7Ra39eRcTgNwdf9Pn/3F BynoXvN7j7PvztxlT6SvG/TyVS9+Jm0dlnxvwNomzgHYV1UA/73f+w9//Ft//+99Z5r+6Ddvb+/l 23/yPv77H6OeGnQ5Qo9xMFbmCbjeD7y5Jh9fV97swf0e/min3O/o0xANbLLErxfdRC7zrAy8uEnS 4RpH6wwASw2LUTMlgV6ewDwI3KuKLA4d5xR5NYuRfs0hRihblClGg8qlkIsuDEtyIMotUZ5DypO3 9uXdd97V+Vu/VLD9oJQN5Opb3zy+5bf2V5+8JfXU5MWHH+G+3WfmUUWNsNs7+fzhgM8F8lTPWRoI ZLPdYLvd1Ue7K747V/zO3j/7s89uP0iBtwshd0Eu6GU+X+T05S9572uZ+rm+E/hyJrD/5yOA57/9 L//gd4dh+8Gv/7Vf/Y154pOrnex2V5h2mzLOlfXZiw/x6Sf38sHTBT94CnVrUECevwCaQcYRGAbI 9TV48wh8fB2vm0fgk2twfwWfJ/igkfOxc+EM48Q9HDk4zxHnTaKCY61/8hKWg0XgMkQR0Thkk8NM TfQ8VlLGeWwh5FNEixbVUkuZainjrHU7l7KZWin1VFvDdHcEv/3+99/79Dk/+tPnnx4AaJ3n+Rvv vLu5HqZ5Pw7T1ThP+3EY9+M8Vkd98eHHuHv2LFivkgnewxHP7+8Vf+c3T3/2h/+1A7T+/jzXvadI Xn39VK6vogCGaC/6IwCbZbnnt7/zvfcBfAPANYA9Iq7cANgO43a+vhqn7U7G3UbqPKNur09ltxE9 Hl7o82fgJ59APvkY0rOFjFQsVYFxBLZb4PENcL0Hn9yA13vg8Q14fQXfzOBY4EqwnS1IV9Teqscl cy8q8FNxL3AXFRcU1qqEqMsgDgEjhFcvotRaONYqw1RtngfdzHW52o31ej+Ud959R+cZ2M3wm5v9 X3z67Pm3AXwC4NQOh+H9p0+n9yO+Hi9eHbDtvvVXfmXz1uZqez2O85Pt1WYex/r+/e3tv/n9f/ce AqB9H4HWPwTwMSJ0e0BYhJ+q4Pv1VRSg5U18hDBDzxBa+hjADUIBrvJ9t5zutx9/er/DpyvZcLkg E4Bxu90Ouy3rZkbZzlK2G5TtDK11kc8/W/D558Dtc+D7PV3LUBQzYBog4wxcX4M3e+DmGt7fH1+D 2xkcB7gKaA30AscpyUIlBc0WAUsRFxETqaSq1xrZmVLgdQTmuXA3F9nvJ7m+nvj4Zubm5spqhc0z 2jjMT4HnfwrgPcQGAc5gbHzl6wnA8P73fzC9//K/94L4zxFC/wjAZ/l5Dxevhtel8n4K11d1AR2A HPNmf4igEzevvG8RytDpxv69zcX75v7+frq/x4xzTPsSgq3DPOx3EgqyQdluoNtZynYLuf38ns+e AR9/BPzoAwgQrR3pcZa0VMg4gldXwM018PZj8OYa/uQavLmp3G+N00SKRP4IPPlCuLl6tSgYLzJw UbINxtYobuRyFOD+4ARk3NTjt7/74WcIYT1F7NYFZ7/dAdmAMzDr6Lzi5QHOhvD7HaUfcfb3/dXd wE/9+io8QHcD3Roc8mYvH+wyRu1U44Rz4uElBbj4+3zx924tprYcps+eYf7s5Z108bu0Xu2nup1R dhspYUmg262qn27x6Wfg82fAi+fA+z9EpOMcsAjmMM/dzQiu9+DNzcTH1+BbN7M/eSJea3HBke5H tmXh7e2Jp8PBG669nVD/1e9vfgi86CgcOFvJ3oX7EoT1n3sVuffvMf9fw3mnvwrWfibCB96sJtAv 3nuNx+WDCV4ORS4VZHzl1Xf//Mpr85rvXf5sKphPty8extsXYVovfkffdcN2u63bGfVqp3W7Ed3t pO7mouNEefH5M7m9BZ5+QH7wPgA9RDkVDgoA0wa42g3y1uMrPnni/u47yrdu4DLP9s9+F0+BF7cI oQzne8IB583yuusL1TgX37sU8M9M2K+7XndTP+lnCL6o+Zda/2rM2s3h68iMS7rz1df8Y77/Orr0 VYKkm+FxHDfD1VUdHu1KvbrSYX9Vy35X66P9WE7Hz+X2xWdoLQgpAPJLv/wb/O3f+e6HCIT+HoBv A/hTAH+e33uGUIIevv5cXD8NBfhx12UN8uuUA3jZFPav+/ulFblUlu5DXwe0XgJdX+F7ryrH+vki w/j2W/tpv6+VrPzff/H+MwT+6aHaewjU/gECA7xAsmtfa9X+L18/SwX4st/54967QvTX63zopTXp X3eFGfCXU6avo05/3Nf9s4DY3Z8jhP0RgqLtStFRe2fafm6u/xcK8GXXlynISzVteNndvO7rV5Xm VYV5FbO8+upF1QtCyHcI1N759BPOdOvPDK3/rK7/HxXgq1yvKsWP+/rHKc/l11+mOP3nO/h9lU+/ fP1cCR/4+VWAN7l+HG/+Zd/7susLvPovrl9cv7h+cf18Xf8HFQJRpaCP14IAAAAASUVORK5CYII= "
     id="image10-3"
     x="19.530947"
     y="9.0032568" />
</svg>
