<?xml version="1.0" encoding="UTF-8" standalone="no"?>
<!-- Created with Inkscape (http://www.inkscape.org/) -->

<svg
   xmlns:dc="http://purl.org/dc/elements/1.1/"
   xmlns:cc="http://creativecommons.org/ns#"
   xmlns:rdf="http://www.w3.org/1999/02/22-rdf-syntax-ns#"
   xmlns:svg="http://www.w3.org/2000/svg"
   xmlns="http://www.w3.org/2000/svg"
   xmlns:xlink="http://www.w3.org/1999/xlink"
   xmlns:sodipodi="http://sodipodi.sourceforge.net/DTD/sodipodi-0.dtd"
   xmlns:inkscape="http://www.inkscape.org/namespaces/inkscape"
   version="1.1"
   id="svg2"
   width="64"
   height="64"
   viewBox="0 0 64.000002 64.000002"
   sodipodi:docname="folder-unlocked.svg"
   inkscape:version="0.92.1 r15371">
  <metadata
     id="metadata8">
    <rdf:RDF>
      <cc:Work
         rdf:about="">
        <dc:format>image/svg+xml</dc:format>
        <dc:type
           rdf:resource="http://purl.org/dc/dcmitype/StillImage" />
        <dc:title></dc:title>
      </cc:Work>
    </rdf:RDF>
  </metadata>
  <defs
     id="defs6" />
  <sodipodi:namedview
     pagecolor="#ffffff"
     bordercolor="#666666"
     borderopacity="1"
     objecttolerance="10"
     gridtolerance="10"
     guidetolerance="10"
     inkscape:pageopacity="0"
     inkscape:pageshadow="2"
     inkscape:window-width="640"
     inkscape:window-height="480"
     id="namedview4"
     showgrid="false"
     inkscape:current-layer="svg2" />
  <image
     width="64"
     height="64"
     preserveAspectRatio="none"
     xlink:href="data:image/png;base64,iVBORw0KGgoAAAANSUhEUgAAAIAAAACACAYAAADDPmHLAAAAAXNSR0IArs4c6QAAAAZiS0dEAP8A /wD/oL2nkwAAAAlwSFlzAAAN1wAADdcBQiibeAAAAAd0SU1FB+EDHgwbAqiIaykAACAASURBVHja 7X1dj6xJctYTke9bVX26+3zP7Mx42V0wBtkYsch8SFjIl8ANXHKHhISQ+AlccMc1d/4D/AOExAUy QoBkQFphBEYI24jF1toez65n5pyZ091VlRFcZERmZFZVd/XHOXts9oxq+qM+uurNyIgnnngikvCw /+iI+/WIx/3/+E/D9bnPYx50we77WvSW/+YfRyN4iN+/cwOor/P8Z//WI55WJ8gb/dFv/fsvdf3q J7v/Hl7g5c//nedQpe3l6y+/+N//9uohF/8hDCA+n1bPvkWXn/82ffTdv/tzr37w33/ryXd+4V8Q +BdURfUdX0m6w3aht7XN7vze6bPf+94///Pnn3x3Xr386T+bNxe//Yf/8199Pryte4UFeoD3SX47 /fBn56ff+Sv/mNL8T4ioviuFguQne//W7kDVbhmSt/96e/XqH/7w1//lD+pl7Y3gTv+m++76eFuc vzhJ0/yM0wwwgZSgUEAVSPf4M/T+x5DexekDvaZARSBCgOpEwLzn48dLom/bAA4tPgNg5rTkaT5L 0xLIawAZIAYRgchXkQAiEAhEsO/Ly5HdB8Tf2XP8t2SG4M+rj+9Nwx+rR7m6way0eK2dx6htu261 i4EryL4qAAGUoCptVew5qlJfpzweAAQq5is1vqZCGWAibIUusL0ilK2k5eLuWNytQ8F0TyOtiw8g pWnxaErzizTNyJpVFcR10driAuVDYVxEX2xFNZL63Gpy5X67Nyxd+79S+z3VS1KMRKsFxSs2XDcC SMmDV/srpM24zBCIAFWqf5cAQBlKAFMqxqJq71sBYnu14L2Vwhs1Q2OApP5uS4knntKZrZkvfr6v 25nusfs5fE0AZmZ+zCl9xClBt0SqNCwkl+sQvQGaIRQPEHZ83Pn2c3nJBj/8KfXlbNs3W7OF0+hZ 7F1r/VPo3AXUFrMZY9ma/r61/R4K4rKb3cTKn9TBr1STBJFAlftQTmqGJGaVDCUBFf+gE/NLmRYf APg/9kJbe7IMi38rL3BXDEDD4k8AJk7plBO/KAvJILIr7Itvq8Tmwjm6/LCQiCHDjaZbcGqOAkOI AGxB4qVggPdcmfg3VQFuu53cQ9hiqy+2ewb2RW4GpvX+4DtIQeYFtBpGApFCpXksf10QmSEUbwFV sKqC8JI5PUPBAQgL/04wAB1w/SkYwKyqpwR+Uj11XUiqu5OIQMx9jAeF3Y4OCyA4BTIfqxE3VJuh tlk7/NDvCwpGo7arCVqfXz1BfWCJywTbodXLKJQJrBbD3Q5AUAiYuIQIJSip3enGpfW9CgisWh5T XZOHBjHDIyLmJ0R4YgaggwHoXb3AdI/djxD/JwAzFI9AfOYxuu5ku/EQrcvFtN1pi9sBxgEDEJvn cByB4OYdV/gu5B4b6JhUkBuLhSjV3koq7iMwWdQmhNhPNY4r2JyAmqGyh/vyuurGSYBo26oEsEOA EGocGhKxGWNmKJ1B9dQMINvGE7vRXb3AfUJAXHzzAHlFRMsaB4kHkFd2v6p2vyuLa/dbeAAVN1x3 nBkDD+7eV7OCKkqda9fg6h02KjWv0Vw9QfyVHbGH5zk67+K6P8DBYP2vGI1qdV0W5gnKClEpC9/h EweLAJsXKcYpIGICNInkFYCFGYDfOBjBW08D96H/CgIBWlWE68BOGcRm/Y7emewi+Tbg6viap7Bd bF6Cadi+FRj677l6kQi7OOAvYupzpujqVcF1Pdu1JA8BFMIAK1QKDkAND+5L7PHmvsv3xeiUymPY jU7UNkO5nyuOKO9BNAOUkADKW4GILmzNPPTysPtx2zAw3SH+j/cFEDg/byDb3L4j9wrE+vRvHxBU /37wEjU9q89voaQsTP+x3ehqOBg8fGcsDk4ruG9exX9WCowm22L7Y0lDXg8QpfJaYvjAQpP5hxIZ uPAFpFKxgjuEssMSoIpctwc9CR53NIA78WPHGIAeIIA4vIHEabHgafVBT8RwSNsiqePuvl9oDwXu rH33U8UBxYU299/SR+reIXXgjzzHrj49fCSNub22/0fXHMKIcjQ6rbvbX54NKxSPAAt5RgDRCNi5 ZZiqFXNQdf9GCTBTZoam9JTnk5VsLq6G63+nFPAuPADtAYMJAPO8WvC8/KBGZ+YKAIl6UFiRfkF/ gSsIC9oRSO5TtAAj7HIBGLOBivRDqkhxi8NXrLdzDVex7nxz477TMRhbyCYU5bGgYUsSm3tvGYCB DgCe81MIXA0KEimYCAR+PC/PTq42F68HA+BACr11HmCfF2CeFotpXn3DFlvJWZ1xpxOFBaa2sMw7 u3p8/j5OoBpc8OsUUDUF0qaxdXZxx9BSswUFWYD3xW98hlHB1SgKV+Ag0bOBSv1WHiBykWYEjAYU pXimnpnUiu+IeJum+em0PD29+uqzNCx+XJO3mgUc8gKcpuWC0+LDsljOow38PrWd34eDsKstFqM+ r+3gyAxSRxHTsNs6dGiFKe1TyggHteWUjdxpuWOJ9RoIwEAYkT1eNLCEFEhmavWBjnouIJGsBgDm kveDOg8i5g2IkKd5+cG0Oj0dFh5vGwPcVArmgnmmmaf5eeT9yXPZyt5RKw7VRUVHB1ej4EAQaaCJ QSEs9GBw2NTQjvql4Ol7V9ulBAEotqSiBuoWwQNEIH991f71Kugr18GJp/K7BKjU5xUjY9vwuRkf UXkcEVKan6dpeTLs/nsVR6d7Ln4lhJjTxJwexx3Xu/yWhnXArzMOMu5Am1HEimFXI6Cw2APfT7qD DeLjKvlTAV/0BpFB1C6jUK1lvPq+vTJYU72aEbS9Dvs9CFCRkhmp1BhQH6kKsEKV6+uRGSoTk6b0 hNO0fMiK+ENUAy1kp4konbdf9Duf/WfiUN+n4PbDgiM+t4E5Zm4pH/VpobtRCoCOQopHoY4T6/dM Vj10ttY5/mrAZjD+POMAYsEH8flONpnj7126QJ0IA1fix/0CEVkkYcBSxIp4KDEonRLxNHAw9C5D AB2kg4kIzMtI55Ln+fC8edzxzhaGnwfm0Hcfh9SOw2s1GJAKiNK+7NzVF4JvJ9YOLnFbj/a/mgFG etiIICe7atVPQ0gosVwr0VNSO1EOC63B0LSqf7xQpgYbyCtG5YKySWvowFrQbcmgh8gCPGhPBnCD AUTw1owCkd0jHip8bjT+fAdB3Lt8d/uBI4g4AWOJOF4f7or3O26/Ur8V3Ue/os3jKBqqJ6eQC9FT /o5hAlEoOCR3jk5y8W4SbY5s0bk8Xyx9ZGYrKqYbFv1W0qTpnu6/GsO8Oj9vNQAKN95l9aJn8JTQ QB93nMEA+hwfeGoIanV76qr9xgdobywamcayaFCt5eOK+VXBXL76fU7stCtrr18FIVoxf7zulTyS JiiplWdwwXykIXWUHpzatykloxPmsxt2/lvhAWjPH0HY/TydPHnZUj/ujACx4BOrhMP3TIMSaCd9 3A0NXWmoKy1bDFcKbr/QrcX7246khto9hlNQ/kSjrnIwDZ6guvCgC1AZtqWX/YItKqDEpRQckxFw xQ9hJZU5ERGB59VT4pRU8oMYwV1qAft4AJqXZx/4hWLqS8GNCOIB8aMLDZ0CiNpz2gLuz/2JenkP hephMz70opFK73r6xrVYU4kiDcRPUwsYKJWA8D1nL8YjkrBfuDvcNKaazbMQaQkDHcGZQMRI0/IZ T8s5r9/QLULB2xWFMk9pXp19wkQgLrwlxZgfFxnof8+7u7wzBgregHbFoj0nMJaIBzGIp3LcCB7U EnFz36pkYFKDsSlk0PZVKzFJV63ycaACPB20dL4rrlQQqW4+EHIBCgXqWcxD0nparD5I88loAHRX NvA+eoAQAojTYvUxEYOYiQOzVzUBTAHIhZyf2i6uYJBphxyq7ABRnyJ2BBANdQJ0mYXGwpEGooh6 7R/VjKCVZ2uF0zyNVAqYAhUsUHUtABm1q5BA5pSfCzCsMjGvFYg22lm5ZBvmnYwuz/Pi0SdpWszX hOR3JgoNHABTmpYfEAHJ3HwBddyne4Or56E6yES1nwAxd3eMwFZWpl763UnDmHZ4wFE97EodHUrE ne6z8gbUBJsu+vB0LRaAKttXKn9RR0qe2yczJlEIm+ClQQMIG+upCmHtjRQEZtZpsfgwGADvit5+ DCHAmMBnvsjgWO41DWBw/woKuXwPFjm4/AYGo+cYdn+lA7iLp15f6FnALp0PhVlbmNQkXzWHUrTy jAIMLbvfdfvu5gNhVJXgkNITwwoVB3cCTslqBw39q2iBf1Y15MIcdFkFc2JK8zNK03SABKK3bQDY S0IQMXE6N064pmjd4ofdztSKQTwUh3ot4Uga9XGedsrIA8zr0Dx1hA51tX4aOisUQGwOoVb1A5As VlMgcTx9LEUj9vVtGj/W5gk8Q4G0ngFubGIrXzBUpPoYYmYiPmumen9K+KF4AFbwie9wZq6LGDOC vgg0ZApxsavxUCcF78DijpqYMGDAQCk72qcq1R7dAe0R1TrP0CjCxhD6SzQMYM7aYr3vY1f3Nl5C LVuQGutxqHXWa8b+fmjiUjEiGjwA39UL3BcEcjHUxEQ0qVntvsXfSQuZhpSwDxulpsQ9wKMhgwjG 1LeGUQVcY6VQq1yt5QE71C+13h0KbF/b5S2jKEsjgTPg0AnkmQA3USlJAXpW/vUE0r/qgXirADgl lhJ20jXl+XdWC6hChMWjZ6cV9TP3BFAUgEQpGHqmsIWDwWDqrncmEDutZkQNAzB1wvP+SqppFCNT NwreNLSDKULVzwUfWgmhmhEqd6yg1ucOeb9JxsVDR2X8GGOTm5ivAAFkarJpmovtzKvTQQjyVkPA da6FAdDq/BsvtCHVXRaw0wFyQfPBU/TsYJCIuwcITR4dvxAbQ2tFEX3X4KAEU1DwAL1390bNruJY d+7QOlA9gFaBR59SNITv3kcCT1CV8RIvNJsPUJODE0SqNEA5TUREmFbnL3ZqMfvTwnvXAqJy4iAQ XJy9+ISIwcwGAhFq++UTs+kEGAMj2O3wsjg7mkAEFjD0G/Q1gj5L6OResdWrrxKF1q+C8FVTYwKh tUBTijpBsOWW425AvYlDKqbQ8LfcWAAFV8m4gqhg/V4xVMKUaCdlpFTK6jovzz60nJNu2KQPXg3c V4ak5cmTbzIRUkqmBQxq3sjbh8JQ28WNAGKmvmG0k4gFLmHI/2PrOUUVT6cT1J4ZaqtT6gNhL8di UhVseIsXXL7d7lc0TQGU+8WPK+GPCZ1IGlrba2+AZIglgmNZjwiXi0fnHxNPrHmD+6qC7qsKRqkE PvopKru/QK9QDq7unQfOn/piDnNqnT+2q9k6d9R+H/kAoqbHq8SSCUtJB12glvyaRpVQl/vZoglV Yag53rIjVWuJWETqgooCLMUoSut/AXp17Soj1KI7OEEl1wY3ghS2UEqwV06gnEOXqzRlUErbxfL0 W0TMuhsC6G1lATTE/U4PmOblR4UNSrt8PxESc2XygFjkse+7sEFduZe4KYFaaTikjTVljHKu3v3H rhAapYEx+6eYDHhoCKIOi+kpsa2VFtqXXTns+oRkJJHUrKFWem1REzNEQq3BFEjiCiJOUM0hIS3X MKWEebH6hIjSgbj/1qqBh7hn5jS/YC4L3fP4NHT3BE+APkOg4CVi+Ojp4749HEFlzACUW6evE0G0 hyirgt9Ycw2YQJtOJHT8aufHE2sxgs79U63iCQW5t7l54aYsdjZUpMwKINLS9CKlFiGqYOHemwDg NDOl6QUR8wEO4K3zANhVA6XHBetxv0gcQgHv5vrEXFO4tvgmCqnUMA9EEXZ7DbxxFEPFkHnP9qBK tdYegKDLa8V56pQ+XtWLi80sVczp/Tz+YsyAqKl6VDu5iCuASRRMDCGpNQCXgzHIMCcXYGlGmThN IF42f/VuZeG0/0arJtoc+f0+3YuLz4EFZOzTEPR4gYkOLr6LP4i1Ub+xmNR1f7vBoE7qKGxe6VRi y/s1cgFRv1f1mtwmg5CCxVU+WrMU7/Nt1X5vJ9e6jUjKIitZoy8VF9KpGi0ccZpYBRO1qhe9KxB4 0CCUaAUAiaducerujwbATTHk5E8tAQ8uv6eRvRLY0kaPi25nxWez9W7GEDA0DLSu7lBGbhKx6iHM 9/Z4jqqLhjWLqu3gOnamLrNWQliIC8gbqJ/C9qqVf30iWLfu1lZevqZpkaRMDzvUGfROmUDitJiL JBfgxABT3/HTuWzqqOKOKAoL7lxC9CLcoX/sys2qETVtYa+PaPJx78TliNDN9VZhiKJ28SbYyDZP 3zR4CQefvteJwGIOWrweoWA1XUDD/d7uGkSnoRM6qJSVyaKAYpoWJKKYT56c5M0FX6PWfiuawB1J +OmLb71wBJ9SCmldI2U8ppMViXin/BuYPx68xUDuRLBInT4QnTK4Lw4xBplwnTKCSPOSF/Bac4mH AlIjZszd1zKxlP1cRB7sNWPLXYu0y8E+M9dxcJ7lc2X/pHowlw5VLTK1kXfTNIMALM5evrx89fu/ e2DRj54YMt1CC7jXIE6efPwxE4NNs+YXcieWcxj8MKJ7z/G5l4qzj1Tz5yuAxF1VkLrOYepbzamv BTSZV39t3HhqRc8EIM73l3tL34GKAT4SkHEGDhS9X6Ckd9J0gp04VEBSev7Z9AI+/0hCCqsiRhV3 +EV5SgTm7fL02ccAfv2Gnf9WZOE9C3j+4ttEhGlOYVATh8odt90dDSIYAkcRSagEUqgLsHsH5xOo p4yZTIjpz6M+7evmw9WooLUPvJZmvIbvTZ/150IGIRVkwCbzVhJv7a+pZWJCtm3fqBw0ZMAAiwUB e11xN2+aRQYVQyKuCiOwEkjBhDfL02ffweFm3aPp4NvyADu3xersEyJCSlMv4sSoBkafAtKwsOSy cFv80Rg6UMl9/8HQPt5NIQkUcajkBL0WhQpgoxEd9Xe6Ecd6ai1iRMXtx6ECWsp3zKmKOcgAoTQ4 adckA0yFByiUos3+MkNm8wTeo6BFKDpNc16enH17b4POLXHAXWXhgQU8+YgISGnqKd6xMYR5qPeb R2B0+T6PWQAPRFFnQMG4eF/DKPoWMg2gsZvw2Vq82JXDFFJBsVTOixKiVrmDCTcNvZMYeKMK3tia Skr3DzU6mDz+o6V+QX/ofY/sw6vUZevANE2YFqtv7ln8TkryEAYQq4H7So7EafqgIPc0SLl9HmDk ANAh+DHNw55FrjUBalPCeoAYvELwQBwWvsZ+oq70qqSxFFBFHUzU1fs1EZKW6V4F6xXlT+0IFy6k kDoHwN08MVEuCiBr+1KyeO9aZ58PZL6CWIE6W8goaFbrFQTSNE+c5g9uaNg5aoz8/YkgTo/VW5eC 6+cQi3txZ/EKPABBGmRho65gZ9d3XwdRSP17QSmsvLMnaGdAdCsKETWAVlG8pXRF1d1au4VCuidt mJwjfWKAhSEQqCt/qY6LgjCBtej/yHsSmQrItGvIZiRKAKdFAvjsGg7gwUPAIdqRAT4BFJxS754H /R5jjwvnsX+Qq2foHoNGJxe1uWcJw1whavl/N3vYikqtVZuCYof6MS8WbxWpjHGrhE6c5dfKxwq1 3U8QFZva56P7QpI39C4WsCqh9Vx7RhP9+yxUdPmrKS2mXNqP7hX/H4QIArBUKSxgLcYT9vQCNLKG KYSCUdsX6wc7reY+cLqfOcTdsOl++kgUh3RjaAPwqxyCLYQ4s2/GV1q5jQzSNtHDw760thVoXX/v BS7G4F5AIchW+XPRRykCufuXRiCFyWKVHlBgWsxJRNOPkwquRqCKSQ2YdCVaHkbF8tDiFauDkSsI qaNrBOPMQWLuMw0eNYYRDwxdQh0lTN0k7zCmv3buen0/WawX4aoAFrW0zQadFZBnkz0M3aMCewpD yNjukjYP0Qo+bUIpgzR3c4pqHYGAOS1YxIOL0n00AXf1AFykYC/PnAZOaYpzDPaodrkBuEr5UvAK qXUH+31DCbmOnqvsYj9vKOoGXElUUX4Yt1LdfxAHePwXI2dK4b+lg6U1qzSFCriEhaDld6q/zvmP AiQfRyfWWOKDpOtA1GJQLgFnWGFIXUUcppyoYrFakari5Nk3X1x8/juvb9AFvhUqGABoefr8rFSB h06doZkzdgHVGQ0U5wW1cbIu7hjB3wgKuwyCCQzuBktR2OUcd/zgEbTm/kbiaCGUJKiE1IwIKmW3 amP7DJKE4dBlwqd0DR0FSVZU7xVL0dopVUJE6TqqNQEyYVgNEbFuoNt59fjxxT27g6YjW8D2EkKL kydPTQiqxKEvh1oxtA2ERCcFjyphCiNkQRSqfO4duCeOKq+AMI+gbzAdZwxVjiBgqzgwgsNpIgqb IeB139rm09o9YO1eEmTfBEsTqRg9hOrwaKFA/TrfwI782+kkHusZhGzl4drHUg+oSGDm7Xxy9vRI 138wHbxXGnjy5MNvMRNP00wYx7c21FX63dGoYEZPE7M2KpgD4geNwyZ4YBZ5t7Dku2mcMhKPFaHG 5lXpX2wH1zajj9zVA00B5PiebYaPNXy6iIO6MbDSlEbhFBC1odFOB9fmU+splGqwFMBqA67zlNYn 5y/+FIBfvWsKeCwRdCjPpMXq7GMC0zQtgrKqp3kJUR2EPUjfFw9dYSh0GPbFI24hYKwKduEDvLP4 8aSRsWKoUKjEzsDQ+qVlNkCiQs6Iy7xIwNkXsXH2RKUWUNvbqlzMSCbRSk4R289M0Iw6uoa0KYXj YRZevpjnpS5PHn/nmlT97cvCp/nkQxBomtJAq1AnuAyn5YSsYFcFhGhAPGYGg7iEaacNrdUJtP68 UyKO4yNrzd52VmpVQIXWSW1qaF4t2DMLRAo5I1zGvIigtqhV5o/KIBrRXD1TGRhFbaxMeD9M1nlM TYKOeDhF0IbPiyVvFic/hcPK4KOygemWu7/jAShNL6CgaZoqA8dRtzdqAQfFL7o2gH0C0H7SWASA THuURxxYSO4FJIEe6sq/ym3go5Ox4rUBNh4fUg56cGbOgBzEuD5PHWO9X0vcR3ccTdscLQVsuAPG /lHoPKphxUOB6RgLHZxeHlEOvnc1UA/SwJTOQQS2FNAacCsxM072BA2HSQTlnGcGfb3A5V2oqaG7 fsSxs3uKSK3NLLRjx3FwiuaegbrrVUzU7XUAUZvXW9xzKQNQpWx9GIYGiXexjcbdE/khEYXiFWmS Y4oqpSr+0ApWJZJWfl0V4LRkETp9230BdF0WIKAT1UID98Ohh1o8WhGnaQJKGTgubl9Aimwhd3Iy jgwg97RzzRg4ZgHcScnjG9Oh108tDNQpD+bi1cga8XjOrf8P4voFQbauX5Ly2ZwC9pPBtBp36zKq EnYNHgZh7K22qee+G9M0T1lkicMDI+mhMMDB0TAKWqgIzWluR8QB4dAmR/aRmRtz8SoiC8fGoE8V edAAElsm4cLEYjiJ9lQJ0ZeiY8zVUMfX2vVL5bjWKhuOvtR2N9Uyjw119HOIfPeH9q94JBzbdHBq B1XR0Lq+c6CVaidqcfHJPC15m/P0LjuDdm4EmkSBNE1mpc7Yocu/K+vWFYlCoYj7YVBjLaCkVLwz eDqSQzzOHgiP5VGcinhWn194qVMAlK1XX0pOLt4aRkX7RyxgsWf4QCeSQCrZ7vfUrhZ5mu7fD8EM bFRoSqG+pYz6VJUAnZdLylnuXQvgu9YCptX5iggTEQoGoMZXm1Cus2YKwxw7P9UG+A1oPWIDGJfQ 8EAcJulun0N10YEiW7dSIayo3aybmexnYtMkhvtrtsGNeOL4N119bB6KgX4WAvprgGHKuYem8QRV DBlTf2BtecY8LwAolmcfnONwqzjdxQDomCrg2cs/+RGI52maWlMmBaQa1EHaHeQ8TAZBSNViRa96 +1EBTF19gYbGU464Iixy/ZkYRGkwBEIKz2uZBneEFYKu0RcdRDvGXTMP7inobnXiTOvIktcPruHC E/rSVTHoRHR5+vyb37xGtqc3EUR8B9cPAHRy/sHHxDxN06KP5S4Fx3iWd1tIpfjReqIjkHXDTrcL xdjDC2CHJyipYFjkZIuc7MYETmwLT06v1ud1NLSDUCCUpWlv6tqPu2EntXthqqJrQ6cBMrdTy9CN ywP1hjDP83p1/sG3rsEA9FAYYMcYFo/OP0rE0zTPnWisH8MWpndRP6ptnOZHGtI7YEfvHwrNtrto VyvgaJ+pTxuJwvkFAwhlH9VeSrXCWuK7t+SxdfELwrlDjZqlMIaI7ShYleF4mCo0pQCWfaRcf1JZ PJamNqJ01ez2mHm54OWj829j/wli91YF0zVNoZzm05fglKZp3n0KjYejxe+Dz8NABGF3LJzPXaIw N6BDCWN6yYEoirMJuk6jru/K6vtq6ZwJQiScQ2GvI2FiWDscog2JpjCupo6AreVhraGutpIRwmki 7ayD8nJSO4sRjEPC5PN5Ppm2y0ef3JUFPLYauLcWkObFM2JK07zoaNYqcQrcf02hIjkVNXs+pDEa TigQ+VNs/ETnHSgeAENtBmGHCdA4hzETQDj7R2BNmQQwK5CtL6Ml9MXLeLdvAKTeIBLEY+VvCWqP IdA6i+Pw6XGOcGxKdbKhcAhNvQwAabGaeFo8v09vAN8BANohUYtzThOnwQPUXab7j7PW7q9Q65Ad /iRzPA94PP1j5AVQC0rhAZYmcocbEiekZPOMqOCABhAHgMltV/vLMulwwHWL6QG7daebqobpZmH+ YU3/hitfMZF6qkrdYYaOA0r8TWMWcKtGUb6tCAQA/fRf+3v/YPHoyS8xz6S6O6ko7o5IpIAw4Nn+ vKaGpLUVaKLnH6EzwtTtcPRsSEJ6GplTAIUcFr+FiEQRzFBnUNUUwoJ3J8x1p5vtAuPxPCPnCBr7 p2FhhtkGdZyZhoLQaqJp9ad/5q///X96YPffOD/o2Cwgvhgp8RKUiDhhmhYVptaLU5lU7aZ3doc6 xN68MW2tZElQGelIIMYeatqdJYwh3xpqCREgmotoWoEOwFIrckRGBklJPwAAFS1JREFUbji2rvs9 7enLpFGT6M9vI6eVKEAKHY4+ip/Jzo5JSzb2cnFXdfBtmUAPAScqQqrA+ctv4vzsDFebTdEFsos0 Uq8ANoCWaCBfkOouTYnx+OwcsMcxA6vlCilNlrqVJtTk31d3bikeo94SFDyVXtI0lfeRGOW5U4Ec W1FIBrYCyBbY5lLWzQJILl+zs4GiyFmwzYLN5hLrq8tSKFKb6EWFDRXJyCqQLBDJWG9yeYwqJJfz AF9ffI20zdhqBmeB5NI+7uaSVTEBUHueZkUWgcgW201G3qyxSoINA/J7iqxYYM8Az2Mygtv2BZQi kMgq5y2SZL26uiLmhGm+76yJn/y7zb83VxvdrEGSFZLzErtnCT+IHmDfjS9f/+g30+L8zWa7ffT9 3/g1rE4fY3lygpTmpvwJMXmc8UPuBaIs29QyJycn3R9fLJeY02QxOxUQx9wfHxOBoXHHhD3VwsAv qCq2OVtjB3fjYL0nsJSDxcrEqNPA6+hOC3M2sQNZtJ4XoAqIZlytN6W4lItnUFFcXF1BJJff5QwR 7zp15pJrw4pAoVkgIsh5i+1mjavLC1x+/YquLr7GRMjry69+54YM4NYY4LqGUN7m/OT1689XP9mH 74En+Pp1yjk/sUSabygPX+sB6EgvwKL0je3VBf/tv/U3t4+fPg0nKusoyyY7SXzo2OlGvxfqg3zG aHm8e4qchcQ0tTuDJrGrLRxnFAHoRCJKDZdExYuX//0bPxnEd3ljC9shj62MrG2ugN+MEUmJNL4O oPYLo6C0nj9Iqm3yaLmrAEERbROJRfxz6XazwS//8j+bEuQJ+tNE+RpdQIcDbiMK5YYBtqS6xR98 9tn05vKqMm5Vo8e7AyDaFHHe2w9Y5VxhiJQPlNpR+zjQ9GpeKB7VHgTs9hUwt9fy6iBQLrColAtt 32vV/tvAxyocLayhu/ryHCnP70KGQlQI/nh/nVx6gvxU0TpMUvufIVKAoxtFvA/l76w3G2OQMvbE /qMqvdMNi449L8oQJUzAD3/0Q3z95sIWK7W2Ll+4uuipI1y6BfTZQmFhvdWcveZvRZouhw+VvsTJ Mrny2MRtwZPl/mrHsiAla+Swnn6QxfByf865GkND88UocpayCGL3Z8sC7PmSpRlSfa6YwYTvzWiy 5GZEqmVGsC22ZIGq318yAjeaMlyy4AciwsRpPgAA97n+o7IAulYNZFM7fvjZZ1iuvq7zfeqi+4Il mx3ki5GcmUt1qiinhEQJnIqhpOR1eUvxiJHYASDV53LyBWaklOrfa48tFcCJxR6bkJLRS2LvBU0P mO2iiwiy3TQLtpIhWQqAszSwALKygCLtZxGBSrb0cmveIVsKZ8/XbKDOvE4u92s1sGyPNWNwQzEv o/Z+VAXb7RbTxIBinh89O928+fyrI9D/0SGADmkBio6D8MWXX2J+c2k5/WRMG1tp1fP1ZLsygVMK +XtqbjnZ4+0+TraonDCl/vEp/DxZZsApY+KElBPyxEgikJSQlKGp9PNMHqNT4Qt8EITH8Wy7M0su i1vSq/CzINvPIoLtNtfFy5bz55zD91IRfs5uBBkiGdtsC1wXtz3PjUllWw0i5xw8ihvdFpKz1T50 sTh58mTz5vM/uKEmcG8iqKv1MfWnerXGDwyFl90TRLBXJr47TUQDwdzVydEaOv1nISldRkAXV8uI FwmNIGLj/xtVLe5aLRSgxmb0B0TGEi7tJktxMlk/Kr/VMJkImWKxbBx4BWTySSElnJW+Ax2GZNQi U+I0rwYAeFQaeNtp4Z1lOfWr2DeqWhul2bTX9QweBzbtVA3tLnRF5D6GQX2Qo7ZJHg7GBBBSJG2x XqmAuFLe9Rld2Tp4TPvfZQEl13dP0OKyx33tjErCZ8ghn+9Cg3mEbt5Q97n6yKyxgqYauAYcPFhK wynmN9Rw7tUadsCtaBdQ6nINvD0Nb5iDCrdtsT71aruYIEJ2hErzChqIElKxCVpaiRn/OZtEW2IB KfQXItQt1IZBOZjLAYl3RmH9AlVJDGkgTwq49A4j/xzRwHXIPXU4cVyjx0E0Ft29pnWwwd06hO8i Cx/2ufmc7kPGFdd2PErnTu3hrOGgRUW7HFoHJSznMrIFYafWOf4xTRJFtoMYyVI4IjV1j5RhL5ot 9GhtUdeY1lkqV9I6R+7mBaAVpVdPo40lLL5YMXHG1dqOhTEtQOMH2uev3ICOS+2nkI97PRqd9r0/ h3f/vQxA94cBaUqKunph7k4lSQRKKVQFG2lSlfl23HodjtvtDALpBs+XF3i1eYK1ciBmUHNjUZva pUV373N4G83MSOxdSVxLzhoukZMt1ROIpXuqBsr25O5dPl9+XvAWj+cv8ftXJ1DMgdhplLdfm2AK 1ooejUH764EBi3TiQiKblHk0+r9LCNhvHcMpG8Z1tXq+zdlTapM2yswdxwAthrX52k0fT7rBSl/h 5NmH+N0vYdO040KkmtPncIq3iNqkLzauvZzoqRx1CW1Em7vdkmKFnZ5bWBEzDBEPCxLODSKkBHzj yRL6+hVIJigtwlKNpE6I353zDEwkgg20q1KHSdaTTEReffXpb/72NTT+vfsC9r4o+U6Q8AmiS1R0 AKVSphVAtXgnDrY6VgygzStMWOMXf/4ZThYUqFetZVoRQ/o1BjfixnNwT8O2eYu83VaAtg0pW956 uqYN0GnuXrMnc7Qxf6o4WRB+8eefYcIatHnVikWWVbQtIoFObt4D0vBPxEZWWaoZSMCIJiqhxXzy +NEBzHbteh5bDdxjNxTm6mmdfRewaY3pJc2SMn4lxDAKiJ+iQYSLw+vPkHTG88cTri63ZWKmGZXA T9pgiErd+TFb9fEuhQ1s6ZZQHtJJO7czVPh8p2swCM8IIl3s7/nqMuP54wlJ1+D119Dpo7DIqF9F tN/pGpG8dgA5IKIe+Qc3zMTT4uTp+ebi1ad4y0OidryBh31Rb4vWNvdOI9ptH4OGXe6u3I/iiLuD tq8BPAMA/Oj1BstFQhIBb500UjBrifGsRibBKOUywTu2lPfj43o+wRepOBSpNG2ldq3kKwMDmPMG OQterXPLjravu88hdaNoHQccC02CljGonVAqGt+XYyUNWMKfIxOnxfIuofx+Kg4djkatCluttfMu 9w1YIAInP5QpYoOSy0v3GX7pL7zAPKc6YJr3nEXI4yDpSMYESVZUbemYtYSvfUjaf/O0cbPJ3bUW EdhZ89VbiIM9A9ItRXTSKnjAQFVHfkTt+XUMldaxVofKv/pQBkBjYkLmOpMzZH64cohvTA3aUWe5 bbHNjdj4dbJc3sKHZFxeXOJv/OWXWKyWdv7vkbnLTgbd8XZ7jngcPyzduI/ImMT15RX+4LPPIZLD 57MhT/459xhQn/lYaCE0VnK8Vmqy+ZFXuAOQv6cHKIvP8aBkm6apdkhyanXwhtxRjkvjZF00TO1A ZVGIHbHihpK3Ga9evUKaElarFaZ5QuKEzXbT7ZTb/HPad5qmTrx6q91AhClNEBVsN1tcXl7i1atX yNu8k/u7t5MaEgrfgJBNCKReK3LQ6YDRHS61tGHPZ39nx8Z1qN6BDAmgKWIDY+XAxbUlVG4ejCFM aD2IiZ2CLSco4PLqEp9++ikA4OTRCRaLBVJKWK/XwUWOunrduyt8EETOGdvtFsvlsvv9oYXe9zcA YJ5niAjW6zUu3lzg008/xeXVZc1sfLSYqClNY+iI9X4LF05tRx7AM4QYKjS22u7MXHhHBtDereXS du5Ndf8U8n0qhA2DkFWRCoFfj2JN5B/cDl9KDEjG/Og5vnz1Kf7Dr34P3/1zfwZPnj3FcrnC6mSJ i4s3hWvfQaV7XCL19+fNFlvJxQBUsdPPtk9DM1xjZsbJ6gRXV2tcXV3iy8+/wH/9H7+B5ZwwP/oG dJMbNnKaWVvtH1F11BPi3cYaFUoVT8UBFHecEDDd1fX7YKOY7zcWUOp4NTXrJ02Fjk02iNkmYoto nbVf+glCEYYyeHGGLBu8+eoz/Jdf/y0QERYTYzETMmZsN9vaPwhC1+TRAcA6hKJkBfM0YbVgvLnY IMehkBbPVeL8YOlSRW/jSlPCxIr1eov1trjqyzUwnz5HWpxBrnLhSsADdRyYTLS470qgkhXlrpbg TKFT0q0SOpyO8m49gM9IFCvwcMvrq3H4Ts9QSnYQQmrVOj9owYCTj10Va8+dlo+RRXGx+UO8uVyD AMxTKQZluWrjYKkfDMmdDnFUEBOINnbgA3VxGhUYhmxAxsxA6k704RWbrSHytMCTxVNMy8fQLy2m U67PUReHOKCTVmmEys5Or6lfyAzKffkAUw99JwZAfsF853hoD2keDAcU989gH8kjNimbCzBojJnU Axr81A7RMpp1ozMuLrfYbrfmsYdzBUjDuFndc6Rc35m0lx7XrrWzq0p26WGXIraDJVJKWK4mO1u4 1DeIqDKJRdYlDel3haVWeVRpr6uVJW26QkD2lIj1x+ABIB0vT0p1wrXW07jK2PWSC0uZo2vMnZ+k wKyFCLLQUIYpSiVMgOKyt/Pc9H2qVQpGoUG0H8vCOwtPYUQcMUOy9NXJroiErmRdd2VA+DlvKx7g lDDPU62TRlfeaf+q4QT6GyG2G8NZRaBd1bMJT0UjsXZc2vfABuBcQIj5sdBj7qwodWwwsq1AF/P8 jB0u6Rnb6HWxghAzYbVaGnKnuiPKGQUUDoY6cHDELqyvquBMue120r6ZNVbwgP6rsXfuXZLJ01ar ZRmZo4osdlrYsMvbDpdWVHIvgZAaVkHK4C00lt/rffouPID79a6e7eyfWEm2XaAyTYvY8nvWyoKR lhm5ytqeW4UbhTwCKS43wKN5wun5U6gqrq7WVXGzmBfdaeLdkSv7BkXvM4CUe7oo9O5Hlx8ZuYrQ RbHhLYiAKSXMiwXOHz9FmmdcrtXCoprQU6vIs6mQpcV+7YthCNSxM38REzSDAqC63ly+fv0OQ0C/ E+LRiDUzELVDkaWeyAUVqJDN3BUfsl2IJC3TuVkznBGFAl9fMhYpYTo5w5luMS82yLKFiGCe5rLb qJ1KWv4m1SPeaMjbawpn2kXJupc8HGcItkptq2xKFmy3myJ6TQmLxQLzyWMIFF9dNmAnEqRlttub zKyFBgTPgLFnQCJnEFNDAKo5by6u3hUI1KoH0XZUKttRahA76dpBnAiYyolZrFyNAHCPYLN2q6cw dpELgXK5UXzxJmGaFKePHmNeqRV7BJst1aNqgDD6leJQtX06JpQjWURAaWqTzbT16ms8rxWDEdjX bd6CIYWVlGJUFxvB6y1wtRUjf4K7D2BOgjEghofq0qVqEToAGDIFgwro3+DDYYCh0jPcRy1FIpYq Yapx32I5qKR4KU3lAwhBWeqY1ZICFm8hIqUnQHJJKRPw5opxtc44OyEQyslkiwlQTdgKYbNtAx7A fh4P1ZO5vR2MtM3xLw2eqSAP4XBmIDVZGrUhTvUs4brj3PXOIBIkATa5lHkvN4rXbwQZaHRuAH5+ 2ogrkATNSypyY0UtWxBf9FCprDWDtiyqVZTxsB5A9xnE9vLL/8aL0790eXXxspRkJzBPoMQAtnVA xMnJCSZMNa8uTSJF+UPKELGSLgmUpY5oEx8FLwzojMyEN+uE9VaQ2I6pd3PnOF8PSMNhkhoPrEQw Dkq1EhnlY6LDOUKBkpXKznEgjsqrZltUyYp1brrCvN10GoLGAUgoOQfAJ0GLaA0hF5cXXva1TuMt JG+hpbPoUjaX36/lxX6tbgwJt5kWXg3gqx98798tXn/yg7NP/uI/QpqfQBIrJ6att3uWx1/I9ozT vNKuvBknAgYKtpOXNxHJR598B4vlCleXqTsYqpvhwwfGzIex9HFMfJzVX/FBPCc4aBe6wksAf77o XZHLUzdb7M36Er//g++DOB2QdetwRYZJSaVeIrJ+84cAkfo/yaoiWfJ2c/XVp7+y/vJ3/qNKztd4 7IO6QLqmETSZgSwArACcADgrN3oM6Hn7GSf2mAWA2Z7LT775Cz938vxP/EwpClY5mNKBAubQxkqA bqeT598hpily8Tv8lx5IT2+gSeL+p+vTnv3D+OlQ3dXVxpK3F19835oRdtU84am6B60wEbbrrz7/ 0f/6lX9jO3wLYA3gCsAFgK8BfAXgdbh9BeANgEt73KY0RED2GcgxBjADWAJ4BODUbud2O7OfowFM dmOAEnYbFm4lQn367b/63bQ8fXJEYUrHV9prABo5vjjXcj+hvtdU6bjSW16/efXF9//Tr92kWLgG f7kE1FuAt7agl3b72m5x8b8OBrAeDEDGv38bEOhvwt+Iv5k12nCC+DhG1eAeNb9urzF+8X//8/du ULreeVL2A/27jo/VA19vMoRD134Trvk6fL8Na3Not9/q1LAx7u+zwrU9Py6+35/QT6zgGyTLdM3i 0oHH/rgXHkcu9nVGcNP3Eq5rvPZXwcVHY9gOu/1GIHisB5A9u/4qLHBc/CkYwLFjzK9b5JtGnbxP HmAfAtcjjeG63b9v841GsBk8gRyTFk633P0be846LDCCgUzXGADfgDtwzeIfMgR9TwyArln461yx XuNB5IABbMOuv9xjBNED3GgE054PMn64Mfav0c9/dsOYewBYQ8ChsSXXeYGbbu97CLjpdhMekAMb MIedfhWM4CpgATeCo/7uMSFAwg6nQVwVU5N5wATHnG9PR+z+60IIvYeLvy983uQFrov/+3BA9ALj Le9B/UeHgFENp+GP0x4DyDe4/oTjx5bFmUTYEzb4AC54nzyA7lnAfd/flDGMtzxsxIgH4s2N45D7 P6o5VIfY7hc9D4/JAy44tPM5LOx16Rvv8QyjF8B7GgYOUbByTU1FjgwjMoTiiAeiR9juAYG4DQa4 DtzIHlyQ7A+lId7zkYt3CAccgwXwnhrATRjgGE7gOiOSARPIkP+PGcCNqeB0xOLjgCUHwmdnTi0O LPx1wyhxixTwfUkFj13Em+I/XZMR7PMEozFIAH6yZ9M+WDFoBIc3HVx8zI6lG/iAY4zofcYCN+1+ vaNHkQMe4hhvc/TOOTY/xzVp3rFu+zZs4PtMBB3yBDiSBKIjjEcPgMqbAOadLt5N+foxlO6++3QP CNQjnve+EEDHEEKHFoP2uOh9YYCO8B56JL18ZwPAkYuKG+L8bV//fdztD+EVjlqYI6jiY7AIHtoA buPGH8rjjDvkjwIGuO6svvss/rEGhrdtAG9zZ/5R2eUP6R1+bK/1ti/2H/fF/KNoNN2//wfnycCi 0j6atAAAAABJRU5ErkJggg== "
     id="image10"
     x="0"
     y="0" />
  <image
     width="24"
     height="24"
     preserveAspectRatio="none"
     xlink:href="data:image/png;base64,iVBORw0KGgoAAAANSUhEUgAAAIAAAACACAYAAADDPmHLAAAgAElEQVR4nOy9eZxkR3Xn+42IezNr 7V3qRS21kFBrBQFCoBUEksBgBGKzQchsZtjseQMYg8cGo4/teWMb4/HzGPvD8mZsjCTAYAMCY2PA yKAF1N3at9aCWr0vVd1VWVmZee+NOO+PE3Ezq9XQre5Wt5+H+HyyKisrl5s3TpzzO7/zO3Hh5+Pn 4+fj5+Pn4//QYY72Aew1xoARoBF//7TRAwqgBXQA/9Qf2n/McbQNoAEsiLfxT37yL885/fTTVy9c sHD5wkWLTkVkny+a3L37wW63O7Nu3bq1v/7r710LzAITwB7UMH4+DnAcLQMYA5ZeeOFFKz/84d+6 5LTTTrtkyZIllzAw38YYXGb7DwiICD4EMucAKMsKgKmpqbWP/uTR73/sYx+94aabbtoKbAemjti3 +fk44DEGrH7723/1Fffcfe/XJ3btloldu2VyYo/MtNrS7fakLCt5MmN6qiWt6RmZabVlcmK33HXn 3V//8z//i3cCZ8XP+/n4dzAcsOrtb/vVV9x11z1f37VzUiZ27ZbW9Iz0er0nNeF7j61btssdt98r 996zXnbumJCyLGV6qiUPrX9kzUc/8rtvBFajoebn4yiN+cDZP/jBTZ/aunX79K6dk9KemRXv/SFN /OAoy0o2bdoqa358p6xbc7ds37ZTvPfSarXl1lt/fO3FF118EbD4aJ+I/xPH8re99e2v+MmjGx7Y vn2XzLTah3Xin2gIpTy+YbP84MYfy49uvV127piQqqpk48bND/zOb3/kjcCqo31C/r2NpxIErvrI 73z0gve8572fag41x+fNGyfPsyc8ad26ddx//wMMDw9z8cUXccwxxwAwO9th+46dTO7ew8TEJD4E vA+E4Dnl6ScxPDzEiSccv88P7nZ7PHj/I+zePcWixQs4/YxT6HQ6rW9/+18+8frXv/ZLwHp+njoC T50BrPrKl//hredfcME1w8NDLFgw7wlPuP322/nC9V/kggvO5/KXXE673WHr1h08+pMNPL5xE5N7 9lCUJWVZUpQVZX2/rO/njZzTVp/C85/7bC4471zGx0bnfMbGx7fw4AOP0mw2OPvZZ9BsNvjmN//x mte+9tWHywga8dZk3zijFX/PHOLnPGXjqTCAVV/+u79/6/nnX3DNyMgQCxbOn/PPiYkJ/uavP0d7 ts1b3/IWur2KRx5+jF0Tk+yc2MVstztnon/a5BdlRVn1H2s2Grz0skt4w+uu5Ljly+rPa03PcNuP 7iRI4HnPfxZDw0N844ZvXvPa1x2UESTeYhwYu+jCixZcddVVpy5YuHDspKeddKowl7dYt3bdWoBf 63MVsyhXMfMkP/cpG4fbAFb+6Z/+2ct/6fW//KmRkWEWLpqPDJA5d911N3/7t5/nmc94Bpdedjl3 3nEf7Xab3VNT7GlN15O7ZPEiTjhhJfPnj7Ni2VKCCCLCYxs20pqZ4c6772PdnXc/0SDKkvnzxvmV N7yOd7zlqvpzW9Mz/OiW2wkivPiyC/A+8LWvfv2aN7zxlz4PPLKf7+TQST/2V3/1HSdf+aorzznt tNMuGR8fX91oNlfMeeYTeKv+A+12+8EdO3esvf/++9deffWbbgR2oeTVUfUOh9MAFv/X3/rtl7zz ne/+1MjoyPixxy5GRAhBT8Jtt93Gdddez2tf91qGm2Ns2LAJQdgxMcFst0NZlpx5xqm88OLzWbhg Pps2b2V2draefBFh1fErGR3tM8R33HUvN/7wFr76zX9icvcerLXkWUae5Zy2+un8jz+8htFRDQvT 0y1uvXkd8+aNceHF57Jn9xSf+cxn3/WhD3/wG8CWfXwfBxwLHPv1r91w5VnPeMYV8+fPPweUpMqc I8szrLVYa/fx8rlDJFBVnqqs6HS7rR3bd3z/7778pet///d/725gK2oMR3wcLgNoXHjBRc/77Gf/ 12eHh4dPXb5iKY1GTlVViMCaNWv54he/xKtffSXdWc/U1DQiws7dk8x2O6xYvpTLXnwxm7ds4+57 7uf2u+5l0YL5OOdYedwKfPC027M8vmkzM+02S49dwllnnMZF5z+P5cuWMt2a4bov/T1f+odv0Ov2 yLKMPMs4bsUyPvKh/8KJq04AYHJiN7fctJaznnkqJ528ik0bt7Re89pXv3rt2jW3Au2B73MssPxr X/36lc8999x3NhvNFdZZGo2cRqOxTzC7v+G958EHHmVoqMGChfMZGRmm6BXs2LFz7be+9Y+f/r/+ y3/+PrARrW0csXG4DGD1jTf+8GMrVx5/1Y6dOznzjFMZHh7C+8C6dbfz5b/7Ci95yeWE4JiaamEw 7GlNMTXT4qQTT2Dx4oX84OYfcdzy5Zx4wkpWHb+y1W6312/fsX0tApOTE1sWLVq8AmDRokWrjXWr H33s8RU/WruOoip58xtfx3OffTYPPfwof/inn2TD45vIcjWCFcuW8oe/9zuMjAwDsP7BR3ng/od5 6cteiLWWH9162w8uu/xFvwXcjMb4E//8z//ikte8+jUfazabK/I8Y2h4iGbz0LmkqvLs2L6Lbdt2 Yq1hxXHLWLx4AZ1Oj0cfefSG97znXZ+4+Zab16Me4YiMw2EA8z/8of/68ne96z3Xbdm6jW7Z40Uv uIBer2Dbtm381V9+ijPOOINjj1mhk28M3aLHzsldFGWJtZbly5by7GeexexM64Z77rnn++989ztu RBF0QtEFfZQ9Aox96Dd/64xXvvLKN46Pz7viW9/5HhO7d/O7v/V+AD780f/G45s2k2c5WZZx0okn 8LH/+gEEDSU3/ustWGt53nlns2njFj796U//0Sf/8n9+6+KLX+A/8Sd/+p5VJ554VSPPGRkdptHI D8MpmjuqyrNt6w62bN6OtYbjT1jBkmMWMTXVat3w9a9f89a3veVbKDZ5ygtbh8MAzrp93V1/LWLO +cnGxzn55BNZffJJzM52+MynP0uz2eSss57Fzh0TGAwBYevObfSKAmPgBRdeQCNz3//z//lnn7j2 2r9dj8bCA4mH84Elb7rq6tPf/e73vnN83vwrPv+lr/Dud7wZg+GDv/17dSjIs4xXvOxyXnLZCwnB Mzmxm+995yae9ZzTcZnle9/7/uS1137uC1/58j9cOjo2dur8eWM0h5pP+MB2e5Z169bSbre5+OKL a3xxsKPb7fHoI4+za8cE4/PHefopJ9Jo5Nxxx53XnXfe8/4YzVKe0pBwqAaw+I/+8OOvfc1rXvep 2++6m8ZQg8tf9AJ85fnhD2/iBz+4ifPOO5/WVBdj9NOmZ1pMTO1mbHSUC887t/XgA/d/4upfeeNX gMc4OEQ8Bhz/h//9jy9+5RVX/sk/fud746951ctYs+4uvnrDP5FnGVmWkbmMD33gPYyOjtDpdPjx j9axa+cu5i0YYnJyN6985ZWMjY6yaPGCJ4C6Xbt28bWvfZ12u83ll1/O6aefxq5dk2zfvpOfbHic HTt3sWXrdrZu3063V9Dt9ej1enR7ikeOP24FzzjzNF5w4XmctvrpT/gCe3ZPcdedDyASOGX1SSxb fgyPPvLY2re+7S3vu+mmH67lKTQCd4ivP/kP//vHf39y954V23ft4rIXXYxzjuADX/3qDTz96Scj PsOHAMDChQtoDOdMt1pc+sKLW9df//l3ffA3P3AD8Cgq8jiYUQC7vvPdf9k+NDx01yt/8RVn/cv3 frDk0hddxH33r6csKzKXkTnLbKfDyhXLmG616HU73HjjDxgeGeLKV72aBQsWsGjxAoyZuyZuuOEb fPGLX+LCC8/n5S9/OVu37uTHP17Hj267nTW338lPNmxk67bt7JmafsLk93o9WjNtHtu4iR+tWcdX v/HPfPu7N9LpdFm+7FjGogcZGh5ixXHL2LF9gscf30JVVZyy+qQVL37RZReuWbtmzcaNj+8EqoOd pJ81DsUAxq666upnveTyl/7G2jvv4tIXX8SxxxxDZ7bDww8/wv333c+Jq57O7GwXg2HhovmsPu1p 3PjDW7nw+c9rfenvvvCuT3zij28GNrCPDPogxvQtt9y8tTU9ff+br776im9/98bmiy+5iHvufYDM Oay17Ni+k+OPX85se4bHNjzGzEybq656E4sWLmThormE1aZNm/iL//lJtm/bzjve8avMtLrccce9 bNy0mQ2bNzPdatWTbKxl5XHLmTdvjPnz5rFwwXwWLlzAho2b6fZ6lGVJ5hzNRoOyKLn/wYf5x3/+ Lr1uwSmnPI1GnuOcZemyY+h1e2zYsJk8z1h14vFLXnTJpReuWbNmzcaNG58SIziUELDq2//8vf97 8ZJjrlr/yCO84fWvotVq0+v1+O53/pVt27Yzb2wxzjmMMVx6+UX883e/z7FLlrDhJw//xq/9+ru/ gk7+4R7Hvv/9H7z09a97w3WPbdrIutvvpuiqc/G+YtUJKzhm8Xy2bt3K61//y4yPj7F02TFz3uCh hx7mM5/5LM94xlmc9/wLuO++h6iqiok9u9k9NUWv12N4eJjznvcczjx9NYsWLfypB/PgQw+z/uFH uemW2/jxmttpNJo0GjnNvEGz0WDF8mW8421XsfqUk+rX3Hn7fTy+YTPnX3gOixYtYM2a2294/nnP /W3gfg4zg3goBnD2Hbff84+Tu/esWLVqJSedtIqdOyeRIPzv//03NPJhxkbHcS7juJXLOOuZp/GV r36TU08+8bpfeNllf4B+madqnPz3X/n6h/ZMz77zjrvuARG8ryiLHhI8CxeO8vrX/xLLli5j2fJj yLKMEMPUmtvWcN11X+DsZ53NmWc8kw0bNmOAXXsmmWq1MAYue/ELWHXCStY/9Aj3PbCerdt2cMfd 99YeYeVxK1i8aCEnn3QizzvnWZzzrGcCMNNuc8M3/4V//s73qcqKZqNBo6GG8NpX/yIXXnAuAFVZ cfNNayl6BZdcegHee/7txh9++hdedvkfs3/m8kmNgw0Bw+9//wcvPvecc9863ZrhjDNWA9CemWVi YoJ77r6XkeFxfaaB885/DusffpQTVh7X+vCHf+ODW7ZsvpenKKbFMf3FL12/8QPv+8AVP3ns8fGq LKnKkl6vy7atW7j8sss45ZTV7JmaYsWKZXgfEBHuvec+rr32es5+1tmsWL6K7dt2YYDJ6T1MtVos X3YsL3zB+axddydf+do36cx2WHX88Zy2+ulc8dLLtrzw/Oevf8mLXrj1vHOes/WkE1eNN1zevG3d nXzq//08d997P8uWLuXSF13E5Ze+gJ07J5jcvUeNIG+w4bFNzLTanHLKSRhrWb7iWB5a/xOm9kzz tJNOYHx83jkGe+vNN9+0lcMICp88paVj/PnPe/45QYTxsTGGh4doTc8QQmDXrgmsdVSVzm+j0eDY pUvYtWuSjRsfv/62NT9+7HB+gZ8yPLDj9jvX/a+Tn7bqI3fdfQ9VWTDTmmbVCcdz/vnns237DgKB EALBe7Zu3caXv/z3PPe557BwwVL27J4GA51ulz3T0xrrjeHv/v4bnPOsZ/Kf3vzcLdu3b/v+bbf9 +MYPffiDa+krldMYftObfuX4l7/sF8954TvecgnGXnLTzbfx7e98n9e/5gr+83vfznXX/wN33Hkv zegFHnzwEZrNJpe++EIy5zj7WWfwo1tuZ8f2XSxZsog3v/ktH/v4n/zRfWhB6bCEgoM2gMWLl6yW EOpSb7fbI4TAzMwMwUs0AGHpsiXMzLTJs4wvfOG6GzhyLNe2973v1//lK1++4X2+qsZ6vS7TU1P8 2nvfzZ6paXZNTnLmmacpN9/pct31X2DhooUsPXYlO3ZMgAEJwo6JXTWqz7OcX7ryii133HH7p884 8yVfRSfip1b3rr32b++/9tq/vQW4/k1XXb363e967zvnL1h4xT/987/yrLPP5Ko3vhqARx/ZUIeC nzz6OPctO5bTTjuZpUuXsHTZMfzoltu54srLWbZ86alf/rt/+JXXvf7VfwZsOhwnaf9VjH0PNzQ0 vCKIMDqqFGu328P7wOTEJJX3VFVJVVWsWLEUX3na7dkHv/il648IuxWHB6Y3PPboj0eGm7Ra0zz3 3HNYvnw5jz2+kaIqOWHlCrwP3Hrrj5iemuY5zz6H7dt3aQVTYKo1TafbRUR45cteyrGLFlz3jv/0 tl9+09Vv+DRwDwpip/jpq7FASa311173+W9f/MILPvi5z/3vq859ztkP7tg+wQ3f+Bde8+qXMz4+ 3scDeYM7b7+P7dt3EYJw5lmrmZlp8+jDG1i4cD5nnHHmO88993knc5h0jgdrAONjo2PnSBBcluG9 VrpCCLRn1btXVUVVVSw5ZjGtVpvNWzbfiK6WIzkm77zrzoecM7RnWrziF39RC0qzbV540fkUvZLZ Toc1t63llFNWs2Pb7roVIc8zXO4IIrzkxZfw0PoHrrn08kv+4JZbbv4x6sWerAsugPV/8ok//sf3 /tq73jE2OnTDksWLePCBh7n88hfUk59lGcYa1tx2FyEEhoaarDx+Offf9zDOORYuXDD+kd/52FVo weqQx8EaAEGEIMLixQspikJjaQhUZVVPfllVnLBqJSLCPffcnUQRR3K07rzr9omZdosTTzyRRYsW 8ehjG7j4guezYN48vPfcc/c9FEXJ/HmLKcoSRBgZGeHs55zBli3beMklL+ArX/7iVW9+y5v+Gs1c DtWDTd166y1rX/Tiiz/a7cze0On0GB5qsnjRwnryjTF0Zjts2LCJEAKrTz2Jyck9zMy0WbR4AStX Hv8KVOR6qETewRuAhICEQKOR472vDWDPnj3q/n3J+JjW7quyIi6tI62C2X3HHbfvmZ6a4oILzmfn rgmWLj2GE1cdTy8a7b333s+y5cuZbXdBVNNz3vnP5u+/9i3OPP1UHnrowWs+8acfT4TV4RodYP2L L33BR8ui9/1NG7dy6mkn15NvUM3B+gcerb3AvPnjbHx8C41Gzvj42Ir/588+eSkqVDmkccgeAPoA MIHAqqqoyoqxce3LaLdnueGbX3+QI1zrjmM0hMDznvd8du6a5LnPOZsQhKJX0ul2mZiYYHR4HiCI wEknncCGxzdhjWFsZOi6t77tV77EYQJce40OsP4DH/wv14yPj7Z2T07NmXyModPtMjXVIgTh+OOX s/Fx1a0sWDiP008//RKOpgFIECSqfVT5owYgohlA5au6lBqCsG7dmqOlg5u/atUqJASGmg1WHrec Mq7+zZs2k+cNREx0UMJJJ5/AmnV38fznPqf10d/9nU+jRaqn6rg7a9bctv7Gf7vxmtGxkTmTr78M 27ftJITAwkUL2L5tF4AWrRYuvoSjaQBFUSCi7JkEIfhA8IHR0dGIAUqWLlOcMqgLPApjbNWqEwki LFyo56soSoIEdu2aJM+adQgbGR2h0+ly8tNWsWvnjuvXrPnxIzz1XmvH+97/69/udDprFyycP2fy MbB79xRBAmPjI2RZxuTkHoZHhsjyfPyaj/3BORxi+9tBG8DWLTvYs0f1Gr3eAAiMk19VVU2vpt9H aQyfeOKJSAisWL60f7xe2LZtGwZLVVV4X7Fy5TKKXsmC+fN6v/07H/4nYMcROD4P7HjwgftvGBsf mTP5BoMAwQvBC+PzRimKEoChoSYnPe2k1ahC+aDHQRuA957ZmPL1eoU2boSA9/0sIE38UfYAw8uW LSeIMDw8RAiBsqoIEpjaM02eN6jiMR9/wgrKquKeu+966IEH7t/CkeMsJt757rd/wznXcs7Wk28M TE9NEyQQJDA+Psr2bTsBGBsbYdHixYfc93jQBlBWJTMzqt8IQeqbkkCq2Q/B1/8/SmP4nHPOXSAR 9I2MDlOW1QBgnaXyFb6qqCrPosULqcqKH970g/uBySN4nB5ozbbba13m6slPeCAdr3P9rM85y1Bz aAXalHLQ4+ANoCwpozuSEGoMsHcImJlpH00P4ObPn98MIgwNN8nznKIoawAbQtDJ9xULF86j2WxQ lhWPPfaTFkder9+anJxc75ydM/nz54/Vxzs61pfEt1ptGo3mamD4UD70EAygoKwKqrLSlDBaqa/m hoCqrJCjiAFExChf0aDRyAkR8PV6vYhZ1GOlkysS2LNnquLI7zQyu3HT4w82m405mQAMeACrHqDo Fdz8wzUURTnOwddz4FBeXJa6+mdm2kztma4fT/FUUPAnUPMFR2OIiAlBai/UjYB19+49VJXH2hIQ Fi9RUUevV+Aypw8e2eGnpqZmRMA6i4hgjGFsbLQPpiWwZ/cUW7ZspyzLwwKuD9oAqrJEgLvuvJ8s 67+Nr7QQJAhBgm7tcvQwQNxaJtQG4GPNQgRC8Pgq4ZTA9FSL3Xt2k2V5hyNvAIhIraACwFADV9Dz WBQlO3dOUJQF3h86PXHQBlBEDxCC4H3fEud4AB8gGcJRGoKC02QAqV1tbGwU7wPGVAjCvHnjSPy/ MUYP/EgfazxGY/TDDYaRkeEaRI/PG8M6S6czS1H05pz3gx0H7wGqMq6iMEdJmzDAYAg4yh7AbNm8 nfF5ypcMImrvoyhJhHnzx7UWIII5CpOvhyE462g2m5RFyejYKCZmAYPDV56i1yMcVQ9QKEaSIAQz 6AE8ZR0CPMjRxQCgOGW2rZxFu90vSKbexTTxaqxH5xgh1csgy3KWLFlM5tw+47z3nqIo8OEoGkBV pRAQ5khLUwZQ/w85qlkAIN5X9cQPchLpOGEwROixGtOfkCM1JicnWu12ey1A2esxOjZCs9k4x+zV qOJ9RVH0Yog9tHHIWcAT3JOfawBHOwswSCR/+mAvjRQCUvt58gTplUc4EvjPfPav1n7ms3911cBj 42vX3L1myZKFdDraX9BoNKi8p1ccZRBYG4ACgfrxlFeDcgOLFy88qhjAoKxlOllhzrFWdRUwaQFC EIwoQXKES5cdtBcwjcXAeJY5jlu5jHvv0X/Nnz8eQ0DvqQ8BH7/69JXohotzWmTv2dh6+hwP8AQQ qGl0P38V3vLClS846/jxuTtqHIYhijFMt/BuYqYc2TVdzJ9oFYv3tKslrW51zEgui6qyZGqqRWe2 +wQDiO9S6wBFhGXj4enveckJr1y6oDndcDZYawQogXt+8/P3PxXagDTSphSLf+P9v3XBS3/hpW88 ZfXTtN0uHneeZzUGOBIh4KxfeefbP9kcbp7UWHw82cLlZKOLsPkwurb2vsHLXvFJdP2kx3Zzxaue yxWvuudP9/0at8/3qe/HPB7xeiMg3itak1Jp6KqgLHu0pqbYsWsn27ZuY8vmrWzctIXZwlBWJb1e j61bd8zxRv0QoBPfas0w2oR3vuP1rz3j5ONeS9Wj224x2+5QFr1Hv/+1z/8aT404BJTSXf1H//1/ XLl69alvXHXiCaeeepruhtbrFQPaiz4GOBIgMB+at+AkMFQzewhFQWk2YRpDuNFF2OYItjGKG5qP Tljgic1GgxNreWJcDTzRIPYe8sTXWQM+AxMgMxgx4Ho418S5Bs66SKoIVVni4+YMg7t7VJUnLnxE JNY3uuze+BO2Z12csxCEfGgEJJzEXp7wMA/3gfd96PnPeMbZ1xy3chnPPPv0+h9bN2+vPcD0dIvt 27YfOR5Ayh5YC2LwvRJrHJQtQncCsiGMdRhrsc0xTD6MbQxhG+MYN4zNR9DTa+NtXwaShv0Z/0vG g76fjRDdGhCjPUZBtHpuLMY4PS5jMYQaAyQOII3EWEICgprW2rxJPrqAPM8h8hzGPZVzH7+ZwLHH Lp4z+b1ewc6d/e0Spva0uOuue44cCDT5MBiDy4cJoAbgLIKnv2Itoapw0iZUBdKd1mKGyzA21/dw TYwbVtLIjoJR129wYA6ypB0UvIWyRSg6hGIK6U7g25sJs9uR9lakGqKqjsX7as6mVaCcBVDH/sQF GGPwZQ+HhhcjRo3tKR4iwtDQUP/4qor1Dz4655jXrLmNzVs269c/IlmAjZYfAuAJzkDVw2RNnUQD 1rrowS0SSmXTXI4JHjFAFTBSIaEDrgEyg7EOYnVLfImIh6pCgodQIaEilF3923cRX4H3qt8LASm7 SKgQkyFVReUtxWyPcnIXvr0bKVoQCpAmZVni4+qfkwZWVY3+BY0FIXiqbotyZhJvIVQl7gisfqD4 sz//+M279+y+6k1XXfXGhQsXXaE0u07yv/3bjWzfvp316/uJwhEhgkJnAj09AlmG+BLjHDYfUowm AXEW8iGsy3XiXQORLiFrgASMG8JIR8FjKPVjrYsfnwEJ4MWbVIDFZmNqAHYEyYIaQIgr2VUgFTZA cBW2rMAKrjlO1ijJXA/ncqyHog4B8sQ0cE4IUAY+HxpjaN4xES+oVPsIaBoK4J6/+dxnN/7N5z67 9mW/cMWnX/Pq111xwgknvGJ0dHTF2Pg4N930Q4qiv4/GEcEAoVIK1UiJdfNx+SgmH8I4BzaLE+7A 2ogHGti8CTbXVW4cJmtgrNVJN8mdauiow4gJYCvUADIIPq5gT/AF4mf1XxIQX4APEDw+VEiAUArS 3U0oZpFiBnwP43tAQz1AlZRAfVat8lW98tX9CxJQ7GBc/P6lhjLz1IeAOKaAqW/90w0bv/VPN9wN /OXvfvQPLj3j9DMvufrqt1xy5113jKcK5tjooV8OYb8GkI2qkBIpdDUCEvSkqHQlA+OwNouPOfqp HfQRfAKCMDdNTLe4woKP9z0YBY7WOLwdwRqJ281kQAmmwphcjafqYRsjGNPBIBg8hoAJnkr2DQJT CIC+BwihouzOUHZbmEaDqtfBl52B73PERgdtRtn0e7//kU3A14AFv/7e95/z9JNXnzMyMrK8Pdtu cYht9vs1AB9DgLExvlsLLgMqjM8wjQDi8F6wLgeXYyQHI7hsWJ/rS1S6ZuN5FLCN+PFxQiREnKFu WI0oxNfE3ThFQagYD7ZCxCPBI1WJDQ7rBJeN4YZKbF7g8mFsaFB2qp8ZAlIaKALBV1SdabrT2yit Q7xXj5AdtWtOeAZ2TvuLv/wfDwI3DPz/kKME9MoAACAASURBVPot92sAbvRY8EVE75paYS0m0xCA deAaSgZKGV8lYDKCBKzJ1EuAegfrYghIt2gExoAVCIMcfPQEoquXCBYlGCg7SCgIVQFkhKKH70zi Z3fjZ6eQ7h4o20hwVBEDSAiE0F/Je4cARNPIfGgMlw/r986aZM2h6Jn+XYwZDqNecb8GULW2aZ6f 5QjgmmNQRTYOwWRDWJdh8lHI8hgCLNY1MdYooBMBGiAFSFr5CQMAVGo8IYHAlGJGT2DBEgi+ovYM rgkimMYwUhUYZ7FDC3DDhmzIkDUDWV5hg1MeIKgRmUEMUPW9Z40BRDDW4fIhsuF5IAHX6Kdm/9HG /jHA+HJdCQn0xfTNOAvG4bJGfMzG3/E5JtMY7vK46umDwDkYIXoBY1C6HTWiSPtS8w1gXTOmfoAR xOZIVSBZEyuCdQGbFRg7g41Y02CUCfSeIILdGwPQj/9ZluFL5TF8MYaUHcRAA4PN/2Nedmj/TGB3 SplAdFKMOBCn3jkbInjRmE+OMyZy9PGtbVytwevrjYkeIrn4QWBo5nyOQoOIN2QgPbQWQsoWAOOQ IHjfI/gu4rsYqdRrGU3hyrKotYDe7B0CSMUAFiyYp6u/MUrWGMVljlBVBDyh7BxxfcCRGPtnArOm snrWqYu3TbAGmzUiJnDqHYyBrKnUbDrJISJ5GzMBiaCuzgzSKt/rJgkIDtQJ0tmXCiLZ5INmJqHs IeUsUvUQXyC+wkQjMaIKpSqCQC3s6dinIASDzZrYvInLm7imfhdjHSHIQcvo/72OA2AC7cDJD5Gk iS7c2DjZitQJoaZ4iWFBDSDet2n1DwJAg2YyA4/Xi9SA78VJr7QeEbQCKL5CvCdUPXxZ4Evt8PFF T4FhqLBG56uqqrofIOzlAWCABo61ABEoel3ESypI6lH6p7QYdFTG/g0gSE3zYlxM6QLBWIiu1ojT YkyM/8Y0laihAWnFWUENZxD8pTFYJUxoW6hTxOAJCDZ4NbJQEqqSUBVURUFVCa2pNhPbtzHb7jDT ajPbmqKcnUX8vBoDyF4GoDxA4jnVK5VFj/bEdvYMidqhNZhokSJy9sevPn3zkzzHR2N0UO3CfjmC /RtA1kTTOsBk2Mawun7rCJRKAKVU0EYjScZCRGJ2kPVLt3zgMagnOxnHHBux2BAQPIYMkRyRNpUX ut1ZZttddmzawsrjFmPzZbj5S7Fjx+DFUknGKzuBsdFx5s0b3AvY8Def+7NYMbSsXr2CoSHHy668 FN95Ds1GBLGizxURnv2K//S2kXkLX7VP3UIMU33tQgAJSp5Fz6n3q/h4iKJZX2MQTFwv4qOELYZN E6uUhMhWBq2dBB8/T5ht7WZ6cpJOp8vundu+e/et//o3wB2HbADV1AYld0IBjVHEZtihcYxTDBCw mPgFXawc1hNr0BVrJQK5NLMpFKTafwlENx+qSAN75QSi6ycUuuq97j7S63Xptjt0Zkumd7cxxrFg 8SKdUFdhq93YkXlkI6OsHJ6PbY5is+Ycy1pyzLOZa4SW5SuXAcv3PcGY4+KNPoAdNIA4MXFSdZIi rkmTRTQM7+Nz9fsqGA2YaDQhGhDi+0blS5AKX3m67TZFt0Ov02G2PYOvtNllaGSMhUuWAnxpf3N7 QAbgRo6JpyFA1sDavJ/emZSe5ZqXmzi5scqXiJUaL8wJAYNegfi6HKWAgy4FE8DEFWQaWFMi0omM HRRFxWy7R3t6Gt9tQwiIJRpLQGZ6hPYEuAzjGpgsxzZHccMLMFkTkzVxzXnMdTeD93+WPuGnjWQc EcCmffIjHqnxr4khJnnJQT26RUvQYihnp/FlD1926c3soddpEYJ6hCAGsY58aAwbBPEqwnV5yYGO A8AAJSIBkzcwGERKDM2YqvlI6ULwHUywGOeQwtdhAhMwkuGcUSOxmX5D26QPAmO+X6/2ED1BTPmE 6BECgkUEqkooeyW92Tad2a7m904LUMblKuKoWUfFExIqQm8GKbsYp0KWylhsPoTJhtUoXBNsE2NT 9pMuCrF37WJ/tYG9/t+XHpGsIFSzSNmGUFLNTiAIvtvC+4AvuipZMxYfpO7A1qxLU2YrCtFC0DAQ fBmjyYFXCfdfCyhmsPkIUpWIE03/XA62gU2TLAHr+hW/PjGkK8C4Jri9MoK9FUA1+9uFUESUH2No 3HtIqpLQm8V3S6pilrKnbrCcbZE5wUTvZLB1mddIUKMz+vnGRDo7Cv8Fj1Qp05hFrIpYJBqSuL7C SMRSaxSjLlGrk9WApqE3cMyoe/dF7I2w+O4kBqcuvupGrZ+N/YtWV3VMg/UzY/jzlba4hYD3AsbF 7uYSX8Z2/KoEHGXRPXwGkA0vRqTC2MjZiyBlGyMFIRvCkGHIQFq4bFRdtwTEiz4e5WQEG0mcAYA4 hxGE2m3aIa3omTg51uKrEjECNtffQkwHvaZupiIUumWNGBM9udK6Wo6ONuYyBaxZVmctgkOMw2BB cgwF1g5FL+di8St5q0hZhwoRFakQoI5LMnCLW+mFoK8xYlQbgcGEgMkzNQwRJHjtVYRovDH3sA6L BRswElVAVrWMWCEzGdY1NQQEPX/SOfDtGA+AB8gwQXerUUBsMLahyh4zsIpNQ63aq67euLzPH6TJ FYmxPacPBFPBp6Kf9hVK8Yog1QxaRxCtF6Tf0YDS1mqEilC2ddIB2xxROZpr9NNT68AlD5XXuMCY PD5uB7KZvtfoY5f4fYwbMGYPxqviCWKxqgdBJ1VJKb3msWYBJm6qpZtP60Ihuu/4uQR9XvQ2EqVv 6fTYrKGkVtDzaTQOaFprLC47cLpi/1Rw0UakwrocH3o4n0EjqHu36eW+f2KQmAoOACAAmrqSzCAI jHgAteraGEzA2IAJAXELFAkHD84jtLGFln6NMRhjsS7DmiauOV/fQ6ro7m18jgpXEkawsT6hWCGv q5zGRMOoJ38QvA56qkgNyeDf+ttgEJPFzCfmdUaPVYxS44JgonwOr4hfqkJdPCaWrVH5m7F60eyq VGgUM0MxDjFWq5vGEnyg7HUIvqToHfjVd/ZPBTeGMSi4y+z8eJKcFkdsVoOtEM3T2jzOe+IE8v7H JA8whwrey0vsTRMHzZsJHnwR3WWlnH/oYXwH4ztgg6qXDBgEvMc7i5EGFo+lgTGCiCNIFLRQKagV izENkEwJLJeD2LjijP5d6xOSx0pAKxm5Yg9M9CQJ45uqztlNUEmbMdGgQ4NgA/hKMVVkIgmKMULQ UJd2CpGg29v4uNpDoBa5BK/yd2RulfOQDcDmYxBLpFirX8ZYdUFWAUw98S6unNqFppOWJjoVdhIy J/4vFndCUBlY4gHEQejW8dWgrjOdfGNzbDaMzUawtsTmoyA+ahZQY3VOjyt5H5tHnOIRsZjoaoME LWalukNa/TVxJAPHvXcGMPCcCAwJvp5MqXpx8mIBy5f4sqvAMWh2QhACRotPvooT2sNkI3gxhKhq BoNzmqXoFjwF3nfxVQnGYLMc8ySacfefBczuRCSo8jfLsdkIWu8fIfhKmyeAEDzOJFl1jP9SRQ8Q T5KEyBEkAJhWilUjsPGQYlyl8mCHVEhqDOAV8LgSmw1hXRdrMs1GpCAU7RiaNGabzEUCpgRxiDSw ruqnoyapjSKnIUG5B4wa6hwMkHL7SMoweBswBGsxPu2OEpnB2m5UACs217vGaZiL+MAEwWa5hkMX cLYRuREHZQ8jJjbcWo0sWGxmyHBYFzQAuVxD0OEyADe0kCCCkbJOnRRwzSgTGAqMZNFNDsUTlrj9 RKokJVCacNEJZxBDpJNbxeR2UCXsCaHC1GyiiwCrQKRQA7FgG6Mk5I9zGvPThkvOaarqnKaLNnqG BAiNpVY4WTOQqQyyfdEYTKpsJkMeXHEWjGBtjhA07MRQaIKPghMQ20BczHJi841FCAT1DF49gVQl QYwWs3ygKroEAR9xAq6BZqWqqnIuG8Bmh8EAiukNYBzONQhU0dU7TJbXOb+z2gEUTMxP8RhyPdFA 320O0qt7r6qin0aFQuN86hPwBVK2Cd5TzuyiaE3iWxXSq5BiBqlmY7SJegEEIxINJmYKxqmQRHRC bXT3Jk2siWmehPgcBtz/IPmTahyRpDIBqPS51gE+8hAWQ1zZcedPjS4ekSq6/VgHsAbjTUxfjcrn rZBlUcRalQglBsHmEXz6SjEHGcGCGM00QqgI/sA3ONuvATTGT9ADtJkCrKQISivLpvQpq4tBxiRX n8QhVVwk0R3afMAYoscwTWrdgBnWPNmGGimbbCEikGdLCXmHKpvGhd247iS26TB0a+Rfx/qU/rks Hn9qGUtYYMBbKbTue7knaBfSKk9/JwMZoH6NjSA3CV37mCBIpbjD95TTr12/At36volim3huVQTr wDVxJsOJ4oSqKohRhiDo4yEgxhCexGUE9t8XICUEF0mJDIdV4sWCTTtXJp4boyvJJjfpB1ZRUvim jxxkAlNYSB4ghYESqp6Wg32lbrHsqFSrmCEUe5ByGilbGBddP6a/4iIXb0w0ABtTPeP6kz3ITqaY n+7XI638QUMY+Bf0+QmfVvbApIeYxYREIvm6v0GJoEjgJO8jAmIJA/swgUNMpYJYBOsaSJTJS6UY pz6OwwkCieVJ8Z3YpaPx1ebDBMmU2TKo+hdL6uqpizvGar0gxt1oSQO3QZSdXg+13L3mFiJYs0SQ aGMMz5VqNtUAQI+0X1D2MBirXkkcxvqI/B2WTEFqYCAEpOxk8BjTSIaQjrc+QfS9SEUQH8mZwYpf NIxkcF71ExKNRkTPQwhl3MYuLSL9XAkVqVVMxETK2NTcRvCR+t5vjWLuOAC0oNZpsmEVf9SCzfiF fS/G/RJjhjEmqERMvFqzyXQ109WTZ6KcvCaDItALEcyJloEVA2hNAKx6gVrRG9NA04geJ+uHFkN0 n32qV1GXoFfksLU3IBltInUs9NnNvYDfIBNYS9Xi8dSStxQmNfU1WExIk2sRCqKitSaMkkeSsuhz HojSzKJkmxEwWaZdSgIExSraMVXW+zQn0UuvPXX4DMDaJqFm95RFCzXoSby+gG1io2QhVB3FDUFp S0ymLkqMrrha82fQza7DAHJV/YAJEjGAhgWpFBlbEzANtKHYVhFoWgglvrMz4gDRVnXXUEDlIudv I7ljDBZXG4vOGsyN9/vqA4iAj2pgVYf+bSCTSU0rigEArHqqoOksNsd4j5hcMwTb0DRQrG5gGfSK LBIETJS0m1hgE23UsVkejStiq+jF8uowhoCqs0O5f2MgH8JXpl40mnO6yPtrdcq4pmKDGigmkJeM JagRDK6gKJKoT2iag1BGLFBRF1h8qYyg72nMTd4ILbSkuUygbw5tI2gGk6jepFQenPv6uPa+DT6e 2uIi1WuT6CPE+w5DFTMbAzb2GwgIFSJF3e0cQgwBQdO8EOlfcBEvaAFIN7B0WGcQQzSMxP8nI45h wB3GNDBUFUhH39R3VfWDV4WwhMixZ5qK2QyRimCGQDJcPqSTbQbkX4nY2JsIMqW60gB9djCRLqlI VBGqloLAKt58J6Zj0nf/Lq+zFp3bgBEh7UOgaVjAohtdG+MGyJUMIxb1TPE4XaKzB7xDbXgp9icr SpDWYkyGGOUC0vfQuYp9EpgoXM0QqxVNkwpGMRU11mLzLMoJdB8GiQ2zviyoqrImhwRL8J7e7IF3 i+2fCMqHEBlo/jAOkw9jXEbwHXVxvqfESxSKSjmNsZZgF2BJ7JoD8pirD67LxPtHl2tddJOxSGTi b0qwGdaNYDKDyQImKzFZAbaDhC5SdbU1Pb6vifUKrVkkgxN0U4rE25sYh03UM+T90Jb0jXWWEg2g 1v2VCjR9pZlR8OAj+xdUI6CTGSt6wUf6VzuaTSwDK77R+C1Vha8Kgtg6A/CxMITN8GWpBSGvGZbL NHT4oMbiGiNPJgk4ABBoovY/y+q8GuMgGyVrLlBgWAtAMrADwpAsZQFJFp4PZAGD6uAy3k+ufq+V JhXBdxAfCKFCQg+pOoRyGqnaSNWJmG44chHxfYOCVENAsqRi0phq3ZBOaOQpVNcwWKhKqzoN2et+ LAwZDQfG+BgOojQrKn8kcQoDGj8Ncz5qGSJYTiHQWEzWxIpetNJ6T6BfVzAug0oJL6m8yuCDICbT JMNU+OowCkJ8Z0JTsHwYMZ5gHG5oHvQKQj4a3a3Vootk2JiyIU7FEnVfQRRVGDQtnBMCqn7+Xyto u9qZKzb2BCaCJoUE6a9qDfoq6aorjvSNzQwQOoKSJUHbx1PGUFO7iV2RSMrMSfsGawHp/aI4JFS6 b4G4/vPq19k+Xojpaah6+mdUBOsFLDzio/wrCJWvCEWPyocoeskIREW2D+oN0s7nIvjKY7MmT2Yz iwPoDTwOCaUWg2pRRaa9gRKrd8T8XAwh9DA4DLnqCMwQc2XhadWnFEz0JNeEmo+p1Iiu3OCxiQQh w0qGcQGTx1tWYtwsyCxUPQISpd8eyDF50h3EkGP6DJ9qVhOYS984ZirJ09VGkAzBD4C+qGPIvFbg bAKxAWO9Nq2aRPpU6i0yNQhrsuihKkLVRUOT7r0kseRtRDAuw1mrF44SJX2U8hUNAY1hBY9FoZ4a g8sO/Coy+xeEhF5cOFEJlM5U4vljQyjGYl3UCNTUsOufzDkhIAGqhAX6NQDQmrZUbaSc0fJvVRK8 x3f3qP6tcJQzbar2FKFXEIppbBZJEWNjGIgrO1OiSMOT8gASWUJbC1cSso/GIgOZSzKK2kIGxCEJ fNe0QXw/UeCJsYr6fRm1goWC6hAZTa/1fcqu0sWxqONDQGVqUbWEi2WGCodK2CwQxAAZxmoo8r7S OQqHURCiZdWGxqUsFngG4z7o/bw5AJ72olfnMGq2ft853sCkwpABehjbQNwYhgaYCkMP1zCIKTBl B5eNYrNSvzxgTKZ6gFj4ia3BcRJi8ScCP5vUTHWqmiYf6nJwalKdQwEPAFZJ1G5M/0Tm/h18XwOA RC/YVCwVPNY21SsEj7ghddsBCKLCECw+qGaBIARfaRqYWUKAqtehKguMG0KvhNqpO516nfbhMwDX HCeE2Ls3J04S897o2n1/92rj1FXrqo+rq6aHG/379cdHrR/Qj5kZNssQ09STZCqwYxjbxVYdTHda MwAXVLRCrxaFmghAVQ/oMGQE8VjRYo024SSwmQ0Az4HTUfc0DN4GjrGu8AUwUcBSdz6rsamaGM3r jWBMQKwaiIhHbBSIZCORJzDY4CPdC/iA96lpJi6ouC+Dy4fA5gQsNgi5cTHQRcLpcBmAlhaTrxug Q+s4GVe9c7qNS3LBqRHUmIGPSTF1kFwZcKeDPLZoPA3BY5O4RDz4XhRdlhF0RVbO6G5kUiP4mHYR dJs66wi2qtXASAxHg6AR9LhsAm0p/UteId2HfgiLo+bt9ToJRqLuz0RxaCwEzan++dj1U7+liW+R OoeIFcEcY2WgD0CzC1evQ9GLc6UO51qEs/+xfwyQUorQxftsAAy2qevfFo2zmWIAlw8rGq71/wMr oxZ1DBYtVJ83RyNoMjBB3XUQ+jX3fmm3RuEiCAHfnVQsYpWSNi7DOoc4168NmGZU6eiKFwRr8r2O x+zjb6hDQDLGSAcrDxBr/FWBVF2VdRUtPX+icVvRfojFn6AZTqzeaXeyUaGIgDGN+KlW09Mor1ey KimFfZ1FGGvAa6jw1eHEAMFH9WyK0+mcmAi0miQFjnXDcdL1wGsUbW0dc2sKdk4aGGOuzeNER/JI CnWv1sdwUGElClJyweYlJvPgZvUdGvNq2be2KCaNQtxkKhlCVAKZvVd6TfDElDNY+p1FMvC9kpws 0ywAH3mACqSJtcNICBg3FoUfMcLEptCUNiKi2UNs6arZPgERp32CPj4/vlblkFaBpNf9gvVyfUl6 LlTFgV/u+ACyAKUekyZQmbqgYKbmoPWEhVBhbdpJ3PfPWdCWcrCRVk2AyvafS1zlgxU3Y4EiToy6 0OAVTWt5Ou0sGmnkJIdKYtAI8mQOWaVGqexfNJD0ecnNJyOwDByPGfhtBl4TdIUmj0Bq7NTvpO10 eoy6o1nUN4Sgi0qSgelvBY2xJ6BuKI2fbDIta6MZjs0tJtP83zhd/VXRwx5OSZgdmh9PlMNm8aKG Nu4KYl0UW5h4ci0iFQbdtsXYBJzSlzAxdyZOdgoRiQqOmYAEdfv1rmPopMa/04aUg63egC4hXyJ0 YmuArnbjckKm29ho09AAMWQGvICJIDWVixkMYQOvSUZRs3upqSUB5b7R1JgkTbLVSddKZ6WrPzaQ qMQ7xvnkkIxyAL4q68dU+ZP1+wIwsTLfqRtJD3Ts3wP0ZhCpcI1Rgt+r7y9raDuYaDND3X2TikQM VAPTSbTJ/Q9qAlL5NcXXVHZNJ9nHNMhijY0xV7V1qiGIExGZPUwUg6bVLT6WGgStEAbENGMZP3qh lPvX8d3tdXzJUNOOZhF8Cpru+dT/H4+5/u7JsFQqZ2wT4uSL94jVzSyD6WIqr6XsEDA+gHXRExRR JOrj3sGGIEU0FIMxOT79L+kdDpsB+AKTDyniJtN0hrhKMKqndw3dJzixZy4Dl1ylRfcVSpO/96ra y7WauPoCcUJ99I6FMmB+FkIXqVpI2UZ8j1B1sFmqvpnaELXvL0ROwM6ZEBP798V3MdYgWJzJ9fPF gMQSuKRQJP3jjviiv7KbigHSDiY+bo1nUT4jNnqQNsM08T1NZBON16qg9fUWuILK4sT3gHisEkOg V/FH2vxKKQTdmg/sk9pGfv8hYHi+9rclEGUii5c2TpQOgQIqo8Uf0c2kyYZx2ZD2EIaBk2cHV1Zi 1ZILNfS9wcAhGsHmDjEl1jQx1TB2uIEdamCHc+yQYGRWeYB688pcY7+RupKmCuE8xlWjBaBaJ2j6 md4c1D9gyLXrJyK2SELNMWIhlS1MFISauMmDkbQXYWwYjfLvlB3oW8ZOIuIOIukosoauKdsEk2ll JSqBJEisEWQYY+n1DmMI0OpeU3fXsESWLdYCBlrDtGuowNhhki5ej36wNhkLQ3MUt2kkV5vy6YQL omv3XV1FPt3vIb6LlLN6X0p8MavMoNUNIazLVITkomiFHLFG3SsOJEdMA6zVVLDe1dT2UX5dCxjM gKDGNQkDDGwLo0uyUI5/oPEjofxU1Krz9lg6DvVFrNRTJQWQjVxFMIJNbeL6ykifWKTsUflZMAZf HkYP4NvbASGkVA7BOodtjmJcA0IVV3xDt5C3mbozM+h2dfVhGwOPDTKEsd5fV9jSbz25IfbcS9At YtIJrRE7qUk0R2KVMKmRrNOQIlGQaUIZY6tRzrwqwDUINkYtF40xqXPnAL/knZILhzm9AylcRaxh 6uYQ9WIpBEjCLQMVSv0Ork4KjCioTjsdWAkIunF2qMookROtCgaPrwJV0UFE6B5OKjgfX6lfzyVZ daQ1a0IobqWe2q4j+Gq32npQVWBmWq8u3ut06XZ7pC3ZOq0W3fYsPqiwMZVHBYMPCnp6nXbc5TP0 S6BVRVWUlLMdQhWoegXLls8HmyvnX+f7GgpM1lQeoN68ImYHkZdQA25SF7aSse8NYPsxgjpMSfqh hiviCak9PP6tkq+yLwqJRiBVVW9pJ8ErondNxPtaFKKG1he5KI2tmZAzFjEeG5x6iCgwaQwNeKtD NQDfmVQX2RjR3vlY2HA2Z7bVpigril5FZ7ZDWfSYmZ6hqirK3qzmp1Z3wyi7sxiXqVjCGKx19Y4X RdEBm0egI+T5ML3uDLOtPdpzmA3pBSl7XWbbU4RKCJWn6HRV2u09RS8jFC0Ff6KaeRNyHCM6PflQ PVEGZd4MRrMZ0kZXUO91WAtXU+VyIKWtXb5mLSJJ368ZAcQG0URTp8ym3kQqYgebKbapemCqeCwo LrE5RiSmfr7mWsSXBD9ACpmsxhA27oUU5PBhgLIow6P5UOOkzmyPbtGl263odQs6s7NICHq18N4s VVHgfYXNG7i8iTWObndaJ67s4n2gNzNF5Stc3qTodul1ZqjKApfUrVabOnq9DtbltKcmyRrDFL1Z GsPjGJQ69aVKrRqNEcpuV08+DtucB4gSIS6RP7HxM5FREvvzATFadrU2qNDF5P3Jn4P+ExCM9/v1 37hCc63/B1H9n9WLVYlxMTMBZf1ihbBK116I/QMmU9gRRCnjpIwWoKw008FGDUAMDdb01cbGYayQ rtTqDqMg5J7P/eVf/RpP7eXS9jkC0HQOfMFwlun28IJxAWc8I6Ey86tqerF4lhjDsmaen2msPROg v/mDqzMCBfLxb5NCQFa7fZP2MkjPSeGsFpOkW+IcBpXKKlANoYSq0t0+ytmIfx1pGxhDFsFgrAmE oPX7TLejMTFbsnmGiQjfNNTbhUgU+aqqsXQQwXg16FCpQFRCoCwOUy0gXiVz08evPn3xk5/Cp2yk nCxDDTO3GUsWHDPvDWDPTNcs0jbrgd3N04ZVNot7BiVyJtUIBmoXiauoBaEJCxAfj1oBM8DwpZVb X0k9gluJzaIi1OKQ+voJEKquMqfi8WUBRjeKSs0eWtSMVzszsSta+iRTuoaSbTTJs4Y+xx7OPYKA 3/z8/RP7f9bRGx+/+vTdowvmbTfZcEJI0VXqKq7Ze2N0UQdPkAoTLOKs4ojEUqa6u2R6G5StpWrg YFgwNq7iTLeyNZXKu20ZVcEy4AGMtoQnQkiSliBgvO7AJqniJ2Cs8sKqXFaewGbKq4SQrtlgaxyT PEM/M9n/OHDO8N/7qNH4oLuOY3BlR7WSqWXgqWyN/l+07LrP96k/aO8Yq8AybtGgBShjI27rg866 hF31Is4g9iTEfoG6ChlBZ60s1usX6g5hujOI956q143XQ4wEomi4KA9nNfD/L0PJlF4N+IJkmFi7 kLr0K+CjdtFpBLGmQb8OoEBU3zDl/XsbgqNftRysFNroZQaMI4JFnceUCaBGVxURyXcJ5Sz4QIjN Hb4qkSgLl8j315oBXyiGMRbXGMZiTcyLAwAAB8VJREFUNXSEgAmCy2zsLDqw8R/GAIi6+rojqN6i hZpfMPHECGBNnLDUkj1YL0ggcA5lPaCGqsOFilaw2iTSbwp1qgb2Df1tfV3/V3df6XVQYmHHNsbV IAQQ7Vv0PtLtkUmVuvso/h0q0l4CxuUYKZX2hsNbDDrC48CD18DolsGE4I3EjZSsaLkUsdpq5bJI YPWvB6iqm9Q+lljHJAihn/rXIHCAuauPNhlNTBljjm9Il6FNaacGBxWEpB6IVE/R3UzEZlGPqkUt a4n7C/YbRA1aGiYC2SCqIrYEJDOI94SiG3cMPbBxsAZwoBN1MBP6pF8z26ssNjemMdJP8eKOJSam gYM7m5gkVpWgoKu+LlGoJ7Fmfmtvmu4M9CrWhiP9xxJdEB83xqBav1QDSeDPxEJZiPYVcQBG9Qpe CLFUbINgXHTtVawhROGACl5iN1Is2pnDHALMT7m/r7/39/ih/O+njj3tyvmqNFQF2BLdrEr33tW2 9AqyZmzETCtKGzHqtK4meNJjg1qGFArS/5N2YdBr9O8HiVcch5rdVMl4Wbt1tZM4gSH9ndjE2GuY Ns7G1mHNSNoLSAFfVSgRljaTlBAIh0kTuFeh/gmPDf7e+/6+/v5pj/2sx/d3bABMzZZZVZZOfKHl Xt9FSFcyRcu1sZ5uBi5pW2sGB0mfOc2hgxggrapBWjj2H0Qmsu4pSNW/0Is7funVTfDaEkZVqNRe 67x1mqgkT1N5gLg3IDi8oMAQbcGXEOIO4hJrCJpNKAei+wVJ2nJkP+OnGcDeedC+8qIDNYYDNYSD fb2ZbJfNUmxm8nh9v7poFSdKRAsugDJ4Tm9Bdw41rqmVTUxMxWxczalEHSd4Dg9Qo0sSH6A7hFgt lRuv1U/nMd5jsmiAXtlCWzeHVlET4MFWKuwQo8dGlImX2lWc0tx0zSRf+bhVjCaiEkvPZXeWuAXx 4HnaJz+8LwPY++QnH3ighvCz7u/r78HHn4zXqd9nplMNFd5kZMMYY+JWdoakZcSlfYD7bWPK2qlb 1zcajP8uEkEktMhAcI+fGn/X8T8ZRtCNo6ObV0efWsZ9//2M04tCRHEqwSsswOJFiSFndf8CrME0 RrX8m7qEQsB6BYm+KvBVqOO/zTJTliG5LwYOfK+D338IGLwNGsGBTtLe93/aYz/rs/bridqFH+51 2o3Q3RNBUSR30tap+VDsA5TYI5Br51AqFM3BAP9fe1ew3LYNRB9ASrJpeeREdSa3ZvoL/c5+Vw+9 9tI0GR96sJ1p3Fg2RRIEsD3sgoJgiqKUNvYhO6MhSEIixF1gF8Db3Y162N4ODq9KcIFb2AXfqRiO /MXwsODuRRJenn0fgx1iASf5AgT+HZJCOO9AzsM62fMnDWjB/VnDtk02lceLsZllUM7ytrn3at26 CTjKRWC8T44EFvNBIvRLz65eHO7FdeLVEgxcAzajTYQi2S8QTetPW8on2Wwh2ASZ9mne7u30fhgB okzn8R5AvTaoqxXjGe4fYS0DPAgKD3d3sKaF68LYbGL4eM/JGlojDiHC0IDT52DOLZQM6WfzM5yc TARESjg9meD8fA4iwsXFAnk+gwd7RXswcpjT43GKPE8ahKpzIQcpeGg464ItocvazQCEPfAIdbuV rLFXAGImAltznsHeP1QeOk97fdztYgtM99RTAOA8Ta1lIxCZJLDoEDu5CIBGVXNI9sfVHTx5rP65 BxHh7vaWY/FJ3ADXGl5B9JBwglrm45yEkvW94ApVhqYuYeo1nOdA1dYyPt80FTirKec01PmEe7n4 BUBpTE8LaJ2jbWpZxGGZz7TCq1cLOGfx5s0S3jlcXi6hyGG5XEooJcu+KDpjIXFGUEVKrRs3A1BE DLdg2JVC5ICxawSgpJwy/2sY31c/ZnACInxy/4lN4j2y1eqxCc11toWxLaqqRV0ZNI1BVa4Zm2Aa xth3AIpcDKdSoNUtbNPAmhpOfBtsa2Camtfiu8UfMHO9g7MWTVV2gqInU2E8gzc4R0EOU5c8xAuu L9gH01nB6kocbT0RGtPi5uZvONfi+voTlFLw9J4DRgFYLC4wn59h+cMSRVFgPj/H4uItAIXmy33t PBVgFRB6fejUYXXDA8M2QCoEhzJ27PWYqX31Y0hOBMvZjAJ/3pSff/3t9z+01r9MpienTeN4RZ4I RKS8rKP7EHHUexWyhHNP9xx6lfUnQ7IkAZNSquvBFBZ2oKAktY+XlUNnW3YGJQ7jEnKsBAcZTj0b sABstxMR8gdDWX6/ESy+IdFBxasIisIiUZgYPDysIQYIERG8c1QUBX58946uPn746/11ebXjnY9i zNfWP+R3gxDEHiNhrz/YATt7f/z5+afF5ev5ZA5wpJjQDkHfdm2itH20de+ghicXRn1dhcfINEFF TY12ckOjSTyg+FyixLEsKArnSoGUUrRuXPXxtvx89amqsIVi7VSABDrkkeFQATiW9j0nFoI+/d+n +wdnBjvKSK4f2s59NFZ+0nrp9KxPBe8q931Si3+XEei/lQCMoXQaqJPzlKH7mJ5eQ0/5pfz/QwQg PR4rFIRu9Hk5NMTAMTOQfT19yI55jneRMnps+Zhj70LQSxOAmMYM0ccaps/N+Jh2qYNDro35Tq96 eu4//1/T/2XUfgs6xP48pv53+k5P6V/aA29wwC5p2gAAAABJRU5ErkJggg== "
     id="image10-3"
     x="20.364819"
     y="8.7947874" />
</svg>
