<?xml version="1.0" encoding="UTF-8" standalone="no"?>
<svg
   xmlns:dc="http://purl.org/dc/elements/1.1/"
   xmlns:cc="http://creativecommons.org/ns#"
   xmlns:rdf="http://www.w3.org/1999/02/22-rdf-syntax-ns#"
   xmlns:svg="http://www.w3.org/2000/svg"
   xmlns="http://www.w3.org/2000/svg"
   xmlns:xlink="http://www.w3.org/1999/xlink"
   xmlns:sodipodi="http://sodipodi.sourceforge.net/DTD/sodipodi-0.dtd"
   xmlns:inkscape="http://www.inkscape.org/namespaces/inkscape"
   viewBox="0 0 64 64"
   height="64"
   width="64"
   id="svg2"
   version="1.1"
   sodipodi:docname="folder-brown.svg"
   inkscape:version="0.92.1 r15371">
  <sodipodi:namedview
     pagecolor="#ffffff"
     bordercolor="#666666"
     borderopacity="1"
     objecttolerance="10"
     gridtolerance="10"
     guidetolerance="10"
     inkscape:pageopacity="0"
     inkscape:pageshadow="2"
     inkscape:window-width="640"
     inkscape:window-height="480"
     id="namedview6"
     showgrid="false"
     inkscape:current-layer="svg2" />
  <metadata
     id="metadata8">
    <rdf:RDF>
      <cc:Work
         rdf:about="">
        <dc:format>image/svg+xml</dc:format>
        <dc:type
           rdf:resource="http://purl.org/dc/dcmitype/StillImage" />
        <dc:title></dc:title>
      </cc:Work>
    </rdf:RDF>
  </metadata>
  <defs
     id="defs6" />
  <image
     y="0"
     x="0"
     id="image10"
     xlink:href="data:image/png;base64,iVBORw0KGgoAAAANSUhEUgAAAIAAAACACAYAAADDPmHLAAAABmJLR0QA/wD/AP+gvaeTAAAACXBI WXMAAABIAAAASABGyWs+AAAs9klEQVR42u1926s1SZbXLyIj8nL2PufUd63LFNWtzqAzjtDQIqKN cwEZ5kHEBx18F0Ef9ckH3/w/xD9hbFAYRhRpHZgeabFbHOhue+y2qqnuqu+r73z77EtGZKYPmSty xcrI3Pvsc76qUmfBJnPnNTJ+K9YtVkQoPCypE853J1z3/yNRvXT3vOZO9JBAqHsc+1PqqXug4yfT Q4ERnvP4l3/7QpuyQuO6T3/wH1919Q2/5k9b/zJNWvjTX/3bj9F1yu9fv/rsh//+IK69N90XDH6/ Kh99oPYvf6ze+drv/MrNh9/9we+sf/C7ldFf3/n2wUSWpMpo7Hz74NeeSjvfojI6PPuB3/Hzf/mj +i9dvvc1Wz79c3++cbsfv/gf/+blcK5j27PVwn0YQLGtAqBWz3/Z/r3VD/9ZZfQ/v09l/t9O535H mWnsm3byrIF+75ur3/qHn3zvmx+iB5t+wD2kgTnjHiX2wy+/fFJV+kePyuw8EM+971wqjMbhgSXC fb5j37Sz9+58axRgMW20XK3emRHuygBz4GsAWuusKDO9XucZNnUzublgreLgWxRGw+rjQsgcucbe h3GKfpNnGnXTwjXt0ee5Zp5plrSdE+ck810XJhzjzDBsd/AHBSBDDzSvYHrwnVXBfZtcAB9Alpn8 ojD6CQAURoeCFEZH4NMxq1WSUYAedPrJSrWZDiAdAyvPNFzTImfX5Yl76gHUVb7cJpYYxLddYFYq +xxZrUK9FAl1IcD3AIw22Rp9o9XoGYE3wrPoLgwgW79m2wyA1VpfWa3eGT5czX0cVQAArPMsHOOV x4n/twOgtA9MAeX/6wGwWjBB6tpjTMLfSUzIf6nyR2XXKvxkXZA6mqmvDsBTY/Jn6BmAmIAwmMPp KJ1rA3DRn1GhdJatjFZP5m60WsG1XbRdqjBe4ZxWuQktFkAELh2fAzBPMI1kmKXjpCqS38eu52qC vmkiyYbjoS4GJiAVylRpV2b6qdbZI/R2AAC0GA3Bs22AUyVAissIfGIA23XdaufbawmaFa3AaIXK 6EUxSa0q1bo54Eut/xhxMOmZ69wkQc6HstB1x97D1RRR6ntlgyiMjsAfJIICcK0UrtEzgBnq/d5S 4BwjkOscKoABYNHhwmq1dk07aeWcCaglUGWkxDoHaA70OSbg93NwU/trofM5wHXTTlTHkuRYkg6S ESTxerLMiB6MQg1gja5boWeABj0DtMOPY3InKXAfFcDBHyRAUxqtCmBq8c5++IwxtwQqVfam9hET 3EfPL6kGqV44SYmQsj+A2HiU6iHlOXAPaVM3CkDWtk0JIEfPAPTTGJngjbuBRJwBghEIqJIusMyC XxLzKWB5ZcvK5dfI1nsX8R/dZzLUvpnsy2fOMRdnSHktneffyiUegKieiBm4xCyMVgffom27HKP4 JxUw5wWcxBCn1Jg6co4ZgfYxPynBX3LfUqL2WAuNDDaThS3fT52TP35NBO7Cueg6VjauPjiDSuaR NsKS+0ixgb/x8t9eY5S4kgHOcgVPYQDJRVIFKACZzvL8t17/3jP+QUstf67SZGUttep1YQNAtW+W WzIDsfYNSmvCeX6PvJbffwpD0LesB08lZTCmmIGTUAndOs8UAFRGv6VtVWLeALwzE9w1DjCJ/1Nh tC3zyuhndobT7RHdLP8nK06AQKBzUOi4BJVAL23fKvfOT+7lTEH/OaUYKjfZUdcTmBqX+YwkBOIg mNFKAb1NsPPtlS3WFWL1S42R43Qy3ccGiOwAbfK8zPzbg7HTuaZVp4B+7LgEMXUc6MG62R1wVRUT 4PbO46oqsHcepTXITRYxQmkN9q7X33TdVVWE5/FzdI8su5Q4/JtSwKcM1jzTuK3jZ+98S8EjXxn9 lilWq8Pm51z800MIkzcaCp6TAjozRQ7gOTuXBHnOv54DnYNMEoBAplbNzxM4fEsAyy0xDj9G+/Ld BO7N7hD2JbOdoibk98uAlgxFU7wEQFMZ/cyUqxXSrf4sG+A+EoC2GoBSmbHrPHucMvJSXJ8fMQKp Enll3+wOEWi8VRNxQOk/bTNmk8h7+Jbu58/i7yS62R0C6CSBeLmPeRSpxkBMQOe4t1Bm+nFmClIB PBx/Np3jN0kJAPQ9gQbAlbw4pdfnQqwS+NKaUOEkjnnLyrSatGYJLqem7aJz2YyRmmIOvk+S4hQJ sCQVyFiUxBmD2U+qMPpaZ6bAPUHndK4EIApqQKnMALjkHycpdYwseV7BBDZteatbFRa3B4fSGjSD tSxBpeNyH+iZYFXk2DuXPMeZopnp2iVpQuVIqRQiaRfMUUoVCgmhAayU0rwj6HNxAzkpzIWDlVIU BeSFXwrXSuPuZneIDC9ugNGWt+JMq+jHQVsVedj2ksKGe/bOobQ2uo/+c+L/+bXjPSYqm1QZ9I2c iZekQYopgKAGFADdTbuBpV0m8XpQBpCMMHKg0sa3nZJifk63S5+dxD13yXoAbfSfA9K0XdRKM60C 4HvnBnBcdB8xAj9+dVGG/3SetvS8FFOMzzQTW0PaJmQf0PemgKb6Sp0zWmkA6LqIAY6B/CCRwDmK bAFbXl7KD4jCuIlADK/AHhQ/EaESYAKFRDlv3aW1Aciri5I9f1Qzuc2iY6W1uNnuUVobXZdiIH4P qQspFajM0hglCXBMJVBvJGcK7hkobddYbvlvJA4gdUxsCCqtTXX9NFTynK8vOF/61bzVS31MRK2b t3IOGoFEoHIqrUXtmkkrL61FbrOIEXKboXZN9Gz+PikVqLycYVMqgscreCALiJlDSIJulRu18zX+ +u1/futf6yzr2uYYE5wUDzinLyAVB1C/ufkPz3joV8bpeXSu9s3ET+cSQYKfAgzoWzk/Rvu5zXB1 USK3WWjxtE//JXHGoP+c6F1cyvDruc1BTMFtBRlsit6dkApCCiig7yCqjHqkTUHJoaeqgll6kKRQ rU32uNTvDQXvACiKjnEm4JXBwZfEW1R/3SiOl0CiVkvH6b8EfY4JIlDYffyZ/TeMdgTt3x7q4F3M uZfcg5ExBV5PMnbAGlMN4FlmK9vU2zkj8E7RwHPjAEIFKF1m+t0h905x3xeIdT750H1FTn1yrud5 ZfPWzo9zQAk02fLPoRTTyGO8DNy7kETSgHsw0tYB5qOHTBI0j0vzXmZymR5+thS4T1IoiwFoVRj9 jBdWdpxwUc8/novKVZFPrHSqVN4CU2AsiXdOJsui7SnEnysZixuVZDtwIkZO0VzASXZVU70arboy 088ZA/BI4OeSEDI7LsBq9ciJPvAlUb8q4pYigy5LLTwFDDCC6ptmFmCt1ElMQM/wTRM93zdNBL5U Q9KWoIATlwI8ZjEXyg7fGKsEXRj9SGWGgkH3tgPumxUcVACAS8taP4/kcd0HTH1pcumowq4uyqhi uWiffEC2fGzoTUXbdWGftvx423XRudyYcIwz1hwz8LJy8CUzyG9faiRSitpMa992a/TBIMLiXvRQ cQANoKKCykge6T5p2VPlPFpXScta6nMOrMmyCdD8x8GkfWsMrIkrmY7z+/i5fDjH33lMfXC1kNss ciGl3TDWx5QRqC7DczOtN3WjARUH4aaq4I0ywCQMrHSmjVbGNW1w8UiUcVHPxTxVCg/EHCMSyxIA 2aKtMSisDWBL0OkYHXfeT65NMYpkkFRZpG1Qu2bRheQ2UH982q/A1IBe5xlFAyUWZ/UH3KcvICQi 5BePVkDfc0U9ZMQEvMOFfjLqxv33OdeNKlu2cN6ySZw77yfAXlRlOM7BvajGiOESo9C5lKSZsylS KisViqb6IVoVNmIEChjlw0XalivEiSBn010CQWrmflVevv0E6C3VJRePaO/cojGX2ywSt7xiSS8X Q0VaYwKwhbW4qMoIdDuUwzkf/QcQ9q0x0XFiCrreeR+YiTMJ359TTyl3VLq0sp5uDyQlDO8S7wAo 13Yw5eUTyL6YtIF+bwYg1yIVDQy/fP3kPaCP/klDb2r02ElIVrb4ORFfWBtaPCf+3zEL2jkP53zE BEHEWxPOz1G4PwE8Nxr5LzfzdjVXC0tEalP0hKrcZLBadb9x+PbzwfCWjfPOvYH3GRkUfr9+8/vv 2+frEAUE0uFc0vtk5Z/it3Nxz0W6832L5gDaRFSRMwFJC1IH1NL5c+keYhD+XP6uwtpIpdA+lZUY RBJ3HXmfA6kE7ipK72mg/dsX5l2lle4aB9wzK+guDDBncKj3VvkvAAg6ij4kKjVziVItIOW62YXW FOnuASwJBLVcbhPQlo5zhuLvDMcXpER4BgOIv59/E3chORNw8KmRyNyGvv6Cd+ABfKCU1t1UBdzZ ELxLb2DAhx3T6FOV3gHGUGaqI2fOuJsjDlBkpTPRbe2ou0lX83tTRp9s7Va0ZAmklBIcYLIrtrt9 dG6u9fPAElcHsm8h7oKOe0grmwE7955SivICUhi9kd7Audiztlo9cYP+512i/GPmWr207knHSwue M4Y8JsGj/ym/X+ry7W6Hi6qadQk5I3HwgdiI5M8kW4W23DZYiiFQfaXyDZhK1U8r+0QpnUoMvbME uE9GEBc/V6ucXD87KwFOJa6fZYWTyE212gA6s7Bp3wqr287EHS6qKnouZ6QUQ1G5yMbgTCHLKN3G VL0QE1DSiwwjo5falx26e8cA6GF3ITXzK8kDkPosFdOnSiBjKaXzuQHGjThgKo7nbAUOvnMuyQSr 1Qp1XYdzqeuc8NklwLy8vHynkvQOZLSQG9R5pvXONUYpfbbe5/QQcwQpAFFzlYkbqaCODNdG4DLd TnqWzvFKptYK9GDSbw5sADACmLquk9eF9wzPiqRKQq3wGAPt85iEpKWQMoWPUz2JeaYzAOjadm5k 0J3ovpFApbPcYuicoCgfN2Lmeux45XFr2prRoueMICs+iGoGOgdRAs3/G2PCTx6TJJ89V/YUbXf7 yfWpkLIkMgxvDz1z8iyjq6pQm7qBra5pgIjE5Y3YAHOuhl49+eCJCalPo9if67lLVUAQ6VzsJyp1 tMyrCSgpnS6BTgGc53k4rrUOx/j9/B0VYzwOLN+n75BSQcYKqGt6LmrIe0gn5V4/pRzMFOgnM8MS A6gj5xQAVV2/+y5AYWAXsnGPRfd4xclQbMro6sVsNWvUpQCXVJQltNbhFyqB/U8xS1VV4b/3fl7N MFeVxxFoK78nKvvACDJETvU5qNNuVeQKgC9Wj97F8YEhbyQtPE4G3f/BV+gE78dfsvonYp8ZetRS uPtFNCeK8zxHnucRqBx02h72o0i2M9enjgWQGHOsVqukfUDfFwxUa6KfPM9pu69hsjhIRPuDFFCD Wtj+XXz7q4iBn2OERSlwiqmazAKm3+PSvGez+VmzZIRP9sRxcclB5wbeEhhzANo8h6truLpGUZbR ls7ZfDSy5HEnjMO2baP3kufAJQG3F5ZsA36eh40vynySZEL2AA8SrfOs2e/ar0DYYzjDDjg3LTy8 tMz0OzwDWLb8lMETWrgAnyoGALa7HZxzyVbPdbZssQQqAUn/57ZZZiJmkMxRVhfRu7iqMMZENsHE LkmElWUMgwzDY8SZoLIZrgvzfgJ8opOn5b9Lb2Cyy7Ew+tlkOJPI4EkZfqlAT3y+mohXrt9TopqD yFs3UZaZaJ/+y2v5c/a77YRpJJmg+5fVARC7tcBo2KbyC3hdAlFk1QB4NoNJajtL9x0cqqxWV451 Ay8R743rK8xMWr9lmTypSgaQbPVLgHOwORM0jZ9cK6msLibqgYzJ2e9kjMC/h3sFUS7CcL7tukki qqSrixJ5pjOr1RrzMYAHVwFzYUcNoLKZnvT+pfz9qPfNTTt6+uPzIj88KyHaJRGgeV6wYxmyLAvH aMuZI8+LiGGaxk/UA1cRpBbmvI8lm+AgvlXmHhJJmwCAcW1H8wScrf8JwLvQJBAEoEhNn+6bJin2 ucWf7u2bin1e0VrrYKBJ8Am4VGvOhgpthtZF/4kp6New1pd6FjGfq+uJK8nLS98S3SsYpLA2qoc5 e0B2pK0Lmx18+7nPFs6JM4HxbReNxjVZFnq/pK7nGTqyYmSF5QxgssKPtXgOJgBkxvb/zRCWLsby ZMaGH/3PizJiDnq2tB+IEebKE75tIdmV5zEAsT0Q1YNIiS8tTSmu5vIBHlQFcIpaf75+unZtl0Wz fbM4PxCHQ0OkjwV5Rn+ZdRqJStVaoyjLpAU//uIWTGA23iEzFo3vxa0pigB64104Lv8To8QSon8X 2Q5SHYQ6YOpABowm6WUUB2FScC6fgGgIBqF69D7lBs4Z6Q/GAKmXqGL1eG21mkwHxz+AOkr4B/NA T8rfb9t20don8FPEWziBTwAXq/UI0sAIxWqNxruIMeie6TtHRgBidUBlla7iUuSSiDwDYgJKeF3K Mt43rbfl1RXSNtrJNMcAx1yLPhm0un5rONalerdkOJSHSIMEEC0k2SEjAjOxOI7FPd8WqzVMUQTA /eEAfziEfdoWqzX84RCuI4bgz5LEjctTVEG4NsEIqZS2lEvIo6xlpr2t1m/hNNE/yxT3cgP/ZvOd D4xWOs+0Itcl5fOnMmdSUbJjrh6QAF+ALkkCTsDmVRWOAQhbYgj+zNSzm6aZSKG2bSfeQVwPcaRw EigSdZKyBYDACPWvH/7Ln8U9p4s95rzPZZz0HUFGvwv0cwHM9W3zpMlJ4uWMWNRah1ZfVhdB56bA J50tQSTQ86pCvdshryq0bQutNdq27dVMEY/PN0UBrTXq3S563uF2E5ig8S7hUfTlolBz9EzWiZSq G2C0k2SWc3hGIpdwnWfd2xfmq32O6KwaOJobeC8J8KgwzzHkqxOR/pe5exNvQFSIFP1kXEnwucgH Rt1OgHPKB/uCtlprZNaG1mkHwCcVPkgKel4EPpMK3B7gdKpKiHoPWRq6PJ+iqje8fgHzmcEP1h08 1+OkATzxbaf4+L8oqZNl9cylXU8KNGP0NY2fAE+gAIjEeV5V0XMya5EJaZNZi8Y5ZNbCFkWSGbh6 MEUR2RSNd4MaEDl9Q+RQEjH4arWanJswgsgbABIGYabNdWGeHgH7aJ/AKb2BfE266FcYfWnYLF3y o6JBGzKad4LhF31wXiQrfE73A4hAJ7D58RRTAABokIa1cIPhGMo6eAv8/Tx4xF1EYGRoimPwXsRQ T37MGeB1lbSTaFh6pjUAmjf4jUUC5/QK/SrfdiFjZa5XS3b1LlFKfPa+d9MHaZibxkU1tXoS85Pn Uq8eA08L5mkY8PRfa428qiZqIYDPbAKKE5TVRfQNBP7sNwsJwEnGBFg/gTn4lsLBc+H6B+kMmhh/ 7JcDUOWQ/04kkyFOAZ6TdPmogqXRFmqiKNC2bSTqORMQ0PnFOvynY7SvTawm6FlkMPJ3pcrRB6Gm 38kTT1IpZtG4AzfNJpYjkYmuqkLvm9bgDUsAojkDwwB9IgM3/kIWr/NJnZ8S/9TDxiNr0sDa3ryK gJBGnzscQivm4JrBZ/f1ASYvwi88a9jnzEDPSxmLUgoQUWygt1cGMZ6wBwL4zonM5unQNiLqKRyo y7RSO99+cX0BprwsARgKAxOH8tbP/zvvcXV5Oev6yQQOTmRxX1xdR8epJVq2zWwMItADDyBihPCM vJicBwZm0DqoDv4eKQWkHULh4rnvoUSXVIh4yRNg4l9dXZSojEaxfnaJdK8gcKYKUDPHon6A9dM/ 8w7GVSzDzBz9cKt90p/13odMH0lz0b4sy4Klf7jdRMATNc4FcDgRoLLF5xeX0GYI2Jg8nCcJEcpU XaD1Do1zaNs2ki7R+6m/YTBSuSqgb6LcRKBPMiXwt7tdNARNzmEwN9h0oP3q8fuUGSRxkjGAJDOc agROOKu6fPau1cpQP0AYvs3DvSL0G8bhiUEavIvX1XUEfmCImRg9tfoUEaC+PkCbPPxaXwdG4JRf XEZqgjMCNy6DThdMlxflJEIo+wuAMShEKoCDPNd4Uu7gdWHq32i++wHmbYAHzQiKXvJ3/H96B4BZ 5yYa3UNRrTCKl6mAVD4/EHf1Ug5e03g0TdNX6GBtzxlg1DK5zqefNvkEaGr9WdD9PWPU29eRSqBn tt5FTEblpdhDKkrImYDUm8wZ4HYASU/ZccanvwEgs4X02xfmK5hfQvYoE9x1XACpAA3gqdEq41HA aNIF0e9/dXkZ6T1jDLz3Y1Ru0JUkPvvMnCyogMzYidGXIg6grw+htRMR6HILjKphyjCjW8hVDQ8K Re9grTSVZczDwtbaXi1GPaRjHUr3mUsAq5UB8B7ukRNwSm8g/Zei5RGArBQDOrgEoGMAcPP6dWT0 eO+jfn/qWyei1g8gkgBR4YcWRYYfgc5bvmztc8TP19vXE3uA3ERuB1DvIu9mHss+zJU0ExnkJEck b3f75GwnnEyW4bq05rowj4Gj/v/JvYGnGIAagLouzKXNtM60mvT/c6I+7jnxD8RZuHP9/FTJfnDN gDGcyy1+Ap+3/FSrVzqbnCfKLy4nUqD1cZAIiDufOPHkEfmNQBz55HUyGQizkCo2qAKLfpke7gVw zI7SMRWQjDD9418q/0Fl9K8BUA1DX6Y/85Dmku7nvv/Y+RN3+vC+/HDf4ZCMstXb16HlTz5KZwH8 rJhPTW99PbEFgDE6aEU3MvcEePnJHVyKB5AnAMQ5FKkIKp8Gd11YY7X6xX/yFy7+BdKt/+j8QXcJ BXM/s8DQDZxppfh0rMmPTHT/GmOi4IqsoCi+LsQ/lwJRlg9z+8Kx8iICXlsLzcpBzKB0FkkC7h7y 55EEcDP9A1miW3ypc0h6AnK4HK9XGkxKhuCqsHpYpT0HzssOvuuKIRqAvi5MRS/44O2ns8O4jDGo MJ/c0VeYiTJ68qqKdDqJYlNeoGv7D7eXb03fdf0E7X4LZXuwVJZBZf0z1MAEsAVAot9YwDugbQDX g9ntt/22ceiGSu7cAd0glTrqebx9ja5t4AZJ0/o62u5vXkRlI7uh3u1gigLbm1fY77ZYrddB+pE9 1LZtMBLNpYkMxu2Qp0BzEt1se3tr37S5wIgwS+EYtdK7jgtQANSrgy93vkXdtF3vt7pQuOjhM0O3 4oDPmMjZMHeLdO7+5gVaX6Nrm0h8RwU0NgKfaJhGrQdeKYDsAgI/FKqIr1+gtt4HRkye93WkLrjR yKVYySKMrq6jPgfqM/CRSo3L5rzvSmsJ5ALTtYRPkgJLEmDOtdAfb/33y0xvd7q5+MP/+REeVTly k7EVvuLBjDQbeGqyCDkKZlXGevn66nLsOmUuJGcsOaizrC6w322jSiZGy4sS9SGeuOEYNY0/Omg0 mfHjHJz30SxibdfBN/2o39tDPbtmYYpuD65feqdp8Wrv1Cc7hzLTzcdb/xOc4QEAd3cDicuuP7qt S2C6+rUEv7QWj9ajiiCxxcGv3WjYkNFzcI4No7LRrB88biDBp/F8HPwexFHKEEOcQvvddgQ0octl cEfOVAJMp7Mlogkg5haolOAT8bGYH93WGYBrjEvKL3UPT4hLgGMuYGAC33ZvA0r//d/8q74aulhN USggzswB0zk8MYK7cQBU41xnqwvVegdtbFQbrXdR4fOLdRTiBcbgj3TdOJGBRypEinGlM/j9FqcQ eQgyajiUN0QPh2+JvsfttiqztmucC3UzuLPhG9u2hS2Kzi0Evg63my4zFv/0X33TDAygxU/ixxN7 QpnukhQauOvQdgoAPvrop+aiKpNpTgCCKJZG37jPxHLChuCJnOTz19tN0KtU2RwYHvhpBnCkn997 AYnJmts+PkDM0UzAraO+gj7SOAIOxHrfHQ6TRkEdWjx8nMooCgwz4z7e3t6Gfd9LEKn7TwrzpxhA diXKh2oAymiFn774DI8vV3h58zrcHMa7OQ/gUzELdxXpc+ccVqtVJGa5/ua6OqSAD5b04XbTdyId DnC7LTJrUfuxT8AMYOUXlxGQWV6gOTTJGACBz6/noNfbDbSxqLebADYA7G5uRgDZSCQeEXSfvZjY EHVdB2NPqo5XQ51S/ckJp8iW8G2HyiiLtAGYEv2RRJqTAKn+5OiBvu3w8c0WTduFpWE40Yxhuc3w crMbjMChO5fNESjDnvb2FtbaaPo2HjKWjJEXZR8cGmIDmbVwjKFaxghcEjTDM7hXwVUAdQxJ0KkF +8Mh6gOoB6Yhi57Sz7XW4Vuo1dLkGAfnoiVtyDjk+f+UbpdaEPuTzQ6VUT2fXDxaue3LDY5b/yer gLlM4PCCT7Y1PrzZY51n+PntAZQcQobhOjeomxbrwkZLofDlXrf7epwdKzF9zCRHjtkQxAzU2vKi jCSELQp4YADyNXhskDMDB56HkEm/c9CB0ZCs6wOyzAQ1d7vZRO4bucbUqWONwcG5EM2jbyfDmID9 6WeHyfqBddPitu6f69sORit8tg/qIs+r62u3ffmzBGaLdNeUsMAYBPY6H/L1tILNNFbD2re0etg6 sfhz03bJhRRSYwpo+FgqlEziNYCfoNY7JsJHVUVifs6nb70Lej3MASCGi/HMHzeIcyIK78p5h4Gp B9TXz7hGAC0rK8lmGrZfPi6qewCZzmyJ2ADk2D0IA3BGUIPhATdwIxCWOUfdtMFVoQ/h6wQCvTu4 dy5UALmBk+nVEqOHU/F/2SULIO65GwBvfR1+TX0IjND6OvQCAnHsn4I0JAlIBVF84LDfhwgeZT1R 2Ul389G/qRlAaFJImnBbrhsoyQvXsRul+pwbeBYDzNoAQdxrFQpj2TKn0ZLovsFqUAPx4spTS5zP mhEPLR/CsCLgwqWApLZtQ8yeWrMXBl69fT3JGSDrnp4B9OKfZySRzqdED57lM1mASuRH8okhSQKO y+T64POnpAA1MiODRt15I4TPSQsHANz6aSt0TRsWPebBikercrJuoASfDy7lldbvx7OGpEYP8dxB 3j2rtQ5ghnfVh0kMIWaM3pWTHT5AnPUDjEYfJ5o5jAxcme7Nxb+c/UMuqDlHvu3gpgGkB0sIIUol FSoAWBmNQ4IJbmuPemAEope3+8mKmHz6U1kJIXw6VJ6cMKJm+YNEMtJHTMCTOd1uGzGDrw+ot5ug 71vvIg+C0+F2E57dLEziZIexh/3+2KN3mMmF4FY+X2ORt/5NnRghFEsABT1ZQELS2UmhR4kXhiaN 3AyMAPQridzsDkECyNCn7CNIzct/FaYiiMnV9ZA/6CfA8Ogj6XIAEdg6kWjK8ww8GxqWGYu6PkyC NVwiPXr8pH+GSOwshMRLrUZOjYQaSph7MTEJp2872LHebzYff//HM5g9qBGY/C8NkpqpAkn0cQ0b UkaikERjNFJmYJqv/JVfC0xgjFkcbhXctN0ukgRADy4X7WTY0XEOPCc5FB0YxT9JpDzP8f7XvwGg b/2RDcM6giSRAQjE3hJ1/FCdLlBuq6sLpG22RTxPzQiapU3df1DwCoT4pw/hK4iPHztOLU9rBZIr SIkRm21vUdtHz3Hz6jM454LBRWDxOYC5KpDqgIO6u7mJmEJrHV1HI4/oOfVhvyj6gWHg56Pnfb1s d1FGD0+WiWb6EJLhlNYv6x6Ayau3qCPkTiOF7rpiCACogol85ovGlZHwBviKov3HTu0AYgKt1ESM fvLiJcuY7TOMyT447PfRPMEyt5BCtIfbDarLq5BlJFs6TQZxuN1MAG8aj9vNJrwz2CLDd7x6vQnX +qZJrmTGiQJAfV2M9SIDQERyOr7CaFRGY+dbo5ezXmcZ4hwGwIGJ/E3dTJjgtvYhIBR98BAy5h+b 8gbmllv7+l/rxasRqVuSeNInBXpkIsk1+k6hlsYUsH1O/P5UbyHPHZTehpwEk3+LXCGMN46U+wf0 9pVrWux8G/T/bjDEO7TSDeSgz/Y3n7NmUH8ji0ZJJqBQ8Kb2ISJIaoA+lpNcWwiY5hc229d4+o2/ BazY+EClga7ttz1a8fEUuUPIAArX8WNHa4C9k28B4PYVmk9/2tfPIMnI+k/pfi4B+YLbRBRQywfg gYnxN9J8SsGiOjhLAgBjHICD71lU8Lb2k2QR+aGlNVFWDHWE8JiAyTJ89uoV6hc/g7IFsv0WMAbI TJ/WRRWbZeP+idQ1Hiq7YxXI9xQl0HjAezS3r3D4+Ceo63oiyYh46Jeypfr/MfhEMqZC5NKMcOeR wmczALcDKCBRDRNYOqb/uRQAxqigXGOYVxB3C4kZXn34I1wDMKvPoIsKyhbo3Ki/uyatZ5eo8w7K WHTeQRfV5Bl0PkXEOJSH2Gw+g799jVcf/gjb3a7/jmFI17HWD/TqUXYAAVPr37DIKzMC+5zHM+hs BjBaYd+0KIdWbrXCzreBCSgsLEPCuclCVJCkQKZVtKYwUdt1yE3vCfzRt/8Qf/H1Da6ev4PWO6yf v4/Nz/43gDFu37J8gGNEAR8rUsfCu1myicjyic7lF5dDONnh1c9/hj/+/vdhsgzrqojAl8EuuSws 2UbEBJvaJ6OqIeyuFYj9K6PPniHgLAag1l8ycEkkkRpwTZu0BYgRat/g0aqMFke82e4jW8A3Dd66 XMM5j5+/2uA73/3vyO0f9xXPplWV4jY1Vc10jqJ+tFI/XH06IoevZ5iapoVPicuBfrnZ4e23LnFR ldhsdxOJlloAqrQGN7vYG1nnJkQAXdNGsZZECPjsGSLu5QWQBDj4Fus8g2u7IAGo4K5psRLgA8BV VUxWxk4tOUfA8QgZv4fbFLTatoynU1ZyvCavxd59knyvTGylZ5C64hKMyrN3HrVvcFUVoRs7Jfrl u7jfT3XDXWjKASDRT+BTGH5wAzkLnLRm8L0YgAq0820kBXjPIA8PkzVLUiAVFOKRQU790KneX94c 3FA5Y2vJM43N0Hsmt3QeQGhhY0XzFKv95BxXX1wEk0gey4JQnvWwfG4/rGuYo5C1fm7wcvCBdM9f PUhRLgGsVpHu34X+mDvhPuJ41l0D8dZOhZIxgdSCUoHTB5uA9xFkWuH2UIeUaTekh3P/mDNTDByi OENqS9ePwSgf7dP9tKXrednpe9aFjcK1wNTFpbQuWlOZS5KU5c9dP2Aa/OG0b0Yp0I38/Pl4AUBs AwB9ZIrcQm4L8JZE+zwmIKUBGYV75/De834mrXERRR+1Fg6mfFZKVdDzRzE/rng+dz0/JpkBGKXM VVVgVeRDL6ALNo10+ai/n5ianslFfz2oTyDua+Gtn+p/51t0XXeWCLgrA3TAaAS+PHhURoeCkC0g ScYE8kzH4U7fTCqbKo2ya9Ys6VQCnWkV9P6T9cVEn6fW4AX69Xek4Uk5euSRcFvgyfpiYASXLMeq yLGuimC3jGlesWrjvX6nuH7ArN8fbnH7169xBp1tBBqtIhVABqFjuooHhoCRs6VKoIxi6RYCfafK 8yePxzzBMsd2X4ehZnIV8rbrggu2tBwbPS830yp4etUPdlmV44JW9EwqA4CQxQsM2T3G4PpyDWst PnnxMlpJnXr8eLhXGn5SAgBYtP5JBbgWTeOCG/HGjcDwAu73cylQGD3h2FS2EEmClP4G+pbtmwY/ +/QFCmtDR9D6opp0svC1h/iCjnPLwc+do/OAmN6dLS8vz3F69XoDawxq7wPwxAj0bXNBH6obnv3L gecJOPuhT2BEpeMjfx6EATrxmzABlwBEhTjGvQLJ4dweoMqQngH1mD2+XDGATbTwpJyOhgZlSkA5 0YxlbsbzkJnIfDo3YMzt5xNiA31M4OXr20jsU7bP3NJ6ss+f1KVfGIVMDe6mbgGg67p2DqtFOiYB OrHfAeheHLr/BrR/+cXe0wrWeFyaXiI0o2HyzioPUqBnhFi38Q/PM41PNruIKXiFUQ4972ABxunp uMjnmcU06VI0cfWQqvXKvY7StsI+z+Vjs52l1Aovi/T7JfA3u0P41s3BRdKQG31Uf0SvDrGnsPNR 69/7tvuToXIJr07sz1Iq4ZMGgGQDg+QAquG3Rj8nzVV+9d4v/vbq439ktOp7VnU8aKQyuquMXgMo qdBcYhz7T8d+9dkatDTtNJ/AD/0KNvjYMtAiw8tzlNssuo6Hpqddt3GAaLynB4r0++bg8MOX2+j7 5PZYXex82+58+wLjiJ4OQOdaNADcT26b3/+v7Tt/4G4//V9dU78EsAFwiz64cQDg0K8q0SLBGKcy QMkYYA2oK6C7HP+jGq7J0Y+6zADobzxWv/L+KvslAJkbGbqz/bd1biHLyWoo18Jf5fqrldFmxyJf skJTx5cYTV4/99zUc3jLPPb+nW+bm7r9E6uh5bdaDbh2HNg5GMsT/e3b7uXv/rT5dwOAHkA9ALsb gN4AeM1+GwBbwQCNYICTRwcTp7Rs2wCdHwrjhxeYAXTiUgNAf+tF9z288N9jjHXMQJmc/8Zj9bW1 VdeFViEEzfdFOU+lbuM6rK1Sw7ZbGa0+3jVY25NsqKMXFVrh00N7860X3Xdm6vRYndM17VjvUZ3T fsN+SZCX3nsXI5AKIQtSY5ycgF/HpyxZmr0iZb0GafStF90fAd1SUuq5/SCIpeHZIdVuZl++YOn8 qXXvWJ3XbP8URki+yywUgBdEciG9mFo+gU/nM8QzVsxNXDQ3Cpnvq5lr7wH8G6HujttT9glI3vAc etFOIp4zAzFCi6lRmKRTJQDpHw7+ASPAHHxiClIJp0xjvgTysalOvmhGSLVq2YBOYYZUvS81PskE nAGkFJglM1MAXhBeANL3JPap8olBDOYZICUF1JFjqR8/d3RRpM+BqAxzwC+J4tS+bP0pG4Ba/R5T JuAS4CgTGFGA1GwSUvfXGMGklu/QW//EAORFSDuA+3lLUuDYL3X/F03HwD+mk/l/DhxnAKprjxF0 zgAkIZpT33uKCqACeAEAVw01RgYg4OdUwNLolWOTUnxZ7YCUaOf1d0wKLOn/lB3ApYD8cRWwvFoV pgzAxRkvXIMpCFLvp0S/XOP+FF3OVcXc/p2zXz8HkiC3C/vAvARItVwOKOl5au38R8wxJ/5PcgO5 KqDCquGl/BoukpZaPgF3bI1bqR5SUoCfSz3ji6K5EKxs/VLMH3tOIgYT2QNcIsi4QJso04SOqQCS Bq043qIHukHs8qV8/6VpzFNS4BRbYO7+L4qSfSZIg3/MBlhiIm7ccWaQP6k+Uu8DsBwH4Kogxcky 4LPU4pfE9il2ALDc8r8oRjgVxGP6XyEtquckgWQGwkKeP0p3WTo25R4eW7j4lBa75BbOSYQvM6UA PzUYhJnzqZ9kCLk/976I7hKbXxLNdFwvXH/snXeJBt7lG940LQGY0r/HgkAKx5lHGpt0/JiBeVbl HfPXgTRAx+L3slAUTj5235clACQpFRAC0mAoTEV0Sg1IZgDmpQNmzi/SXSvxmO5d0vN3ff6XsbWf SqeI9fs851gLP/X5Z1foKWL83PctPfvL2PIlpYw6ef7U59zl3Mmgc3qoynxIUL7sAN+XzgLqTT3r TVf2/+tgfl70kEwT0f8BtRVGXdLZEkEAAAAldEVYdGRhdGU6Y3JlYXRlADIwMTctMDYtMDFUMjI6 Mzk6MTUtMDQ6MDAPeJxTAAAAJXRFWHRkYXRlOm1vZGlmeQAyMDE3LTA2LTAxVDIyOjM5OjE1LTA0 OjAwfiUk7wAAAABJRU5ErkJggg== "
     preserveAspectRatio="none"
     height="64"
     width="64" />
</svg>
