/* XPM */
static char * bottom_left_active_xpm[] = {
"29 6 3 1",
" 	c None",
".	c #000000",
"+	c #4C7BA6 s inactive_color_1",
".++++++++++++++++++++++++++++",
".++++++++++++++++++++++++++++",
".............................",
"                             ",
"                             ",
"                             "};
