<?xml version="1.0" encoding="UTF-8" standalone="no"?>
<svg
   xmlns:dc="http://purl.org/dc/elements/1.1/"
   xmlns:cc="http://creativecommons.org/ns#"
   xmlns:rdf="http://www.w3.org/1999/02/22-rdf-syntax-ns#"
   xmlns:svg="http://www.w3.org/2000/svg"
   xmlns="http://www.w3.org/2000/svg"
   xmlns:xlink="http://www.w3.org/1999/xlink"
   xmlns:sodipodi="http://sodipodi.sourceforge.net/DTD/sodipodi-0.dtd"
   xmlns:inkscape="http://www.inkscape.org/namespaces/inkscape"
   viewBox="0 0 64 64"
   height="64"
   width="64"
   id="svg2"
   version="1.1"
   sodipodi:docname="dialog-question.svg"
   inkscape:version="0.92.1 r15371">
  <sodipodi:namedview
     pagecolor="#ffffff"
     bordercolor="#666666"
     borderopacity="1"
     objecttolerance="10"
     gridtolerance="10"
     guidetolerance="10"
     inkscape:pageopacity="0"
     inkscape:pageshadow="2"
     inkscape:window-width="640"
     inkscape:window-height="480"
     id="namedview6"
     showgrid="false"
     inkscape:current-layer="svg2" />
  <metadata
     id="metadata8">
    <rdf:RDF>
      <cc:Work
         rdf:about="">
        <dc:format>image/svg+xml</dc:format>
        <dc:type
           rdf:resource="http://purl.org/dc/dcmitype/StillImage" />
        <dc:title></dc:title>
      </cc:Work>
    </rdf:RDF>
  </metadata>
  <defs
     id="defs6" />
  <image
     y="0"
     x="0"
     id="image10"
     xlink:href="data:image/png;base64,iVBORw0KGgoAAAANSUhEUgAAADAAAAAwCAYAAABXAvmHAAAAAXNSR0IArs4c6QAAAAZiS0dEAP8A /wD/oL2nkwAAAAlwSFlzAAALEwAACxMBAJqcGAAAAAd0SU1FB9oFCw4dOyRpNaoAAAhqSURBVGje 7VlbTFT5Gf+dcwbkOizIcN/qsgQ0iihqMExDRNMVG2hTiWkwpvGlqS+NT0183vapL82mTfpgEx5q NjVRE8UaL1FXrDSVAjLKLJcyyHWuZ2bOmXOdOZe+/M/k7DgINFy2if/ky5mcwMzv992/7w98PB/P x/N/fagt+i56le83ydPI8m7bCVC2J0VA0+Qzk0EEGcB1AtwgYtqImFtNgLKBowEwbrf7RG1tbTfD MD8UBOGzWCxWwrJsjiiKNAAUFhYau3fvTpWVlfH5+flzuq7/c2Fh4e+vXr36FyFjiWEjaW42ATtw prW1tbmpqenXgiCcFQTB1dLSQu3btw/19fX49NNPUVFRgeLiYgBAIpFAKBTC4uIifD4fJicnMT4+ bhYXF0fy8/MfvX379s8TExNvAKQyyKxJhNoAeBoA3draeqixsfHLxcXF052dnbs6OjrgdrtRUFCw ITNKkoSXL19icHAQz549S9bV1X3z5s2b33m9Xg+AJAAtw8X+ZwKWTzPnz5//bTQavdzV1VXc09OD pqamTYn+qakpDAwM4OHDh4LT6ey/ffv2lwBUQkS3xcyGCVAAmMrKyspTp0791eVynbx48SJ1/Pjx LUmJw8PDuH79uhkMBl8+ePDgVxzHLRMi2mokmLXANzc31x87duxue3t729WrV6k9e/ZsWU6vra1F Z2cnFQqFfuBwODoFQfgHx3G8LUutm4DlNs7Ozs47Z86cOXz58mU4HI4tL0wOhwNtbW0QBMGlKMoJ r9d7jwS3kY0E84GAzblw4UL/gQMHTl+5cmXbK2xLSwsmJiYqXS7X516v9+FqAU2vpv2zZ8/2KYry k0uXLu1Ii6BpGvr6+qAoyo/cbvfPARQAyCFKp1YjkNZ+YWHhb3p7e3Pq6up2hIBhGKisrERXV1dO aWnpZQCFAPIJCaviZ7UAc/r06R/LstzU3d29I+BN04RhGNB1HSdPnoQoivWtra1fAMizWeE9C1ja d7hcrgvt7e200+ncMQKmaULXdeTl5aG5uZmuqqr6GbFALgCHhT3TAjQAhyzLJ44cObLjrbJhGNA0 DQ0NDVBV9RAhsGstAkwwGNzd2Ni4o+AtC2iahqqqKoRCoVJbDDDZCKRdKBgMOmpqar4X2ldVFUVF RQiHwwzR/qouZBFgvi+uk0wmoSgKFEWBaZogwB2rWSA9nLhcrtTKysqOuk4qlYIsy5AkCcvLyygt LdVtwKkPpVGUl5eHp6endyx92sGLooi5uTmUlZVx2f6HzjKzmjRND4+Nje0IAU3ToCgKBEEAz/NI JBKYn59HTk7OlG3QSfdEjgzwBgB9YWFhwDCMHp7nme2qBZbrKIoCnucRi8XAcRwEQYDP5zN4nn9O 2mrNPrHRWQhoHo/nGwDf3rt3b9s1z/M8WJZFJBKBLMsYHx9HcXHx8uzs7LBtyNGyEbC2BjqAlN/v 779x44aytLS0bT7PcRzC4TACgQB4nkc0GsXr16+1YDB4B4BMJGW3ALPatiEQCCzu3bu3PhqNNnV0 dGxJq2AYBpLJJCRJQjweRzAYxMrKCmKxGADg8ePHUFX11ejo6NcA4gA4AAKxRAqA+aF5gJmdnR3P y8s7pqpq1Wa0FvYex9K65TJ+vx9+vx88zwMAXrx4geXl5bnBwcE/AIgQAjwAyeZG7xUtKoOEEYlE 3iYSiUMsy1a0tLS8N5WRAgOKorK+twO2CpMoiuA4DizLIhQKIRAIwO/3Q1VVpFIpPH36FO/evVsY GRn5KplMLgOIEe2LABRL+2vNxCYASlEUcX5+/t+apn02OjpaU15eTtfW1r5vNopKu4W9ikqSBEEQ kEgkEI/HEYvFwLIswuEwgsEggsEgEokETNPE3NwcHj16ZEaj0W+Hhoa+UhRlHkCUEEgQAkn7gE99 aKQk/XcRgE8AlLrd7l86HI6fdnd3O7u7u2E1fDRNp4PRKv2yLKc/q6qKZDKJZDIJVVUhyzJEUUxb KRAIYGxsDDMzMzLDMM+Gh4f/RjQeIxInvq9kzMerrlWsoT6HdICFAJwAPikrKzt49OjRizzPH+vv 78/bv38/TNNMp0BLRFGEJEnfAa9pWvoHkskkZmZmMDU1hZmZmZTL5ZrweDy34/H4DPF1zub3YkYG MtezF7KTyCMzqdNG5EBjY+PvBwYGmKKiIkQiEYRCIbAsmyZguZQVrNFoFKFQCH6/H0tLS2ZJSQlP UZTH6/U+jsfjPgI0QUAniEg2zb+3G3KsEQN6RpFLbwYOHjz4eUNDA1NaWgq/34+FhQWsrKxAFEUA gMfjwa1bt5BIJFBQUGA6nU6tpKREys3NDcmy/B+WZce8Xu80SYkKAS8SVxEIcHmtxdZGVosO0o8X 19XVNVdUVNx78uQJLUkSfD4f5ufnoWkaOI7DzZs3oet6bHx8/I+iKIaI9rQMSRKRCQHJBlpZ72px vZsqq3ky2tra2lOp1Nd3796lNU2Dz+fD3NwcwuEwhoaGMDIyYjidztsej+dxBpBUhiRtYv2danu3 ruWuYx3at567+vr6/hSPxy9eu3aNys3NxdTUFO7cuYPnz58jFovp1dXVY0tLS9c1TWNtgSfbKmfK 5g6pVWRT1+sUAPrcuXO/mJyc/Etvby/d09ODFy9ewOfz4f79+6iurmYjkciN6enpVwScRMBLtsKj 2lzHyHhu6QUHBYCpqakpP3z48BuO4wo1TUNJScmiruvx0dHRa7FYjLWWaQSsTIIwU/t2X962KyYr gHNtRa3ItiVz2MCrNgKyzadTWbS7aZd8Gw1iK3tQBBhFwFiBlxmIesYUtfnb7HWCN2zgQZ60Tfua LbNoGw3E7SKQsgG2D0J6FtBbDnyjhYzGd++CkaVCr3qL8vF84PwX4wcgiaGE5QcAAAAASUVORK5C YII= "
     preserveAspectRatio="none"
     height="64"
     width="64" />
</svg>
