<?xml version="1.0" encoding="UTF-8" standalone="no"?>
<!-- Created with Inkscape (http://www.inkscape.org/) -->

<svg
   xmlns:dc="http://purl.org/dc/elements/1.1/"
   xmlns:cc="http://creativecommons.org/ns#"
   xmlns:rdf="http://www.w3.org/1999/02/22-rdf-syntax-ns#"
   xmlns:svg="http://www.w3.org/2000/svg"
   xmlns="http://www.w3.org/2000/svg"
   xmlns:xlink="http://www.w3.org/1999/xlink"
   xmlns:sodipodi="http://sodipodi.sourceforge.net/DTD/sodipodi-0.dtd"
   xmlns:inkscape="http://www.inkscape.org/namespaces/inkscape"
   version="1.1"
   id="svg2"
   width="64"
   height="64"
   viewBox="0 0 64 64"
   sodipodi:docname="dialog-password.svg"
   inkscape:version="0.92.1 r15371">
  <metadata
     id="metadata8">
    <rdf:RDF>
      <cc:Work
         rdf:about="">
        <dc:format>image/svg+xml</dc:format>
        <dc:type
           rdf:resource="http://purl.org/dc/dcmitype/StillImage" />
        <dc:title></dc:title>
      </cc:Work>
    </rdf:RDF>
  </metadata>
  <defs
     id="defs6" />
  <sodipodi:namedview
     pagecolor="#ffffff"
     bordercolor="#666666"
     borderopacity="1"
     objecttolerance="10"
     gridtolerance="10"
     guidetolerance="10"
     inkscape:pageopacity="0"
     inkscape:pageshadow="2"
     inkscape:window-width="640"
     inkscape:window-height="480"
     id="namedview4"
     showgrid="false"
     inkscape:current-layer="svg2" />
  <image
     width="64"
     height="64"
     preserveAspectRatio="none"
     xlink:href="data:image/png;base64,iVBORw0KGgoAAAANSUhEUgAAAIAAAACACAYAAADDPmHLAAAgAElEQVR4nOy9ebxlx1Xf+62qvfcZ 79i351HdUrck27JlW0KOJYRtZDsYbGPHYAM2xuCQQJ7JI7yQOMHPDI8YQj4hYB4Ek5c4QOADz++F EGzLEwh5ENasbstSt3qebt++fed7hr131Xp/VNU+p9tSiI1u33bySp+jc/vcc8/Zu9Zav/VbQ1Up /gccIgJgAB1e0sO/LopCLS0tjSilFKBExCml8tHR0aU0Tf9bn6kBNfSyA1BKyfN8C1dtqL/+Ld9c Y0j4qixLNT09vfHs2bMvevLJJ+987LHHbkvTdJcxZtJa22i1WlpEKIpCFhcXyyzLOqdOnTq/uLh4 pNfr/WWWZV++++67D3/wgx/sMBB+fDggCt4BzuvTN9f45rviv2asrq6a+++/f/8DDzzwzlOnTr25 Xq9ff/PNN6cveMEL2LFjByMjI6RpiojgnKv+TimFiNDtdpmdneWZZ57h0KFDnDhxYklEHn7Tm970 0bvuuutTmzdvXmQwb0IQfnjYbzY0+B9GAd71rne1lpaW3qa1/kcjIyM333777frAgQPUajU6nQ5L S0t0Oh2KosBaWwn/yn9rrWk2m4yPjzMxMUGz2WR2dpbHH3+cw4cPdzdt2vSZ7/u+7/vlW2+99aAx JiqAACVg+SZTgmteAQKkVyNaaoTbnTt3NsfGxn5027Zt/2THjh2brr/+epRSXLp0iX6/T6PRYNOm TWzZsoWpqSna7TbGGEQEW5aU1lbf4Zyj3+8zNzfH7OwsFy9eZGVlhSRJmJqaYmJigvn5eU6cOCFZ lj36Az/wA++/7bbbvqy1dgwUoATKbxZ3cM1epYgoBuRt+DoFYGFhQe68887v3rlz57/ZunXr9kaj wfT0NLOzs2zcuJEbb7yRffv2MTU1RVEUdDodsixjfHycRqNOvV73n6QUZVHQ6/VYXFxiYXGBbrdL mqaMjY0hIszOznLy5EnOnTuHMYadO3fSbDY5d+6ctNvtP3/Pe97zD2+44YaTeAUo8Chgr+qEfYPj mlOAYRIXXoqkq4KCr371qxv/1b/6V/9eRO6p1WrqyJEjzMzMcN111/HCF76QXbt2Ua/XqdVqbNu2 jcmJCVrtNqOjozQaDZRWIFQoohSIE1zgBREJFhcXOXv2LDMzMyRJQqfT4eLFixw5coSVlRV27txJ o9HgzJkzvf379//Cj/3Yj/16lmUFAyW45l3BNaUAQ1Y/bPnxgYjI7/3e793z5S9/+aNTU1OTR48e 5Stf+QpTU1Ps3r2bAwcOsGfPHjZv3oxzjiRJ2LZtKxMTk9RrNZI0RWuNcw5rS+/3h0WkFCo8wveR 5zn9fp9+v8/8/DwLCwsVIhw7doxer8fevXtxzjE/P/+FH//xH3/H7t27p/EK4LjGxzWjAEH40fLj IyqDstbyK7/yKz81Ojr6z0dGRszHP/5xVldX2blzJ/v27eOWW26h1Wpx/Phxtm3bxo033shIu+19 vfNonCQpaZLgxFGWJeIcgiACIg4RQZx4z4DCJAlJkqC1pixL+v0+SZIAcOHCBR5//HGOHTvG008/ zf79+9m/fz8PPvjghbvvvvuNr3/96x/6/xXg6xgiEhM3w4I3gMnz3PzGb/zGr770pS/9gdXVVT7x iU8wNTXFxo0bueOOO0iShC984Qtcd911vPzlL6dWq9Hv9yiKHHGCVgpjDNpotNaIsxXUIx76/TWE a6muSaG1Js0yarUatVoNYwxKKTqdDqurq5w+fZqDBw9y9OhR2u023/7t385f/dVfdefm5t72gQ98 4M+u9jx+veOaUIArrL8SPJAWRZF95CMf+cg999zznadPn+ahhx5iy5Yt7Nu3j927d/MXf/EX9Pt9 vuM7voNms8nq6iqdziq2LDzM2xJnC/q9Lv1eh36vS7ezSr/fI+/1ycsCsQ6dGNK0Rqs9QrM9SrM1 QrM1Qr3RJM1qZFmNdrtNu90mSRJWV1d54IEH2LRpE5OTkzz22GOcOHGCoih4wxvewMMPP5z/zu/8 zvd97nOf+9h6zu1fN64VBYgWH4WfAKlzrvYHf/AHv37XXXe99fjx4xw7doydO3eyf/9+8jznj/7o j3jta1/L/v37WVlZYWFhgW6nQ6ezyuLCLBcvTHP+/DkuXpxlaWmZTrdHnhfkeU5RFORFQVEWuNIi gNaKNMtoNZtMjI2zbcc2du3aw3V797Fp0xYmJicZHR2lXq9XXOLTn/40c3NzvPGNb+TMmTM8+eST XLhwgTe/+c089thj+Uc+8pE33XvvvZ9cz/n9b411V4DA+hMG1p8AiYjU/vRP//T9N998809cvHiR 2dlZ9uzZw/bt2zl8+DAPPvggb3vb20jTlNnZWRYWFpifn+fC9DkOP/VVnjl2lJkLF1ntdHHOolAk iSZJEhKjUAoP/85RWktZOgprcdZRWodWhlq9xsjoKNu3beXAgZs4cOONbNu2jfHxcWq1Gq1Wi3a7 zVNPPcWf/Mmf8CM/8iM453jkkUc4efIk3/Vd38X999/f+U//6T+98rOf/exj6zjNzzmuBQUYhv9o /dmXv/zlNxVF8Tsiop1zHDhwgNHRUR555BHOnj3L61//elZWVpiZmWF2dpazZ89y6OBBnnjiCS5e vEi328UkmlajzthIi5FmjWajRr2WYBRoHb/fUVrBOoe10M9L8tJRWEenm9PPPTqMtEfYMDXFnuuu 4wUveAHbtm1jdHSU0dFRNmzYwNLSEr/1W7/FO9/5TtrtNl/84hc5duwYb3zjG/nYxz529t57733x l770pUvrNc/PNa4lBYguID1+/Pjuz3/+8w9MTU21FhcXufPOO9m2bRvT09PMzMxw/fXXMz8/z/nz 5zl//jxPP/00X/7ylzl27BjLy8tkacLkxBibNkwwOd6ilmqMEhCH0QIIqVbV3VsnFNbhLJTOgTIk aQ2lDb3csrjSY2FplX6/IElTpjZs4Ib9+7nxxhurDOOWLVsA+M3f/E3e/OY30263+fSnP82pU6e4 5557+OhHP3rvY4899oYnnnjimkoQmfW+gA9+8IMR+hWgiqIwv/3bv/3/tNvtPQ888ADXXXcdN910 EwsLC1hr2b59O7Ozs5w5c4ZTp07x4IMP8pd/+ZecPHmSoiiY2jDB3t272L1jC2MjDZwrKYscY6Dd SJgYqTHZzhhvp4y1EsZaNdoN/9ysJ6SJwTlHUZaUpaVer7FhYpQNkxOYQP4uzMxw+vQZZmZmqryB tZZ2u80dd9zBH/7hH3L99dczOTnJ448/zhNPPMGLXvSifefOnTt77NixR9Z5yi8b644AACJScYCP fOQjP3zmzJnfePLJJ9m+fTs/+qM/SrfbBeDAgQPMzMxw+vRpTpw4wUMPPcRDDz3EwsICzWaTHdu3 MrVhAqOEzuoySiztRsZYO0OLpdvvFWlaP1dvtJ7evnPX0wuXLixpk3SttS2d1HecO3vqBrHl9Vq5 Dc1mQxUlLHdLSgf1epNGs8VqL+f02RnOnpumtJYtW7Zw2223ceONN7Jr1y6uu+46kiThP/7H/8h3 f/d385nPfIY//uM/ZteuXbRaraUvfelLBx599NHpdZ3woZGs9wWEIQDT09NjJ0+e/D+efvppLly4 wGtf+1oAzpw5w6tf/eoqA3f06FEeeughHn30UVZWVti4cSM7d+5kbLTF8tICvc4KjXrCaKNOZ3Wl zJutB/fuu/HDt77s9s/dcddrZ7Sv4smzFWyeePjztccefnDfzPTZdzxz5Ol311K9o1FLWeqssNLp MDY2xv69O2jUM46dOMOpUydZXl5mdXWVfr+PiLB//36+53u+h49//OPcc889fOpTn+LRRx/l9ttv H73xxhv/9e///u+/4+abb76qE/xc41pBAA3oD33oQ79y7Nixn3jsscfYuXMnP/MzP8ORI0d4zWte Q7fb5ejRoxw5coQHH3yQhx9+mDzP2bJlC7t378Zoxdyli7gyZ2ykRrezardt2/knf+d7v+/9e/bs Pbxlx56vOy//wP2fyr54/33fceiJR3+lnpl9ThmWVwsazRajo6NcnFvi6SPHmJtfYGJigjvuuIOX vvSlHDhwgAMHDnDq1CkOHz6MtZZf/uVfZmxsjJe97GXlyMjISz74wQ9+5VqoGK47AsRS7JkzZ6a0 1j9y7tw5ms0mb3rTmzh+/Di33347IlJZ/iOPPMIjjzxCWZbs2LGDXbt2UZYlMxcvkiqhWU9YXe09 c9vLb/+ht37v939hz74bv+GCzB13vTYH/vPhJx/7xO999CM/efTppz7QGmnXl1aW6Bc542OT3Hjg ep4+fIxLc3M89NBDpGlKkiQ0m0327dvH4uIiS0tL3HHHHTz88MMsLy8n4+PjHwLeHO7drqci6L/+ LWs3QgSQAPq+++77saIoWvV6nde85jUcOHCAvXv3smHDBs6ePcvx48c5dOgQjz/+OP1+n23btrF7 926stVyavYhRgrW5TE5t+v1v+7a7XvyP3v/zn/+bCH947L/5Jf2f+6Xf+Bff9da33za/uHKyWUvp dbtcunSJ0ZE2Bw5cz4YNk8zOznLw4EGeeeYZTp06xdzcHC9+8YtpNpu8613vYu/evfR6PbZu3fq6 Q4cO7SHkPcI8rMtYNwUYDv96vV5j48aNf7fb7fLiF7+Yt7/97YyMjLB3717m5+c5ffo0x44d46mn nmJlZaWCfV+rv4jW0O91ZcPGTT/3/T/w7nf9vff9085aXPPb3/neQ3/37/34ywrRjzVrKf28z6VL lxgfHeX6669ndHSUs2fP8swzz3Dy5EnOnDmDiFTh4vd///ezadMmms1m+pWvfOUnGBS9zHopwboo wJWx/5EjR+5qt9ubm80md999NxMTE0xNTSEinDt3jrNnz3LixAkuXLjA+Pg4e/bswRjDzMwMZVHQ 7XQky2o//8Y3fffP3nbHK9e0AnfPd7zl0gd//pe+banT/0otS+isrjK/MM+GiQn27dsX+wM4c+YM 586d49KlS0xMTJCmKS9/+cu59dZbWVxcZN++fW/P87zJIAQ2V3Y/XY2xXggwXPUz/X7/Ry9cuMC+ ffu4/vrrMcYwMjLiU7sXLnDu3Dmmp6fJsow9e/bQbDarbJ9zjtHRsT/83/7xP/nZN3znm6/KDO67 4cbFfddd97rZSwsXs1rG/MIiq50OW7duZfv27fR6Pc6fP8/s7CwzMzP0+33Gx8dpNpvccsstaK0Z GRnZeObMmZcD6RXzcVXHVf/CK5o+dFEU9cnJyTvn5ubYu3cvIyMj1Go1yrLk4sWLzMzMcOHChQr6 JyYmKmIFsLKycvR1r3vde7/lFWtr+VeOX/m13z67deu2d8zPL1qtNXNzczjn2LVrF2NjYywvLzM3 N8fCwgLLy8ukaUqapmzevJktW7YwMzPD0tLSO/AcqKqEXm0UWE8SqACztLR0oNPpTLZaLbZv306W ZSRJUlX3orAbjQY7duxARFhYWEBEWF5etrfe+tJ3/dAPv3d1PW7gVd925+cmJqd+tyws/X7O0tIS IyMj1XV2Oh263S4rKyuUZUmapsT7nJ6ept1uvzokwWJGtup+ulpjPRTgshucn5//1lOnTjE+Ps7k 5CRpmuKcY2lpqXrkec7GjRsZGxtjcXGRbrdLWZZMTU391zd853d+aR3uAYB3v/d9ctfdd//00vLy ilKK5eVl+v0+W7Zsod1uV+1keZ5XLWq1Wo2pqSk6nQ7OuR29Xm+Sy1cc/Q+vAMNDVlZWvvXIkSPE JVkiQr/fZ3l5mZWVFXq9HlmWsWnTJsqyZGlpCRFhZWXF3nTTTe+/55571rXx8n3v+4czW7du+3f9 oqDf77O0tESr1apIbK/Xo9fr4ZxDKVWtOxARpqenk4WFhevDR/1PEwXI0MMtLi4eOHfuHNbaylpW VlZYXFxkZWUF5xxjY2OMjY1VCmGtpV6vP3z48OGvrsP1f83Yu2/fr3Y7nRJgeXkZay0TExMkSUKv 16Pb7bK8vEye51hrqwLS0aNHmZ+ff1H4mDgnV3WslwIASJ7n6fnz5yfn5+fpdDr0ej36/T4rKytV bl0pxdjYGFmWsbS0RBF6+G+55Zbf/NjHPnZNtF2/+tWvPlmr1Q5aa+n1eiwvL9Nut2k0GpRlyeLi InNzcywvL1eIMDc3x9GjR1lYWHgRfj1BNS9X89qvugKEtKcDpN/vN44dO9aam5vj0qVL1eT4vr4O ZVlSq9UYGxurGjGdc4hImWXZp6/2tT/XeN3rXifbt2//v4uioCxLVldXqdV8D6Fzjk6nUyFav99n dXWVS5cucfr0aWZnZ7fiVxMBV3+l8XpxAAe4TqfTOnPmTNrpdL5GAfr9fuUv2+02q6urw/A//cIX vvD8Ol37s44tW7Z8pt/v45xjdXUVEaHVaqG1ptvtsri4SKfTod/vVwtMFhcXOX/+/EY8AsQFpld1 rIsCBBSwS0tLenFxkbIsWVhYqBRgmDm3222azSZ5nlOWfjHH1NTUkXe/+93XVM99v98/bowpyrKs FLXZbGKMqdxWdHPLy8uVO1haWsq4fJn5VR3rFgUopZifn6fb7WKtrcK9GDqJCFmW0Wq1qNfrWGux YSHn6Ojo8fW67ucak5OTy41GY6UsS/I8B6DRaFCr1QDI87xS7ij8cL9x2du6LChd1zDw4MGDlWCL orjsEePmVqtFs9msrF9E2Lt378n1vO5nG41Go99sNjsiQlmWaK1pNBrU63XCJhQVinW7XYqi8KuW rIV1LAmvdzm46gcoy7J6xFApTdPLVuQ459C+nbe3ntf9bOOnf/qnpVar2bjXQJqmZFlGmqZVz+Dw PQ4vQv2fth9geCEmUG3UEBVDa13l0JMkwTmHMYYsy9bxqp97tFqt6n6SJCHLMozxWV6/INWjXZ7n 1T0O71KyHmPdEQAGy7SjVcRJMcaQJEn1HIfW653AfPaRJEl1T/G641rCKOyIbvEe17stbF1nMu7U ESct/jxcEVNhYWecKK31NasAWuvqOuM1Dy81j0KPShBfX89xTbiAK13BX/f79YbN5xpXXtdz3dew oqy3Ml8TphQhctgarnQPw6+v96Q914iCjUWf4XuIXGAY7Yaf12usOweI0PhsExIV49lev1bHsCJH RY3h3pX3ci3cx7oqQCyRApf5xOHHs03SteoC4vU+m6CHX4+/uxL11mOsO5Y+Fwo82/Zwz/W7a2UM s/th5Y73dqWrey4Fv5pjXRVg2Jc/m3VE2IwKMhweXssjXuewlV/pAq4VN7CuK4OezfdfOXnDcD+c NbwWRxTysKU/W5gbkeJaSARdEwoQrXt4cp5rYq4F2HyucWVCCwYEMI7472eLfNZjrKsLGO4DjM9x 8mJNYDg7eK0Qp+cacd+g4escvvZhRRh2Ces5rgkEiD8PI0Ksqj2b0LXW1yQERAFHAnil4l6pHNcC mq2rAgxXxb7GVzq/CXf8fSykhATL+pvOs4wrLd9fZrD8KwQ/HC2s51hXBYi7cPrhUDjE5mBzlJRo KVFi0QiI+FUT16j/j0PEX6u4ElwJtkC5HKU0ypUgFnGDHtD11uX1dQEiKASjBYNFS4F2oF2OoUCL nzxcSqItSvnJRaz+yu+9O21sHKkrYxRFYQStxFnEinIObG5xZYGUBSPbtyYiNkEUOKuU1oiA7c4l Km1aZWoirkQpjYhFwJ3/wuf6SilQimy0QVLLSEdHRZmUbGRCFKBqIyVO3Oq5C/207vjV+yHRkGjx 9xKu30jhFUByrwyuwPjdj//nU4BHP3xHknftK6Wfv35+7pM7jIJUCTUDyvZRiUNLD+P6JKQo20O5 BIMl1YLWjr210/9MHD/ZXyjrOjFaJ02tVKL8ni8WpESp3CuMK1g6dtyU/a5xRR9X9L1i2BKxpRLn BASchKUZCpQWbbJCaY3SCVIYrBicLdCpxnaWRSU1MdmqxWQuHdnSN2nKaH1lMlFClgiGAmX7aNcn VQWIQrs+lD1S7e8lUUIjyTc98ZE3/LotylOk9t7M6IMveM+nrppWXFUFeOzDd6Td+c695Ur5Kikd teQkWTJFLYVUWyi7iC5IVUlNF2jbRUsf5VJSVZIaMEZhFG2tTFuJQqNQTnlh4zz02j4Ufci7SNHD 5V3Ie1D0UWWOKkvElihxKHEKB+L3jwcUSotSmJpv0Ba0gBLQAtp5ZdGCf9agtEGrlARHlkCmhUQK sF0S+iT4HkHteijXR0tOZoTcCHUt43ZV/oEtBcF9yKXFvwD++dWSyVUNA/v94rul516lrUMjaITU eOuvaYt2PbTtkrgeicrJdIGRPsb1qWlHPfHwaowmSTNMmmGSFG0MSnslUMqBWJRYKjSQEqWcf2hB G8EkCm2U30A61Zg0waSaJDPhZ4PODCZLMGlCkqaYNMVkKSbL0Eni/11dQ0JqFPUUaolgyP21S05G TkqOtj2U7WFcTi2BWqIwWJQ4tLOootBSqp985P989farJZOrhgBf/JevzFTR/ZAGSDUIWKOoGbCJ UDOCdj2MGIzr+EkTjXE9tEtJVEktETCKxBhMrY4yGcokwXIdqgSHQ2ERShQlCotWAsqCETzr0KAE uaysLCg0ojUKjTIGZRL/SFJ0kqGSFJVk6CTFZDX//UmKTlLQCakRMgONBFJylO2SSI+UHJQipY+y XQx9aokjN94AlAZtCIvlbEPDzwB/72rI5aohQFYrvs+Ius5oMKnBpIZLKwXNTJPgSFVJoksSyclM SU2XZKYkVTna9UkoPFdIFLMLq5ishkkTdGJCHV5AObSyaOVQynokGLJ8YxQmUZhUoVONzgw60ejU W7quJSRZgqklmCwhqSUkNW/1OvWWn6QpSeat3gQU0mlGXgrYklQ5MuMw5CTSJ1V96omlZkoSlfv7 oCTTQqqFMu/jRNDBvWlxaOFdD//bu7deDblcFQV4/CN3NmqJ+QWjJEyqIa1pfvPPp2nUEoqiR97v 0l2ao99bwubd6pH3Vun3lsm7qxR5jyzV/O7HH8GqxFui1mgNWjEQNt4FGO1Q2qGMoBOF1t5nm0Rh MkMSID+tGZLMkGQpSRaUIEvQQfBJlpLUM5KsRlKreReQ1dBp5t2ASfjsl55icWUVZwuKfo/eyiK9 ziJlv4Ptr2LzLmW/Q7+7THd1kX6vi8Zx9tIKh86uYFLtrysBbV2jlpj//WrI5qq4gMKWP9yQZDtG gwnn9QBbxhQPHXwGl6/Q6fRIsxojzRqd1VXyvE+W1RgZm8MpwxNPHuXcxQUmXMp8V9McncTlHRAH nsyBdjjrrd4YT+xxglOA8dAv/qxPn4WD4D4gsDmU1ihlUDrAv0lRxsN8dAEqqaFNGlxADaVT9u7Z yof/+D+zdaLGzGyfxpcPsW3zeYq8x+rKKsZoRkbnSbLTHD89zanzl6g12jz+5w/w/T/3PejlxxFR iNOAw2j9g4f+w6t+4YXv/vMzaymbNc+qPP4fvrXdrGVH7XxnEzFJIoAIPdr84n+e5i8ePUk9VWwY G6FeS8J7XNUWbp0wc2mRxU7Bt/ytu/ilf/x2JjkNSiHiwOY420dsHyl7SJnjyl74d+4jgzLH2RLF IAvnSX88QEqDMf5ZGy9slYBO0WkGOkMnNZSpoZI62mQoUwOToXSCE83HPnuYf/mbf0yR99gw1mKk 1UArvxO5UpAYvyPupcUVZhdW2Lh1F7/w0+/lhep+KLu4ovCJInHoLIWR7N/f8LZPvGct5bPmCnDi T1//T6WrflE6naFv8z90bJ2HT9Q4N7vKqh7nqVMLnDl3kdm5BYrc78w9MTnJDTfs52W33szuqQaJ XeDAnjE2jnnWJK5AXAE2R2wPqZTBZxTFFbgiBymryZXS+nA/JHqUj/2DHzEobUCnwfoz/9AZOqn7 15O6VwSTAv591sKJ6YInnzrKpRXH4ZMXOXriDOenZ+j1eiilaLfbXLd3Hzfs280t129Br5xmxwZh Z3sWjc9NDDKFYMbH8nNnFm96xd//7LG1ks+aKsAj/+5Vk5t3bzzmVlbHsOXQyne/HG61qHPobJMj R07Rbre48YU30RoZp59bCuuot0YZm9xOY3Qjh5+4j+mz59i2Yxf7do4xNZECDlyJuBxcgTgveC/8 wmf1bO5/LyFH4LwSICG4R6G09oJXfu8qZVIvaG2CoD0CKOPhXukamJp3EzoDpbHOcPpCj6eeeoaV lSV27NjJhg0bsa6kyPuYJGF0fIqRyW0cPfhZDh98nEa9zoF9m9kxeikogEWkDNlOh6rVsWnt/12Y WXjri9/5yTVJDq0pB9i4d+M/S3RjTOoFEBfBhn2QlCLtGSYnR5icaKGMIu+vgCrp93Ksg7JYQVyf 5YWzIAVTGyfYsGECnYDJMhALorxfF404hTgDLvWogPPPYsEVXgls6Z+l9NejfNgHeOg3KSgDKgk8 oO6FrLOvET6kKJ36GM4KWVayZesmLs2C1kKvt0xRdCnyHkoJZb7A8vwJ8t4iIyN1JibHSFLB1DOM Tj1KOeuTUuIARW1s4rtWe/0XAIfWQkZrhgBHP/nW7RNb9xx2yxebhIwa4g9jEBxKJXS6wsxSm4X5 JXr9Hu2RUUxawzlAGbJ6k1pjlDRrBD/qz/QZaSjGRmvef7s8WHUJUoTvGZpEKYOb6KPEIq5EokLE A+KUDkLXXvBKg8lABYtXaRB6DXTiha4CR1AGpQzWOc5PL1I6zerKIllaQ2so8i5l3kOkwGhBiaXo d+j3Vmm1WiSywo7NCqVjAsvzH3x6EpXWsbXxz85Pn77nwN/+g+cdBdYEAe7/8LfT3rTzQ0Y3mrre ql6P5/GhvMXVE2iVjvbIBrRJaLTGfGKHBFSKSWokWROT1CjLAlsWCI56LcVkJvh1hXN9NAZUw0On rnkhAyIFYvsgOdief73iA6VP/iBesGj/rFJQGUqZyvJRafU8eE9QGH9XtEctVhRjYy2yegNjEh/O lh3E5j48paTMV+iuzOFciaFG0khD3sIrLyUpHqoAACAASURBVEr7SmKIUNLG5KtKZu8E7n++ZbUm CHDscz9y3ebrX3nYrTyT+AmHCv7VYCs8EUOvL6AMJqmTZG3vb1WKUpF8hYmW8Lfi0EpQesjCcShR oP2mm0pn1XeJ6wXf3wPb8bzAhcXFUg5NgRooQbBsjwaJ/7dOvEIoE64vIkbc8RaKosRaX1Mw2mDS Js52ccUK4roegewqtuhii1WcyzFaqKUAXpmF0qNAuCQlQDqKSzc+NLb3vbc937JaEwRYOjO3cWx7 ljQnXoGvtORVaIcUCMZrOkKKn0gfewdfG6xL6RpVripU6gb+MaChuMgpvdXq1PvtdMx/p11BimXE dT1RlDwoThGgVsKnhkKQMuG7TECrKwStwuEmKmzuGSuIaDLjKp6rTQudjiEux+WzSLkUyGoNqeWI jHsFVAkKW80B4O9fh4conGRceOrgmtQHnncFEBEe+rffyaE//b9Ynp0nSVJaI23qI2NkrVFq7XHS ZpPayBRJo03ansRkLZKsiU5bKJ35ZIvOfA1dJ/iJH4CVqv6vKmFVLF7pAVyDh3zbB0ofXkkZ+IIN 7sB6t+EPkX2WO4rr+3TIOwxcmEIjSg0UsPp7hdJ1dDaGOIvoFNev48o+znWwxRI272F7OXlnhrK7 TL66QNHpki8v0llapLuyQreXY5UhqddpNNaGrq0JAmQjW+iunMDZnLLs05M+rrdEsVSjX6v5PHu9 jqnXMLUMU2uS1hvorIHJmphaC500SGqjaFNHp82QfaujdVrF5cp4tPDhmaqstOoaUsq7juAaUA6c BjGA9QQS7XMDgXiJK/3vxCEu90pRkUyLq7p6yiseFrFF1c5malNk7euwRYfOhYfIl05QdpcoeyvY Xgeb97H9Mjzn2NLiCkvRK+j3S3q9gtwqJKtjshR/su7zP553BVBK8cCvvwZnC2y/wIn1Jc8wcT5e z1CqBMrAxku0KhApwPVB+pA2KG0HndTRRQOdZLiQnNFVPB4fnjRGzqBMA520QWnEdhHXB9cPxDAI F/FRQxS8uOr3PkUgoTvIJ2a8X3ZeyDhwzhNM59u/xIZoQzTiSlzZoez6I2zK/myIPoabQkNIWrmy 8DpDbWLD3UJr1Aq3NnkAY3z5NfhrsQ6nCqwStMQafRESNDXEdRHbIym7UKt74mbrmKyJ2AyxNaSs oUyC1hmSpB4BgvArwZcRDeq4YgFQgWvYAPlFIH7lUKgVGklCA6cMvTbo7S9D+trhYj4hvOaFHxJS 4nC2DD2BDrELvqm1v+Thv+x7obuYiFI4G/lMTJMPL4wZmtM1ah1bEwVQMlgVC4QbjgVvGUCuc777 V5yH2csgtcCVXa8sSnBYNClOLFpyMAWYBKh7oeoEVObjfZMHMqfC95WVIngBu6AIceLt0DadURDi 3x+QABcIXgzVRML1B0SRohK+swWuLH1mzzkv+LLv3UT1EMSGz7XOfyzhcmSgILC27eNrgwBD11qF NBrE+UKMxhd8nBN00HjU0I1L6TN64i9PxKLE+OdKiSyIQbkS0V4YHnUywCKBpSulgtADEvhPxFv9 0CGelRLI4DpixOFsuIFyANWu8Mo7nFqWIHSbeyGXeVCGLs7m3n1EvhAe/r4ZKFT13XEi/UPWqH18 7VLBTryWB4vCOtA6pEziwsghawuwKNG6BA+jodwrCP7tZfDRCqTEOYtWjUp4fqtFHfL6Kn6TD6il xIeVgmD970PHroRowF+eCijhM4qilE/MBB9eQfxQgSmmcZ3t41wZKpIFzoYKXxR+BfGDtQKecA4J XaILcKGmTTVnz/dYGwUQQaLyhoZLickfJEBeUBDnqhumqhVAVRAhvOx8rCxOvHW70v9OeyErU0Mk MH1RiEpCo2gIIQV/MWFbXpEyKImH8UpRUQxy8hBz8gNBCy729QshsRQFXISwMygGNhDCoiKAVT3C hr8LUC/DygVB8JrKTa1R1n7NXUBI/gaBeqH7+XSDVuzKKpQXsAzgTsT5TF+AZu8+rG/uiK4h5Pe1 qYHocDS4C/JU4MKK3ehHJSpBQIIoZIVHrgp14rW5YPFSKaZn8CrwgwF3wQXC6SzYYsBtgmJIEVrS o6Bt4EGxtyHOk/IIWM3dGo01UQCpmG2EMn1ZeBPhLhqlOOddBIF4WYeYwl9eNenREhyg/SoiwQs3 VNIkVPeENERNMR8Q9+uJxCpqaLR4/92D8MsNEDfyhKE6vffHQwTwa3IDdvAsNkQEAQmcC0rOYH6C EiiiAYi/r+GT5NZIB9YmCtAq7H0dlSDAcvTrarA9nPfhftEOLvpCLxg/cQViUj/ZWofJL0Nyx/pJ G/LjCsD1kJhaFUFUZNE+ny9IeH8khxqRYihCuDwsk6gQgn+/EOB+sIbRf05k7RHe3ZAyDKWvGdxr /I/L1kj6twwD/1phwNogQLhZT9yCMAPTFYW39rjLhxPESmUZEBUmuAHBEzCTBAE4EI1gQx3fhQgg 8casJHQIKyQsFkEUmHow9jIgQhRIoOGiqbbtD2v7YhYQZUIGcIjAwSC5EwXnbIgMpPLvlcVX/x74 /mGS55yPiiqecJkSxol4/seadAUrPXwI1gD6PcJLFfNG31fdKIKz0cKin/WfExs54jwoEd/yFS0y FJdwJYIKE12ETCP+2TlQsZbvS75VVBAt3/ZDgqoMnwVie+HfsZDkSV/kA54gxtDSeeYP3v/bmDOQ Ku9RxfyVwg+7uYCUMRIarlauwVg7BBAGyYsoUB1LupH9e1ZfZcac9YKJEUKEUHGoSP5Eh1DPF2UU frKUEuLpq8qV8Uu9KwgTqWIRR9d99VEpxPZwtociZvaChfob8ZcfiVkIQ6swLYSpUZhSJbYIRC9e hg0ciIA+RUX+nHMeAS/7zJgWjggqA0R8nsfa5QHUkGYPAU3FfsMNegEnYeKi4GN0QKUEGIdPDMUJ 8bF95S7EoGKcr/WgQhc2bPRuIQEyen3F0qpw+uwMX/3qk8xfukiiS3ZubXDT/s1s2zKKMcEVVXF5 /Nld7vfFhoyf9e6iihaC0oc0s5TxfYOwV0KuJGpKnK9QmK7ex5DyPt9jjcJANZBTJURd3azPscfG fTWAxQr6YxMJVG7EORwlWvleApXUK1+tYkyOoFQa3IEGcSiXVNczM7PI5754gvrobl7z+rdw4ybN juu/lbzImbkwzSMPPcAf/ZvPUqzO8ANvfQl3/60bSNNkkMOIcXvkCM5W3CYqRlz772wZLHxQ/EF8 +tfZy8NKwfv/CPnR+lFShYHfVJlAH4ENaazgW67xZMfg9wYwgg8Zw8RU4aNSnv1rXbkGCYs2EB1I WYHWIVUcyJrSCTGHoGP3DoqyLPnk5x7lz/9qmh/84fdx68teQavdRinFhqnNdDodGs0xGq0JXvyy u/jMpz/Bb/zevXzszw7xM//wVWzZOlEp6wABoiuziChcJHYQyGyI6531fytDu4aEBBlcDvsRaVzM l1QcqvrxeR9rgiuxwDPgrSokfUJzRbhZ56IFxD8cyg7GPHh0AVERYkOni80ckRX6kE+pBEW0WkO/ 3+e3/sNfcOi44R/85M/RGp1iYXGx2rPff61UG1OdOnWKw0eOs/26F1KkO/n77/8vHH767BAfGbgl CUcgS2wwjUQvWH8V6g1bu3VV3O9KO4h+RCol8O5DovepePJajLVxLOE+qhg2qrDEkI/BxABYGQjy sonyewj51u8wic4FmBz4XRXZeIB98N061il+94/+ijLdzUtufxVPHDxUnUfc6XQuU4AinPx5+PBh v3eRtUxs2Mr1N7+S9//yn3P+/DzgCWUUlhe0L+9KGRDADpQy+v0Bt+FyhWBo+1g3eE+U+gAVWLN+ gDVEgKEXhvfEq+4jTFKMgyvfGv1jLAoN/Kp/fyBbVZgUEST26iUh1Mt4/NA5js8k7Nl/K48//kR1 Gvnc3ByLi4uXHd6Q5zkLCwscPXqUJEloNpu0Wi02b93J/he9kl/88Ocpwzk/fquZoHQVZxmksJ2z OBsjCbk8YojK4G/GpzFsTHYzpBxQpacZMpDneaxNHsAYlNZXsFxVWQCE58qt+oSIKwerh6qkSVSc ONHRtwre+oJAxBWB5WuUyugXmo//5Une8r3v4amnnqqOppuenubixYtcunSJlZUVjh49yqFDh1hc XOSZZ56hKAoajQbNZpPR0VFGR0e55SW3I9kWvvjQGWJTqAzH6/HnIZZPJH+VWxhA//BrVfLHhnT4 8BxFKF3DsWZ5AJ/koWLgzjmMHtozXwIqWIcYGcTIsTgSy7oCPs8emjIVvlVbHOgMDyqhGVTwHcFJ nacPT/PyV3w7E5MbueWWWzhy5AhLS0tMT08j4s8c+Nmf/Vk+97nPkec527Zt49Zbb6VWqzEyMsLE xARjY2NMTk7SaDS452+/hT/55O9y1x03IdU5jyFUC30BDFv4cKNHrH5W5M4/u6hAsWI6JO/KIwJV JnUNxhouDQtQGaxcDWe0huL86t9hwny+x+G0RdsSSRIUoV1afPjoCyeCaFfVArTyC5CUqSOqxkJv lNe/4S1ktQZbt25l586dPPzwwzzzzDMcO3aMhx9+mE996lMV+Tt58iRZlvGqV72KqakpJicnmZiY YGRkhHa7zU033cTF80eZW8yZGM1CZlKq6uEAlVwF94Nun0AQy0Hs76qSeOxPjD0LA8kLYS+iNRxr VAzSAxYYqnKR23iITEI3UCBF+FJt1Sw5nCyxJaI1ogwOi5EEcAgJypaQJMEFWLTJEGexZOzc+xLG xicARb1eZ3x8nF27dnHw4EHuu+8+Hnjgga/ZrjVJEvbu3cv4+DhjY2NMTU2xc+dONm/ezMjICK1G wunH/4CJET24PmcrocfY379G5ecHeY4YFTDUoxDj/uhSIr2Rat7WcqyNC4gdLhEODQzwLS7uGHp/ LAeby7QmaEz8t6AwngdoDRS+w0hSqoxcqOatLM9z4YLQ7/tQryxLlFJs3ryZrVu3ctttt1XKMLzz +A/+4A9y4MAB9u3bx65du2i325dtaT8yMsbx05e4ee/WSvCuKv4E4dpB8Ychn++VQFVW7wpbGUXl RqopCu3skfiKrFUQsEYuwIWSMFQkT2I3jx6EOhVLHmqDq5pEKzQI/QFKkCiLmPpF+aXgkvi6QGgk XV7s8vgjz7Blxw2XndsLfkPnJEl4xStewa/+6q/yUz/1U/T7fT7wgQ/wvve9rxJ4jAyGR7/f58jR U3DXlE9UVSFeqOqFEBFxYCVEAmpA9mKiS/Dl6LIMSiMD8hc/Y2j4npm1wYK1cQFmqAFkyKgH2h2C tyB8pYcihKgcMdyCEC5Zv26SBJK4OUTYdt1ZKPuIKL8Dme1x7txZjh8/QZ73KcuSfr9fIUFUgqmp KbZu3cqZM2d44QtfyAMPPMD4+DjNZpM0TS87t1ApxdzcPM5K6PcLynGFG/CP6B4CAWSICFaETyrr 92sYXVU/kfCLaCBhVtdCVGvlAgZFzEGoJ4NnEzpdo9VbgXQonLoiIyjOISYWSAKhwnreoEIA4ARH H4VQTwouXZyujnCNHMAYQ61WQ0S4ePEiDzzwAAsLC6Rpyr59+zh8+DAnTpxgZGSE0dFR2u02WZaR ZRlJknDk8JNs2jCGLXpQodOgvSsSvIEbCMS2yhwHS4+5oqgolwk5zoEKRjNwgWsx1igKcJW1V0gQ fT/eoImZsSrOZwCfEur9gLPWh4+VS5C4JRhaJwEaLSFeBIRWXbG6fIk00YyMjlUnepZlyfLyMqdP n+bJJ59kaWmJdrtNnuds3rwZ5xwnTpxgfn6++l2tVqPRaJBlGZ+/77O88dv2I+V0Rexc8PHVOoCK 7IUOoYh8gc9IfK1qCwtdRM4bQkSHykdWbuWbKBNYrc+TIJfhvoBo9VXmL1p+TBHjlSNa+3BTVCyQ hGyglH2/FYwr/ALQ0ItvyLlhe51zZ46htSbPc5aXl5menubJJ5/k4MGDzMzMsG/fvup491qtxsaN G9m+fTubNm0iyzKWlpa4dOkSs7OznDt/joOPPcgNe8a9b7cOVwQeEBpcqxaxirzG1PcQKS5DNRAu V4TKLRJC2ziXroqm12KsUVv45d2tMOTKQsgD0TIG+YFqAkMV0MNksAQH6Oj3TYUmaIMKfyNlF0Gh dMIbX72XX/roH7J91w10u13m5uaYnp7m/PnzzM3NMT4+zu7du6sziY0xtNttNmzYUB340Ol06HQ6 rK6u8tVDj3HzTTeQdE9SVCd/yBBfGTwGEdAQD6rCu1jhU4NMqcO7s/h5cb7iJlayZsXAteoHCA0Z sTlUCGRNQgeWANpbjQmW7WTwPusQ5cBcXjP35+/pIUzFRwFKEbd7V0qg7LFvV5vJxjKfufdP2b33 RmZmZrh06RILCwtordm+fTsTExNkWYbWuiJ8rVaLPM+JR9V7RVjlgb+8l9/5tZ+mWLoPXwEcNHAO iB+XCzv+7AYPr9iKQROpX7lUFYuILjMqUpzUbyIOUGk9DEigiLdS/4YA/X71jhO/E7eIz5BpEar2 7TDByhmEEhEDJvQJGB1ap8MsK/F8K/QT/OMfupX3/uzHWV7poZOMhYUFRKTKB7TbbT784Q/T7/dp NpsURUGtVqPdbldJImst933mv/D27/07tHsPY4MyDgo6QzxGVOhvCPdb5QCGiR4Vf4gRgB9qgHoV Nxj61VoIirUqBjF0wYEI+opgIPFD2u6chL4+/0dKm4HlhBkWCGGguzxEDopSsfDQI0go0U6MJvz8 j7+cxx/4NKdOHsc6R7vdZuPGjYyOjtJoNNi5cyd33HEHsT6QZVlF/BqNBp/5s48xNTHKW++sY/sr 3nrdQEFjgSqGclUEE1GgEr7ynb9RYZyExg8XWiKlKjB6zyeV5xMZTqU/v2NtSGCA6SEqMCB7wfJF QEofH7mhTJqzMqicSegXtb4HgCorp/ylhxgcEZ9+xq8zGCzrhpuuG+Vf/q/fwsLZQyxcPEer1WJs bIxms0mtVrss0xdzBFmWUeR9/s0vf4A0gX/6Qy8hn3s6fFdg+aHyN9z6HUlrJcjY7GmD0tsY3qrq 9y685qrIKORGgtnHavBajbXpB4h97bGcPQgAIR6vGv1dFHwFpSH2r6TviyWD5db28hU2NnTWhEMg cK5q2gBAaQ5cN8rvfuj1XDexyCNf+CTnTh/D2rJK8gyPudkZ/v1v/Wv+/nu+h7e86W/zE2/ZSH7p 4CAxFXy4hP0J/SXGKiaX5wGiWxD8tSsY9AiGe1ZqcO/ETrFoKJE4yprpwNpkAgN7JcC9TwtLJROU wokL6/oiE46s38fWygnaOpwWVOmQ1PcCioTQMmYCh9d+Vq7DbyCpNH7NPpp2DX7hf7mDcws1fv+/ Psav/eJ/pdEeZ9v2nbTbbZaXlzh39gyNRovv/Z4387v/+ocpLn6BfLH032sFwfmfh4Q4gCmGkCD8 jN8AwucK1IDxu0gEg7IMrzyy4bPVQIfXcjzvCnD6j17N/LywujRk905wutqRL7B6367tnMQIL1iU Q1Upc+9vJfFW5MoCnSR+Vw1n0dpHBU5cWN7hF1PGQ6HEDi0HD9W6LSN9/tE7dqHrL6XjJlm1LZyq 06xrmmoF1TlJsfpXFBfAlW7AYZyE8DT4/KH+fX+PcWnXIDkkpSUuQHISjsAb8vVebzyauCHUrEim ijOoMBpO/uGrVaOeyqY33/u8yet5YxYv3jPKrXtHdath9K5N7dtevm/iixdPnkOKAq18EcZo72O1 1pjEYBIdDo8Ix7Ikxh/QUKuF1+PRLAadJGgTDofQvn6gdKRGQSGMF7xOtF+5Q1wDiJ/x8H4XOohd UQytN4zJJ0IyR1VEFSGqlhfYcH+fBN8eTjm1RYErSr+pZen/bcsSW5TYIpyEWlpcGRtRQzeUczjr sE4orH9dTELSbtMcHydNOf/px87vzlLlLi0W7r6vzMnxC52/sdyeFwTYvampxtuZPnahm4iQiZjs 9hsmiRggMcTzMggtdX7Vix76vUdBFazVoIxDhb9TccIVFQsX6zeNhGD1+M+xeR9tEkR8b54yxgu2 DEfDoZAyLO6MS9GwHn6JEUlM24ZuI+t8siZAO5HYXsFlYngoVqr1fl7YeEsvxdcCnGBjx1AM/+KW c0N2GSsBhRP90DNL7cSoXEGxc6pp51YKt7ha/I0cxd9YAXZsqKtvuWFMlw7jnKSFk1puXeIiKfLE eKAEOsA9ceJk4ArERwTKeeUY7il0ETfxFo61vorobRpE4YoiJIt8DUFc4bOGpa8VxHo8ikqgVS7e iu9ODs0sUZmkLMOBPoPwbZDnUIGUukFCKDJ7glsQcEMhsODDP1spWCR/cR5cZQzVd/owULUbpl5P NMYoMRp5zYs2yP1PzsnFpcvL1l/P+BsrwN0vmFRGKy1grCPpFTZDpBGMiNjtAoJTyhd5nKug2TlP 8pQxOPEwqLSgTFAEJ2iH97nhcGYl/m9V4AEo7++rBUkSK3BB4Nb5ErUtvDBjOBc3YbIOb9eqqkNU SBDz9VFRZOjfVVYv+HQ7HOeDDSggZYwKXEAFfHTjBBs0YxAyD7WKx/vB73PSzEwjS5SrJdoqpZzW yMuvH+MTj1x036j8/kZh4Btv36xadaPSVJs00YlWZJnRjcSoeswGDTQ5PAdfG/MpLkZXV6RCRSJB 8tk4Z2MfHdi88KEfUNoyrMoJnxfKr5W1ln5xqQuVOlcUnogRLDTE6io0rDgnWFsOwssqNg8NHjJQ Ahdes87hyrLKZ7jSf65zg/dZJ9gyoBBD9x1/5nJUdCG4qFJASlRqVDPRqp4YlWWpMlmi9O6NdfWO b932DcvwG0aAd37bdlo1vz2nIMYJKVBD0VDQjJDvCVRcGRZiZy1oJ1V3kASWrMKN+wPAHMq6sF2s 4EoLaQJO0CqESVbQSuFKF1aiRZ/sQqbO7yEgIuH33qf7ON0Ghq+qlC1WfOeShH2AlMLZcEFDkF25 t/iVUWDWu7HhvgAXLTtGAOE5ciKJ6DH8WUOp1CrK8MF1S2tVOCFPoVRglVIu0WGzo29gfMMIUDpR RocjNgRjnaRAXYSmE5qRy0j0bQw0fThbNqgDqcolVFbgfNnUT6xU2TdnBVf4rVVtUQRL9BZry9KT K2ux1hMtZyX8zp9A7iooFlzhGzoifLvYvhUbOZ2EkM0L1RY2oIb/zsjsq/eWtlJo77lcZc0So4h4 zxKRMfCcMA9R8Jehp4hyQss5aQA1gRRvwHq8majX37rxG4roviEEeN2tGxlvJso6tPOb2KZOqDmh 7kSaTqRZvVl5q8eB6FDSd95C44ZtzvkjWWMq2Fl/jp5YweYlZCm6+lsJaBIsQylUKM8qLcGHiy82 Whu4RtC20KeoYgtWrLtbELFIKYR14cRePaVMcCEQw8BB106M+YOgA9RXShS+tooMRAavV+zfXQb/ rnJ/1S3GyEA7kbYT1RWRXmnJU6MKEX844qbx7BtqG/qGEGCsmWil0IJoEZLCSeqc1KyTpnXSdo5W RWjCzfvsn1SkUBxhsvxr1g22SHHRyoOAIzl01oYY2w7gNDRYuMATbIUEg6SM5wv+yDhX2IAKLmzQ XOKKApuHPQGt878PiRprA8t37vLriMpacZT4dx7ibUQNkXCt4f5QIRk0FPZGhJCBcgxzhKALqnQy Yp20Sit1J2TiDc+UpZjReqK+986tXzcKfN0I8LZXbmFqJFXWiXaCcZA6R+aEhnXSslZGrEg7qrCT 0BbgXJWhc078Yl4GGTLP7P3EaMQ3lTnnmz2sQimHswoSgxJBlRISQYILO4gqFxm0C3kD57erEQVF EQpGIHk4jSN8nxriIP6EeedDTDdI/hAEF21GxFZuwUkkqMPkzw2IqYvwPrBwXwTziR+G3EFEgvAl VbiJOGWdjFonq1qpjnbSK0vyNFGF9T3xulUzl/35f8/4uhGgnmgNIYcjJNZK6pzUS2/9rVJkxFra PkpSQxo82PjAe4FBE0ScIBthtIiWNnjYYG3R4r0PttiiRNBhouMGzwpb+JZsF9BCUNjSUpYWKx4p ytJbdwzXbLgWax02t565Bz9vrQR2byuUkZC9i7G/i8rgIsdwFcJFnjEcFURkrCINgpsQd7lC+HhU l1ZGbUAB66RhRWrWk2/jnOh6qtVb79jydaHA14UAN+8coVkzqrCiBYxzpKWVrLTSsNa1rJOR0jJa OmlVTixUwHzIHTZr9G39l4d9zhF3EXEqWIb2VolyYZtf7bf/D9U4FRfOF4Un+GESXUj8kBeA8p/D oA6BDAo5cZWOSIgcHIjSXsBDWbnY3qW0Idbw48c55/MIVeFHBkoeCacMQXq8bxeJ49DPLlp8vN4w nIgqLaOFlmWt3Yp2uqOgBy5XiS6UwooTXc/014UCX5cC7Jyq6cKKcn5VV1KULrVCrXTSKKy0Cisj pXUjpXX+pKjhcAaq/n/wPk/rwLA9oQgw7HxO31qcVijCsSraV9aiIvlIL1YaCSljG4QYFlvH74+v ByHH7VaqVvUyzFloL4+hl7O2WubmF7cMEkWxZBv5QLTcAR8ZoMDX8oAhBfQzM8j5qgEJ1LEQ5cMA VVg3YrQeVYplhayI0CEogdGqBFyaaLdvS1Mdne78dynBf7cCZKlmrJnSzZ0WMAQFcEKtdK5elDRy 65p54VrL3SJFrBitlNPKV/eUT2go5dFAa6q0bdzTSanBtrIC3iyMt05x4YDHuNOYCpNoB4K7zJlG 4SsQ65s8hWj1cvl3xD7DEN+72JMQBe4k9DGEa1MqlIcHvt5vcSNUm13F6l4cMpCx75r2SulLGa6q kVT1AAWI85tkFH06PZvnpWsqRRN0E1wjNaruRGW5JcmMTsTjpNoyXlsDBTCaPZsblKVgnUhhxeWF s4VzNi91WZSS56Xq97TqrfbtpV/7s+P37dmQ7k7FjrZSXa8nkjQyY2oGXVNKZVqRKqVSozBGkWUa YyDJDNpof9p3otFGoYwODbIS6v+CowefkAAAA9BJREFUMsqfSxD2U1YGT9pEAtK4SgG8vg4Ytk6G 9i6Im4pUqRRBm9CwCiF35PmLHtqrRUw47CF8lxMViKgPdzUaUYJT2oe/RhCrsMHnF05j8YhRosgL kcIp6RVOugWuV4hdLYq+M9JdLTtzxy72Dzdr/19tV5PdNg6DPwCkZHuamZd2M8vpVXKK9oS5RXdz h+46F5jkTRPH+iGALiQ5rEorspPBe3gAaZEW9H0CJZqWpNlEburIbRW4r4T6GEgjk1WRLQZyYcKf 1xX+/nq/CtezLhj+ub2hpMZd56xmISWrzFClZDs1vOuT/aHq132y933yD12y67az901n102nvx8a vXrqbLdvdHNorX7qLHa9xba3kJJJMkgyZwYERCxEHIJQCMwhMGIUjlFQCVFdCdVCqCumKgqCAHUd KDAQawHUEIQRwnDAmYAqME1Dxna6CzHg0KTjUL9vhj+LEjEOnY5jlaDvFMkcKbkndfTJ0HbqnTra 3rztDW2XvFdzVfOUzFKy5yV+gDHBgpAGIY2BtY6sVeS0q7nf1tLtam52lTSbWh63NT9sKv5eR76r At+HSHdR+N8gdB+E/hPhhyB4ZKEDM3XC1MfAGiMbC/lfn768bQYAhkhE2LdbOCAKYHwk5jHhJgAt gEcAdwCuRv1t1O2gXmG4jw3uiHAXHx4axm4u7s46/LrIZs5qzmZgNWdV52TOmpyTOak6J3VWdUpm pOqslkjZyRTU904+zKJhP96WTIs0n6OicSU7OdGw6JhA/m5DzgQXNucr9iDkwmQi5GGwFgQuTBaE XYRMmIwZJkLGRKOFMpMRkRHBQMMULg1z1YmABKIeQDcevwbAE4D9eCwfATxk/n7cphkxmJ5Ycbym Xovp2RMH325vphGKMeRWwTAtGTG8rmMz6gj20a9HrfA8jRnG9uO74Y59ckGpYF9SFPwl8ZnvC75l /rzOCn6umtlJEwYwcyK0AA4YgJ5sDnw/tpv6cAD+8fO6sx+4bCp46nwe4BRAi4GhE9C55qBPWgKd Cv5rCJDbtfHlfg7yVF4iwBz4EjmWCDEB2xd0fN3aT+Q57sM54AMXZAAA+HZ7k7fNM8Jc5wBLYds1 wK4BfL5PJftSzKfAz+tKpFjSElFOkWVOEJ3Zuf7U58fPXxZCK8tFBJhkJELez5qzspSeT6XrU+Be CvSaeEtn0BIxTg0TpbpTn59Dql/6ugT4SV5FgFwKZCiVlwBaA+JaUN8srkxOpdZ5/VL5lL9ULta/ BvRc/o8DdZSMFK/93pe2n3/uhbq3lpfG2rPG4qU2bwV2SX4AftaOZElCzr4AAAAASUVORK5CYII= "
     id="image10"
     x="0"
     y="0" />
</svg>
