/* XPM */
static char * bottom_left_inactive_xpm[] = {
"32 13 8 1",
" 	c None",
".	c #000000 s inactive_border_color",
"+	c #5D3E30 s inactive_shadow_1",
"@	c #BA7C5F s inactive_color_1",
"#	c #DCBDAF s inactive_hilight_1",
"$	c #BA7C5F s inactive_hilight_2",
"%	c #B4A6A1 s inactive_color_2",
"&	c #DCBDAF s inactive_shadow_2",
".$%%&.                          ",
".$%%&.                          ",
".$&&&.                          ",
"................................",
".#############################.$",
".############################+.$",
".##@@@@@@@@@@@@@@@@@@@@@@@@@++.$",
".##@@@@@@@@@@@@@@@@@@@@@@@@@++.$",
".##@@@@@@@@@@@@@@@@@@@@@@@@@++.$",
".##@@@@@@@@@@@@@@@@@@@@@@@@@++.$",
".##+++++++++++++++++++++++++++.$",
".#++++++++++++++++++++++++++++.$",
"................................"};
