/* XPM */
static char * menu_prelight_xpm[] = {
"18 18 5 1",
" 	c None",
".	c #000000 s active_border_color",
"+	c #5D3E30 s inactive_shadow_1",
"@	c #BA7C5F s inactive_color_1",
"#	c #DCBDAF s inactive_hilight_1",
"..................",
".################.",
".###############+.",
".##@@@@@@@@@@@@++.",
".##............++.",
".##............++.",
".##..@@@@@@@@..++.",
".##..@@@@@@@@..++.",
".##............++.",
".##............++.",
".##..@@@@@@@@..++.",
".##..@@@@@@@@..++.",
".##............++.",
".##............++.",
".##@@@@@@@@@@@@++.",
".##++++++++++++++.",
".#+++++++++++++++.",
".................."};
