/* XPM */
static char * title_5_active_xpm[] = {
"8 31 41 1",
" 	c None",
".	c #3B170A",
"+	c #E38664",
"@	c #E38766",
"#	c #D85627",
"$	c #D75526",
"%	c #C04C21",
"&	c #C14C22",
"*	c #C54E22",
"=	c #C64E23",
"-	c #CA5023",
";	c #C84F23",
">	c #CB5024",
",	c #CF5224",
"'	c #D15224",
")	c #D45425",
"!	c #D25325",
"~	c #D95728",
"{	c #D9592A",
"]	c #DA5B2D",
"^	c #DA5E31",
"/	c #DA5D2F",
"(	c #DB6338",
"_	c #DD693E",
":	c #DC673D",
"<	c #DE7049",
"[	c #E07751",
"}	c #E0764F",
"|	c #E17C58",
"1	c #E38360",
"2	c #E48A69",
"3	c #E69273",
"4	c #E7987C",
"5	c #E9A086",
"6	c #ECAB93",
"7	c #EDB29C",
"8	c #EDB39E",
"9	c #EFB8A4",
"0	c #F1C1B0",
"a	c #E7977A",
"b	c #B4471F",
"........",
"++++@@@@",
"######$$",
"%%%%%%%%",
"%&&&%%%%",
"*====***",
"------;;",
">>>>>>--",
",'''',,,",
"))))))!!",
"$$$$$$))",
"~{{{{{##",
"]]]]]]{{",
"^^^^^^//",
"((((((((",
"______::",
"<<<<<<<<",
"[}}}}}[[",
"||||||||",
"11111111",
"22222222",
"33333333",
"44444444",
"55555555",
"66666666",
"77878888",
"99999999",
"00000000",
"444444aa",
"bbbbbbbb",
"........"};
