/* XPM */
static char * maximize_active_35p_xpm[] = {
"35 35 7 1",
" 	c None",
".	c #040004",
"+	c #ffffff",
"@	c #acaaac",
"#	c #aeaaae",
"$	c #595559",
"%	c #000000",
"...................................",
".++++++++++++++++++++++++++++++++@.",
".+###############################$.",
".+###############################$.",
".+###############################$.",
".+###############################$.",
".+###############################$.",
".+###############################$.",
".+###############################$.",
".+###############################$.",
".+###############################$.",
".+###############%###############$.",
".+##############%%%##############$.",
".+#############%%%%%#############$.",
".+############%%%%%%%############$.",
".+###########%%%%%%%%%###########$.",
".+##########%%%%%#%%%%%##########$.",
".+#########%%%%%###%%%%%#########$.",
".+########%%%%%#####%%%%%########$.",
".+########%%%%#######%%%%########$.",
".+########%%%#########%%%########$.",
".+###############################$.",
".+###############################$.",
".+###############################$.",
".+###############################$.",
".+###############################$.",
".+###############################$.",
".+###############################$.",
".+###############################$.",
".+###############################$.",
".+###############################$.",
".+###############################$.",
".+###############################$.",
".@$$$$$$$$$$$$$$$$$$$$$$$$$$$$$$$$.",
"..................................."};
