/* XPM */
static char * stick_active_35p_xpm[] = {
"35 35 7 1",
" 	c None",
".	c #000000",
"+	c #8d979b",
"@	c #4d575b",
"#	c #434d51",
"$	c #0d171b",
"%	c #ffffff",
"...................................",
".++++++++++++++++++++++++++++++++@.",
".+###############################$.",
".+###############################$.",
".+###############################$.",
".+###############################$.",
".+###############################$.",
".+###############################$.",
".+###############################$.",
".+###############################$.",
".+###############################$.",
".+###############################$.",
".+###############################$.",
".+###############################$.",
".+###############################$.",
".+#############%%%%%#############$.",
".+#############%%%%%#############$.",
".+#############%%%%%#############$.",
".+#############%%%%%#############$.",
".+#############%%%%%#############$.",
".+###############################$.",
".+###############################$.",
".+###############################$.",
".+###############################$.",
".+###############################$.",
".+###############################$.",
".+###############################$.",
".+###############################$.",
".+###############################$.",
".+###############################$.",
".+###############################$.",
".+###############################$.",
".+###############################$.",
".@$$$$$$$$$$$$$$$$$$$$$$$$$$$$$$$$.",
"..................................."};
