/* XPM */
static char * stick_active_35p_xpm[] = {
"35 35 7 1",
" 	c None",
".	c #000000",
"+	c #ffffff",
"@	c #aaaaaa",
"#	c #aaaaaa",
"$	c #555555",
"%	c #000000",
"...................................",
".++++++++++++++++++++++++++++++++@.",
".+###############################$.",
".+###############################$.",
".+###############################$.",
".+###############################$.",
".+###############################$.",
".+###############################$.",
".+###############################$.",
".+###############################$.",
".+###############################$.",
".+###############################$.",
".+###############################$.",
".+###############################$.",
".+###############################$.",
".+#############%%%%%#############$.",
".+#############%%%%%#############$.",
".+#############%%%%%#############$.",
".+#############%%%%%#############$.",
".+#############%%%%%#############$.",
".+###############################$.",
".+###############################$.",
".+###############################$.",
".+###############################$.",
".+###############################$.",
".+###############################$.",
".+###############################$.",
".+###############################$.",
".+###############################$.",
".+###############################$.",
".+###############################$.",
".+###############################$.",
".+###############################$.",
".@$$$$$$$$$$$$$$$$$$$$$$$$$$$$$$$$.",
"..................................."};
