<?xml version="1.0" encoding="UTF-8" standalone="no"?>
<!-- Created with Inkscape (http://www.inkscape.org/) -->

<svg
   xmlns:dc="http://purl.org/dc/elements/1.1/"
   xmlns:cc="http://creativecommons.org/ns#"
   xmlns:rdf="http://www.w3.org/1999/02/22-rdf-syntax-ns#"
   xmlns:svg="http://www.w3.org/2000/svg"
   xmlns="http://www.w3.org/2000/svg"
   xmlns:xlink="http://www.w3.org/1999/xlink"
   xmlns:sodipodi="http://sodipodi.sourceforge.net/DTD/sodipodi-0.dtd"
   xmlns:inkscape="http://www.inkscape.org/namespaces/inkscape"
   width="4.2333336mm"
   height="4.2333336mm"
   viewBox="0 0 4.2333336 4.2333336"
   version="1.1"
   id="svg711"
   inkscape:version="0.92.1 r15371"
   sodipodi:docname="network-wireless-connected-75.svg">
  <defs
     id="defs705">
    <linearGradient
       inkscape:collect="always"
       xlink:href="#linearGradient4249"
       id="linearGradient3233"
       gradientUnits="userSpaceOnUse"
       x1="-208.5"
       y1="221.36218"
       x2="-208.5"
       y2="224.36218" />
    <linearGradient
       id="linearGradient4249">
      <stop
         id="stop4251"
         offset="0"
         style="stop-color:#0d72ff;stop-opacity:1;" />
      <stop
         style="stop-color:#1761ff;stop-opacity:0.78431374;"
         offset="0.47000003"
         id="stop4253" />
      <stop
         id="stop4255"
         offset="0.75125003"
         style="stop-color:#0b8aff;stop-opacity:0.39215687;" />
      <stop
         id="stop4257"
         offset="1"
         style="stop-color:#128aff;stop-opacity:1;" />
    </linearGradient>
    <linearGradient
       inkscape:collect="always"
       xlink:href="#linearGradient4249"
       id="linearGradient3235"
       gradientUnits="userSpaceOnUse"
       gradientTransform="translate(-28.492036,123.45079)"
       x1="-181"
       y1="215.98695"
       x2="-171.21875"
       y2="215.98695" />
    <linearGradient
       inkscape:collect="always"
       xlink:href="#linearGradient4249"
       id="linearGradient3237"
       gradientUnits="userSpaceOnUse"
       gradientTransform="translate(-28.492036,123.45079)"
       x1="-183.4375"
       y1="212.42184"
       x2="-168.75"
       y2="212.42184" />
  </defs>
  <sodipodi:namedview
     id="base"
     pagecolor="#ffffff"
     bordercolor="#666666"
     borderopacity="1.0"
     inkscape:pageopacity="0.0"
     inkscape:pageshadow="2"
     inkscape:zoom="0.35"
     inkscape:cx="400"
     inkscape:cy="560"
     inkscape:document-units="mm"
     inkscape:current-layer="layer1"
     showgrid="false" />
  <metadata
     id="metadata708">
    <rdf:RDF>
      <cc:Work
         rdf:about="">
        <dc:format>image/svg+xml</dc:format>
        <dc:type
           rdf:resource="http://purl.org/dc/dcmitype/StillImage" />
        <dc:title></dc:title>
      </cc:Work>
    </rdf:RDF>
  </metadata>
  <g
     inkscape:label="Layer 1"
     inkscape:groupmode="layer"
     id="layer1"
     transform="translate(-79.526184,-93.799999)">
    <g
       transform="matrix(0.17638889,0,0,0.17638889,117.72951,36.330208)"
       id="network-wireless-75">
      <rect
         ry="0"
         rx="0"
         y="325.81299"
         x="-216.58578"
         height="24"
         width="24"
         id="rect3195"
         style="opacity:0.01000001;fill:#0961de;fill-opacity:0.00392157;stroke:none" />
      <circle
         r="1.5"
         cy="222.86218"
         cx="-208.5"
         transform="matrix(1.3333333,0,0,1.3333333,73.414214,48.663399)"
         id="path3197"
         style="fill:url(#linearGradient3233);fill-opacity:1;stroke:none" />
      <path
         inkscape:connector-curvature="0"
         id="path3199"
         d="m -204.58579,342.82579 c -1.65685,0 -3,1.34315 -3,3 0,1.65685 1.34315,3 3,3 1.65685,0 3,-1.34315 3,-3 0,-1.65685 -1.34315,-3 -3,-3 z m 0,1 c 1.10457,0 2,0.89543 2,2 0,1.10457 -0.89543,2 -2,2 -1.10457,0 -2,-0.89543 -2,-2 0,-1.10457 0.89543,-2 2,-2 z"
         style="fill:#00003d;fill-opacity:0.74345548;stroke:none" />
      <path
         inkscape:connector-curvature="0"
         style="fill:#00003d;fill-opacity:0.74345548;stroke:none"
         d="m -204.52329,336.82579 c -0.27277,-0.003 -0.54055,0.009 -0.8125,0.0313 -1.69137,0.13821 -3.34029,0.78321 -4.75,1.875 a 0.96790181,0.96790181 0 0 0 -0.1875,1.34375 l 1.21875,1.59375 a 0.96790181,0.96790181 0 0 0 1.375,0.15625 c 1.81409,-1.40497 4.338,-1.37209 6.15625,0.0313 a 0.96790181,0.96790181 0 0 0 1.375,-0.1875 l 1.21875,-1.59375 a 0.96790181,0.96790181 0 0 0 -0.1875,-1.375 c -1.58501,-1.22333 -3.49685,-1.85566 -5.40625,-1.875 z m 0,0.96875 c 1.69724,0.0188 3.39319,0.59206 4.8125,1.6875 l -1.21875,1.59375 c -2.16279,-1.66926 -5.18375,-1.67287 -7.34375,0 l -1.21875,-1.59375 c 1.25998,-0.97583 2.74355,-1.53315 4.25,-1.65625 0.24211,-0.0198 0.47629,-0.0339 0.71875,-0.0313 z"
         id="path3201" />
      <path
         inkscape:connector-curvature="0"
         style="fill:url(#linearGradient3235);fill-opacity:1;stroke:none"
         d="m -205.24204,337.82579 c -1.50645,0.1231 -2.99002,0.68042 -4.25,1.65625 l 1.21875,1.59375 c 2.16,-1.67287 5.18096,-1.66926 7.34375,0 l 1.21875,-1.59375 c -1.62207,-1.25193 -3.59438,-1.81453 -5.53125,-1.65625 z"
         id="path3203" />
      <path
         inkscape:connector-curvature="0"
         style="fill:#00003d;fill-opacity:0.74345548;stroke:none"
         d="m -204.58579,332.82579 c -2.80168,0.002 -5.62782,0.90576 -7.96875,2.71875 a 1.0020514,1.0020514 0 0 0 -0.15625,1.375 l 1.21875,1.59375 a 1.0020514,1.0020514 0 0 0 1.40625,0.1875 c 3.24617,-2.51408 7.72225,-2.53689 10.96875,-0.0313 a 1.0020514,1.0020514 0 0 0 1.40625,-0.15625 l 1.25,-1.5625 a 1.0020514,1.0020514 0 0 0 -0.15625,-1.40625 c -2.34161,-1.80728 -5.16399,-2.72109 -7.96875,-2.71875 z m 0,1 c 2.58933,-0.002 5.18101,0.83077 7.34375,2.5 l -1.25,1.5625 c -3.6046,-2.78202 -8.6188,-2.75683 -12.21875,0.0313 l -1.21875,-1.59375 c 2.15995,-1.67283 4.75442,-2.498 7.34375,-2.5 z"
         id="path3205" />
      <path
         inkscape:connector-curvature="0"
         style="fill:url(#linearGradient3237);fill-opacity:1;stroke:none"
         d="m -204.58579,333.82579 c -2.58933,0.002 -5.1838,0.82717 -7.34375,2.5 l 1.21875,1.59375 c 3.59995,-2.78808 8.61415,-2.81332 12.21875,-0.0313 l 1.25,-1.5625 c -2.16274,-1.66923 -4.75442,-2.50216 -7.34375,-2.5 z"
         id="path3207"
         sodipodi:nodetypes="cccccc" />
      <path
         inkscape:connector-curvature="0"
         style="fill:#00003d;fill-opacity:0.74345548;stroke:none"
         d="m -204.58579,328.85704 c -3.66054,0.003 -7.32129,1.16622 -10.375,3.53125 a 0.97337305,0.97337305 0 0 0 -0.1875,1.375 l 1.21875,1.5625 a 0.97337305,0.97337305 0 0 0 1.375,0.1875 c 4.6925,-3.63423 11.23713,-3.6278 15.9375,0 a 0.97337305,0.97337305 0 0 0 1.375,-0.1875 l 1.21875,-1.59375 a 0.97337305,0.97337305 0 0 0 -0.1875,-1.375 c -3.05882,-2.36083 -6.71722,-3.50305 -10.375,-3.5 z m 0,0.96875 c 3.45243,-0.003 6.89761,1.08687 9.78125,3.3125 l -1.21875,1.59375 c -5.04637,-3.89485 -12.08513,-3.90326 -17.125,0 l -1.21875,-1.5625 c 2.87993,-2.23044 6.32882,-3.34087 9.78125,-3.34375 z"
         id="path3209" />
    </g>
  </g>
</svg>
