/* XPM */
static char * bottom_left_active_xpm[] = {
"16 16 4 1",
" 	c None",
".	c #FFFFFF",
"+	c #5D8BBD",
"@	c #000000",
".++@            ",
".++@            ",
".++@            ",
".++@            ",
".++@            ",
".++@            ",
".++@            ",
".++@            ",
".++@            ",
".++@            ",
".++@            ",
".++@            ",
".++@............",
".+++++++++++++++",
".+++++++++++++++",
"@@@@@@@@@@@@@@@@"};
