/* XPM */
static char * shade_active_xpm[] = {
"15 25 4 1",
" 	c None",
".	c #5D8BBD",
"+	c #000000",
"@	c #FFFFFF",
"               ",
"               ",
"               ",
"               ",
"               ",
"...............",
".+++++++++++++.",
".+@@@@@@@@@@@+.",
".+++++++++++++.",
".+...........+.",
".+...........+.",
".+...........+.",
".+...........+.",
".+...........+.",
".+...........+.",
".+...........+.",
".+...........+.",
".+++++++++++++.",
"...............",
"               ",
"               ",
"               ",
"               ",
"               ",
"               "};
