/* XPM */
static char * title_5_active_xpm[] = {
"4 16 4 1",
" 	c None",
".	c #FFFFFF",
"+	c #5D8BBD",
"@	c #000000",
"....",
"++++",
"++++",
"++++",
"++++",
"++++",
"++++",
"++++",
"++++",
"++++",
"++++",
"++++",
"++++",
"++++",
"++++",
"@@@@"};
