/* XPM */
static char * maximize_toggled_active_traditional_35p_xpm[] = {
"27 27 7 1",
" 	c None",
".	c #ffffff",
"+	c #10130d",
"@	c #c5c8c2",
"#	c #656862",
"$	c #5d5f5c",
"%	c #000000",
"..........................+",
".@@@@@@@@@@@@@@@@@@@@@@@@#+",
".@@@@@@@@@@@$$@@@@@@@@@@@#+",
".@@@@@@@@@@$%%$@@@@@@@@@@#+",
".@@@@@@@@@$%%%%$@@@@@@@@@#+",
".@@@@@@@@$%%%%%%$@@@@@@@@#+",
".@@@@@@@$%%%$$%%%$@@@@@@@#+",
".@@@@@@$%%%$@@$%%%$@@@@@@#+",
".@@@@@$%%%$@@@@$%%%$@@@@@#+",
".@@@@$%%%$@@@@@@$%%%$@@@@#+",
".@@@$%%%$@@@@@@@@$%%%$@@@#+",
".@@$%%%$@@@@@@@@@@$%%%$@@#+",
".@$%%%$@@@@@@@@@@@@$%%%$@#+",
".@$%%%$@@@@@@@@@@@@$%%%$@#+",
".@@$%%%$@@@@@@@@@@$%%%$@@#+",
".@@@$%%%$@@@@@@@@$%%%$@@@#+",
".@@@@$%%%$@@@@@@$%%%$@@@@#+",
".@@@@@$%%%$@@@@$%%%$@@@@@#+",
".@@@@@@$%%%$@@$%%%$@@@@@@#+",
".@@@@@@@$%%%$$%%%$@@@@@@@#+",
".@@@@@@@@$%%%%%%$@@@@@@@@#+",
".@@@@@@@@@$%%%%$@@@@@@@@@#+",
".@@@@@@@@@@$%%$@@@@@@@@@@#+",
".@@@@@@@@@@@$$@@@@@@@@@@@#+",
".@@@@@@@@@@@@@@@@@@@@@@@@#+",
".#########################+",
"+++++++++++++++++++++++++++"};
