/* XPM */
static char * top_left_active_traditional_35p_xpm[] = {
"4 35 6 1",
" 	c None",
".	c #390000",
"+	c #ffff55",
"@	c #e3aa00",
"#	c #40A740",
"$	c #b87f00",
"....",
".+++",
".+@@",
".+@@",
".+@@",
".+@@",
".+@@",
".+@@",
".+@@",
".+@@",
".+@@",
".+@@",
".+@@",
".+@@",
".+@@",
".+@@",
".+@@",
".+@@",
".+@@",
".+@@",
".+@@",
".+@@",
".+@@",
".+@@",
".+@@",
".+@@",
".+@@",
".+@@",
".+@@",
".+@@",
".+@@",
".+@@",
".+@@",
".#$$",
"...."};
